89148000003298338802,active,1
89148000003389245593,active,2
89148000003422525662,active,3
89148000003422527072,active,4
89148000003422527882,active,5
89148000003422528484,active,6
89148000003422528823,active,7
89148000003422531900,active,8
89148000003422532262,active,9
89148000003422532890,active,10
89148000003422535505,active,11
89148000003422535869,active,12
89148000003422537154,active,13
89148000003422539093,active,14
89148000003422540224,active,15
89148000003422617642,active,16
89148000003422618814,active,17
89148000003422620760,active,18
89148000003422623145,active,19
89148000003422665138,active,20
89148000003422667209,active,21
89148000003422667746,active,22
89148000003422669379,active,23
89148000003422672977,active,24
89148000003426563057,active,25
89148000003426586587,active,26
89148000003426621178,active,27
89148000003600655257,active,28
89148000003600658491,active,29
89148000003600665132,active,30
89148000003600666627,active,31
89148000003600667260,active,32
89148000003600671221,active,33
89148000003600671460,active,34
89148000003600672286,active,35
89148000003600672310,active,36
89148000003600672385,active,37
89148000003600723642,active,38
89148000003600724327,active,39
89148000003600724848,active,40
89148000003600725019,active,41
89148000003600727817,active,42
89148000003600728047,active,43
89148000003600728211,active,44
89148000003600728781,active,45
89148000003600732403,active,46
89148000003600733682,active,47
89148000003600739119,active,48
89148000003600739580,active,49
89148000003727508686,active,50
89148000003727531746,active,51
89148000003727531787,active,52
89148000003727533833,active,53
89148000003844844634,active,54
89148000003844846753,active,55
89148000003844847637,active,56
89148000003844848585,active,57
89148000003844851282,active,58
89148000003844851647,active,59
89148000003844851985,active,60
89148000003844854187,active,61
89148000003844854443,active,62
89148000003844855333,active,63
89148000003844859145,active,64
89148000003844859343,active,65
89148000003844871256,active,66
89148000003844872320,active,67
89148000003905803651,active,68
89148000003905804857,active,69
89148000003905809765,active,70
89148000003905810110,active,71
89148000003905810219,active,72
89148000003905810409,active,73
89148000003905832304,active,74
89148000003905836792,active,75
89148000003905844028,active,76
89148000003905844101,active,77
89148000003905846643,active,78
89148000003905848607,active,79
89148000003905849316,active,80
89148000003905850025,active,81
89148000003951130454,active,82
89148000003951137178,active,83
89148000003951137541,active,84
89148000003951138788,active,85
89148000003951139091,active,86
89148000003951139216,active,87
89148000003951139406,active,88
89148000003951160196,active,89
89148000003951160584,active,90
89148000003951160691,active,91
89148000003951161913,active,92
89148000003951165492,active,93
89148000003951168868,active,94
89148000004023186367,active,95
89148000004023188728,active,96
89148000004023188769,active,97
89148000004023190476,active,98
89148000004023313698,active,99
89148000004023313755,active,100
89148000004023314084,active,101
89148000004023314936,active,102
89148000004023317731,active,103
89148000004023319349,active,104
89148000004023354684,active,105
89148000004023356275,active,106
89148000004023356382,active,107
89148000004023357257,active,108
89148000004023357356,active,109
89148000004023358784,active,110
89148000004023360384,active,111
89148000004023360426,active,112
89148000004023360731,active,113
89148000004023382107,active,114
89148000004023411591,active,115
89148000004023411773,active,116
89148000004023411922,active,117
89148000004023416350,active,118
89148000004023418695,active,119
89148000004023421863,active,120
89148000004023422424,active,121
89148000004023423992,active,122
89148000004023428736,active,123
89148000004023428942,active,124
89148000004023429627,active,125
89148000004025580112,active,126
89148000004025608210,active,127
89148000004025610174,active,128
89148000004025610562,active,129
89148000004025613947,active,130
89148000004025614416,active,131
89148000004025614622,active,132
89148000004025617229,active,133
89148000004061215987,active,134
89148000004061216183,active,135
89148000004061218973,active,136
89148000004061219823,active,137
89148000004061221357,active,138
89148000004061222819,active,139
89148000004061223395,active,140
89148000004061223999,active,141
89148000004061225622,active,142
89148000004061266535,active,143
89148000004061271923,active,144
89148000004061271980,active,145
89148000004061275072,active,146
89148000004061275460,active,147
89148000004061275478,active,148
89148000004100426835,active,149
89148000004100428443,active,150
89148000004100428609,active,151
89148000004100429151,active,152
89148000004100429169,active,153
89148000004100430399,active,154
89148000004100432429,active,155
89148000004100433245,active,156
89148000004100434433,active,157
89148000004100548448,active,158
89148000004100550279,active,159
89148000004100552739,active,160
89148000004100555369,active,161
89148000004100600819,active,162
89148000004100603094,active,163
89148000004117066251,active,164
89148000004117066475,active,165
89148000004117068885,active,166
89148000004117072770,active,167
89148000004117191083,active,168
89148000004117192693,active,169
89148000004117265283,active,170
89148000004117266422,active,171
89148000004117268923,active,172
89148000004117269590,active,173
89148000004117270515,active,174
89148000004117273337,active,175
89148000004136882076,active,176
89148000004136882597,active,177
89148000004136883595,active,178
89148000004136885426,active,179
89148000004136885483,active,180
89148000004136897694,active,181
89148000004136898429,active,182
89148000004136902239,active,183
89148000004136905380,active,184
89148000004136905471,active,185
89148000004137017961,active,186
89148000004137018068,active,187
89148000004137018142,active,188
89148000004137018761,active,189
89148000004137022474,active,190
89148000004137024934,active,191
89148000004333496951,active,192
89148000004333498155,active,193
89148000004333499039,active,194
89148000004333499120,active,195
89148000004333510116,active,196
89148000004333512864,active,197
89148000004333518911,active,198
89148000004333526492,active,199
89148000004333530924,active,200
89148000004333533340,active,201
89148000004333534579,active,202
89148000004333535576,active,203
89148000004333538240,active,204
89148000004333541038,active,205
89148000004333541293,active,206
89148000004333545633,active,207
89148000004333545906,active,208
89148000004333547415,active,209
89148000004333549049,active,210
89148000004333553355,active,211
89148000004333555277,active,212
89148000004333556218,active,213
89148000004333557844,active,214
89148000004333570748,active,215
89148000004333573072,active,216
89148000004333575077,active,217
89148000004333576471,active,218
89148000004333577099,active,219
89148000004333577370,active,220
89148000004333577578,active,221
89148000004383090589,active,222
89148000004383117556,active,223
89148000004383122291,active,224
89148000004383125286,active,225
89148000004383126094,active,226
89148000004383130427,active,227
89148000004385778751,active,228
89148000004385779064,active,229
89148000004385780120,active,230
89148000004385780575,active,231
89148000004385782571,active,232
89148000004385784924,active,233
89148000004385898518,active,234
89148000004385900892,active,235
89148000004385901866,active,236
89148000004385902260,active,237
89148000004386008174,active,238
89148000004386008562,active,239
89148000004386013372,active,240
89148000004447320287,active,241
89148000004447322804,active,242
89148000004447332480,active,243
89148000004447333173,active,244
89148000004447333199,active,245
89148000004447334122,active,246
89148000004447336184,active,247
89148000004447343214,active,248
89148000004449571192,active,249
89148000004449577066,active,250
89148000004449577322,active,251
89148000004449578478,active,252
89148000004449691685,active,253
89148000004449809766,active,254
89148000004449811937,active,255
89148000004449819195,active,256
89148000004529830880,active,257
89148000004529831805,active,258
89148000004529834452,active,259
89148000004529836796,active,260
89148000004530011140,active,261
89148000004575828804,active,262
89148000004575829539,active,263
89148000004575885077,active,264
89148000004575885374,active,265
89148000004575885572,active,266
89148000004575886240,active,267
89148000004575891067,active,268
89148000004576006475,active,269
89148000004620007263,active,270
89148000004620008790,active,271
89148000004620008915,active,272
89148000004706562983,active,273
89148000004706566257,active,274
89148000004706618355,active,275
89148000004706624924,active,276
89148000004706624973,active,277
89148000004706678102,active,278
89148000004706682484,active,279
89148000004706684746,active,280
89148000004786016132,active,281
89148000004786016207,active,282
89148000004786016553,active,283
89148000004786017080,active,284
89148000004786017106,active,285
89148000004786017114,active,286
89148000004786017122,active,287
89148000004786017130,active,288
89148000004786017148,active,289
89148000004786017155,active,290
89148000004786017163,active,291
89148000004786017171,active,292
89148000004786017189,active,293
89148000004786017197,active,294
89148000004786017205,active,295
89148000004786017213,active,296
89148000004786017221,active,297
89148000004786017239,active,298
89148000004786017247,active,299
89148000004786017254,active,300
89148000004786017262,active,301
89148000004786017270,active,302
89148000004786017288,active,303
89148000004786017296,active,304
89148000004786017304,active,305
89148000004786017312,active,306
89148000004786017320,active,307
89148000004786017338,active,308
89148000004786017346,active,309
89148000004786017353,active,310
89148000004786017361,active,311
89148000004786017379,active,312
89148000004786017387,active,313
89148000004786017395,active,314
89148000004786017601,active,315
89148000004786017643,active,316
89148000004786017668,active,317
89148000004786017973,active,318
89148000004786019102,active,319
89148000004786019110,active,320
89148000004786019128,active,321
89148000004786019136,active,322
89148000004786019144,active,323
89148000004786019151,active,324
89148000004786019169,active,325
89148000004786019177,active,326
89148000004786019185,active,327
89148000004786019193,active,328
89148000004786019201,active,329
89148000004786019219,active,330
89148000004786019227,active,331
89148000004786019235,active,332
89148000004786019243,active,333
89148000004786019250,active,334
89148000004786019268,active,335
89148000004786019276,active,336
89148000004786019284,active,337
89148000004786019292,active,338
89148000004786019300,active,339
89148000004786019318,active,340
89148000004786019326,active,341
89148000004786019334,active,342
89148000004786019342,active,343
89148000004786019359,active,344
89148000004786019367,active,345
89148000004786019375,active,346
89148000004786019383,active,347
89148000004786019391,active,348
89148000004786019409,active,349
89148000004786019417,active,350
89148000004786019425,active,351
89148000004786019433,active,352
89148000004786019441,active,353
89148000004786019458,active,354
89148000004786019466,active,355
89148000004786019474,active,356
89148000004786019482,active,357
89148000004786019490,active,358
89148000004786019508,active,359
89148000004786019516,active,360
89148000004786019524,active,361
89148000004786019532,active,362
89148000004786019540,active,363
89148000004786019557,active,364
89148000004786019565,active,365
89148000004786019573,active,366
89148000004786019581,active,367
89148000004786019599,active,368
89148000004786019607,active,369
89148000004786019615,active,370
89148000004786019623,active,371
89148000004786019631,active,372
89148000004786019649,active,373
89148000004786019656,active,374
89148000004786019664,active,375
89148000004786019672,active,376
89148000004786019680,active,377
89148000004786019698,active,378
89148000004786019706,active,379
89148000004786019714,active,380
89148000004786019722,active,381
89148000004786019730,active,382
89148000004786019748,active,383
89148000004786019755,active,384
89148000004786019763,active,385
89148000004786019771,active,386
89148000004786019789,active,387
89148000004786019797,active,388
89148000004786019805,active,389
89148000004786019813,active,390
89148000004786019821,active,391
89148000004786019839,active,392
89148000004786019847,active,393
89148000004786019854,active,394
89148000004786019862,active,395
89148000004786019870,active,396
89148000004786019888,active,397
89148000004786019896,active,398
89148000004786019904,active,399
89148000004786019912,active,400
89148000004786019920,active,401
89148000004786019938,active,402
89148000004786019946,active,403
89148000004786019953,active,404
89148000004786019961,active,405
89148000004786019979,active,406
89148000004786019987,active,407
89148000004786019995,active,408
89148000004786020001,active,409
89148000004786020019,active,410
89148000004786020027,active,411
89148000004786020035,active,412
89148000004786020043,active,413
89148000004786020050,active,414
89148000004786020068,active,415
89148000004786020076,active,416
89148000004786020084,active,417
89148000004786020092,active,418
89148000004786020100,active,419
89148000004786020118,active,420
89148000004786020126,active,421
89148000004786020134,active,422
89148000004786020142,active,423
89148000004786020159,active,424
89148000004786020167,active,425
89148000004786020175,active,426
89148000004786020183,active,427
89148000004786020191,active,428
89148000004786020209,active,429
89148000004786020217,active,430
89148000004786020225,active,431
89148000004786020233,active,432
89148000004786020241,active,433
89148000004786020258,active,434
89148000004786020266,active,435
89148000004786020274,active,436
89148000004786020282,active,437
89148000004786020290,active,438
89148000004786020308,active,439
89148000004786020316,active,440
89148000004786020324,active,441
89148000004786020332,active,442
89148000004786020340,active,443
89148000004786020357,active,444
89148000004786020365,active,445
89148000004786020373,active,446
89148000004786020381,active,447
89148000004786020399,active,448
89148000004786020407,active,449
89148000004786020415,active,450
89148000004786020449,active,451
89148000004786020456,active,452
89148000004786020464,active,453
89148000004786020472,active,454
89148000004786020480,active,455
89148000004786020498,active,456
89148000004786020506,active,457
89148000004786020514,active,458
89148000004786020522,active,459
89148000004786020530,active,460
89148000004786020548,active,461
89148000004786020555,active,462
89148000004786020589,active,463
89148000004786020597,active,464
89148000004786020605,active,465
89148000004786020613,active,466
89148000004786020621,active,467
89148000004786020639,active,468
89148000004786020647,active,469
89148000004786020654,active,470
89148000004786020662,active,471
89148000004786020670,active,472
89148000004786020688,active,473
89148000004786020696,active,474
89148000004786020704,active,475
89148000004786020712,active,476
89148000004786020720,active,477
89148000004786020746,active,478
89148000004786020761,active,479
89148000004786020779,active,480
89148000004786020787,active,481
89148000004786020795,active,482
89148000004786020803,active,483
89148000004786020811,active,484
89148000004786020829,active,485
89148000004786020837,active,486
89148000004786020845,active,487
89148000004786020852,active,488
89148000004786020860,active,489
89148000004786020878,active,490
89148000004786020886,active,491
89148000004786020894,active,492
89148000004786020902,active,493
89148000004786020910,active,494
89148000004786020928,active,495
89148000004786020936,active,496
89148000004786020944,active,497
89148000004786020951,active,498
89148000004786020969,active,499
89148000004786020977,active,500
89148000004786020985,active,501
89148000004786020993,active,502
89148000004786021009,active,503
89148000004786021017,active,504
89148000004786021025,active,505
89148000004786021033,active,506
89148000004786021041,active,507
89148000004786021058,active,508
89148000004786021066,active,509
89148000004786021074,active,510
89148000004786021082,active,511
89148000004786021090,active,512
89148000004786021124,active,513
89148000004786021173,active,514
89148000004786022114,active,515
89148000004786022387,active,516
89148000004786022460,active,517
89148000004786022544,active,518
89148000004786022585,active,519
89148000004786022668,active,520
89148000004786022767,active,521
89148000004786023195,active,522
89148000004786023781,active,523
89148000004786023823,active,524
89148000004786023849,active,525
89148000004786024078,active,526
89148000004786025422,active,527
89148000004786025505,active,528
89148000004786025760,active,529
89148000004786026040,active,530
89148000004786076219,active,531
89148000004786076458,active,532
89148000004786076573,active,533
89148000004786076649,active,534
89148000004786076656,active,535
89148000004786076854,active,536
89148000004786077290,active,537
89148000004786077522,active,538
89148000004786077571,active,539
89148000004786077589,active,540
89148000004786077605,active,541
89148000004786077662,active,542
89148000004786077910,active,543
89148000004786077985,active,544
89148000004786078009,active,545
89148000004786078637,active,546
89148000004786078751,active,547
89148000004786079080,active,548
89148000004786080963,active,549
89148000004786081896,active,550
89148000004786083777,active,551
89148000004786084494,active,552
89148000004786084767,active,553
89148000004786084809,active,554
89148000004786084866,active,555
89148000004786084882,active,556
89148000004786084999,active,557
89148000004786085913,active,558
89148000004786156110,active,559
89148000004786156144,active,560
89148000004786156151,active,561
89148000004786156391,active,562
89148000004786157571,active,563
89148000004786157746,active,564
89148000004786157761,active,565
89148000004786157795,active,566
89148000004786157811,active,567
89148000004786158462,active,568
89148000004786158678,active,569
89148000004786158694,active,570
89148000004786158835,active,571
89148000004786159643,active,572
89148000004786160138,active,573
89148000004786160799,active,574
89148000004786160849,active,575
89148000004786161086,active,576
89148000004786161300,active,577
89148000004786161318,active,578
89148000004786161326,active,579
89148000004786161334,active,580
89148000004786161342,active,581
89148000004786161359,active,582
89148000004786161367,active,583
89148000004786161375,active,584
89148000004786161383,active,585
89148000004786161391,active,586
89148000004786161409,active,587
89148000004786161417,active,588
89148000004786161433,active,589
89148000004786161441,active,590
89148000004786161458,active,591
89148000004786161466,active,592
89148000004786161474,active,593
89148000004786161482,active,594
89148000004786161490,active,595
89148000004786161508,active,596
89148000004786161516,active,597
89148000004786161524,active,598
89148000004786161532,active,599
89148000004786161540,active,600
89148000004786161557,active,601
89148000004786161565,active,602
89148000004786161573,active,603
89148000004786161581,active,604
89148000004786161599,active,605
89148000004786161607,active,606
89148000004786161615,active,607
89148000004786161623,active,608
89148000004786161631,active,609
89148000004786161649,active,610
89148000004786161656,active,611
89148000004786161664,active,612
89148000004786161672,active,613
89148000004786161680,active,614
89148000004786161698,active,615
89148000004786161706,active,616
89148000004786161714,active,617
89148000004786161722,active,618
89148000004786161730,active,619
89148000004786161748,active,620
89148000004786161755,active,621
89148000004786161763,active,622
89148000004786161771,active,623
89148000004786161789,active,624
89148000004786161797,active,625
89148000004786161805,active,626
89148000004786161813,active,627
89148000004786161821,active,628
89148000004786161839,active,629
89148000004786161847,active,630
89148000004786161854,active,631
89148000004786161862,active,632
89148000004786161870,active,633
89148000004786161888,active,634
89148000004786161896,active,635
89148000004786161938,active,636
89148000004786162100,active,637
89148000004786162118,active,638
89148000004786162126,active,639
89148000004786162134,active,640
89148000004786162142,active,641
89148000004786162159,active,642
89148000004786162167,active,643
89148000004786162175,active,644
89148000004786162183,active,645
89148000004786162191,active,646
89148000004786162209,active,647
89148000004786162217,active,648
89148000004786162225,active,649
89148000004786162233,active,650
89148000004786162241,active,651
89148000004786162258,active,652
89148000004786162266,active,653
89148000004786162274,active,654
89148000004786162282,active,655
89148000004786162290,active,656
89148000004786162308,active,657
89148000004786162316,active,658
89148000004786162324,active,659
89148000004786162332,active,660
89148000004786162340,active,661
89148000004786162357,active,662
89148000004786162365,active,663
89148000004786162373,active,664
89148000004786162381,active,665
89148000004786162399,active,666
89148000004786162407,active,667
89148000004786162415,active,668
89148000004786162423,active,669
89148000004786162431,active,670
89148000004786162449,active,671
89148000004786162456,active,672
89148000004786162464,active,673
89148000004786162472,active,674
89148000004786162480,active,675
89148000004786162498,active,676
89148000004786162506,active,677
89148000004786162514,active,678
89148000004786162522,active,679
89148000004786162530,active,680
89148000004786162548,active,681
89148000004786162555,active,682
89148000004786162563,active,683
89148000004786162571,active,684
89148000004786162589,active,685
89148000004786162597,active,686
89148000004786162605,active,687
89148000004786162613,active,688
89148000004786162621,active,689
89148000004786162639,active,690
89148000004786162647,active,691
89148000004786162654,active,692
89148000004786162662,active,693
89148000004786162670,active,694
89148000004786162688,active,695
89148000004786162696,active,696
89148000004786162704,active,697
89148000004786162712,active,698
89148000004786162720,active,699
89148000004786162738,active,700
89148000004786162746,active,701
89148000004786162753,active,702
89148000004786162761,active,703
89148000004786162779,active,704
89148000004786162787,active,705
89148000004786162795,active,706
89148000004786162803,active,707
89148000004786162811,active,708
89148000004786162829,active,709
89148000004786162837,active,710
89148000004786162845,active,711
89148000004786162852,active,712
89148000004786162860,active,713
89148000004786162878,active,714
89148000004786162886,active,715
89148000004786162894,active,716
89148000004786162902,active,717
89148000004786162910,active,718
89148000004786162928,active,719
89148000004786162936,active,720
89148000004786162944,active,721
89148000004786162951,active,722
89148000004786162969,active,723
89148000004786162977,active,724
89148000004786162985,active,725
89148000004786162993,active,726
89148000004786163009,active,727
89148000004786163017,active,728
89148000004786163025,active,729
89148000004786163033,active,730
89148000004786163041,active,731
89148000004786163058,active,732
89148000004786163066,active,733
89148000004786163074,active,734
89148000004786163082,active,735
89148000004786163090,active,736
89148000004786163181,active,737
89148000004786164395,active,738
89148000004786165103,active,739
89148000004786165111,active,740
89148000004786165129,active,741
89148000004786165137,active,742
89148000004786165145,active,743
89148000004786165152,active,744
89148000004786165160,active,745
89148000004786165178,active,746
89148000004786165186,active,747
89148000004786165194,active,748
89148000004786165202,active,749
89148000004786165210,active,750
89148000004786165228,active,751
89148000004786165236,active,752
89148000004786165244,active,753
89148000004786165251,active,754
89148000004786165269,active,755
89148000004786165277,active,756
89148000004786165285,active,757
89148000004786165293,active,758
89148000004786165319,active,759
89148000004786165327,active,760
89148000004786165335,active,761
89148000004786165343,active,762
89148000004786165350,active,763
89148000004786165368,active,764
89148000004786165376,active,765
89148000004786165384,active,766
89148000004786165392,active,767
89148000004786165426,active,768
89148000004786165434,active,769
89148000004786165442,active,770
89148000004786165459,active,771
89148000004786165467,active,772
89148000004786165483,active,773
89148000004786165491,active,774
89148000004786165509,active,775
89148000004786165517,active,776
89148000004786165525,active,777
89148000004786165533,active,778
89148000004786165541,active,779
89148000004786165558,active,780
89148000004786165566,active,781
89148000004786165574,active,782
89148000004786165582,active,783
89148000004786165590,active,784
89148000004786165608,active,785
89148000004786165616,active,786
89148000004786165624,active,787
89148000004786165632,active,788
89148000004786165640,active,789
89148000004786165657,active,790
89148000004786165665,active,791
89148000004786165673,active,792
89148000004786165681,active,793
89148000004786165699,active,794
89148000004786165707,active,795
89148000004786165715,active,796
89148000004786165723,active,797
89148000004786165731,active,798
89148000004786165749,active,799
89148000004786165756,active,800
89148000004786165764,active,801
89148000004786165772,active,802
89148000004786165780,active,803
89148000004786165798,active,804
89148000004786165806,active,805
89148000004786165814,active,806
89148000004786165822,active,807
89148000004786165830,active,808
89148000004786165848,active,809
89148000004786165855,active,810
89148000004786165863,active,811
89148000004786165871,active,812
89148000004786165889,active,813
89148000004786165897,active,814
89148000004786165905,active,815
89148000004786165913,active,816
89148000004786165921,active,817
89148000004786165939,active,818
89148000004786165947,active,819
89148000004786165954,active,820
89148000004786165962,active,821
89148000004786165970,active,822
89148000004786165988,active,823
89148000004786165996,active,824
89148000004786166002,active,825
89148000004786166010,active,826
89148000004786166028,active,827
89148000004786166036,active,828
89148000004786166044,active,829
89148000004786166051,active,830
89148000004786166069,active,831
89148000004786166077,active,832
89148000004786166085,active,833
89148000004786166093,active,834
89148000004786548480,active,835
89148000004786549967,active,836
89148000004786550304,active,837
89148000004786552474,active,838
89148000004786607583,active,839
89148000004786607815,active,840
89148000004786666753,active,841
89148000004786668890,active,842
89148000004786670383,active,843
89148000004953994848,active,844
89148000004953995118,active,845
89148000004953996280,active,846
89148000004972657756,active,847
89148000004972658242,active,848
89148000004972664992,active,849
89148000004972665742,active,850
89148000004972709441,active,851
89148000004972710381,active,852
89148000004972715554,active,853
89148000004972716974,active,854
89148000004972717154,active,855
89148000004972717402,active,856
89148000004972717444,active,857
89148000004972718137,active,858
89148000004972719200,active,859
89148000004972719895,active,860
89148000004972720331,active,861
89148000004972720802,active,862
89148000004972721016,active,863
89148000004972725975,active,864
89148000004972786142,active,865
89148000004972827953,active,866
89148000004972828167,active,867
89148000004972828894,active,868
89148000004972832243,active,869
89148000004972832573,active,870
89148000004972889706,active,871
89148000004972889813,active,872
89148000004972891579,active,873
89148000004972892411,active,874
89148000004972894110,active,875
89148000004972894128,active,876
89148000004972894284,active,877
89148000004972894540,active,878
89148000004972894664,active,879
89148000004972894730,active,880
89148000004972894763,active,881
89148000004972894771,active,882
89148000004972894789,active,883
89148000004972894797,active,884
89148000004972894805,active,885
89148000004972894813,active,886
89148000004972894839,active,887
89148000004972894847,active,888
89148000004972894854,active,889
89148000004972894912,active,890
89148000004972894953,active,891
89148000004972894979,active,892
89148000004972894987,active,893
89148000004972895000,active,894
89148000004972895026,active,895
89148000004972895042,active,896
89148000004972895059,active,897
89148000004972895083,active,898
89148000004972895109,active,899
89148000004972895182,active,900
89148000004972897683,active,901
89148000004972899796,active,902
89148000004972901584,active,903
89148000004972902228,active,904
89148000004972902376,active,905
89148000004972903945,active,906
89148000004972952264,active,907
89148000004972953874,active,908
89148000004972955218,active,909
89148000005186388781,active,910
89148000005186392957,active,911
89148000005186394847,active,912
89148000005186401568,active,913
89148000005186402798,active,914
89148000005186405866,active,915
89148000005186409926,active,916
89148000005186413365,active,917
89148000005186416335,active,918
89148000005186419271,active,919
89148000005186437398,active,920
89148000005186437794,active,921
89148000005186443842,active,922
89148000005501715304,active,923
89148000005501718027,active,924
89148000005501718753,active,925
89148000005501724447,active,926
89148000005501730766,active,927
89148000005501731798,active,928
89148000005501740336,active,929
89148000005501741656,active,930
89148000005501741847,active,931
89148000005501741888,active,932
89148000005501741979,active,933
89148000005501742597,active,934
89148000005501749741,active,935
89148000005501749774,active,936
89148000005501749816,active,937
89148000005501749832,active,938
89148000005501750319,active,939
89148000005501750368,active,940
89148000005501755102,active,941
89148000005501755722,active,942
89148000005501760532,active,943
89148000005501765341,active,944
89148000005501767180,active,945
89148000005501775597,active,946
89148000005506328004,active,947
89148000005506328434,active,948
89148000005506328517,active,949
89148000005506328525,active,950
89148000005506334812,active,951
89148000005506337807,active,952
89148000005506338326,active,953
89148000005506349240,active,954
89148000005506349885,active,955
89148000005506350289,active,956
89148000005506352194,active,957
89148000005506352285,active,958
89148000005506352418,active,959
89148000005506352897,active,960
89148000005506355072,active,961
89148000005506357557,active,962
89148000005506359868,active,963
89148000005506360098,active,964
89148000005506360338,active,965
89148000005506360486,active,966
89148000005506360908,active,967
89148000005506362037,active,968
89148000005506364041,active,969
89148000005506364116,active,970
89148000005506364439,active,971
89148000005506365394,active,972
89148000005506367747,active,973
89148000005506367895,active,974
89148000005506367945,active,975
89148000005506368018,active,976
89148000005506368125,active,977
89148000005506371442,active,978
89148000005506373141,active,979
89148000005506373695,active,980
89148000005506375435,active,981
89148000005655731008,active,982
89148000005655732246,active,983
89148000005655736767,active,984
89148000005655739324,active,985
89148000005655743763,active,986
89148000005655748978,active,987
89148000005655756203,active,988
89148000005655758746,active,989
89148000005655759645,active,990
89148000005655760270,active,991
89148000005655761732,active,992
89148000005655761971,active,993
89148000005655767663,active,994
89148000005655770741,active,995
89148000005655771756,active,996
89148000005655772796,active,997
89148000005655778421,active,998
89148000005655779254,active,999
89148000005655786986,active,1000
89148000005655788651,active,1001
89148000005655789402,active,1002
89148000005655792265,active,1003
89148000005655800878,active,1004
89148000005655801785,active,1005
89148000005655808186,active,1006
89148000005655809754,active,1007
89148000005655815751,active,1008
89148000005655816346,active,1009
89148000005655825917,active,1010
89148000005655826048,active,1011
89148000005655826873,active,1012
89148000005655828796,active,1013
89148000005655828978,active,1014
89148000005655830172,active,1015
89148000005688346402,active,1016
89148000005688348317,active,1017
89148000005688348333,active,1018
89148000005688348358,active,1019
89148000005688348366,active,1020
89148000005688348374,active,1021
89148000005688348390,active,1022
89148000005688348408,active,1023
89148000005688348424,active,1024
89148000005688348432,active,1025
89148000005688351311,active,1026
89148000005688351824,active,1027
89148000005688351881,active,1028
89148000005688353168,active,1029
89148000005688353200,active,1030
89148000005688353226,active,1031
89148000005688353267,active,1032
89148000005688353291,active,1033
89148000005688353309,active,1034
89148000005688353440,active,1035
89148000005688353473,active,1036
89148000005688353481,active,1037
89148000005688353499,active,1038
89148000005688353507,active,1039
89148000005688353671,active,1040
89148000005688353697,active,1041
89148000005688353721,active,1042
89148000005688353739,active,1043
89148000005688353754,active,1044
89148000005688353770,active,1045
89148000005688353804,active,1046
89148000005688353846,active,1047
89148000005688353853,active,1048
89148000005688353861,active,1049
89148000005688353887,active,1050
89148000005688353895,active,1051
89148000005688353945,active,1052
89148000005688353986,active,1053
89148000005688354000,active,1054
89148000005688354042,active,1055
89148000005688354075,active,1056
89148000005688354083,active,1057
89148000005688354133,active,1058
89148000005688469154,active,1059
89148000005688469162,active,1060
89148000005688469170,active,1061
89148000005688469188,active,1062
89148000005688469196,active,1063
89148000005688469204,active,1064
89148000005688469212,active,1065
89148000005688469220,active,1066
89148000005688469238,active,1067
89148000005688469246,active,1068
89148000005688469253,active,1069
89148000005688469261,active,1070
89148000005688469279,active,1071
89148000005688469287,active,1072
89148000005688469295,active,1073
89148000005688469303,active,1074
89148000005688469311,active,1075
89148000005688469329,active,1076
89148000005688469337,active,1077
89148000005688469345,active,1078
89148000005688469352,active,1079
89148000005688469360,active,1080
89148000005688469378,active,1081
89148000005688469386,active,1082
89148000005688469394,active,1083
89148000005688469402,active,1084
89148000005688469410,active,1085
89148000005688469428,active,1086
89148000005688469436,active,1087
89148000005688469444,active,1088
89148000005688469451,active,1089
89148000005688469469,active,1090
89148000005688469477,active,1091
89148000005688469485,active,1092
89148000005688469493,active,1093
89148000005688469501,active,1094
89148000005688469519,active,1095
89148000005688469527,active,1096
89148000005688469535,active,1097
89148000005688469543,active,1098
89148000005688469568,active,1099
89148000005688469576,active,1100
89148000005688469584,active,1101
89148000005688469592,active,1102
89148000005688469600,active,1103
89148000005688469618,active,1104
89148000005688469626,active,1105
89148000005688469634,active,1106
89148000005688469642,active,1107
89148000005688469659,active,1108
89148000005688469667,active,1109
89148000005688469675,active,1110
89148000005688469683,active,1111
89148000005688469691,active,1112
89148000005688469709,active,1113
89148000005688469717,active,1114
89148000005688469725,active,1115
89148000005688469733,active,1116
89148000005688469741,active,1117
89148000005688469758,active,1118
89148000005688469766,active,1119
89148000005688469774,active,1120
89148000005688469782,active,1121
89148000005688469790,active,1122
89148000005688469808,active,1123
89148000005688469816,active,1124
89148000005688469824,active,1125
89148000005688469832,active,1126
89148000005688469840,active,1127
89148000005688469857,active,1128
89148000005688469865,active,1129
89148000005688469873,active,1130
89148000005688469881,active,1131
89148000005688469899,active,1132
89148000005688469907,active,1133
89148000005688469915,active,1134
89148000005688469923,active,1135
89148000005688469931,active,1136
89148000005688469949,active,1137
89148000005688469956,active,1138
89148000005688469964,active,1139
89148000005688469972,active,1140
89148000005688469980,active,1141
89148000005688470004,active,1142
89148000005688470012,active,1143
89148000005688470020,active,1144
89148000005688470038,active,1145
89148000005688470046,active,1146
89148000005688470053,active,1147
89148000005688470061,active,1148
89148000005688470079,active,1149
89148000005688470087,active,1150
89148000005688470095,active,1151
89148000005688470103,active,1152
89148000005688470111,active,1153
89148000005688470129,active,1154
89148000005688470137,active,1155
89148000005688470145,active,1156
89148000005688470152,active,1157
89148000005688470160,active,1158
89148000005688470178,active,1159
89148000005688470186,active,1160
89148000005688470194,active,1161
89148000005688470202,active,1162
89148000005688470210,active,1163
89148000005688470228,active,1164
89148000005688470236,active,1165
89148000005688470244,active,1166
89148000005688470251,active,1167
89148000005688470269,active,1168
89148000005688470277,active,1169
89148000005688470285,active,1170
89148000005688470293,active,1171
89148000005688470301,active,1172
89148000005688470319,active,1173
89148000005688470327,active,1174
89148000005688470335,active,1175
89148000005688470350,active,1176
89148000005688470368,active,1177
89148000005688470384,active,1178
89148000005688470392,active,1179
89148000005688470400,active,1180
89148000005688470418,active,1181
89148000005688470426,active,1182
89148000005688470434,active,1183
89148000005688470442,active,1184
89148000005688470459,active,1185
89148000005688470467,active,1186
89148000005688470475,active,1187
89148000005688470483,active,1188
89148000005688470491,active,1189
89148000005688470509,active,1190
89148000005688470517,active,1191
89148000005688470525,active,1192
89148000005688470533,active,1193
89148000005688470541,active,1194
89148000005688470558,active,1195
89148000005688470566,active,1196
89148000005688470574,active,1197
89148000005688470582,active,1198
89148000005688470590,active,1199
89148000005688470608,active,1200
89148000005688470616,active,1201
89148000005688470624,active,1202
89148000005688470632,active,1203
89148000005688470640,active,1204
89148000005688470657,active,1205
89148000005688470665,active,1206
89148000005688470673,active,1207
89148000005688470681,active,1208
89148000005688470699,active,1209
89148000005688470715,active,1210
89148000005688470723,active,1211
89148000005688470731,active,1212
89148000005688470749,active,1213
89148000005688470756,active,1214
89148000005688470764,active,1215
89148000005688470772,active,1216
89148000005688470780,active,1217
89148000005688470798,active,1218
89148000005688470806,active,1219
89148000005688470814,active,1220
89148000005688470822,active,1221
89148000005688470830,active,1222
89148000005688470848,active,1223
89148000005688470855,active,1224
89148000005688470863,active,1225
89148000005688470871,active,1226
89148000005688470889,active,1227
89148000005688470897,active,1228
89148000005688470905,active,1229
89148000005688470913,active,1230
89148000005688470921,active,1231
89148000005688470939,active,1232
89148000005688470947,active,1233
89148000005688470954,active,1234
89148000005688470962,active,1235
89148000005688470970,active,1236
89148000005688470988,active,1237
89148000005688470996,active,1238
89148000005688471002,active,1239
89148000005688471010,active,1240
89148000005688471028,active,1241
89148000005688471036,active,1242
89148000005688471044,active,1243
89148000005688471051,active,1244
89148000005688471069,active,1245
89148000005688471077,active,1246
89148000005688471085,active,1247
89148000005688471093,active,1248
89148000005688471101,active,1249
89148000005688471119,active,1250
89148000005688471127,active,1251
89148000005688471135,active,1252
89148000005688471143,active,1253
89148000005688473156,active,1254
89148000005688473164,active,1255
89148000005688473180,active,1256
89148000005688473198,active,1257
89148000005688473487,active,1258
89148000005688473503,active,1259
89148000005688473511,active,1260
89148000005688473610,active,1261
89148000005688473628,active,1262
89148000005688473644,active,1263
89148000005688473651,active,1264
89148000005688473685,active,1265
89148000005688473727,active,1266
89148000005688473743,active,1267
89148000005688473776,active,1268
89148000005688473784,active,1269
89148000005688473891,active,1270
89148000005688473909,active,1271
89148000005688473917,active,1272
89148000005688474246,active,1273
89148000005688474253,active,1274
89148000005688474261,active,1275
89148000005688474279,active,1276
89148000005688474287,active,1277
89148000005688474295,active,1278
89148000005688474303,active,1279
89148000005688474311,active,1280
89148000005688474329,active,1281
89148000005688474337,active,1282
89148000005688474345,active,1283
89148000005688474352,active,1284
89148000005688474360,active,1285
89148000005688474378,active,1286
89148000005688474386,active,1287
89148000005688474394,active,1288
89148000005688474402,active,1289
89148000005688474410,active,1290
89148000005688474428,active,1291
89148000005688474436,active,1292
89148000005688474444,active,1293
89148000005688474451,active,1294
89148000005688474469,active,1295
89148000005688474477,active,1296
89148000005688474485,active,1297
89148000005688474493,active,1298
89148000005688474501,active,1299
89148000005688474519,active,1300
89148000005688474527,active,1301
89148000005688474535,active,1302
89148000005688474543,active,1303
89148000005688474550,active,1304
89148000005688474568,active,1305
89148000005688474576,active,1306
89148000005688474584,active,1307
89148000005688474592,active,1308
89148000005688474600,active,1309
89148000005688474618,active,1310
89148000005688474626,active,1311
89148000005688474634,active,1312
89148000005688474642,active,1313
89148000005688474659,active,1314
89148000005688474667,active,1315
89148000005688474675,active,1316
89148000005688474683,active,1317
89148000005688474691,active,1318
89148000005688474709,active,1319
89148000005688474717,active,1320
89148000005688474725,active,1321
89148000005688474733,active,1322
89148000005688474741,active,1323
89148000005688474758,active,1324
89148000005688474782,active,1325
89148000005688474790,active,1326
89148000005688474808,active,1327
89148000005688474816,active,1328
89148000005688474824,active,1329
89148000005688474840,active,1330
89148000005688474857,active,1331
89148000005688474865,active,1332
89148000005688474873,active,1333
89148000005688474881,active,1334
89148000005688474899,active,1335
89148000005688474907,active,1336
89148000005688474915,active,1337
89148000005688474923,active,1338
89148000005688474931,active,1339
89148000005688474949,active,1340
89148000005688474956,active,1341
89148000005688474964,active,1342
89148000005688474972,active,1343
89148000005688474980,active,1344
89148000005688474998,active,1345
89148000005688475011,active,1346
89148000005688475029,active,1347
89148000005688475037,active,1348
89148000005688475045,active,1349
89148000005688475052,active,1350
89148000005688475060,active,1351
89148000005688475078,active,1352
89148000005688475086,active,1353
89148000005688475094,active,1354
89148000005688475102,active,1355
89148000005688475110,active,1356
89148000005688475128,active,1357
89148000005688475136,active,1358
89148000005688475144,active,1359
89148000005688475185,active,1360
89148000005688475193,active,1361
89148000005688475201,active,1362
89148000005688475243,active,1363
89148000005688475268,active,1364
89148000005688475276,active,1365
89148000005688475284,active,1366
89148000005688475292,active,1367
89148000005688475300,active,1368
89148000005688475318,active,1369
89148000005688475326,active,1370
89148000005688475334,active,1371
89148000005688475383,active,1372
89148000005688475391,active,1373
89148000005688475409,active,1374
89148000005688475417,active,1375
89148000005688475425,active,1376
89148000005688475441,active,1377
89148000005688475482,active,1378
89148000005688475490,active,1379
89148000005688475508,active,1380
89148000005688475524,active,1381
89148000005688475532,active,1382
89148000005688475540,active,1383
89148000005688475557,active,1384
89148000005688475565,active,1385
89148000005688475573,active,1386
89148000005688475581,active,1387
89148000005688475599,active,1388
89148000005688475607,active,1389
89148000005688475623,active,1390
89148000005688475631,active,1391
89148000005688475649,active,1392
89148000005688475656,active,1393
89148000005688475664,active,1394
89148000005688475672,active,1395
89148000005688475698,active,1396
89148000005688475722,active,1397
89148000005688475748,active,1398
89148000005688475755,active,1399
89148000005688475763,active,1400
89148000005688475771,active,1401
89148000005688475797,active,1402
89148000005688475805,active,1403
89148000005688475839,active,1404
89148000005688475847,active,1405
89148000005688475888,active,1406
89148000005688475896,active,1407
89148000005688475904,active,1408
89148000005688475938,active,1409
89148000005688475946,active,1410
89148000005688475953,active,1411
89148000005688475961,active,1412
89148000005688475979,active,1413
89148000005688475995,active,1414
89148000005688476001,active,1415
89148000005688476050,active,1416
89148000005688476068,active,1417
89148000005688476076,active,1418
89148000005688476084,active,1419
89148000005688476100,active,1420
89148000005688476118,active,1421
89148000005688476134,active,1422
89148000005688476142,active,1423
89148000005787488733,active,1424
89148000005787488824,active,1425
89148000005787488857,active,1426
89148000005787488865,active,1427
89148000005787488873,active,1428
89148000005787488931,active,1429
89148000005787489087,active,1430
89148000005787489095,active,1431
89148000005787489103,active,1432
89148000005787489111,active,1433
89148000005787489129,active,1434
89148000005787489137,active,1435
89148000005787489145,active,1436
89148000005787489152,active,1437
89148000005787489178,active,1438
89148000005787489186,active,1439
89148000005787489194,active,1440
89148000005787489202,active,1441
89148000005787489236,active,1442
89148000005787489251,active,1443
89148000005787489277,active,1444
89148000005787489301,active,1445
89148000005787489327,active,1446
89148000005787489376,active,1447
89148000005787489384,active,1448
89148000005787489392,active,1449
89148000005787489400,active,1450
89148000005787489418,active,1451
89148000005787489426,active,1452
89148000005787489434,active,1453
89148000005787489442,active,1454
89148000005787489459,active,1455
89148000005787489467,active,1456
89148000005787489475,active,1457
89148000005787489483,active,1458
89148000005787489491,active,1459
89148000005787489509,active,1460
89148000005787489517,active,1461
89148000005787489632,active,1462
89148000005787489806,active,1463
89148000005787489814,active,1464
89148000005787489822,active,1465
89148000005787489830,active,1466
89148000005787489871,active,1467
89148000005787489897,active,1468
89148000005787489954,active,1469
89148000005787489988,active,1470
89148000005787489996,active,1471
89148000005787490002,active,1472
89148000005787490150,active,1473
89148000005787490168,active,1474
89148000005787490267,active,1475
89148000005787490309,active,1476
89148000005787490572,active,1477
89148000005789386877,active,1478
89148000005789400710,active,1479
89148000005789402047,active,1480
89148000005789402104,active,1481
89148000005789402351,active,1482
89148000005789403706,active,1483
89148000005789403714,active,1484
89148000005789403896,active,1485
89148000005789403961,active,1486
89148000005789404837,active,1487
89148000005789406683,active,1488
89148000005789410735,active,1489
89148000005789412210,active,1490
89148000005855415436,active,1491
89148000005855428090,active,1492
89148000005855441564,active,1493
89148000005855441739,active,1494
89148000005855443032,active,1495
89148000005855443040,active,1496
89148000005855443354,active,1497
89148000005855445227,active,1498
89148000005855445938,active,1499
89148000005855446035,active,1500
89148000005855446209,active,1501
89148000005855448890,active,1502
89148000005855458014,active,1503
