activation_threshold .........: 2019-05-25
lastused_threshold ...........: 2019-05-25
deleted_threshold ............: 2020-02-24
activation_threshold_not_found: 2019-05-25
lastused_threshold_not_found .: 2019-05-25
0: "Not found" verizon   A100003E4C7144  3852724944 100.88.12.73 Active
  Activation date ....: 2016-04-19
  Last used date .....: 2018-04-25
  Acct deleted date ..: 
  Account ............: 0 ()
  Usage ..............: 0.000
  Activation threshold: yes
  Last used threshold : yes
  Deleted threshold ..: no
  Deactivate this line: yes

1: "Not found" verizon   A1000049999E1F  3852725750 100.88.14.136 Active
  Activation date ....: 2016-04-19
  Last used date .....: 2018-11-26
  Acct deleted date ..: 
  Account ............: 0 ()
  Usage ..............: 0.000
  Activation threshold: yes
  Last used threshold : yes
  Deleted threshold ..: no
  Deactivate this line: yes

2: "Deleted (2020-01-29)" verizon   A1000049A1EC46  3852727377 100.88.22.241 Active
  Activation date ....: 2016-05-13
  Last used date .....: 2020-01-26
  Acct deleted date ..: 2020-01-29
  Account ............: 449103 (cloud)
  Usage ..............: 0.000
  Activation threshold: yes
  Last used threshold : no
  Deleted threshold ..: yes
  Deactivate this line: yes
Found ipaddress "100.88.22.241" in proxy_id column in snet_changes.
  449103 cloud 2020-01-29 542160101472 NULL 100.88.22.241   NULL
  SELECT id, account_id_new, partner, bureau_id, panel_type, vendor_id, vendor_id_2, proxy_id, imei, iccid, phone_number, deleted_date FROM snet_changes WHERE proxy_id="100.88.22.241"

3: "Deleted (2019-06-26)" verizon   A1000049A1B644  3108036588 100.83.146.211 Active
  Activation date ....: 2019-10-25
  Last used date .....: 2019-06-26
  Acct deleted date ..: 2019-06-26
  Account ............: 438330 (cloud)
  Usage ..............: 0.000
  Activation threshold: no
  Last used threshold : no
  Deleted threshold ..: yes
  Deactivate this line: yes
Found meid "000049A1B644" in vendor_id column in snet_changes.
  438330 cloud 2019-06-26 000049A1B644 NULL 10.8.21.62   NULL
  SELECT id, account_id_new, partner, bureau_id, panel_type, vendor_id, vendor_id_2, proxy_id, imei, iccid, phone_number, deleted_date FROM snet_changes WHERE vendor_id="000049A1B644"

4: "Deleted (2019-05-07)" verizon   A1000049999495  4243605367 100.83.184.34 Active
  Activation date ....: 2019-10-25
  Last used date .....: 2020-04-15
  Acct deleted date ..: 2019-05-07
  Account ............: 434782 (cloud)
  Usage ..............: 0.000
  Activation threshold: no
  Last used threshold : no
  Deleted threshold ..: yes
  Deactivate this line: yes
Found meid "000049999495" in vendor_id column in snet_changes.
  434782 cloud 2019-05-07 000049999495 NULL 10.8.13.95   NULL
  SELECT id, account_id_new, partner, bureau_id, panel_type, vendor_id, vendor_id_2, proxy_id, imei, iccid, phone_number, deleted_date FROM snet_changes WHERE vendor_id="000049999495"

5: "Deleted (2019-10-16)" verizon   A1000042F3F94C  4243691406 100.83.196.126 Active
  Activation date ....: 2019-10-25
  Last used date .....: 2019-07-18
  Acct deleted date ..: 2019-10-16
  Account ............: 435081 (cloud)
  Usage ..............: 0.000
  Activation threshold: no
  Last used threshold : no
  Deleted threshold ..: yes
  Deactivate this line: yes
Found meid "000042F3F94C" in vendor_id column in snet_changes.
  435081 cloud 2019-10-16 000042F3F94C NULL 10.8.5.32   NULL
  SELECT id, account_id_new, partner, bureau_id, panel_type, vendor_id, vendor_id_2, proxy_id, imei, iccid, phone_number, deleted_date FROM snet_changes WHERE vendor_id="000042F3F94C"

6: "Deleted (2020-01-24)" verizon   A10000499984F6  4243833785 100.83.224.41 Active
  Activation date ....: 2019-10-25
  Last used date .....: 2017-07-14
  Acct deleted date ..: 2020-01-24
  Account ............: 431622 (cloud)
  Usage ..............: 0.000
  Activation threshold: no
  Last used threshold : yes
  Deleted threshold ..: yes
  Deactivate this line: yes
Found meid "0000499984F6" in vendor_id column in snet_changes.
  431622 cloud 2020-01-24 0000499984F6 NULL 10.8.8.189   NULL
  SELECT id, account_id_new, partner, bureau_id, panel_type, vendor_id, vendor_id_2, proxy_id, imei, iccid, phone_number, deleted_date FROM snet_changes WHERE vendor_id="0000499984F6"

7: "Deleted (2019-09-25)" verizon   A1000047ADADCA  2197140446 100.88.60.151 Active
  Activation date ....: 2016-10-13
  Last used date .....: 2019-09-25
  Acct deleted date ..: 2019-09-25
  Account ............: 420964 (alder)
  Usage ..............: 0.000
  Activation threshold: yes
  Last used threshold : no
  Deleted threshold ..: yes
  Deactivate this line: yes
Found ipaddress "100.88.60.151" in proxy_id column in snet_changes.
  420964 alder 2019-09-25 472452980170 NULL 100.88.60.151   NULL
  SELECT id, account_id_new, partner, bureau_id, panel_type, vendor_id, vendor_id_2, proxy_id, imei, iccid, phone_number, deleted_date FROM snet_changes WHERE proxy_id="100.88.60.151"

8: "Not found" verizon   A1000049A1F34A  8019467336 100.88.70.212 Active
  Activation date ....: 2016-10-28
  Last used date .....: 2018-09-16
  Acct deleted date ..: 
  Account ............: 0 ()
  Usage ..............: 0.000
  Activation threshold: yes
  Last used threshold : yes
  Deleted threshold ..: no
  Deactivate this line: yes

9: "Deleted (2020-05-01)" verizon   A1000049999435  3857077040 100.88.77.46 Active
  Activation date ....: 2016-11-02
  Last used date .....: 2018-11-06
  Acct deleted date ..: 2020-05-01
  Account ............: 679680 (pa)
  Usage ..............: 0.000
  Activation threshold: yes
  Last used threshold : yes
  Deleted threshold ..: no
  Deactivate this line: yes
Found ipaddress "100.88.77.46" in proxy_id column in snet_changes.
  679680 pa 2020-05-01  NULL 100.88.77.46   NULL
  SELECT id, account_id_new, partner, bureau_id, panel_type, vendor_id, vendor_id_2, proxy_id, imei, iccid, phone_number, deleted_date FROM snet_changes WHERE proxy_id="100.88.77.46"

10: "Deleted (2018-04-04)" verizon   A1000051D01641  5178689027 100.88.83.211 Active
  Activation date ....: 2016-11-03
  Last used date .....: 2020-05-09
  Acct deleted date ..: 2018-04-04
  Account ............: 489205 (cloud)
  Usage ..............: 0.120
  Activation threshold: yes
  Last used threshold : no
  Deleted threshold ..: yes
  Deactivate this line: yes
Found meid "000051D01641" in vendor_id column in snet_changes.
  489205 cloud 2018-04-04 000051D01641 NULL NULL   NULL
  SELECT id, account_id_new, partner, bureau_id, panel_type, vendor_id, vendor_id_2, proxy_id, imei, iccid, phone_number, deleted_date FROM snet_changes WHERE vendor_id="000051D01641"

11: "Deleted (2019-08-02)" verizon   A10000499984ED  3106838271 100.83.145.199 Active
  Activation date ....: 2019-10-25
  Last used date .....: 2019-06-04
  Acct deleted date ..: 2019-08-02
  Account ............: 460279 (cloud)
  Usage ..............: 0.000
  Activation threshold: no
  Last used threshold : no
  Deleted threshold ..: yes
  Deactivate this line: yes
Found meid "0000499984ED" in vendor_id column in snet_changes.
  460279 cloud 2019-08-02 0000499984ED NULL 10.8.27.43   NULL
  SELECT id, account_id_new, partner, bureau_id, panel_type, vendor_id, vendor_id_2, proxy_id, imei, iccid, phone_number, deleted_date FROM snet_changes WHERE vendor_id="0000499984ED"

12: "Deleted (2020-01-17)" verizon   A100004999A7CB  4243604165 100.83.181.41 Active
  Activation date ....: 2019-10-25
  Last used date .....: 2017-10-30
  Acct deleted date ..: 2020-01-17
  Account ............: 439749 (cloud)
  Usage ..............: 0.000
  Activation threshold: no
  Last used threshold : yes
  Deleted threshold ..: yes
  Deactivate this line: yes
Found meid "00004999A7CB" in vendor_id column in snet_changes.
  439749 cloud 2020-01-17 00004999A7CB NULL 10.8.23.134   NULL
  SELECT id, account_id_new, partner, bureau_id, panel_type, vendor_id, vendor_id_2, proxy_id, imei, iccid, phone_number, deleted_date FROM snet_changes WHERE vendor_id="00004999A7CB"

13: "Deleted (2020-01-20)" verizon   A10000499991EF  4247315895 100.83.219.129 Active
  Activation date ....: 2019-10-25
  Last used date .....: 2019-04-18
  Acct deleted date ..: 2020-01-20
  Account ............: 443009 (cloud)
  Usage ..............: 0.000
  Activation threshold: no
  Last used threshold : yes
  Deleted threshold ..: yes
  Deactivate this line: yes
Found meid "0000499991EF" in vendor_id column in snet_changes.
  443009 cloud 2020-01-20 0000499991EF NULL 10.8.29.161   NULL
  SELECT id, account_id_new, partner, bureau_id, panel_type, vendor_id, vendor_id_2, proxy_id, imei, iccid, phone_number, deleted_date FROM snet_changes WHERE vendor_id="0000499991EF"

14: "Not found" verizon   A1000049A1D6ED  3852198245 100.88.55.27 Active
  Activation date ....: 2016-11-10
  Last used date .....: 
  Acct deleted date ..: 
  Account ............: 0 ()
  Usage ..............: 0.000
  Activation threshold: yes
  Last used threshold : yes
  Deleted threshold ..: no
  Deactivate this line: yes

15: "Not found" verizon   A10000499998E6  3852220655 100.88.17.200 Active
  Activation date ....: 2016-11-10
  Last used date .....: 
  Acct deleted date ..: 
  Account ............: 0 ()
  Usage ..............: 0.000
  Activation threshold: yes
  Last used threshold : yes
  Deleted threshold ..: no
  Deactivate this line: yes

16: "Not found" verizon   A1000049998C34  3852415457 100.88.44.187 Active
  Activation date ....: 2016-11-10
  Last used date .....: 2018-04-15
  Acct deleted date ..: 
  Account ............: 0 ()
  Usage ..............: 0.000
  Activation threshold: yes
  Last used threshold : yes
  Deleted threshold ..: no
  Deactivate this line: yes

17: "Deleted (2020-02-02)" verizon   A1000049999EF4  3853095156 100.88.49.90 Active
  Activation date ....: 2016-11-10
  Last used date .....: 2020-02-01
  Acct deleted date ..: 2020-02-02
  Account ............: 677218 (pa)
  Usage ..............: 0.000
  Activation threshold: yes
  Last used threshold : no
  Deleted threshold ..: yes
  Deactivate this line: yes
Found ipaddress "100.88.49.90" in proxy_id column in snet_changes.
  677218 pa 2020-02-02  NULL 100.88.49.90   NULL
  SELECT id, account_id_new, partner, bureau_id, panel_type, vendor_id, vendor_id_2, proxy_id, imei, iccid, phone_number, deleted_date FROM snet_changes WHERE proxy_id="100.88.49.90"

18: "Not found" verizon   A1000049997A22  3853095917 100.88.52.40 Active
  Activation date ....: 2016-11-10
  Last used date .....: 
  Acct deleted date ..: 
  Account ............: 0 ()
  Usage ..............: 0.000
  Activation threshold: yes
  Last used threshold : yes
  Deleted threshold ..: no
  Deactivate this line: yes

19: "Not found" verizon   A1000049A1CBC7  3855351358 100.88.55.60 Active
  Activation date ....: 2016-11-10
  Last used date .....: 2018-08-24
  Acct deleted date ..: 
  Account ............: 0 ()
  Usage ..............: 0.000
  Activation threshold: yes
  Last used threshold : yes
  Deleted threshold ..: no
  Deactivate this line: yes

20: "Not found" verizon   A1000049A1ECA1  3853151897 100.88.95.43 Active
  Activation date ....: 2016-11-14
  Last used date .....: 
  Acct deleted date ..: 
  Account ............: 0 ()
  Usage ..............: 0.000
  Activation threshold: yes
  Last used threshold : yes
  Deleted threshold ..: no
  Deactivate this line: yes

21: "Not found" verizon   A1000049A1F2AE  3854996866 100.88.95.158 Active
  Activation date ....: 2016-11-14
  Last used date .....: 2018-06-20
  Acct deleted date ..: 
  Account ............: 0 ()
  Usage ..............: 0.000
  Activation threshold: yes
  Last used threshold : yes
  Deleted threshold ..: no
  Deactivate this line: yes

22: "Not found" verizon   A1000049A1DAD6  3857706618 100.88.98.198 Active
  Activation date ....: 2016-11-14
  Last used date .....: 2018-11-15
  Acct deleted date ..: 
  Account ............: 0 ()
  Usage ..............: 0.000
  Activation threshold: yes
  Last used threshold : yes
  Deleted threshold ..: no
  Deactivate this line: yes

23: "Not found" verizon   A1000049A19F6B  3852681508 100.88.99.181 Active
  Activation date ....: 2016-11-21
  Last used date .....: 2019-04-25
  Acct deleted date ..: 
  Account ............: 0 ()
  Usage ..............: 0.000
  Activation threshold: yes
  Last used threshold : yes
  Deleted threshold ..: no
  Deactivate this line: yes

24: "Not found" verizon   A100004D853F3A  3852729668 100.88.107.230 Active
  Activation date ....: 2016-12-29
  Last used date .....: 2019-03-28
  Acct deleted date ..: 
  Account ............: 0 ()
  Usage ..............: 0.000
  Activation threshold: yes
  Last used threshold : yes
  Deleted threshold ..: no
  Deactivate this line: yes

25: "Deleted (2019-03-08)" verizon   A1000051CD7B17  3104830770 100.83.143.190 Active
  Activation date ....: 2019-10-25
  Last used date .....: 2019-03-06
  Acct deleted date ..: 2019-03-08
  Account ............: 463663 (cloud)
  Usage ..............: 0.000
  Activation threshold: no
  Last used threshold : yes
  Deleted threshold ..: yes
  Deactivate this line: yes
Found meid "000051CD7B17" in vendor_id column in snet_changes.
  463663 cloud 2019-03-08 000051CD7B17 NULL 10.8.55.26   NULL
  SELECT id, account_id_new, partner, bureau_id, panel_type, vendor_id, vendor_id_2, proxy_id, imei, iccid, phone_number, deleted_date FROM snet_changes WHERE vendor_id="000051CD7B17"

26: "Deleted (2019-10-18)" verizon   A1000051CD8DBA  3852243047 100.88.93.138 Active
  Activation date ....: 2017-02-07
  Last used date .....: 2018-07-07
  Acct deleted date ..: 2019-10-18
  Account ............: 452785 (cloud)
  Usage ..............: 0.000
  Activation threshold: yes
  Last used threshold : yes
  Deleted threshold ..: yes
  Deactivate this line: yes
Found ipaddress "100.88.93.138" in proxy_id column in snet_changes.
  452785 cloud 2019-10-18 5421601059DF NULL 100.88.93.138   NULL
  SELECT id, account_id_new, partner, bureau_id, panel_type, vendor_id, vendor_id_2, proxy_id, imei, iccid, phone_number, deleted_date FROM snet_changes WHERE proxy_id="100.88.93.138"

27: "Deleted (2020-05-19)" verizon   A1000051CD83FE  3852548586 100.88.120.140 Active
  Activation date ....: 2017-02-07
  Last used date .....: 2019-04-01
  Acct deleted date ..: 2020-05-19
  Account ............: 467674 (cloud)
  Usage ..............: 0.000
  Activation threshold: yes
  Last used threshold : yes
  Deleted threshold ..: no
  Deactivate this line: yes
Found ipaddress "100.88.120.140" in proxy_id column in snet_changes.
  467674 cloud 2020-05-19 5421601067C1 NULL 100.88.120.140   NULL
  SELECT id, account_id_new, partner, bureau_id, panel_type, vendor_id, vendor_id_2, proxy_id, imei, iccid, phone_number, deleted_date FROM snet_changes WHERE proxy_id="100.88.120.140"

28: "Not found" verizon   A1000051CD6C53  4354000343 100.88.124.94 Active
  Activation date ....: 2017-02-10
  Last used date .....: 2019-04-22
  Acct deleted date ..: 
  Account ............: 0 ()
  Usage ..............: 0.000
  Activation threshold: yes
  Last used threshold : yes
  Deleted threshold ..: no
  Deactivate this line: yes

29: "Not found" verizon   A1000051CD98B4  3852676149 100.88.145.44 Active
  Activation date ....: 2017-03-01
  Last used date .....: 2019-03-12
  Acct deleted date ..: 
  Account ............: 0 ()
  Usage ..............: 0.000
  Activation threshold: yes
  Last used threshold : yes
  Deleted threshold ..: no
  Deactivate this line: yes

30: "Deleted (2019-08-19)" verizon   A100004D9D4217  4243901500 100.83.224.189 Active
  Activation date ....: 2019-10-25
  Last used date .....: 2019-08-03
  Acct deleted date ..: 2019-08-19
  Account ............: 470828 (cloud)
  Usage ..............: 0.000
  Activation threshold: no
  Last used threshold : no
  Deleted threshold ..: yes
  Deactivate this line: yes
Found meid "00004D9D4217" in vendor_id column in snet_changes.
  470828 cloud 2019-08-19 00004D9D4217 NULL 10.8.61.143   NULL
  SELECT id, account_id_new, partner, bureau_id, panel_type, vendor_id, vendor_id_2, proxy_id, imei, iccid, phone_number, deleted_date FROM snet_changes WHERE vendor_id="00004D9D4217"

31: "Not found" verizon   A1000047A8E443  3854154521 100.88.27.209 Active
  Activation date ....: 2018-01-04
  Last used date .....: 
  Acct deleted date ..: 
  Account ............: 0 ()
  Usage ..............: 0.000
  Activation threshold: yes
  Last used threshold : yes
  Deleted threshold ..: no
  Deactivate this line: yes

32: "Not found" verizon   A1000051D9AA85  3853216583 100.88.167.31 Active
  Activation date ....: 2017-04-25
  Last used date .....: 2019-04-26
  Acct deleted date ..: 
  Account ............: 0 ()
  Usage ..............: 0.000
  Activation threshold: yes
  Last used threshold : yes
  Deleted threshold ..: no
  Deactivate this line: yes

33: "Deleted (2020-04-15)" verizon   A1000051D86D75  9474284450 100.88.191.30 Active
  Activation date ....: 2017-05-16
  Last used date .....: 2017-05-28
  Acct deleted date ..: 2020-04-15
  Account ............: 428287 (alder)
  Usage ..............: 0.000
  Activation threshold: yes
  Last used threshold : yes
  Deleted threshold ..: no
  Deactivate this line: yes
Found ipaddress "100.88.191.30" in proxy_id column in snet_changes.
  428287 alder 2020-04-15 521021023103 NULL 100.88.191.30   NULL
  SELECT id, account_id_new, partner, bureau_id, panel_type, vendor_id, vendor_id_2, proxy_id, imei, iccid, phone_number, deleted_date FROM snet_changes WHERE proxy_id="100.88.191.30"

34: "Deleted (2019-12-06)" verizon   A1000051D37370  4243606926 100.83.190.244 Active
  Activation date ....: 2019-10-25
  Last used date .....: 2018-03-28
  Acct deleted date ..: 2019-12-06
  Account ............: 466222 (cloud)
  Usage ..............: 0.000
  Activation threshold: no
  Last used threshold : yes
  Deleted threshold ..: yes
  Deactivate this line: yes
Found meid "000051D37370" in vendor_id column in snet_changes.
  466222 cloud 2019-12-06 000051D37370 NULL 10.8.71.145   NULL
  SELECT id, account_id_new, partner, bureau_id, panel_type, vendor_id, vendor_id_2, proxy_id, imei, iccid, phone_number, deleted_date FROM snet_changes WHERE vendor_id="000051D37370"

35: "Not found" verizon   A1000051D34661  3852661968 100.88.213.44 Active
  Activation date ....: 2017-06-19
  Last used date .....: 2019-05-15
  Acct deleted date ..: 
  Account ............: 0 ()
  Usage ..............: 0.000
  Activation threshold: yes
  Last used threshold : yes
  Deleted threshold ..: no
  Deactivate this line: yes

36: "Not found" verizon   A1000051D2E4DA  3852670364 100.88.213.62 Active
  Activation date ....: 2017-06-19
  Last used date .....: 2019-04-21
  Acct deleted date ..: 
  Account ............: 0 ()
  Usage ..............: 0.000
  Activation threshold: yes
  Last used threshold : yes
  Deleted threshold ..: no
  Deactivate this line: yes

37: "Deleted (2020-01-13)" verizon   A1000051DCEA36  4408631804 100.88.223.94 Active
  Activation date ....: 2017-06-20
  Last used date .....: 2020-03-09
  Acct deleted date ..: 2020-01-13
  Account ............: 441333 (alder)
  Usage ..............: 0.000
  Activation threshold: yes
  Last used threshold : no
  Deleted threshold ..: yes
  Deactivate this line: yes
Found ipaddress "100.88.223.94" in proxy_id column in snet_changes.
  441333 alder 2020-01-13 4135849E9F81 NULL 100.88.223.94   NULL
  SELECT id, account_id_new, partner, bureau_id, panel_type, vendor_id, vendor_id_2, proxy_id, imei, iccid, phone_number, deleted_date FROM snet_changes WHERE proxy_id="100.88.223.94"

38: "Not found" verizon   A1000051E4997E  3852156368 100.88.247.16 Active
  Activation date ....: 2017-07-12
  Last used date .....: 2019-04-19
  Acct deleted date ..: 
  Account ............: 0 ()
  Usage ..............: 0.000
  Activation threshold: yes
  Last used threshold : yes
  Deleted threshold ..: no
  Deactivate this line: yes

39: "Deleted (2020-01-15)" verizon   A1000051DC642A  4407023136 100.89.5.224 Active
  Activation date ....: 2017-08-15
  Last used date .....: 2020-01-15
  Acct deleted date ..: 2020-01-15
  Account ............: 442876 (alder)
  Usage ..............: 0.000
  Activation threshold: yes
  Last used threshold : no
  Deleted threshold ..: yes
  Deactivate this line: yes
Found ipaddress "100.89.5.224" in proxy_id column in snet_changes.
  442876 alder 2020-01-15 151100378329  100.89.5.224   NULL
  SELECT id, account_id_new, partner, bureau_id, panel_type, vendor_id, vendor_id_2, proxy_id, imei, iccid, phone_number, deleted_date FROM snet_changes WHERE proxy_id="100.89.5.224"

40: "Deleted (2020-02-01)" verizon   A1000051DCAEBD  2194431590 100.89.13.63 Active
  Activation date ....: 2017-08-16
  Last used date .....: 2020-02-01
  Acct deleted date ..: 2020-02-01
  Account ............: 472243 (alder)
  Usage ..............: 0.000
  Activation threshold: yes
  Last used threshold : no
  Deleted threshold ..: yes
  Deactivate this line: yes
Found ipaddress "100.89.13.63" in proxy_id column in snet_changes.
  472243 alder 2020-02-01 152100355071 780000000000 100.89.13.63   NULL
  SELECT id, account_id_new, partner, bureau_id, panel_type, vendor_id, vendor_id_2, proxy_id, imei, iccid, phone_number, deleted_date FROM snet_changes WHERE proxy_id="100.89.13.63"

41: "Deleted (2020-02-14)" verizon   A1000051DE0F1E  2194433483 100.89.21.24 Active
  Activation date ....: 2017-08-16
  Last used date .....: 2019-11-12
  Acct deleted date ..: 2020-02-14
  Account ............: 447776 (alder)
  Usage ..............: 0.000
  Activation threshold: yes
  Last used threshold : no
  Deleted threshold ..: yes
  Deactivate this line: yes
Found ipaddress "100.89.21.24" in proxy_id column in snet_changes.
  447776 alder 2020-02-14 636096876907 NULL 100.89.21.24   NULL
  SELECT id, account_id_new, partner, bureau_id, panel_type, vendor_id, vendor_id_2, proxy_id, imei, iccid, phone_number, deleted_date FROM snet_changes WHERE proxy_id="100.89.21.24"

42: "Deleted (2020-02-22)" verizon 89148000003422540950 311480350221434  359998070058062 3852614410 100.89.43.237 Active
  Activation date ....: 2017-10-04
  Last used date .....: 2020-02-18
  Acct deleted date ..: 2020-02-22
  Account ............: 480484 (pa)
  Usage ..............: 0.000
  Activation threshold: yes
  Last used threshold : no
  Deleted threshold ..: yes
  Deactivate this line: yes
Found ipaddress "100.89.43.237" in proxy_id column in snet_changes.
  480484 pa 2020-02-22 998070058062 NULL 100.89.43.237   NULL
  SELECT id, account_id_new, partner, bureau_id, panel_type, vendor_id, vendor_id_2, proxy_id, imei, iccid, phone_number, deleted_date FROM snet_changes WHERE proxy_id="100.89.43.237"

43: "Deleted (2020-01-30)" verizon   A1000051E5B05E  3852614607 100.89.44.235 Active
  Activation date ....: 2017-10-04
  Last used date .....: 2020-05-22
  Acct deleted date ..: 2020-01-30
  Account ............: 476784 (cloud)
  Usage ..............: 0.110
  Activation threshold: yes
  Last used threshold : no
  Deleted threshold ..: yes
  Deactivate this line: yes
Found ipaddress "100.89.44.235" in proxy_id column in snet_changes.
  476784 cloud 2020-01-30 542160107CEE NULL 100.89.44.235   NULL
  SELECT id, account_id_new, partner, bureau_id, panel_type, vendor_id, vendor_id_2, proxy_id, imei, iccid, phone_number, deleted_date FROM snet_changes WHERE proxy_id="100.89.44.235"

44: "Not found" verizon 89148000003600732403 311480367258461  353238064009391 3852563240 100.89.59.254 Active
  Activation date ....: 2017-10-12
  Last used date .....: 
  Acct deleted date ..: 
  Account ............: 0 ()
  Usage ..............: 0.000
  Activation threshold: yes
  Last used threshold : yes
  Deleted threshold ..: no
  Deactivate this line: yes

45: "Deleted (2020-01-17)" verizon   A1000051E5A9E5  3852852249 100.89.63.254 Active
  Activation date ....: 2017-10-16
  Last used date .....: 2019-05-30
  Acct deleted date ..: 2020-01-17
  Account ............: 485490 (cloud)
  Usage ..............: 0.000
  Activation threshold: yes
  Last used threshold : no
  Deleted threshold ..: yes
  Deactivate this line: yes
Found ipaddress "100.89.63.254" in proxy_id column in snet_changes.
  485490 cloud 2020-01-17 542160108266 NULL 100.89.63.254   NULL
  SELECT id, account_id_new, partner, bureau_id, panel_type, vendor_id, vendor_id_2, proxy_id, imei, iccid, phone_number, deleted_date FROM snet_changes WHERE proxy_id="100.89.63.254"

46: "Not found" verizon 89148000003422621024 311480350216482  359998070095213 3853153288 100.89.72.51 Active
  Activation date ....: 2017-11-01
  Last used date .....: 2019-05-20
  Acct deleted date ..: 
  Account ............: 0 ()
  Usage ..............: 0.000
  Activation threshold: yes
  Last used threshold : yes
  Deleted threshold ..: no
  Deactivate this line: yes

47: "Deleted (2020-05-01)" verizon 89148000003844846977 311480390441949  359998070090339 3853154488 100.89.82.36 Active
  Activation date ....: 2017-11-24
  Last used date .....: 2019-05-25
  Acct deleted date ..: 2020-05-01
  Account ............: 739814 (pa)
  Usage ..............: 0.000
  Activation threshold: yes
  Last used threshold : yes
  Deleted threshold ..: no
  Deactivate this line: yes
Found ipaddress "100.89.82.36" in proxy_id column in snet_changes.
  739814 pa 2020-05-01 998070090339 NULL 100.89.82.36   NULL
  SELECT id, account_id_new, partner, bureau_id, panel_type, vendor_id, vendor_id_2, proxy_id, imei, iccid, phone_number, deleted_date FROM snet_changes WHERE proxy_id="100.89.82.36"

48: "Deleted (2020-04-01)" verizon 89148000003844843925 311480390444396  359998070109485 3853156181 100.89.82.221 Active
  Activation date ....: 2017-11-24
  Last used date .....: 2019-05-24
  Acct deleted date ..: 2020-04-01
  Account ............: 752140 (pa)
  Usage ..............: 0.000
  Activation threshold: yes
  Last used threshold : yes
  Deleted threshold ..: no
  Deactivate this line: yes
Found ipaddress "100.89.82.221" in proxy_id column in snet_changes.
  752140 pa 2020-04-01 998070109485 NULL 100.89.82.221   NULL
  SELECT id, account_id_new, partner, bureau_id, panel_type, vendor_id, vendor_id_2, proxy_id, imei, iccid, phone_number, deleted_date FROM snet_changes WHERE proxy_id="100.89.82.221"

49: "Not found" verizon   A1000047A549EF  3852727122 100.88.22.8 Active
  Activation date ....: 2018-01-04
  Last used date .....: 2019-05-20
  Acct deleted date ..: 
  Account ............: 0 ()
  Usage ..............: 0.000
  Activation threshold: yes
  Last used threshold : yes
  Deleted threshold ..: no
  Deactivate this line: yes

50: "Not found" verizon   A1000047A58A71  3852720550 100.88.0.252 Active
  Activation date ....: 2018-01-04
  Last used date .....: 
  Acct deleted date ..: 
  Account ............: 0 ()
  Usage ..............: 0.000
  Activation threshold: yes
  Last used threshold : yes
  Deleted threshold ..: no
  Deactivate this line: yes

51: "Not found" verizon   A1000047A8EB0B  3854154595 100.88.28.16 Active
  Activation date ....: 2018-01-04
  Last used date .....: 
  Acct deleted date ..: 
  Account ............: 0 ()
  Usage ..............: 0.000
  Activation threshold: yes
  Last used threshold : yes
  Deleted threshold ..: no
  Deactivate this line: yes

52: "Not found" verizon   A1000047A4DDA4  3852720586 100.88.1.32 Active
  Activation date ....: 2018-01-04
  Last used date .....: 
  Acct deleted date ..: 
  Account ............: 0 ()
  Usage ..............: 0.000
  Activation threshold: yes
  Last used threshold : yes
  Deleted threshold ..: no
  Deactivate this line: yes

53: "Not found" verizon   A1000047A7030A  3855357382 100.88.22.155 Active
  Activation date ....: 2018-01-04
  Last used date .....: 
  Acct deleted date ..: 
  Account ............: 0 ()
  Usage ..............: 0.000
  Activation threshold: yes
  Last used threshold : yes
  Deleted threshold ..: no
  Deactivate this line: yes

54: "Not found" verizon 89148000003389245593 311480346991862  353238063901184 3852496606 100.88.3.112 Active
  Activation date ....: 2018-02-09
  Last used date .....: 
  Acct deleted date ..: 
  Account ............: 0 ()
  Usage ..............: 0.000
  Activation threshold: yes
  Last used threshold : yes
  Deleted threshold ..: no
  Deactivate this line: yes

55: "Deleted (2020-05-09)" verizon 89148000004023388450 311480407351302  359998070395480 3852250230 100.89.111.102 Active
  Activation date ....: 2018-02-13
  Last used date .....: 2019-05-18
  Acct deleted date ..: 2020-05-09
  Account ............: 740358 (pa)
  Usage ..............: 0.000
  Activation threshold: yes
  Last used threshold : yes
  Deleted threshold ..: no
  Deactivate this line: yes
Found ipaddress "100.89.111.102" in proxy_id column in snet_changes.
  740358 pa 2020-05-09 998070395480 NULL 100.89.111.102   NULL
  SELECT id, account_id_new, partner, bureau_id, panel_type, vendor_id, vendor_id_2, proxy_id, imei, iccid, phone_number, deleted_date FROM snet_changes WHERE proxy_id="100.89.111.102"

56: "Deleted (2020-04-01)" verizon 89148000004023382107 311480407352110  359998070410552 3853776945 100.89.119.85 Active
  Activation date ....: 2018-02-28
  Last used date .....: 2018-03-20
  Acct deleted date ..: 2020-04-01
  Account ............: 743278 (pa)
  Usage ..............: 0.000
  Activation threshold: yes
  Last used threshold : yes
  Deleted threshold ..: no
  Deactivate this line: yes
Found ipaddress "100.89.119.85" in proxy_id column in snet_changes.
  743278 pa 2020-04-01 998070410552 NULL 100.89.119.85   NULL
  SELECT id, account_id_new, partner, bureau_id, panel_type, vendor_id, vendor_id_2, proxy_id, imei, iccid, phone_number, deleted_date FROM snet_changes WHERE proxy_id="100.89.119.85"

57: "Not found" verizon 89148000003600739119 311480367254403  353238061190020 3852725868 100.89.125.137 Active
  Activation date ....: 2018-03-21
  Last used date .....: 
  Acct deleted date ..: 
  Account ............: 0 ()
  Usage ..............: 0.000
  Activation threshold: yes
  Last used threshold : yes
  Deleted threshold ..: no
  Deactivate this line: yes

58: "Not found" verizon 89148000003727508686 311480379269023   3852262259 100.89.129.254 Active
  Activation date ....: 2018-04-02
  Last used date .....: 
  Acct deleted date ..: 
  Account ............: 0 ()
  Usage ..............: 0.000
  Activation threshold: yes
  Last used threshold : yes
  Deleted threshold ..: no
  Deactivate this line: yes

59: "Not found" verizon 89148000003727531746 311480379273215  353238061182092 3852266208 100.89.130.2 Active
  Activation date ....: 2018-04-02
  Last used date .....: 
  Acct deleted date ..: 
  Account ............: 0 ()
  Usage ..............: 0.000
  Activation threshold: yes
  Last used threshold : yes
  Deleted threshold ..: no
  Deactivate this line: yes

60: "Not found" verizon 89148000004061274307 311480410761110  359998070459468 4357774262 100.89.132.15 Active
  Activation date ....: 2018-04-03
  Last used date .....: 2019-05-21
  Acct deleted date ..: 
  Account ............: 0 ()
  Usage ..............: 0.000
  Activation threshold: yes
  Last used threshold : yes
  Deleted threshold ..: no
  Deactivate this line: yes

61: "Not found" verizon 89148000004023358834 311480407338511  353650073210192 3856021707 100.89.148.32 Active
  Activation date ....: 2018-05-15
  Last used date .....: 2019-05-21
  Acct deleted date ..: 
  Account ............: 0 ()
  Usage ..............: 0.000
  Activation threshold: yes
  Last used threshold : yes
  Deleted threshold ..: no
  Deactivate this line: yes

62: "Not found" verizon 89148000004023360731 311480407339424  353650073235538 3856021953 100.89.149.16 Active
  Activation date ....: 2018-05-15
  Last used date .....: 
  Acct deleted date ..: 
  Account ............: 0 ()
  Usage ..............: 0.000
  Activation threshold: yes
  Last used threshold : yes
  Deleted threshold ..: no
  Deactivate this line: yes

63: "Deleted (2019-07-29)" verizon 89148000004023313698 311480407339413  353650073232592 5005978869 100.83.174.83 Active
  Activation date ....: 2020-03-11
  Last used date .....: 2019-05-16
  Acct deleted date ..: 2019-07-29
  Account ............: 536094 (cloud)
  Usage ..............: 0.000
  Activation threshold: no
  Last used threshold : yes
  Deleted threshold ..: yes
  Deactivate this line: yes
Found iccid "89148000004023313698" in phone_number column in snet_changes.
  536094 cloud 2019-07-29 650073232592 NULL 100.89.150.135   89148000004023313698
  SELECT id, account_id_new, partner, bureau_id, panel_type, vendor_id, vendor_id_2, proxy_id, imei, iccid, phone_number, deleted_date FROM snet_changes WHERE phone_number="89148000004023313698"

64: "Not found" verizon 89148000004023187084 311480407327309  353650073242195 3854503196 100.89.152.61 Active
  Activation date ....: 2018-05-15
  Last used date .....: 2019-05-22
  Acct deleted date ..: 
  Account ............: 0 ()
  Usage ..............: 0.000
  Activation threshold: yes
  Last used threshold : yes
  Deleted threshold ..: no
  Deactivate this line: yes

65: "Not found" verizon 89148000004023317731 311480407334231  353650073291671 3854503336 100.89.152.200 Active
  Activation date ....: 2018-05-15
  Last used date .....: 
  Acct deleted date ..: 
  Account ............: 0 ()
  Usage ..............: 0.000
  Activation threshold: yes
  Last used threshold : yes
  Deleted threshold ..: no
  Deactivate this line: yes

66: "Deleted (2020-01-25)" verizon   A1000051F1E4B2  7348209277 100.89.172.120 Active
  Activation date ....: 2018-05-22
  Last used date .....: 2020-02-05
  Acct deleted date ..: 2020-01-25
  Account ............: 471097 (alder)
  Usage ..............: 0.000
  Activation threshold: yes
  Last used threshold : no
  Deleted threshold ..: yes
  Deactivate this line: yes
Found meid "000051F1E4B2" in vendor_id column in snet_changes.
  471097 alder 2020-01-25 000051F1E4B2 NULL NULL   NULL
  SELECT id, account_id_new, partner, bureau_id, panel_type, vendor_id, vendor_id_2, proxy_id, imei, iccid, phone_number, deleted_date FROM snet_changes WHERE vendor_id="000051F1E4B2"

67: "Not found" verizon 89148000004100428419 311480414191098  359998070682168 3852712693 100.89.178.162 Active
  Activation date ....: 2018-05-23
  Last used date .....: 2019-05-24
  Acct deleted date ..: 
  Account ............: 0 ()
  Usage ..............: 0.000
  Activation threshold: yes
  Last used threshold : yes
  Deleted threshold ..: no
  Deactivate this line: yes

68: "Not found" verizon 89148000004333541038 311480434826155  353650073923869 3852548843 100.89.187.201 Active
  Activation date ....: 2018-06-21
  Last used date .....: 
  Acct deleted date ..: 
  Account ............: 0 ()
  Usage ..............: 0.000
  Activation threshold: yes
  Last used threshold : yes
  Deleted threshold ..: no
  Deactivate this line: yes

69: "Deleted (2020-02-17)" verizon 89148000004333576901 311480434827882  353650073887155 3856029086 100.89.191.107 Active
  Activation date ....: 2018-06-21
  Last used date .....: 2020-05-20
  Acct deleted date ..: 2020-02-17
  Account ............: 485748 (alder)
  Usage ..............: 0.860
  Activation threshold: yes
  Last used threshold : no
  Deleted threshold ..: yes
  Deactivate this line: yes
Found ipaddress "100.89.191.107" in proxy_id column in snet_changes.
  485748 alder 2020-02-17 650073887155 NULL 100.89.191.107   NULL
  SELECT id, account_id_new, partner, bureau_id, panel_type, vendor_id, vendor_id_2, proxy_id, imei, iccid, phone_number, deleted_date FROM snet_changes WHERE proxy_id="100.89.191.107"

70: "Deleted (2020-02-17)" verizon 89148000004333535683 311480434829030  353650073822517 3856029244 100.89.192.9 Active
  Activation date ....: 2018-06-21
  Last used date .....: 2019-12-17
  Acct deleted date ..: 2020-02-17
  Account ............: 516148 (alder)
  Usage ..............: 0.000
  Activation threshold: yes
  Last used threshold : no
  Deleted threshold ..: yes
  Deactivate this line: yes
Found ipaddress "100.89.192.9" in proxy_id column in snet_changes.
  516148 alder 2020-02-17 650073822517 NULL 100.89.192.9   NULL
  SELECT id, account_id_new, partner, bureau_id, panel_type, vendor_id, vendor_id_2, proxy_id, imei, iccid, phone_number, deleted_date FROM snet_changes WHERE proxy_id="100.89.192.9"

71: "Not found" verizon 89148000004333546698 311480434825594  353650073816980 3856029380 100.89.192.146 Active
  Activation date ....: 2018-06-21
  Last used date .....: 2019-05-22
  Acct deleted date ..: 
  Account ............: 0 ()
  Usage ..............: 0.000
  Activation threshold: yes
  Last used threshold : yes
  Deleted threshold ..: no
  Deactivate this line: yes

72: "Deleted (2020-02-17)" verizon 89148000004333572819 311480434826141  353650078192668 3856029600 100.89.193.105 Active
  Activation date ....: 2018-06-21
  Last used date .....: 2020-05-04
  Acct deleted date ..: 2020-02-17
  Account ............: 493790 (alder)
  Usage ..............: 0.150
  Activation threshold: yes
  Last used threshold : no
  Deleted threshold ..: yes
  Deactivate this line: yes
Found ipaddress "100.89.193.105" in proxy_id column in snet_changes.
  493790 alder 2020-02-17 650078192668 NULL 100.89.193.105   NULL
  SELECT id, account_id_new, partner, bureau_id, panel_type, vendor_id, vendor_id_2, proxy_id, imei, iccid, phone_number, deleted_date FROM snet_changes WHERE proxy_id="100.89.193.105"

73: "Not found" verizon 89148000004333570979 311480434822316  353650078176893 3854474942 100.89.197.62 Active
  Activation date ....: 2018-06-21
  Last used date .....: 
  Acct deleted date ..: 
  Account ............: 0 ()
  Usage ..............: 0.000
  Activation threshold: yes
  Last used threshold : yes
  Deleted threshold ..: no
  Deactivate this line: yes

74: "Deleted (2019-07-12)" verizon 89148000004137018142 311480417676318  359998070949567 3852146428 100.89.205.217 Active
  Activation date ....: 2018-07-10
  Last used date .....: 2019-06-25
  Acct deleted date ..: 2019-07-12
  Account ............: 506123 (cloud)
  Usage ..............: 0.000
  Activation threshold: yes
  Last used threshold : no
  Deleted threshold ..: yes
  Deactivate this line: yes
Found ipaddress "100.89.205.217" in proxy_id column in snet_changes.
  506123 cloud 2019-07-12 54216010AE5A NULL 100.89.205.217   NULL
  SELECT id, account_id_new, partner, bureau_id, panel_type, vendor_id, vendor_id_2, proxy_id, imei, iccid, phone_number, deleted_date FROM snet_changes WHERE proxy_id="100.89.205.217"

75: "Deleted (2020-02-19)" verizon 89148000004333555913 311480434826819  353650078239774 3855223495 100.89.208.163 Active
  Activation date ....: 2018-07-16
  Last used date .....: 2019-10-01
  Acct deleted date ..: 2020-02-19
  Account ............: 546572 (cloud)
  Usage ..............: 0.000
  Activation threshold: yes
  Last used threshold : no
  Deleted threshold ..: yes
  Deactivate this line: yes
Found ipaddress "100.89.208.163" in proxy_id column in snet_changes.
  546572 cloud 2020-02-19 650078239774 NULL 100.89.208.163   NULL
  SELECT id, account_id_new, partner, bureau_id, panel_type, vendor_id, vendor_id_2, proxy_id, imei, iccid, phone_number, deleted_date FROM snet_changes WHERE proxy_id="100.89.208.163"

76: "Not found" verizon 89148000004333487612 311480434823307  353650078146714 3853772256 100.89.211.218 Active
  Activation date ....: 2018-07-16
  Last used date .....: 
  Acct deleted date ..: 
  Account ............: 0 ()
  Usage ..............: 0.000
  Activation threshold: yes
  Last used threshold : yes
  Deleted threshold ..: no
  Deactivate this line: yes

77: "Deleted (2020-02-17)" verizon 89148000004333480476 311480434829889  353650078242059 3855226085 100.89.222.48 Active
  Activation date ....: 2018-07-18
  Last used date .....: 2020-05-22
  Acct deleted date ..: 2020-02-17
  Account ............: 509733 (alder)
  Usage ..............: 0.500
  Activation threshold: yes
  Last used threshold : no
  Deleted threshold ..: yes
  Deactivate this line: yes
Found ipaddress "100.89.222.48" in proxy_id column in snet_changes.
  509733 alder 2020-02-17 650078242059 NULL 100.89.222.48   NULL
  SELECT id, account_id_new, partner, bureau_id, panel_type, vendor_id, vendor_id_2, proxy_id, imei, iccid, phone_number, deleted_date FROM snet_changes WHERE proxy_id="100.89.222.48"

78: "Deleted (2020-02-17)" verizon 89148000004333521030 311480434826486  353650078055980 3855226596 100.89.224.41 Active
  Activation date ....: 2018-07-18
  Last used date .....: 2020-05-16
  Acct deleted date ..: 2020-02-17
  Account ............: 505890 (alder)
  Usage ..............: 0.670
  Activation threshold: yes
  Last used threshold : no
  Deleted threshold ..: yes
  Deactivate this line: yes
Found ipaddress "100.89.224.41" in proxy_id column in snet_changes.
  505890 alder 2020-02-17 650078055980 NULL 100.89.224.41   NULL
  SELECT id, account_id_new, partner, bureau_id, panel_type, vendor_id, vendor_id_2, proxy_id, imei, iccid, phone_number, deleted_date FROM snet_changes WHERE proxy_id="100.89.224.41"

79: "Not found" verizon 89148000004383122291 311480439487821  353650078232175 3855226818 100.89.225.4 Active
  Activation date ....: 2018-07-18
  Last used date .....: 
  Acct deleted date ..: 
  Account ............: 0 ()
  Usage ..............: 0.000
  Activation threshold: yes
  Last used threshold : yes
  Deleted threshold ..: no
  Deactivate this line: yes

80: "Deleted (2020-02-17)" verizon 89148000004333499096 311480434827158  353650078164857 3855226919 100.89.225.103 Active
  Activation date ....: 2018-07-18
  Last used date .....: 2020-05-22
  Acct deleted date ..: 2020-02-17
  Account ............: 511506 (alder)
  Usage ..............: 0.370
  Activation threshold: yes
  Last used threshold : no
  Deleted threshold ..: yes
  Deactivate this line: yes
Found ipaddress "100.89.225.103" in proxy_id column in snet_changes.
  511506 alder 2020-02-17 650078164857 NULL 100.89.225.103   NULL
  SELECT id, account_id_new, partner, bureau_id, panel_type, vendor_id, vendor_id_2, proxy_id, imei, iccid, phone_number, deleted_date FROM snet_changes WHERE proxy_id="100.89.225.103"

81: "Not found" verizon 89148000004333499120 311480434823562  353650078134991 3855226949 100.89.225.133 Active
  Activation date ....: 2018-07-18
  Last used date .....: 2019-04-01
  Acct deleted date ..: 
  Account ............: 0 ()
  Usage ..............: 0.000
  Activation threshold: yes
  Last used threshold : yes
  Deleted threshold ..: no
  Deactivate this line: yes

82: "Deleted (2020-02-21)" verizon 89148000004333548108 311480434821033  353650078301566 3855228005 100.89.229.152 Active
  Activation date ....: 2018-07-18
  Last used date .....: 2020-02-08
  Acct deleted date ..: 2020-02-21
  Account ............: 535156 (cloud)
  Usage ..............: 0.000
  Activation threshold: yes
  Last used threshold : no
  Deleted threshold ..: yes
  Deactivate this line: yes
Found ipaddress "100.89.229.152" in proxy_id column in snet_changes.
  535156 cloud 2020-02-21 650078301566 NULL 100.89.229.152   NULL
  SELECT id, account_id_new, partner, bureau_id, panel_type, vendor_id, vendor_id_2, proxy_id, imei, iccid, phone_number, deleted_date FROM snet_changes WHERE proxy_id="100.89.229.152"

83: "Not found" verizon 89148000004333518911 311480434824496  353650078168007 3855228125 100.89.230.13 Active
  Activation date ....: 2018-07-18
  Last used date .....: 
  Acct deleted date ..: 
  Account ............: 0 ()
  Usage ..............: 0.000
  Activation threshold: yes
  Last used threshold : yes
  Deleted threshold ..: no
  Deactivate this line: yes

84: "Not found" verizon 89148000004333549957 311480434821335  353650078292526 3858671302 100.89.234.149 Active
  Activation date ....: 2018-07-18
  Last used date .....: 
  Acct deleted date ..: 
  Account ............: 0 ()
  Usage ..............: 0.000
  Activation threshold: yes
  Last used threshold : yes
  Deleted threshold ..: no
  Deactivate this line: yes

85: "Not found" verizon 89148000003600672310 311480367252498  353238064104184 3852494345 100.89.238.25 Active
  Activation date ....: 2018-08-10
  Last used date .....: 
  Acct deleted date ..: 
  Account ............: 0 ()
  Usage ..............: 0.000
  Activation threshold: yes
  Last used threshold : yes
  Deleted threshold ..: no
  Deactivate this line: yes

86: "Not found" verizon 89148000003600671460 311480367248422  353238063900848 3852225038 100.89.240.26 Active
  Activation date ....: 2018-08-10
  Last used date .....: 
  Acct deleted date ..: 
  Account ............: 0 ()
  Usage ..............: 0.000
  Activation threshold: yes
  Last used threshold : yes
  Deleted threshold ..: no
  Deactivate this line: yes

87: "Not found" verizon 89148000003600728781 311480367255747  353238063896996 3852280182 100.89.240.71 Active
  Activation date ....: 2018-08-10
  Last used date .....: 
  Acct deleted date ..: 
  Account ............: 0 ()
  Usage ..............: 0.000
  Activation threshold: yes
  Last used threshold : yes
  Deleted threshold ..: no
  Deactivate this line: yes

88: "Not found" verizon 89148000004136905380 311480417672449  359998070759743 3853156562 100.89.242.30 Active
  Activation date ....: 2018-08-10
  Last used date .....: 
  Acct deleted date ..: 
  Account ............: 0 ()
  Usage ..............: 0.000
  Activation threshold: yes
  Last used threshold : yes
  Deleted threshold ..: no
  Deactivate this line: yes

89: "Not found" verizon 89148000004383120378 311480439488890  353650078403461 3852665167 100.89.243.158 Active
  Activation date ....: 2018-08-10
  Last used date .....: 
  Acct deleted date ..: 
  Account ............: 0 ()
  Usage ..............: 0.000
  Activation threshold: yes
  Last used threshold : yes
  Deleted threshold ..: no
  Deactivate this line: yes

90: "Not found" verizon 89148000004383134197 311480439487744  353650078381030 3856309897 100.89.249.32 Active
  Activation date ....: 2018-08-13
  Last used date .....: 2019-05-22
  Acct deleted date ..: 
  Account ............: 0 ()
  Usage ..............: 0.000
  Activation threshold: yes
  Last used threshold : yes
  Deleted threshold ..: no
  Deactivate this line: yes

91: "Not found" verizon 89148000004383090589 311480439486034  353650078584104 3852613253 100.89.252.96 Active
  Activation date ....: 2018-08-13
  Last used date .....: 
  Acct deleted date ..: 
  Account ............: 0 ()
  Usage ..............: 0.000
  Activation threshold: yes
  Last used threshold : yes
  Deleted threshold ..: no
  Deactivate this line: yes

92: "Deleted (2020-02-17)" verizon 89148000004383134585 311480439488732  353650078748360 3855351819 100.89.255.12 Active
  Activation date ....: 2018-08-13
  Last used date .....: 2019-12-10
  Acct deleted date ..: 2020-02-17
  Account ............: 501863 (alder)
  Usage ..............: 0.000
  Activation threshold: yes
  Last used threshold : no
  Deleted threshold ..: yes
  Deactivate this line: yes
Found ipaddress "100.89.255.12" in proxy_id column in snet_changes.
  501863 alder 2020-02-17 650078748360 NULL 100.89.255.12   NULL
  SELECT id, account_id_new, partner, bureau_id, panel_type, vendor_id, vendor_id_2, proxy_id, imei, iccid, phone_number, deleted_date FROM snet_changes WHERE proxy_id="100.89.255.12"

93: "Deleted (2020-02-17)" verizon 89148000004383133934 311480439486858  353650078678617 5215492377 100.83.8.151 Active
  Activation date ....: 2018-08-29
  Last used date .....: 2019-11-19
  Acct deleted date ..: 2020-02-17
  Account ............: 513634 (alder)
  Usage ..............: 0.000
  Activation threshold: yes
  Last used threshold : no
  Deleted threshold ..: yes
  Deactivate this line: yes
Found ipaddress "100.83.8.151" in proxy_id column in snet_changes.
  513634 alder 2020-02-17 650078678617 NULL 100.83.8.151   NULL
  SELECT id, account_id_new, partner, bureau_id, panel_type, vendor_id, vendor_id_2, proxy_id, imei, iccid, phone_number, deleted_date FROM snet_changes WHERE proxy_id="100.83.8.151"

94: "Deleted (2020-02-17)" verizon 89148000004383133116 311480439490476  353650078669897 5215492393 100.83.8.165 Active
  Activation date ....: 2018-08-29
  Last used date .....: 2019-11-01
  Acct deleted date ..: 2020-02-17
  Account ............: 513541 (alder)
  Usage ..............: 0.000
  Activation threshold: yes
  Last used threshold : no
  Deleted threshold ..: yes
  Deactivate this line: yes
Found ipaddress "100.83.8.165" in proxy_id column in snet_changes.
  513541 alder 2020-02-17 650078669897 NULL 100.83.8.165   NULL
  SELECT id, account_id_new, partner, bureau_id, panel_type, vendor_id, vendor_id_2, proxy_id, imei, iccid, phone_number, deleted_date FROM snet_changes WHERE proxy_id="100.83.8.165"

95: "Not found" verizon 89148000004386010915 311480439730000  359998070768546 3858674726 100.83.4.216 Active
  Activation date ....: 2018-08-29
  Last used date .....: 2019-05-21
  Acct deleted date ..: 
  Account ............: 0 ()
  Usage ..............: 0.000
  Activation threshold: yes
  Last used threshold : yes
  Deleted threshold ..: no
  Deactivate this line: yes

96: "Deleted (2020-02-21)" verizon 89148000004385905578 311480439752788  359998071085130 5215521443 100.83.9.233 Active
  Activation date ....: 2018-08-30
  Last used date .....: 2020-02-17
  Acct deleted date ..: 2020-02-21
  Account ............: 769956 (pa)
  Usage ..............: 0.000
  Activation threshold: yes
  Last used threshold : no
  Deleted threshold ..: yes
  Deactivate this line: yes
Found ipaddress "100.83.9.233" in proxy_id column in snet_changes.
  769956 pa 2020-02-21 998071085130 NULL 100.83.9.233   NULL
  SELECT id, account_id_new, partner, bureau_id, panel_type, vendor_id, vendor_id_2, proxy_id, imei, iccid, phone_number, deleted_date FROM snet_changes WHERE proxy_id="100.83.9.233"

97: "Deleted (2020-01-01)" verizon 89148000004575891067 311480456367114  359998071561825 5889086508 100.83.41.51 Active
  Activation date ....: 2018-11-30
  Last used date .....: 2019-12-31
  Acct deleted date ..: 2020-01-01
  Account ............: 775082 (pa)
  Usage ..............: 0.000
  Activation threshold: yes
  Last used threshold : no
  Deleted threshold ..: yes
  Deactivate this line: yes
Found ipaddress "100.83.41.51" in proxy_id column in snet_changes.
  775082 pa 2020-01-01 998071561825 NULL 100.83.41.51   NULL
  SELECT id, account_id_new, partner, bureau_id, panel_type, vendor_id, vendor_id_2, proxy_id, imei, iccid, phone_number, deleted_date FROM snet_changes WHERE proxy_id="100.83.41.51"

98: "Deleted (2019-11-11)" verizon 89148000004706624973 311480468316438  359998071707857 5886990378 100.83.53.208 Active
  Activation date ....: 2018-12-26
  Last used date .....: 2019-11-06
  Acct deleted date ..: 2019-11-11
  Account ............: 558286 (cloud)
  Usage ..............: 0.000
  Activation threshold: yes
  Last used threshold : no
  Deleted threshold ..: yes
  Deactivate this line: yes
Found ipaddress "100.83.53.208" in proxy_id column in snet_changes.
  558286 cloud 2019-11-11 998071707857 NULL 100.83.53.208   NULL
  SELECT id, account_id_new, partner, bureau_id, panel_type, vendor_id, vendor_id_2, proxy_id, imei, iccid, phone_number, deleted_date FROM snet_changes WHERE proxy_id="100.83.53.208"

99: "Deleted (2019-12-01)" verizon 89148000004706678102 311480468317259   5886992021 100.83.54.65 Active
  Activation date ....: 2018-12-26
  Last used date .....: 2019-05-08
  Acct deleted date ..: 2019-12-01
  Account ............: 777550 (pa)
  Usage ..............: 0.000
  Activation threshold: yes
  Last used threshold : yes
  Deleted threshold ..: yes
  Deactivate this line: yes
Found ipaddress "100.83.54.65" in proxy_id column in snet_changes.
  777550 pa 2019-12-01 998071352118 NULL 100.83.54.65   NULL
  SELECT id, account_id_new, partner, bureau_id, panel_type, vendor_id, vendor_id_2, proxy_id, imei, iccid, phone_number, deleted_date FROM snet_changes WHERE proxy_id="100.83.54.65"

100: "Deleted (2020-01-01)" verizon 89148000004786550304 311480475737215  359998071496618 5226911341 100.83.56.98 Active
  Activation date ....: 2019-01-23
  Last used date .....: 2019-10-26
  Acct deleted date ..: 2020-01-01
  Account ............: 779588 (pa)
  Usage ..............: 0.000
  Activation threshold: yes
  Last used threshold : no
  Deleted threshold ..: yes
  Deactivate this line: yes
Found ipaddress "100.83.56.98" in proxy_id column in snet_changes.
  779588 pa 2020-01-01 998071496618 NULL 100.83.56.98   NULL
  SELECT id, account_id_new, partner, bureau_id, panel_type, vendor_id, vendor_id_2, proxy_id, imei, iccid, phone_number, deleted_date FROM snet_changes WHERE proxy_id="100.83.56.98"

101: "Deleted (2020-02-21)" verizon 89148000004786551484 311480475730484  359998071696159 5212932644 100.83.59.16 Active
  Activation date ....: 2019-01-23
  Last used date .....: 2020-02-19
  Acct deleted date ..: 2020-02-21
  Account ............: 529505 (cloud)
  Usage ..............: 0.000
  Activation threshold: yes
  Last used threshold : no
  Deleted threshold ..: yes
  Deactivate this line: yes
Found ipaddress "100.83.59.16" in proxy_id column in snet_changes.
  529505 cloud 2020-02-21 542160002663 NULL 100.83.59.16   NULL
  SELECT id, account_id_new, partner, bureau_id, panel_type, vendor_id, vendor_id_2, proxy_id, imei, iccid, phone_number, deleted_date FROM snet_changes WHERE proxy_id="100.83.59.16"

102: "Not found" verizon   A1000047A8E5DD  3854154688 100.88.28.120 Active
  Activation date ....: 2016-05-23
  Last used date .....: 
  Acct deleted date ..: 
  Account ............: 0 ()
  Usage ..............: 0.000
  Activation threshold: yes
  Last used threshold : yes
  Deleted threshold ..: no
  Deactivate this line: yes

103: "Not found" verizon 89148000004786156623 311480475704686  359998071963609 5232556190 100.83.65.177 Active
  Activation date ....: 2019-03-20
  Last used date .....: 2019-05-20
  Acct deleted date ..: 
  Account ............: 0 ()
  Usage ..............: 0.000
  Activation threshold: yes
  Last used threshold : yes
  Deleted threshold ..: no
  Deactivate this line: yes

104: "Not found" verizon 89148000004786024078 311480475695270  359998071480794 5232558664 100.83.80.161 Active
  Activation date ....: 2019-03-20
  Last used date .....: 2019-04-10
  Acct deleted date ..: 
  Account ............: 0 ()
  Usage ..............: 0.000
  Activation threshold: yes
  Last used threshold : yes
  Deleted threshold ..: no
  Deactivate this line: yes

105: "Deleted (2019-12-12)" verizon 89148000004972710381 311480491877206  359998072468491 5233131967 100.83.82.87 Active
  Activation date ....: 2019-05-06
  Last used date .....: 2020-01-31
  Acct deleted date ..: 2019-12-12
  Account ............: 789932 (pa)
  Usage ..............: 0.000
  Activation threshold: yes
  Last used threshold : no
  Deleted threshold ..: yes
  Deactivate this line: yes
Found ipaddress "100.83.82.87" in proxy_id column in snet_changes.
  789932 pa 2019-12-12 998072468491 NULL 100.83.82.87   NULL
  SELECT id, account_id_new, partner, bureau_id, panel_type, vendor_id, vendor_id_2, proxy_id, imei, iccid, phone_number, deleted_date FROM snet_changes WHERE proxy_id="100.83.82.87"

106: "Deleted (2020-02-18)" verizon 89148000004972833183 311480491879900  359998073044150 5233132105 100.83.83.109 Active
  Activation date ....: 2019-05-06
  Last used date .....: 2020-02-17
  Acct deleted date ..: 2020-02-18
  Account ............: 725708 (pa)
  Usage ..............: 0.000
  Activation threshold: yes
  Last used threshold : no
  Deleted threshold ..: yes
  Deactivate this line: yes
Found ipaddress "100.83.83.109" in proxy_id column in snet_changes.
  725708 pa 2020-02-18 998073044150 NULL 100.83.83.109   NULL
  SELECT id, account_id_new, partner, bureau_id, panel_type, vendor_id, vendor_id_2, proxy_id, imei, iccid, phone_number, deleted_date FROM snet_changes WHERE proxy_id="100.83.83.109"

107: "Deleted (2020-02-20)" verizon 89148000004972826740 311480491859528  359998072165998 5233132613 100.83.84.143 Active
  Activation date ....: 2019-05-06
  Last used date .....: 2019-08-29
  Acct deleted date ..: 2020-02-20
  Account ............: 786574 (pa)
  Usage ..............: 0.000
  Activation threshold: yes
  Last used threshold : no
  Deleted threshold ..: yes
  Deactivate this line: yes
Found ipaddress "100.83.84.143" in proxy_id column in snet_changes.
  786574 pa 2020-02-20 998072165998 NULL 100.83.84.143   NULL
  SELECT id, account_id_new, partner, bureau_id, panel_type, vendor_id, vendor_id_2, proxy_id, imei, iccid, phone_number, deleted_date FROM snet_changes WHERE proxy_id="100.83.84.143"

108: "Deleted (2020-02-22)" verizon 89148000004972835527 311480491880160  359998073438766 5233133012 100.83.86.71 Active
  Activation date ....: 2019-05-06
  Last used date .....: 2020-02-22
  Acct deleted date ..: 2020-02-22
  Account ............: 569899 (cloud)
  Usage ..............: 0.000
  Activation threshold: yes
  Last used threshold : no
  Deleted threshold ..: yes
  Deactivate this line: yes
Found ipaddress "100.83.86.71" in proxy_id column in snet_changes.
  569899 cloud 2020-02-22 998073438766 NULL 100.83.86.71   NULL
  SELECT id, account_id_new, partner, bureau_id, panel_type, vendor_id, vendor_id_2, proxy_id, imei, iccid, phone_number, deleted_date FROM snet_changes WHERE proxy_id="100.83.86.71"

109: "Deleted (2019-07-10)" verizon 89148000004972718137 311480491881989  359998071981643 5233134395 100.83.91.205 Active
  Activation date ....: 2019-05-06
  Last used date .....: 2020-04-15
  Acct deleted date ..: 2019-07-10
  Account ............: 784502 (pa)
  Usage ..............: 0.000
  Activation threshold: yes
  Last used threshold : no
  Deleted threshold ..: yes
  Deactivate this line: yes
Found ipaddress "100.83.91.205" in proxy_id column in snet_changes.
  784502 pa 2019-07-10 998071981643 NULL 100.83.91.205   NULL
  SELECT id, account_id_new, partner, bureau_id, panel_type, vendor_id, vendor_id_2, proxy_id, imei, iccid, phone_number, deleted_date FROM snet_changes WHERE proxy_id="100.83.91.205"

110: "Deleted (2020-02-20)" verizon 89148000004972897287 311480491854872  359998073064554 5233138884 100.83.108.121 Active
  Activation date ....: 2019-05-07
  Last used date .....: 2020-05-21
  Acct deleted date ..: 2020-02-20
  Account ............: 790372 (pa)
  Usage ..............: 0.280
  Activation threshold: yes
  Last used threshold : no
  Deleted threshold ..: yes
  Deactivate this line: yes
Found ipaddress "100.83.108.121" in proxy_id column in snet_changes.
  790372 pa 2020-02-20 998073064554 NULL 100.83.108.121   NULL
  SELECT id, account_id_new, partner, bureau_id, panel_type, vendor_id, vendor_id_2, proxy_id, imei, iccid, phone_number, deleted_date FROM snet_changes WHERE proxy_id="100.83.108.121"

111: "Not found" verizon 89148000004972895315 311480491879435   5233138673 100.83.107.187 Active
  Activation date ....: 2019-05-07
  Last used date .....: 2019-05-20
  Acct deleted date ..: 
  Account ............: 0 ()
  Usage ..............: 0.000
  Activation threshold: yes
  Last used threshold : yes
  Deleted threshold ..: no
  Deactivate this line: yes

112: "Deleted (2020-02-20)" verizon 89148000004972954807 311480491868890  359998073058846 5233139078 100.83.108.250 Active
  Activation date ....: 2019-05-07
  Last used date .....: 2019-12-05
  Acct deleted date ..: 2020-02-20
  Account ............: 790046 (pa)
  Usage ..............: 0.000
  Activation threshold: yes
  Last used threshold : no
  Deleted threshold ..: yes
  Deactivate this line: yes
Found ipaddress "100.83.108.250" in proxy_id column in snet_changes.
  790046 pa 2020-02-20 998073058846 NULL 100.83.108.250   NULL
  SELECT id, account_id_new, partner, bureau_id, panel_type, vendor_id, vendor_id_2, proxy_id, imei, iccid, phone_number, deleted_date FROM snet_changes WHERE proxy_id="100.83.108.250"

113: "Not found" verizon 89148000004972895265 311480491861521   5233138664 100.83.107.173 Active
  Activation date ....: 2019-05-07
  Last used date .....: 2019-05-21
  Acct deleted date ..: 
  Account ............: 0 ()
  Usage ..............: 0.000
  Activation threshold: yes
  Last used threshold : yes
  Deleted threshold ..: no
  Deactivate this line: yes

114: "Not found" verizon 89148000004972895430 311480491872094   5233138697 100.83.107.222 Active
  Activation date ....: 2019-05-07
  Last used date .....: 2019-05-20
  Acct deleted date ..: 
  Account ............: 0 ()
  Usage ..............: 0.000
  Activation threshold: yes
  Last used threshold : yes
  Deleted threshold ..: no
  Deactivate this line: yes

115: "Not found" verizon 89148000004972895497 311480491863481   5233138711 100.83.108.6 Active
  Activation date ....: 2019-05-07
  Last used date .....: 2019-05-20
  Acct deleted date ..: 
  Account ............: 0 ()
  Usage ..............: 0.000
  Activation threshold: yes
  Last used threshold : yes
  Deleted threshold ..: no
  Deactivate this line: yes

116: "Not found" verizon 89148000004972895414 311480491873552   5233138693 100.83.107.216 Active
  Activation date ....: 2019-05-07
  Last used date .....: 2019-05-20
  Acct deleted date ..: 
  Account ............: 0 ()
  Usage ..............: 0.000
  Activation threshold: yes
  Last used threshold : yes
  Deleted threshold ..: no
  Deactivate this line: yes

117: "Not found" verizon 89148000004972895489 311480491875001   5233138709 100.83.107.245 Active
  Activation date ....: 2019-05-07
  Last used date .....: 2019-05-20
  Acct deleted date ..: 
  Account ............: 0 ()
  Usage ..............: 0.000
  Activation threshold: yes
  Last used threshold : yes
  Deleted threshold ..: no
  Deactivate this line: yes

118: "Not found" verizon 89148000004972895604 311480491871356  359998072476569 5233138722 100.83.108.27 Active
  Activation date ....: 2019-05-07
  Last used date .....: 2019-05-20
  Acct deleted date ..: 
  Account ............: 0 ()
  Usage ..............: 0.000
  Activation threshold: yes
  Last used threshold : yes
  Deleted threshold ..: no
  Deactivate this line: yes

119: "Not found" verizon 89148000004972782638 311480491850710   5233138625 100.83.107.224 Active
  Activation date ....: 2019-05-07
  Last used date .....: 2019-05-21
  Acct deleted date ..: 
  Account ............: 0 ()
  Usage ..............: 0.000
  Activation threshold: yes
  Last used threshold : yes
  Deleted threshold ..: no
  Deactivate this line: yes

120: "Not found" verizon 89148000004972782661 311480491879351  359998072171608 5233138628 100.83.107.236 Active
  Activation date ....: 2019-05-07
  Last used date .....: 2019-05-21
  Acct deleted date ..: 
  Account ............: 0 ()
  Usage ..............: 0.000
  Activation threshold: yes
  Last used threshold : yes
  Deleted threshold ..: no
  Deactivate this line: yes

121: "Not found" verizon 89148000004972782596 311480491850013  359998072474861 5233138621 100.83.107.212 Active
  Activation date ....: 2019-05-07
  Last used date .....: 2019-05-21
  Acct deleted date ..: 
  Account ............: 0 ()
  Usage ..............: 0.000
  Activation threshold: yes
  Last used threshold : yes
  Deleted threshold ..: no
  Deactivate this line: yes

122: "Not found" verizon 89148000004972782687 311480491882013   5233138630 100.83.107.247 Active
  Activation date ....: 2019-05-07
  Last used date .....: 2019-05-21
  Acct deleted date ..: 
  Account ............: 0 ()
  Usage ..............: 0.000
  Activation threshold: yes
  Last used threshold : yes
  Deleted threshold ..: no
  Deactivate this line: yes

123: "Not found" verizon 89148000004972782604 311480491851697   5233138622 100.83.107.215 Active
  Activation date ....: 2019-05-07
  Last used date .....: 2019-05-21
  Acct deleted date ..: 
  Account ............: 0 ()
  Usage ..............: 0.000
  Activation threshold: yes
  Last used threshold : yes
  Deleted threshold ..: no
  Deactivate this line: yes

124: "Deleted (2020-02-17)" verizon 89148000005143479640 311480506042772  359636094731419 5235466156 100.83.115.82 Active
  Activation date ....: 2019-06-03
  Last used date .....: 2020-05-13
  Acct deleted date ..: 2020-02-17
  Account ............: 515493 (alder)
  Usage ..............: 0.460
  Activation threshold: no
  Last used threshold : no
  Deleted threshold ..: yes
  Deactivate this line: yes
Found ipaddress "100.83.115.82" in proxy_id column in snet_changes.
  515493 alder 2020-02-17 636094731419 NULL 100.83.115.82   NULL
  SELECT id, account_id_new, partner, bureau_id, panel_type, vendor_id, vendor_id_2, proxy_id, imei, iccid, phone_number, deleted_date FROM snet_changes WHERE proxy_id="100.83.115.82"

125: "Deleted (2020-02-17)" verizon 89148000005143479673 311480506045127  359636094661541 5235466159 100.83.115.85 Active
  Activation date ....: 2019-06-03
  Last used date .....: 2019-12-25
  Acct deleted date ..: 2020-02-17
  Account ............: 515279 (alder)
  Usage ..............: 0.000
  Activation threshold: no
  Last used threshold : no
  Deleted threshold ..: yes
  Deactivate this line: yes
Found ipaddress "100.83.115.85" in proxy_id column in snet_changes.
  515279 alder 2020-02-17 636094661541 NULL 100.83.115.85   NULL
  SELECT id, account_id_new, partner, bureau_id, panel_type, vendor_id, vendor_id_2, proxy_id, imei, iccid, phone_number, deleted_date FROM snet_changes WHERE proxy_id="100.83.115.85"

126: "Deleted (2020-02-17)" verizon 89148000005143465540 311480506044513  359636094220413 5235468106 100.83.120.172 Active
  Activation date ....: 2019-06-03
  Last used date .....: 2020-04-27
  Acct deleted date ..: 2020-02-17
  Account ............: 512778 (alder)
  Usage ..............: 0.070
  Activation threshold: no
  Last used threshold : no
  Deleted threshold ..: yes
  Deactivate this line: yes
Found ipaddress "100.83.120.172" in proxy_id column in snet_changes.
  512778 alder 2020-02-17 636094220413 NULL 100.83.120.172   NULL
  SELECT id, account_id_new, partner, bureau_id, panel_type, vendor_id, vendor_id_2, proxy_id, imei, iccid, phone_number, deleted_date FROM snet_changes WHERE proxy_id="100.83.120.172"

127: "Deleted (2020-02-20)" verizon 89148000005143475317 311480506046514  359636094854096 5235471012 100.83.130.45 Active
  Activation date ....: 2019-06-03
  Last used date .....: 2020-02-09
  Acct deleted date ..: 2020-02-20
  Account ............: 549735 (cloud)
  Usage ..............: 0.000
  Activation threshold: no
  Last used threshold : no
  Deleted threshold ..: yes
  Deactivate this line: yes
Found ipaddress "100.83.130.45" in proxy_id column in snet_changes.
  549735 cloud 2020-02-20 636094854096 NULL 100.83.130.45   NULL
  SELECT id, account_id_new, partner, bureau_id, panel_type, vendor_id, vendor_id_2, proxy_id, imei, iccid, phone_number, deleted_date FROM snet_changes WHERE proxy_id="100.83.130.45"

128: "Deleted (2020-01-07)" verizon 89148000004447324172 311480445313249  359636094214218 5235475603  Active
  Activation date ....: 2019-06-03
  Last used date .....: 2020-05-19
  Acct deleted date ..: 2020-01-07
  Account ............: 564836 (cloud)
  Usage ..............: 0.100
  Activation threshold: no
  Last used threshold : no
  Deleted threshold ..: yes
  Deactivate this line: yes
Found iccid "89148000004447324172" in phone_number column in snet_changes.
  564836 cloud 2020-01-07 636094214218 NULL 100.83.134.235   89148000004447324172
  SELECT id, account_id_new, partner, bureau_id, panel_type, vendor_id, vendor_id_2, proxy_id, imei, iccid, phone_number, deleted_date FROM snet_changes WHERE phone_number="89148000004447324172"

129: "Deleted (2020-02-17)" verizon 89148000004447329551 311480445311567  359636094195706 5235477828 100.83.136.163 Active
  Activation date ....: 2019-06-03
  Last used date .....: 2020-04-26
  Acct deleted date ..: 2020-02-17
  Account ............: 513292 (alder)
  Usage ..............: 0.050
  Activation threshold: no
  Last used threshold : no
  Deleted threshold ..: yes
  Deactivate this line: yes
Found ipaddress "100.83.136.163" in proxy_id column in snet_changes.
  513292 alder 2020-02-17 636094195706 NULL 100.83.136.163   NULL
  SELECT id, account_id_new, partner, bureau_id, panel_type, vendor_id, vendor_id_2, proxy_id, imei, iccid, phone_number, deleted_date FROM snet_changes WHERE proxy_id="100.83.136.163"

130: "Deleted (2020-02-17)" verizon 89148000004447316384 311480445310632  359636094636634 5235477841 100.83.136.171 Active
  Activation date ....: 2019-06-03
  Last used date .....: 2020-05-22
  Acct deleted date ..: 2020-02-17
  Account ............: 515268 (alder)
  Usage ..............: 1.370
  Activation threshold: no
  Last used threshold : no
  Deleted threshold ..: yes
  Deactivate this line: yes
Found ipaddress "100.83.136.171" in proxy_id column in snet_changes.
  515268 alder 2020-02-17 636094636634 NULL 100.83.136.171   NULL
  SELECT id, account_id_new, partner, bureau_id, panel_type, vendor_id, vendor_id_2, proxy_id, imei, iccid, phone_number, deleted_date FROM snet_changes WHERE proxy_id="100.83.136.171"

131: "Deleted (2018-04-20)" verizon 89148000005186394847 311480509369765  359636099929034 5237228243 100.88.23.4 Active
  Activation date ....: 2019-09-06
  Last used date .....: 
  Acct deleted date ..: 2018-04-20
  Account ............: 455630 (cloud)
  Usage ..............: 0.000
  Activation threshold: no
  Last used threshold : no
  Deleted threshold ..: yes
  Deactivate this line: yes
Found ipaddress "100.88.23.4" in proxy_id column in snet_changes.
  455630 cloud 2018-04-20 00004999B0E7 NULL 100.88.23.4   NULL
  SELECT id, account_id_new, partner, bureau_id, panel_type, vendor_id, vendor_id_2, proxy_id, imei, iccid, phone_number, deleted_date FROM snet_changes WHERE proxy_id="100.88.23.4"

132: "Deleted (2020-01-25)" verizon 89148000005501720643 311480537960024  358152102102040 5242008591  Active
  Activation date ....: 2019-11-21
  Last used date .....: 2020-05-19
  Acct deleted date ..: 2020-01-25
  Account ............: 567138 (cloud)
  Usage ..............: 0.090
  Activation threshold: no
  Last used threshold : no
  Deleted threshold ..: yes
  Deactivate this line: yes
Found iccid "89148000005501720643" in phone_number column in snet_changes.
  567138 cloud 2020-01-25 152102102040 NULL NULL   89148000005501720643
  SELECT id, account_id_new, partner, bureau_id, panel_type, vendor_id, vendor_id_2, proxy_id, imei, iccid, phone_number, deleted_date FROM snet_changes WHERE phone_number="89148000005501720643"

133: "Deleted (2019-04-04)" verizon 89148000005506368125 311480538128199  358152101477351 5232959868 100.88.111.166 Active
  Activation date ....: 2019-11-22
  Last used date .....: 
  Acct deleted date ..: 2019-04-04
  Account ............: 426571 (alder)
  Usage ..............: 0.000
  Activation threshold: no
  Last used threshold : no
  Deleted threshold ..: yes
  Deactivate this line: yes
Found ipaddress "100.88.111.166" in proxy_id column in snet_changes.
  426571 alder 2019-04-04 000051D4ECCB NULL 100.88.111.166   NULL
  SELECT id, account_id_new, partner, bureau_id, panel_type, vendor_id, vendor_id_2, proxy_id, imei, iccid, phone_number, deleted_date FROM snet_changes WHERE proxy_id="100.88.111.166"

134: "Deleted (2018-07-10)" verizon 89148000005501730766 311480537956891  359636096985310 5236097014 100.88.121.43 Active
  Activation date ....: 2019-11-22
  Last used date .....: 
  Acct deleted date ..: 2018-07-10
  Account ............: 754142 (pa)
  Usage ..............: 0.000
  Activation threshold: no
  Last used threshold : no
  Deleted threshold ..: yes
  Deactivate this line: yes
Found ipaddress "100.88.121.43" in proxy_id column in snet_changes.
  754142 pa 2018-07-10 000051CD805B NULL 100.88.121.43   NULL
  SELECT id, account_id_new, partner, bureau_id, panel_type, vendor_id, vendor_id_2, proxy_id, imei, iccid, phone_number, deleted_date FROM snet_changes WHERE proxy_id="100.88.121.43"

135: "Deleted (2018-11-14)" verizon 89148000005501755102 311480537959934  359636096978463 5225604744 100.88.83.216 Active
  Activation date ....: 2019-11-22
  Last used date .....: 
  Acct deleted date ..: 2018-11-14
  Account ............: 424773 (alder)
  Usage ..............: 0.000
  Activation threshold: no
  Last used threshold : no
  Deleted threshold ..: yes
  Deactivate this line: yes
Found ipaddress "100.88.83.216" in proxy_id column in snet_changes.
  424773 alder 2018-11-14 000051D01567 NULL 100.88.83.216   NULL
  SELECT id, account_id_new, partner, bureau_id, panel_type, vendor_id, vendor_id_2, proxy_id, imei, iccid, phone_number, deleted_date FROM snet_changes WHERE proxy_id="100.88.83.216"

136: "Deleted (2018-07-25)" verizon 89148000005501731798 311480537957122  358152102145684 5232776374 100.88.102.167 Active
  Activation date ....: 2019-11-22
  Last used date .....: 
  Acct deleted date ..: 2018-07-25
  Account ............: 450293 (cloud)
  Usage ..............: 0.000
  Activation threshold: no
  Last used threshold : no
  Deleted threshold ..: yes
  Deactivate this line: yes
Found ipaddress "100.88.102.167" in proxy_id column in snet_changes.
  450293 cloud 2018-07-25 00004D950646 NULL 100.88.102.167   NULL
  SELECT id, account_id_new, partner, bureau_id, panel_type, vendor_id, vendor_id_2, proxy_id, imei, iccid, phone_number, deleted_date FROM snet_changes WHERE proxy_id="100.88.102.167"

137: "Deleted (2019-05-22)" verizon 89148000005501718027 311480537956973  359636096963465 5232234764 100.88.99.6 Active
  Activation date ....: 2019-11-22
  Last used date .....: 
  Acct deleted date ..: 2019-05-22
  Account ............: 432240 (alder)
  Usage ..............: 0.000
  Activation threshold: no
  Last used threshold : no
  Deleted threshold ..: yes
  Deactivate this line: yes
Found ipaddress "100.88.99.6" in proxy_id column in snet_changes.
  432240 alder 2019-05-22 000049A1B326 NULL 100.88.99.6   NULL
  SELECT id, account_id_new, partner, bureau_id, panel_type, vendor_id, vendor_id_2, proxy_id, imei, iccid, phone_number, deleted_date FROM snet_changes WHERE proxy_id="100.88.99.6"

138: "Deleted (2019-07-29)" verizon 89148000005501718753 311480537958821  359636096968142 5225384640 100.88.81.32 Active
  Activation date ....: 2019-11-22
  Last used date .....: 
  Acct deleted date ..: 2019-07-29
  Account ............: 472145 (cloud)
  Usage ..............: 0.000
  Activation threshold: no
  Last used threshold : no
  Deleted threshold ..: yes
  Deactivate this line: yes
Found ipaddress "100.88.81.32" in proxy_id column in snet_changes.
  472145 cloud 2019-07-29 000051D01B9C NULL 100.88.81.32   5174084131
  SELECT id, account_id_new, partner, bureau_id, panel_type, vendor_id, vendor_id_2, proxy_id, imei, iccid, phone_number, deleted_date FROM snet_changes WHERE proxy_id="100.88.81.32"

139: "Deleted (2019-10-01)" verizon 89148000005506373141 311480538130073  359636096984685 5242285228 100.88.38.72 Active
  Activation date ....: 2019-12-03
  Last used date .....: 
  Acct deleted date ..: 2019-10-01
  Account ............: 674478 (pa)
  Usage ..............: 0.000
  Activation threshold: no
  Last used threshold : no
  Deleted threshold ..: yes
  Deactivate this line: yes
Found ipaddress "100.88.38.72" in proxy_id column in snet_changes.
  674478 pa 2019-10-01 00003E4C23BD NULL 100.88.38.72   NULL
  SELECT id, account_id_new, partner, bureau_id, panel_type, vendor_id, vendor_id_2, proxy_id, imei, iccid, phone_number, deleted_date FROM snet_changes WHERE proxy_id="100.88.38.72"

140: "Deleted (2019-05-01)" verizon 89148000005655771756 311480551505788  358152105420977 5779698159 100.88.156.244 Active
  Activation date ....: 2019-12-26
  Last used date .....: 
  Acct deleted date ..: 2019-05-01
  Account ............: 427366 (alder)
  Usage ..............: 0.000
  Activation threshold: no
  Last used threshold : no
  Deleted threshold ..: yes
  Deactivate this line: yes
Found ipaddress "100.88.156.244" in proxy_id column in snet_changes.
  427366 alder 2019-05-01 000051D8654A NULL 100.88.156.244   NULL
  SELECT id, account_id_new, partner, bureau_id, panel_type, vendor_id, vendor_id_2, proxy_id, imei, iccid, phone_number, deleted_date FROM snet_changes WHERE proxy_id="100.88.156.244"

141: "Deleted (2019-07-29)" verizon 89148000005655830172 311480551513267  358152105305319 5884704362 100.88.190.172 Active
  Activation date ....: 2019-12-26
  Last used date .....: 
  Acct deleted date ..: 2019-07-29
  Account ............: 466145 (cloud)
  Usage ..............: 0.000
  Activation threshold: no
  Last used threshold : no
  Deleted threshold ..: yes
  Deactivate this line: yes
Found ipaddress "100.88.190.172" in proxy_id column in snet_changes.
  466145 cloud 2019-07-29 000051D89408 NULL 100.88.190.172   9474284965
  SELECT id, account_id_new, partner, bureau_id, panel_type, vendor_id, vendor_id_2, proxy_id, imei, iccid, phone_number, deleted_date FROM snet_changes WHERE proxy_id="100.88.190.172"

142: "Deleted (2018-07-20)" verizon 89148000005501715304 311480537959865  358152105180316 5884720847 100.89.3.33 Active
  Activation date ....: 2019-12-26
  Last used date .....: 
  Acct deleted date ..: 2018-07-20
  Account ............: 470272 (cloud)
  Usage ..............: 0.000
  Activation threshold: no
  Last used threshold : no
  Deleted threshold ..: yes
  Deactivate this line: yes
Found ipaddress "100.89.3.33" in proxy_id column in snet_changes.
  470272 cloud 2018-07-20 000051E5B27F NULL 100.89.3.33   NULL
  SELECT id, account_id_new, partner, bureau_id, panel_type, vendor_id, vendor_id_2, proxy_id, imei, iccid, phone_number, deleted_date FROM snet_changes WHERE proxy_id="100.89.3.33"

143: "Deleted (2019-02-01)" verizon 89148000005655826048 311480551512803  358152105285982 5884735243 100.89.7.2 Active
  Activation date ....: 2019-12-26
  Last used date .....: 
  Acct deleted date ..: 2019-02-01
  Account ............: 481925 (cloud)
  Usage ..............: 0.000
  Activation threshold: no
  Last used threshold : no
  Deleted threshold ..: yes
  Deactivate this line: yes
Found ipaddress "100.89.7.2" in proxy_id column in snet_changes.
  481925 cloud 2019-02-01 000051DC7173 NULL 100.89.7.2   4407025937
  SELECT id, account_id_new, partner, bureau_id, panel_type, vendor_id, vendor_id_2, proxy_id, imei, iccid, phone_number, deleted_date FROM snet_changes WHERE proxy_id="100.89.7.2"

144: "Deleted (2018-06-23)" verizon 89148000005655792265 311480551512956  358152105402926 5884873799 100.89.38.121 Active
  Activation date ....: 2019-12-26
  Last used date .....: 
  Acct deleted date ..: 2018-06-23
  Account ............: 460912 (alder)
  Usage ..............: 0.000
  Activation threshold: no
  Last used threshold : no
  Deleted threshold ..: yes
  Deactivate this line: yes
Found ipaddress "100.89.38.121" in proxy_id column in snet_changes.
  460912 alder 2018-06-23 000051D8D359 NULL 100.89.38.121   NULL
  SELECT id, account_id_new, partner, bureau_id, panel_type, vendor_id, vendor_id_2, proxy_id, imei, iccid, phone_number, deleted_date FROM snet_changes WHERE proxy_id="100.89.38.121"

145: "Deleted (2019-04-12)" verizon 89148000005506362037 311480538132429  358152105281957 5886624252 100.88.172.210 Active
  Activation date ....: 2019-12-26
  Last used date .....: 
  Acct deleted date ..: 2019-04-12
  Account ............: 440621 (alder)
  Usage ..............: 0.000
  Activation threshold: no
  Last used threshold : no
  Deleted threshold ..: yes
  Deactivate this line: yes
Found ipaddress "100.88.172.210" in proxy_id column in snet_changes.
  440621 alder 2019-04-12 000051D884E5 NULL 100.88.172.210   NULL
  SELECT id, account_id_new, partner, bureau_id, panel_type, vendor_id, vendor_id_2, proxy_id, imei, iccid, phone_number, deleted_date FROM snet_changes WHERE proxy_id="100.88.172.210"

146: "Deleted (2019-07-05)" verizon 89148000005501740336 311480537962896  358152105182726 5886806269 100.89.6.24 Active
  Activation date ....: 2019-12-26
  Last used date .....: 
  Acct deleted date ..: 2019-07-05
  Account ............: 442558 (alder)
  Usage ..............: 0.000
  Activation threshold: no
  Last used threshold : no
  Deleted threshold ..: yes
  Deactivate this line: yes
Found ipaddress "100.89.6.24" in proxy_id column in snet_changes.
  442558 alder 2019-07-05 000051DC6E51 NULL 100.89.6.24   NULL
  SELECT id, account_id_new, partner, bureau_id, panel_type, vendor_id, vendor_id_2, proxy_id, imei, iccid, phone_number, deleted_date FROM snet_changes WHERE proxy_id="100.89.6.24"

147: "Deleted (2019-07-01)" verizon 89148000005506364116 311480538130553  358152105419938 5886969330 100.89.31.160 Active
  Activation date ....: 2019-12-26
  Last used date .....: 
  Acct deleted date ..: 2019-07-01
  Account ............: 461702 (alder)
  Usage ..............: 0.000
  Activation threshold: no
  Last used threshold : no
  Deleted threshold ..: yes
  Deactivate this line: yes
Found ipaddress "100.89.31.160" in proxy_id column in snet_changes.
  461702 alder 2019-07-01 000051D8D9FA 100000000000 100.89.31.160   NULL
  SELECT id, account_id_new, partner, bureau_id, panel_type, vendor_id, vendor_id_2, proxy_id, imei, iccid, phone_number, deleted_date FROM snet_changes WHERE proxy_id="100.89.31.160"

148: "Deleted (2019-09-01)" verizon 89148000005655800878 311480551510446  358152105423070 5887236792 100.88.17.120 Active
  Activation date ....: 2019-12-26
  Last used date .....: 
  Acct deleted date ..: 2019-09-01
  Account ............: 660368 (pa)
  Usage ..............: 0.000
  Activation threshold: no
  Last used threshold : no
  Deleted threshold ..: yes
  Deactivate this line: yes
Found ipaddress "100.88.17.120" in proxy_id column in snet_changes.
  660368 pa 2019-09-01 000049998C51 NULL 100.88.17.120   NULL
  SELECT id, account_id_new, partner, bureau_id, panel_type, vendor_id, vendor_id_2, proxy_id, imei, iccid, phone_number, deleted_date FROM snet_changes WHERE proxy_id="100.88.17.120"

149: "Deleted (2019-07-03)" verizon 89148000005506352897 311480538132938  358152106322156 5232165682 100.88.61.94 Active
  Activation date ....: 2020-01-27
  Last used date .....: 2020-02-26
  Acct deleted date ..: 2019-07-03
  Account ............: 421097 (alder)
  Usage ..............: 0.000
  Activation threshold: no
  Last used threshold : no
  Deleted threshold ..: yes
  Deactivate this line: yes
Found ipaddress "100.88.61.94" in proxy_id column in snet_changes.
  421097 alder 2019-07-03 000047AE0844 NULL 100.88.61.94   NULL
  SELECT id, account_id_new, partner, bureau_id, panel_type, vendor_id, vendor_id_2, proxy_id, imei, iccid, phone_number, deleted_date FROM snet_changes WHERE proxy_id="100.88.61.94"

150: "Deleted (2020-01-01)" verizon 89148000005506355072 311480538129823  358152106548362 5232165818 100.88.79.92 Active
  Activation date ....: 2020-01-27
  Last used date .....: 
  Acct deleted date ..: 2020-01-01
  Account ............: 662136 (pa)
  Usage ..............: 0.000
  Activation threshold: no
  Last used threshold : no
  Deleted threshold ..: yes
  Deactivate this line: yes
Found ipaddress "100.88.79.92" in proxy_id column in snet_changes.
  662136 pa 2020-01-01 000049A1CBBE NULL 100.88.79.92   NULL
  SELECT id, account_id_new, partner, bureau_id, panel_type, vendor_id, vendor_id_2, proxy_id, imei, iccid, phone_number, deleted_date FROM snet_changes WHERE proxy_id="100.88.79.92"

151: "Deleted (2019-02-25)" verizon 89148000005655809754 311480551513554  358152106595025 5232166521 100.89.10.44 Active
  Activation date ....: 2020-01-27
  Last used date .....: 
  Acct deleted date ..: 2019-02-25
  Account ............: 449442 (alder)
  Usage ..............: 0.000
  Activation threshold: no
  Last used threshold : no
  Deleted threshold ..: yes
  Deactivate this line: yes
Found ipaddress "100.89.10.44" in proxy_id column in snet_changes.
  449442 alder 2019-02-25 000051DC8E40 NULL 100.89.10.44   NULL
  SELECT id, account_id_new, partner, bureau_id, panel_type, vendor_id, vendor_id_2, proxy_id, imei, iccid, phone_number, deleted_date FROM snet_changes WHERE proxy_id="100.89.10.44"

152: "Deleted (2019-10-01)" verizon 89148000005787489301 311480562928481  359998073277743 5243460312 100.88.124.150 Active
  Activation date ....: 2020-02-27
  Last used date .....: 2020-03-27
  Acct deleted date ..: 2019-10-01
  Account ............: 697494 (pa)
  Usage ..............: 0.000
  Activation threshold: no
  Last used threshold : no
  Deleted threshold ..: yes
  Deactivate this line: yes
Found ipaddress "100.88.124.150" in proxy_id column in snet_changes.
  697494 pa 2019-10-01 000051CD8E4D NULL 100.88.124.150   NULL
  SELECT id, account_id_new, partner, bureau_id, panel_type, vendor_id, vendor_id_2, proxy_id, imei, iccid, phone_number, deleted_date FROM snet_changes WHERE proxy_id="100.88.124.150"

153: "Deleted (2019-08-02)" verizon 89148000005787489632 311480562930348  359998073255798 5243460360 100.88.156.94 Active
  Activation date ....: 2020-02-27
  Last used date .....: 2020-03-27
  Acct deleted date ..: 2019-08-02
  Account ............: 432721 (alder)
  Usage ..............: 0.000
  Activation threshold: no
  Last used threshold : no
  Deleted threshold ..: yes
  Deactivate this line: yes
Found ipaddress "100.88.156.94" in proxy_id column in snet_changes.
  432721 alder 2019-08-02 000051D8FC3A NULL 100.88.156.94   NULL
  SELECT id, account_id_new, partner, bureau_id, panel_type, vendor_id, vendor_id_2, proxy_id, imei, iccid, phone_number, deleted_date FROM snet_changes WHERE proxy_id="100.88.156.94"

154: "Deleted (2019-02-01)" verizon 89148000005787489806 311480562932923  359998073254254 5243460415 100.89.3.21 Active
  Activation date ....: 2020-02-27
  Last used date .....: 2020-03-27
  Acct deleted date ..: 2019-02-01
  Account ............: 504423 (cloud)
  Usage ..............: 0.000
  Activation threshold: no
  Last used threshold : no
  Deleted threshold ..: yes
  Deactivate this line: yes
Found ipaddress "100.89.3.21" in proxy_id column in snet_changes.
  504423 cloud 2019-02-01 000051E488BB NULL 100.89.3.21   NULL
  SELECT id, account_id_new, partner, bureau_id, panel_type, vendor_id, vendor_id_2, proxy_id, imei, iccid, phone_number, deleted_date FROM snet_changes WHERE proxy_id="100.89.3.21"

155: "Deleted (2018-03-25)" verizon 89148000005789412210 311480563138016  358152106697219 5883586878 100.89.114.87 Active
  Activation date ....: 2020-03-13
  Last used date .....: 
  Acct deleted date ..: 2018-03-25
  Account ............: 742296 (pa)
  Usage ..............: 0.000
  Activation threshold: no
  Last used threshold : no
  Deleted threshold ..: yes
  Deactivate this line: yes
Found ipaddress "100.89.114.87" in proxy_id column in snet_changes.
  742296 pa 2018-03-25 998070460862 NULL 100.89.114.87   NULL
  SELECT id, account_id_new, partner, bureau_id, panel_type, vendor_id, vendor_id_2, proxy_id, imei, iccid, phone_number, deleted_date FROM snet_changes WHERE proxy_id="100.89.114.87"

156: "Deleted (2018-03-22)" verizon 89148000005855441739 311480568008278  358152105907163 5883651702 100.89.115.134 Active
  Activation date ....: 2020-03-13
  Last used date .....: 
  Acct deleted date ..: 2018-03-22
  Account ............: 742202 (pa)
  Usage ..............: 0.000
  Activation threshold: no
  Last used threshold : no
  Deleted threshold ..: yes
  Deactivate this line: yes
Found ipaddress "100.89.115.134" in proxy_id column in snet_changes.
  742202 pa 2018-03-22 998070465135 NULL 100.89.115.134   NULL
  SELECT id, account_id_new, partner, bureau_id, panel_type, vendor_id, vendor_id_2, proxy_id, imei, iccid, phone_number, deleted_date FROM snet_changes WHERE proxy_id="100.89.115.134"

157: "Deleted (2018-08-17)" verizon 89148000005855443040 311480568007152  358152106709725 5883942688 100.89.202.59 Active
  Activation date ....: 2020-03-13
  Last used date .....: 
  Acct deleted date ..: 2018-08-17
  Account ............: 756138 (pa)
  Usage ..............: 0.000
  Activation threshold: no
  Last used threshold : no
  Deleted threshold ..: yes
  Deactivate this line: yes
Found ipaddress "100.89.202.59" in proxy_id column in snet_changes.
  756138 pa 2018-08-17 998070943222 NULL 100.89.202.59   NULL
  SELECT id, account_id_new, partner, bureau_id, panel_type, vendor_id, vendor_id_2, proxy_id, imei, iccid, phone_number, deleted_date FROM snet_changes WHERE proxy_id="100.89.202.59"

158: "Deleted (2019-02-01)" verizon 89148000005789404837 311480563134538  358152106034272 5884015868 100.89.242.10 Active
  Activation date ....: 2020-03-13
  Last used date .....: 
  Acct deleted date ..: 2019-02-01
  Account ............: 727532 (pa)
  Usage ..............: 0.000
  Activation threshold: no
  Last used threshold : no
  Deleted threshold ..: yes
  Deactivate this line: yes
Found ipaddress "100.89.242.10" in proxy_id column in snet_changes.
  727532 pa 2019-02-01 998070723590 NULL 100.89.242.10   NULL
  SELECT id, account_id_new, partner, bureau_id, panel_type, vendor_id, vendor_id_2, proxy_id, imei, iccid, phone_number, deleted_date FROM snet_changes WHERE proxy_id="100.89.242.10"

159: "Deleted (2019-05-01)" verizon 89148000005855441564 311480568008420  358152106700187 5884059132 100.83.29.138 Active
  Activation date ....: 2020-03-13
  Last used date .....: 
  Acct deleted date ..: 2019-05-01
  Account ............: 770454 (pa)
  Usage ..............: 0.000
  Activation threshold: no
  Last used threshold : no
  Deleted threshold ..: yes
  Deactivate this line: yes
Found ipaddress "100.83.29.138" in proxy_id column in snet_changes.
  770454 pa 2019-05-01 998071196408 NULL 100.83.29.138   NULL
  SELECT id, account_id_new, partner, bureau_id, panel_type, vendor_id, vendor_id_2, proxy_id, imei, iccid, phone_number, deleted_date FROM snet_changes WHERE proxy_id="100.83.29.138"

160: "Deleted (2019-04-23)" verizon 89148000005855443032 311480568006221  358152106730598 5884698971 100.83.37.143 Active
  Activation date ....: 2020-03-13
  Last used date .....: 
  Acct deleted date ..: 2019-04-23
  Account ............: 771582 (pa)
  Usage ..............: 0.000
  Activation threshold: no
  Last used threshold : no
  Deleted threshold ..: yes
  Deactivate this line: yes
Found ipaddress "100.83.37.143" in proxy_id column in snet_changes.
  771582 pa 2019-04-23 998070653201 NULL 100.83.37.143   NULL
  SELECT id, account_id_new, partner, bureau_id, panel_type, vendor_id, vendor_id_2, proxy_id, imei, iccid, phone_number, deleted_date FROM snet_changes WHERE proxy_id="100.83.37.143"

161: "Deleted (2019-07-01)" verizon 89148000005789402351 311480563138657  358152105334988 5884664453 100.83.26.56 Active
  Activation date ....: 2020-03-13
  Last used date .....: 
  Acct deleted date ..: 2019-07-01
  Account ............: 767572 (pa)
  Usage ..............: 0.000
  Activation threshold: no
  Last used threshold : no
  Deleted threshold ..: yes
  Deactivate this line: yes
Found ipaddress "100.83.26.56" in proxy_id column in snet_changes.
  767572 pa 2019-07-01 998071194197 NULL 100.83.26.56   NULL
  SELECT id, account_id_new, partner, bureau_id, panel_type, vendor_id, vendor_id_2, proxy_id, imei, iccid, phone_number, deleted_date FROM snet_changes WHERE proxy_id="100.83.26.56"

162: "Deleted (2020-02-17)" verizon 89148000005688473701 311480554536704  359998073565816 5779649099 100.88.77.68 Active
  Activation date ....: 2020-04-10
  Last used date .....: 2020-04-23
  Acct deleted date ..: 2020-02-17
  Account ............: 682930 (pa)
  Usage ..............: 0.000
  Activation threshold: no
  Last used threshold : no
  Deleted threshold ..: yes
  Deactivate this line: yes
Found ipaddress "100.88.77.68" in proxy_id column in snet_changes.
  682930 pa 2020-02-17 0000499995BB NULL 100.88.77.68   NULL
  SELECT id, account_id_new, partner, bureau_id, panel_type, vendor_id, vendor_id_2, proxy_id, imei, iccid, phone_number, deleted_date FROM snet_changes WHERE proxy_id="100.88.77.68"

