1,79423,TX,Lubbock,10.20.24.184,419784,20,524042995408,israel
1,92887,CA,Yorba Linda,10.20.26.6:5500,420004,60,524042986456,germany
1,01606,MA,Worchester,10.20.27.228:5500,420732,60,524043324053,peru
1,32080,FL,SAINT AUGUSTINE,10.20.33.100:5500,420798,60,524043310078,ghana
1,19044,PA,HORSHAM,10.20.37.64:5500,421011,60,524043347237,ghana
1,92821,CA,Brea,10.20.32.172:5500,421051,60,524043323733,ghana
1,92880,CA,Corona,10.20.43.71:5500,421525,60,524043341636,ghana
1,06492,CT,WALLINGFORD,10.20.29.235:5500,421634,60,524043362673,egypt
1,19013,PA,CHESTER,10.20.37.63:5500,421793,60,524043346486,ghana
1,48433,MI,Flushing,10.20.42.148:5500,421834,60,524043488296,egypt
1,59405,MT,GREAT FALLS,10.20.42.146:5500,421891,60,524043482612,egypt
1,01129,MA,SPRINGFIELD,10.20.23.219:5500,422310,60,524042996158,ghana
1,91723,CA,Covina,10.20.42.152:5500,422331,60,524043502310,israel
1,92395,CA,Victorville,10.20.41.184:5500,422495,60,524043478370,israel
1,34786,FL,Windermere,97.104.246.4:10008,422611,43,5421601005A5,wales
0,L6M3Y9,ON,Oakville,104.158.11.151:9194,422876,43,542160100A61,ghana
1,35554,AL,Eldridge,10.20.47.107:5500,423010,32,524043498295,peru
1,35570,AL,Hamilton,10.20.47.38:5500,423686,32,524043477919,germany
0,L5E2M9,ON,Mississauga,10.20.44.157:5500,423760,43,524043481689,egypt
1,90660,CA,Pico Rivera,10.20.45.170:5501,424248,10,524043495747,israel
1,32776,FL,Sorrento,10.20.33.208:5500,424312,60,524043313403,egypt
1,39042,MS,Brandon,10.20.48.95:5500,431458,60,580050083647,peru
1,60137,IL,Glen Ellyn,24.14.190.11:9091,425262,20,54216010305B,ghana
0,L7T3P6,ON,Burlington,65.95.156.91:9071,425378,43,542160101044,ghana
1,35594,AL,Winfield,10.20.44.112:5500,426628,32,524043490938,ghana
1,91977,CA,SPRING VALLEY,100.83.140.193:5500,426368,60,000042F6207C,ghana
1,90004,CA,Los Angeles,100.83.179.191:5501,427154,60,000042F3FB38,egypt
1,92807,CA,Anaheim,100.83.139.161:5501,427352,60,000042F62249,israel
1,92782,CA,TUSTIN,100.83.147.155:5501,427466,60,000042F3F9CA,egypt
1,92301,CA,Adelanto,100.83.195.111:5500,427874,60,000042F625D0,egypt
0,L6X0M3,ON,Brampton,72.137.63.64:9295,433194,43,5421601027F2,cuba
1,08527,NJ,Jackson,10.20.47.157:5501,428028,60,524043487157,egypt
1,01602,MA,Worchester,10.20.28.164:5500,428640,60,524043360339,germany
1,75230,1,Dallas,10.20.26.174:5500,429240,61,524042972787,germany
0,T3Z3J6,AB,Calgary,10.20.46.240:10260,429810,43,542160101D40,egypt
1,39339,1,LOUISIANA,100.83.148.35:5501,429858,60,000042F3FC91,egypt
1,01904,MA,Lynn,100.83.196.116:5501,429910,60,000042F3F079,ghana
0,M6C1S7,ON,Toronto,10.20.57.54:5501,429960,43,580050107958,israel
1,75043,TX,Garland,10.20.49.82:5500,432240,60,580050105879,germany
1,91761,CA,Ontario,100.83.223.182:5501,433403,60,00004999AB0B,egypt
1,45506,OH,SPRINGFIELD,100.83.184.160:5501,433787,60,000049999D50,egypt
1,36582,AL,Theodore,100.88.4.178:5501,433807,32,00003E4C14D1,israel
1,08302,NJ,Bridgeton,100.83.200.105:5501,434220,60,00004999A293,ghana
1,27605,NC,Raleigh,100.88.31.49:5501,434930,6,000049998F33,ghana
112,110045,ND,New Delhi,10.20.38.7:9147,435219,39,54216010167D,peru
1,60620,IL,Chicago,100.83.187.145:5500,435181,60,000049A1AE19,israel
112,110034,ND,New Delhi,27.56.143.179:9211,435564,39,542160102FC4,ghana
1,35611,AL,Athens,100.83.183.87:5500,437003,60,000049997E97,egypt
1,19713,1,Newark,100.88.31.9:5501,437310,31,000049A1D8A9,israel
0,T6J 0X4,AB,Edmonton,10.20.60.44:9274,437320,43,5421601034CE,ghana
0,M1S 1G4,ON,Scarborough,184.145.67.214:9029,437348,43,54216010341C,wales
0,T0E 0T0,AB,Evansburg,173.252.46.23:9917,437590,43,5421601032BA,peru
0,L4T 3P7,ON,Mississauga,72.136.74.134:9290,438062,43,542160103262,angola
112,110085,ND,New Delhi,223.190.13.214:9143,439261,39,54216010168C,wales
112,110096,ND,New Delhi,103.55.60.96:9006,439293,39,542160103C00,ghana
1,34653,FL,New port richey,100.83.174.196:5501,439486,60,000049A19717,israel
1,36527,AL,Spanish Fort,100.88.37.116:5500,438199,32,00003E4C6F2A,israel
112,110062,ND,New Delhi,103.95.83.126:26290,440639,39,542160102B8A,angola
1,90280,CA,South Gate,100.83.219.250:5500,441233,60,000049997BBC,egypt
1,08724,NJ,Brick,73.199.129.225:9252,441284,56,5421601039FC,peru
1,34474,FL,Ocala,100.83.225.74:5501,441532,60,0000499979B3,egypt
1,32259,FL,Jacksonville ,100.83.190.221:5501,441650,60,00003E4BDA1C,ghana
1,92394,CA,Victorville,100.83.192.58:5500,441758,60,00003E4C6214,ghana
1,90502,CA,Torrance,100.83.196.186:5501,441796,60,00004D9B3BA9,egypt
0,S7L 6J4,SK,Saskatoon,216.197.168.161:9060,442576,43,54216010462E,cuba
112,110059,,New Delhi,49.36.140.22:9177,442623,39,5421601043B1,cuba
0,L9K 1K7,ON,Ancaster,24.141.116.169:9137,442798,43,54216010461F,angola
1,75180-2272,TX,BALCH SPRINGS,10.20.52.227:9245,443004,18,5421601034E8,ghana
0,L6R 1S8,ON,Brampton,99.234.120.189:9208,443212,43,5421601045C1,wales
1,93619,CA,Clovis,100.88.30.49:5500,443247,6,00003E4C6929,israel
1,46403,IN,Gary,10.20.30.204:5500,443817,14,524043355230,ghana
1,33860,FL,MULBERRY,100.83.213.45:11875,443864,60,5421601043E1,israel
1,91745,CA,Hacienda Heights,100.83.198.21:5501,443950,10,000049A190D1,israel
1,84106,UT,Salt Lake City,96.73.10.233:7883,443745,47,54216000E792,angola
0,L5M7K3,ON,Missisauga,99.246.111.102:9953,423095,43,5421601034B8,wales
112,110058,,New Delhi,122.180.203.185:9141,444529,39,542160102B8C,ghana
0,T2Y 2Y1,AB,Calgary,75.156.139.32:9172,444651,43,542160104136,peru
112,122003,,Delhi,14.140.207.98:51616,444800,39,5421601013FD,ghana
1,90640,CA,Gardena,100.83.227.131:5501,444804,10,000049A1CD54,ghana
1,90670,CA,Santa Fe Springs,100.83.173.146:5501,445050,10,00003E4BEA6F,ghana
1,84004,UT,NA,10.20.35.119:5500,419418,1,524043327262,germany
0,M4N1Z4,ON,TORONTO,99.240.194.91:9363,445592,89,542160104AEE,peru
0,T2T 1W4,AB,Calgary,75.159.46.53:9321,445911,43,5421601040AA,wales
1,89178,NV,Las Vegas,100.83.177.11:5501,446349,10,00004999A3A1,egypt
1,91106,CA,Pasadena,100.83.149.216:5501,446401,10,00003E4C2A2D,egypt
0,L6H0G6,ON,Oakville,24.150.129.45:9192,446700,43,5421601041AB,cuba
0,L6J 7C6,ON,Oakville,10.20.65.87:9180,446704,43,54216010419D,ghana
1,06901,CT,Stamford,173.220.217.250,446728,56,542160104023,angola
0,L4T3P7,ON,Mississauga,99.253.62.223:9312,447065,43,5421601040BD,angola
0,T3M0V9,AB,Calgary,68.147.143.203:9180,447767,43,542160104D37,peru
112,110005,112,New Delhi,10.20.52.67:9040,448231,39,54216010450E,ghana
1,90405,CA,Santa Monica,100.83.210.243:5501,448512,10,000049A1B18E,ghana
1,91607,CA,Valley Village,100.83.227.188:5501,448714,60,00003E4BF3EA,israel
1,33810,FL,Lakeland,100.83.226.8:5501,449132,60,000049A1C828,egypt
1,32803,FL,Orlando,100.83.152.140:5500,449890,60,00004D955AF4,ghana
1,77541,TX,FREEPORT,100.83.152.182:5501,449992,60,00004D95F8FD,ghana
1,11220,NY,Brooklyn,100.83.167.151:5501,450650,60,000051D0DDB0,egypt
112,110012,ND,Delhi,122.176.100.251:9152,450769,39,542160102C32,angola
1,33594,FL,Valrico,100.83.153.218:5501,450821,60,00004D82EDFA,egypt
1,31907,GA,Columbus,100.88.35.250:5500,450837,79,000049A1ECDC,ghana
1,90621,CA,Buena Park,76.169.17.46:9192,451452,89,542160105281,peru
1,23666,1,Hampton,100.88.95.97:5501,452783,56,000051CD7343,ghana
1,35218,AL,Birmingham ,100.83.171.134:5500,452841,60,000051CD9696,israel
1,71119,LA,SHREVEPORT,75.65.87.64:9153,453164,47,542160105895,peru
1,93304,CA,Bakersfield,100.83.170.91:5501,453167,60,000051CD8282,egypt
0,T0M 1R0,AB,Red Deer,69.168.160.52:61544,453446,43,5421601053AE,angola
2,2144,NSW,Auburn,10.20.72.2,453043,67,542160104258,peru
0,M3N 2S5,ON,North York,99.255.253.188:10149,454082,43,542160105900,ghana
1,39422,MS,Bay Springs,100.83.153.144:5501,454584,60,00004D95516B,ghana
1,90255,CA,Huntington Park,100.83.199.93:5501,454592,60,00004D9D2A84,egypt
1,06604,CT,Bridgeport,100.83.195.78:5500,455210,60,000042F3F06E,egypt
1,76123,57,Fort Worth,100.88.111.65:49412,455304,47,000051D4E94F,israel
1,38632,MS,HERNANDO,100.83.154.35:5501,455369,60,00004D853E8C,israel
1,95833,CA,Sacramento,100.88.103.37:5501,455494,18,00004D955D10,egypt
1,89015,NV,Henderson,100.83.156.252:5501,455635,60,000051CD95D4,israel
0,L4J8G9,ON,Thornhill,99.228.247.212:9427,455868,43,5421601053D1,peru
1,76002,TX,Arlington,100.88.65.187:49600,455887,47,000047AE1291,egypt
1,38967,MS,Winona,100.88.115.13:51089,456057,47,000051D4FFD9,germany
1,34747,FL,Kissimmee,100.83.173.229:5501,456146,60,00004D9B5AE0,israel
0,L6H7K7,ON,Oakville,24.150.192.150:9103,456703,43,542160105D67,ghana
1,76115,57,Fort Worth,100.88.155.95:50408,456940,47,000051D8649D,germany
1,64151,MO,KANSAS CITY,100.83.167.183:5501,457058,60,00004D82F58F,ghana
1,02136,MA,Hyde park,100.83.177.111:5500,457100,60,00004D9B5AB8,israel
1,76039,57,Euless,100.88.141.42:50488,457212,47,000051D4109F,egypt
1,90003,CA,Los Angeles,100.83.213.200:5500,458004,10,00004999ACA3,egypt
1,76108,57,Fort Worth,100.88.157.18:49548,458109,47,000051D86087,israel
1,84403,UT,Ogden,100.88.136.216:50370,458176,47,000047A59EC0,germany
1,91750,CA,La Verne,100.83.219.94:5501,458181,60,00004D9D41E0,egypt
1,95341,CA,Merced,100.83.216.199:5500,458354,60,000051CFACB3,israel
1,38635,MS,HOLLY SPRINGS,10.20.77.117:5501,458480,60,580050660808,peru
1,95307,CA,Ceres,100.83.141.1:5501,458687,60,00004D9D4247,egypt
1,95307,CA,Ceres,100.83.227.120:5501,458706,60,00004D9D4082,israel
1,85043,AZ,Phoenix,100.83.180.90:5501,459023,60,00004D9B3AC2,ghana
1,78112,57,Elmendorf,100.88.189.247:50902,459130,47,000051D4E16F,germany
1,06824,CT,Fairfield,100.83.189.94:5501,459298,60,00004D9D287B,israel
1,33544,FL,Wesley Chapel,100.88.126.8:5501,459231,10,000051CD89CC,egypt
1,75224,TX,Dallas,100.88.190.159:52346,459620,47,000051D40DA2,germany
1,91505,CA,Burbank,100.83.164.50:5500,457497,60,000051D34639,ghana
1,27849,NC,Lewiston,100.83.200.173:5501,460446,60,00004D9D3A2C,ghana
1,30273,1,rex,100.88.197.127:50504,460991,75,000047AF7ED6,germany
1,23666,1,Hampton,100.88.126.23:5500,461612,56,000051CD77D0,ghana
1,38654,MS,OLIVE BRANCH,100.83.142.80:5501,461747,60,000051D9EB96,egypt
0,L4W2H7,ON,Mississauga,70.27.50.2:9935,462154,43,542160106711,wales
1,31021,GA,Dublin,100.83.186.225:5501,462417,60,000051D34783,israel
1,95832,CA,Sacramento,100.88.37.59:5501,462522,56,0000499999C8,ghana
1,91436,CA,ENCINO,100.88.133.131:5501,461030,18,000051CD919F,egypt
1,19713,DE,Newark,100.88.94.40:5500,462388,31,000051CD7277,israel
1,30135,GA,DOUGLASVILLE,100.88.206.97:49938,462969,75,000047AFB315,germany
1,76039,57,Euless,100.88.188.78:49568,463199,47,000051D867D6,egypt
0,M9W7B3,ON,Etobicoke,99.253.61.3:9037,463242,43,542160106725,ghana
1,76021,57,Bedford,100.88.199.169:49469,463514,47,000047AF76CD,egypt
1,29554,SC,Hemingway,100.83.215.123:5501,463702,60,000051E4AECA,israel
1,32751,FL,Maitland,100.83.145.42:5501,463773,60,00004D9B10DC,ghana
1,70722,LA,CLINTON,100.83.140.230:5501,463780,60,000051D379B3,egypt
1,90631,CA,La Habra,100.83.163.95:5501,463916,60,000051D365F6,israel
1,89118,NV,LAS VAGAS,100.88.207.83:49266,463961,60,000047AF9144,germany
1,31088,GA,Warner Radins,100.83.188.225:5500,463963,60,000051D34781,egypt
1,25311,WV,Charlston,10.20.31.8:5500,464398,56,524043360057,peru
1,21113,1,ODENTON,100.88.240.56:50955,464622,75,000051DCD2D6,germany
1,70647,LA,Iowa,100.83.202.242:5501,464740,60,000051E4A5F0,israel
1,29547,SC,Hamer,100.83.202.224:5500,465083,60,000051E4997A,egypt
1,94931,CA,Cotati,100.83.201.236:5500,465278,60,000051E4A895,ghana
1,71362,LA,Plaucheville,100.83.147.202:5501,465488,60,000051E4E7DA,israel
1,28358,NC,Lumberton,100.83.158.92:5501,465919,60,000051E4A05C,ghana
1,90063,CA,Los Angeles,100.83.203.75:5501,466069,60,000051E4BD77,israel
1,49045,MI,Decatur,100.83.186.43:5501,466327,60,000051D357CE,ghana
1,39338,MS,LOUIN,100.83.152.142:5500,466940,60,00004D853F84,israel
0,M9M 0C6,ON,Toronto,70.48.106.242:10626,467040,43,542160106FDD,wales
1,23803,VA,PETERSBURG,10.64.3.119:5500,425526,60,580051028401,germany
1,63049,MO,HIGH RIDGE,100.83.212.241:5501,467259,60,000051E46C42,ghana
1,76040,57,Euless,100.88.200.106:49522,467331,47,000047AF743A,egypt
1,84088,UT,West Jordan,76.8.215.50:62446,518383,1,000000499012,germany
2,6060,VIC,Yokine,10.20.63.218:5501,467920,37,580050270228,egypt
1,77836,TX,Caldwell,100.83.208.75:5501,468928,60,000051E4BD67,israel
1,30017,GA,GRAYSON,100.89.22.13:50588,468955,75,000051DE0F6E,egypt
1,38127,TN,Memphis,100.88.103.246:9441,469000,47,5421601051DF,ghana
0,H3P 2G2,QC,MONT-ROYAL,135.19.7.114:6917,469149,109,5421607004FF,cuba
1,91732,CA,El Monte,100.83.203.150:5501,469299,60,000051E4E296,ghana
1,15059,PA,MIDLAND,100.83.187.12:5501,469322,60,000051D9D678,egypt
1,30179,GA,Temple,100.88.207.97:49319,469537,75,000047AF9185,israel
1,21244,MD,Baltimore County,100.16.183.173:10271,469646,43,5421601074D0,angola
1,30213,GA,FAIRBURN,100.88.229.37:54328,469695,75,000051DCC9D0,israel
1,86426,AZ,Fort Mohave,100.83.186.231:5501,469899,60,000051D98786,israel
1,32025,FL,LAKE CITY,100.83.217.108:5501,470606,60,000051E5A779,ghana
1,31030,1,Fort Valley,100.88.220.57:5501,470609,56,000051E4E292,israel
0,H4W1N1,QC,Cote-St-Luc,173.177.124.47:9377,470686,43,542160107801,peru
1,35079,AL,HAYDEN,100.83.226.220:5501,471373,60,000051E4A60A,ghana
1,35010,AL,ALEXANDER CITY,100.83.208.84:5501,471456,60,000051E493E6,egypt
1,75692,TX,Waskom,100.83.208.40:5501,471599,60,000051E4B26B,egypt
1,92405,CA,San Bernardino,100.83.187.236:5501,471642,60,000051D347C1,ghana
1,92405,CA,San Bernardino,100.83.207.62:5500,471792,60,000051E4B457,israel
0,H8T2Z3,QC,Lachine,173.178.241.24:9266,472038,43,5421601075DC,angola
1,10128,NY,New York,100.88.220.194:9355,472615,31,54216010778D,peru
1,95822,CA,Sacramento,100.83.164.19:5500,472791,60,000051D35299,ghana
1,29841,SC,N. Augusta,100.83.212.166:5501,472969,60,000051E4A81F,ghana
0,L6R3L4,ON,Brampton,162.222.82.203:45340,472977,43,542160107AAF,peru
1,94565,CA,Pittsburg,100.89.6.91:50908,473094,60,000051DC700E,israel
0,L5W 1K6,ON,Mississauga,99.246.105.94:9563,473134,43,542160107851,ghana
1,90805,CA,Long Beach,100.83.157.20:5500,473843,60,000051E5B288,egypt
1,91790,CA,West Covina,100.83.160.26:5501,474450,60,000051E5B6E1,egypt
1,30263,GA,NEWNAN,100.88.229.69:49172,474560,75,000051DCD0A1,israel
1,95691,CA,West Sacramento,100.83.160.178:5501,474608,60,000051E5A559,israel
1,95816,CA,N Sacramento,100.83.223.186:5501,474708,60,000051D382FE,ghana
1,75241,57,Dallas,100.88.196.87:50103,474884,47,000047AFB3FD,egypt
0,L0P 1K0,ON,Norval,10.20.89.255:9105,475049,43,542160107F25,peru
1,90403,CA,Santa Monica,100.83.217.168:5501,475609,60,00004D9D3FBC,israel
1,33525,FL,DADE CITY,100.83.207.172:5501,476010,60,000051E5B2A1,egypt
0,K1G 1P7,ON,Ottawa,70.31.50.182:9209,475944,43,542160107FA4,cuba
1,90746,CA,Carson,100.83.206.44:5501,476199,60,000051E5AD86,ghana
1,90745,CA,Carson,100.83.205.23:5500,476291,60,000051E5ADA0,israel
1,93551,CA,PALMDALE,100.83.226.144:5501,476631,60,000051E5B1A9,ghana
1,92880,CA,Eastvale,100.83.202.9:5500,476833,60,000051E4BF37,israel
1,32219,FL,Jacksonville,100.83.216.153:5501,476907,60,000051E5B424,ghana
1,31794,GA,Tifton,100.83.206.99:5501,476950,60,000051E58EC4,ghana
1,33543,FL,WESLEY CHAPEL,10.20.23.55:5501,477153,56,524042977935,ghana
1,33543,FL,WESLEY CHAPEL,10.20.24.34:5500,477163,56,524042985359,germany
1,33544,FL,WESLEY CHAPEL,10.20.34.223:5500,477169,56,524043315820,peru
1,34211,FL,BRADENTON,10.20.16.63:5500,477276,56,524042208612,germany
1,34212,FL,BRADENTON,10.20.17.204:5500,477283,56,524042207671,egypt
1,34711,FL,CLERMONT,10.20.22.96:5500,477313,56,524042982612,egypt
1,33510,FL,BRANDON,10.20.29.113:5500,477340,56,524043352815,israel
1,33579,FL,RIVERVIEW,10.20.19.73:5501,477421,56,524042239245,israel
1,34202,FL,LAKEWOOD RANCH,10.20.20.38:5501,477446,56,524042248766,peru
1,34203,FL,BRADENTON,10.20.24.3:5500,477450,56,524042997602,peru
1,28463,NC,Tabor City,100.83.205.174:5501,478281,47,000051E59E86,egypt
1,32218,FL,Jacksonville,100.83.161.69:5501,478685,60,000051E5C3E3,egypt
1,06405,CT,Brandford ,100.83.161.45:5500,478708,60,000051E5BDE9,israel
1,84405,UT,Ogden,100.88.221.85:49698,478843,47,000047AF84ED,israel
0,L1P1N6,ON,Whitby,99.232.46.199:9411,479074,43,5421601083BF,wales
0,L6M 5G7,ON,Oakville,142.122.143.33:9208,479634,43,542160108493,peru
0,T3J 0R5,AB,Calgary,108.173.148.92:9221,479674,43,54216010872E,peru
0,M1P0A4,ON,Scarborough,99.227.12.138:9129,479677,43,542160108428,angola
0,L2E 3X8,ON,Niagara Falls,173.238.205.196:9153,480176,43,542160108694,cuba
1,39455,MS,LUMBERTON,100.83.191.154:5501,480398,60,000051E5A448,ghana
0,T4R 2E2,AB,Reddeer,199.126.138.3:9229,480465,43,542160108751,ghana
1,39563,MS,Moss Point,100.89.3.185:49162,480480,47,000051DC3C03,egypt
0,T2W 5V9,AB,CALGARY,68.146.130.226:9049,480496,43,542160108631,peru
1,33598,FL,Wimauma ,100.83.226.56:5501,480533,60,000051E5A5A1,egypt
1,22657,VA,STRASBURG,100.89.15.171:49672,473334,75,000051DCCFC9,israel
1,39563,MS,Moss Point,100.88.138.119:49170,480826,47,000051D40E3E,egypt
1,02302,MA,Brockton,10.8.89.115:5501,480907,60,998070124518,ghana
1,84078,UT,Vernal,10.64.18.41:1234,481396,60,518005036120,israel
1,81611,CO,ASPEN,100.88.103.240:10651,482071,56,54216010086A,egypt
1,95357,CA,Modesto,10.64.114.21:5501,482285,60,580051044549,egypt
1,95758,CA,Elk Grove ,10.64.114.243:5500,480493,60,580050851670,peru
1,00767,PR,Yabucoa,10.64.115.58:5501,482827,60,580050896816,germany
1,76123,TX,Fort Worth,100.88.190.22:49488,455328,47,000051D4F2E0,israel
1,92021,CA,El Cajon,10.64.116.187:5501,483336,60,580050913686,egypt
0,H9R 1K9,QC,Pointe-Claire,67.68.28.92:9203,483418,43,542160108796,ghana
1,73003,OK,EDMOND,100.89.45.123:51868,483229,10,000051F2AE9B,israel
1,06013,CT,Burlington,10.64.137.161:5500,483938,60,580050913207,germany
1,00656,PR,GUAYANILLA,10.64.5.156:5501,484164,60,580050912977,peru
1,39503,MS,Gulfport,100.88.242.150:50236,484480,47,000051DE15D8,israel
1,34753,FL,Mascotte,10.64.135.208:5501,484531,60,580050838966,ghana
1,30106,GA,AUSTELL,100.88.194.35:50321,484573,75,000047AF8958,egypt
1,77494,TX,KATY,10.64.113.35:5501,484634,60,580050933023,peru
1,92253,CA,La Quinta,10.8.89.209:5501,484108,60,998070128592,peru
1,23148,VA,St Stephens Church,10.64.4.176:5501,484807,60,580050955802,ghana
1,23663,1,Hampton,100.88.4.61:5501,484882,56,00003E4BD880,egypt
1,38641,MS,LAKE COMRANT,10.8.91.34:5501,485074,60,998070420213,egypt
0,N1G 3G8,ON,Guelph,72.136.30.155:9098,485222,43,542160108811,angola
1,39204,MS,Jackson,100.89.56.110:49157,486426,60,000051F20875,egypt
1,93247,CA,Lindsay,10.64.136.230:5500,486714,60,580050937479,germany
1,13406,NY,Middleville,10.64.137.6:5501,486867,60,580050959010,israel
112,110032,112,NEW DELHI,10.20.60.187:9004,452917,39,542160103C04,ghana
1,11234,NY,Brooklyn,10.64.5.13:5500,487324,60,580050963491,israel
0,L4G 4R6,ON,Aurora,74.14.154.5:10340,487355,43,542160108DE5,peru
1,54124,WI,GILLETT,10.20.24.161:5500,487656,56,524042990417,peru
1,39474,MS,PRENTISS,10.8.92.127:5501,488138,60,998070399409,germany
1,34606,FL,Spring Hill,10.64.82.20:5501,488283,60,580050881909,israel
0,M8V 2E8,ON,Toronto,70.28.65.209:9234,488304,43,5421601085DC,angola
1,35613,AL,ATHENS,100.83.197.226:5501,489031,60,00004D9B46D8,egypt
1,98370,WA,POULSBO,100.88.30.233:10397,489127,18,5421601072C9,egypt
1,94544,CA,Hayward,10.64.149.114:5500,489231,60,580052924798,ghana
1,66111,KS,KANSAS CITY,100.83.188.5:5501,490342,60,000051D358C9,egypt
1,27828,NC,Farmville,10.8.91.12:5500,490071,60,998070428703,germany
0,V6X 2R2,BC,Richmond,10.20.86.233:9131,491132,43,542160109071,peru
0,R3G 3E4,MB,WINNIPEG,50.71.52.182:5348,491180,43,54216070080A,peru
1,00698,PR,YAUCO,10.64.136.212:5501,491710,60,580050916093,ghana
1,64124,MO,Kansas City,100.89.54.195:49592,491928,60,000051F2D479,egypt
1,02892,RI,Richmond,10.64.134.237:5500,492401,60,580051034342,peru
1,32773,FL,Sanford,10.8.90.121:5501,492429,60,998070170941,peru
0,K0H 1T0,ON,Godfrey,45.78.121.0:10990,492600,43,542160109D8A,peru
1,34472,FL,OCALA,10.64.136.148:5501,492617,60,580050910963,egypt
1,12061,NY,East Greenbush,10.8.92.129:5501,492738,60,998070402880,egypt
1,39355,MS,QUITMAN,10.64.4.147:5501,493610,60,580050971759,israel
1,63901,MO,Poplar Bluff,10.64.212.178:5501,494025,60,580052900368,egypt
1,32703,FL,Apopka ,10.64.146.143:5501,494657,60,580050918495,israel
1,34974,FL,OKEECHOBEE,71.199.217.157:10027,494750,20,542160103060,wales
1,65401,MO,Rolla,10.8.94.186:5501,494892,60,998070539913,peru
1,06614,CT,Stratford,100.89.131.111:5500,494825,31,998070536562,israel
1,93230,CA,Hanford,10.64.146.34:5500,494998,60,580051034151,peru
112,110095,ND,New Delhi,182.68.56.238:10569,438147,39,5421601051E3,peru
0,L9C5L3,ON,Hamilton,70.50.136.221:9298,495162,43,54216010A1FC,ghana
1,30315,GA,ATLANTA,100.89.38.147:49400,495525,75,000051DE2AC9,egypt
1,71251,LA,Jonesboro,10.64.213.153:5501,495590,60,580050911938,israel
1,92284,CA,Yucca Valley,10.64.211.188:5501,495756,60,580053012304,germany
0,T5H3H7,AB,Edmonton,65.110.10.159:10500,476691,43,5421601084E4,angola
1,27589,NC,Warrenton,10.8.96.163:5501,496083,60,998070542768,peru
1,70660,LA,SINGER,10.20.21.63:5500,496567,56,524042279944,egypt
1,70607,LA,LAKE CHARLES,10.20.26.73:5500,496602,56,524042996372,israel
1,06606,CT,Stratford,100.89.140.185:9534,496865,31,54216010A0DF,ghana
1,30253,GA,McDonough,10.64.212.81:5501,496951,60,580050956321,peru
0,J0L 1B0,QC,Kahnawake,67.68.142.187:9013,496954,43,54216010A20B,cuba
1,46001,IN,Alexandria,10.64.211.109:5500,497372,60,580051034136,ghana
1,95965,CA,Oroville,10.64.210.173:5501,497510,60,580053271264,israel
1,20748,MD,TEMPLE HILLS,100.89.39.53:49183,497577,75,000051D8D30C,israel
1,00641,PR,UTUADO,10.64.212.28:5500,497106,60,580053140485,germany
1,28364,NC,Maxton,10.64.144.110:5501,496281,60,580052887730,ghana
0,V2N6A6,BC,Prince George,209.52.88.26:21506,497720,88,54216000E731,angola
1,92705,CA,Santa Ana,10.64.214.235:5500,498256,60,580053256984,egypt
1,32034,FL,FERNANDINA BEACH,10.20.26.156:5500,498636,56,524042966011,peru
1,32034,FL,FERNANDINA BEACH,10.20.41.208:5500,498707,56,524043497255,ghana
1,32210,FL,JACKSONVILLE,10.20.54.152:5501,499162,56,580050262647,israel
1,32233,FL,ATLANTIC BEACH,10.20.44.163:5500,499296,56,524043490441,germany
1,32256,FL,JACKSONVILLE,10.20.22.48:5500,499370,56,524042968694,egypt
1,74531,OK,CALVIN,10.20.15.54:5500,499960,56,524041906356,israel
1,72562,AR,Newark,10.64.210.229:5501,500093,60,580053009227,peru
1,30058,GA,LITLHONIA,100.89.46.84:49300,500172,75,000051F2AAD1,egypt
1,35954,AL,ATTALLA,10.8.95.198:5500,492766,60,998070521325,ghana
1,00778,PR,GURABO,10.64.219.115:5501,500549,60,580053315129,israel
1,30188,GA,WOODSTOCK,100.89.50.168:49708,500677,75,000051F2AC30,israel
1,70535,LA,Eunice,10.64.209.24:5500,500774,60,580053242216,germany
1,21054,MD,Gambrills,100.89.28.249:49341,500808,75,000051F2A66C,egypt
1,39669,MS,WOODVILLE,10.8.96.81:5501,500817,60,998070527397,peru
1,92225,CA,Blythe,10.64.210.51:5500,500941,60,580053231003,peru
1,35401,AL,Tuscaloosa,100.89.28.154:49155,501171,60,000051F2A433,israel
1,76541,TX,Killeen,100.89.29.9:49560,501419,60,000051F2A1EE,israel
1,78504,TX,McAllen,100.89.146.224:1234,501764,35,650073203692,israel
1,00612,PR,ARECIBO,10.64.223.192:5501,502187,60,580053232662,israel
1,30248,GA,LOCUST GROVE,100.89.192.245:1234,502305,75,650078233165,israel
1,74547,OK,HARTSHORNE,10.20.35.111:5500,502668,56,524043313395,peru
1,95630,CA,Folsom,10.64.221.152:5501,502898,60,580053359937,germany
1,33584,FL,Seffner,100.89.148.76:1234,503237,75,650073220720,israel
1,39743,MS,CRAWFORD,10.8.98.197:5501,503437,60,998070703949,germany
1,30045,GA,LAWRENCEVILLE,100.89.157.172:49457,503534,75,000051F157D9,egypt
1,76123,57,Fort Worth,100.88.136.153:50485,503807,47,000047A59551,germany
1,38753,MS,Inverness,100.89.47.122:49377,503971,47,000051F2AAEA,egypt
1,39213,MS,Jackson,100.89.47.110:49995,504038,47,000051F2ADF8,egypt
1,71730,AR,EL DORADO,100.83.200.112:5500,504287,60,00004D9D41DA,ghana
1,29210,SC,Columbia,10.64.222.216:5500,504425,60,580053390577,peru
1,30058,GA,LITHONIA ,100.89.158.120:49489,504521,75,000051F2F49D,egypt
1,30349,GA,ATLANTA ,100.89.170.140:49393,504525,75,000051F1C57E,egypt
1,78738,TX,Lakeway,100.89.151.2:1234,504850,47,650073144680,egypt
1,30316,GA,ATLANTA ,10.8.98.27:5501,505145,60,998070584760,egypt
1,38732,MS,Cleveland,10.64.5.212:5500,505483,60,580050919683,israel
1,92410,CA,San Bernadino,10.64.224.2:5500,505678,60,580053390072,ghana
1,06511,CT,New Haven,10.64.217.49:5500,505709,60,580053383788,israel
1,,,,10.64.141.70:33794,505742,118,753090156504,peru
1,92509,CA,Riverside,10.64.223.59:5500,505790,60,580053389595,egypt
1,75241,TX,Dallas,100.89.105.162:5501,505836,22,998070394384,israel
1,30228,GA,HAMPTON,100.89.161.19:49956,506033,75,000051F2F6F9,israel
1,47340,IN,Farmland,100.89.169.185:49560,506196,60,000051F1C787,egypt
1,30315,GA,ATLANTA,100.89.159.121:49641,506213,75,000051F15A2F,israel
1,36532,AL,Fairhope,100.89.206.160:5500,506251,32,998070951290,israel
1,78653,TX,Manor,100.89.145.221:1234,506266,47,650073187242,egypt
1,20747,MD,District Heights,100.89.29.163:50161,506682,75,000051F2A40E,israel
1,84128,57,West Valley City,100.89.145.193:1234,506872,47,650073216470,egypt
1,93612,CA,Clovis,10.64.221.79:5500,507034,60,580053389868,israel
1,95403,CA,Santa Rosa,10.64.218.13:5500,507170,60,580053343840,egypt
1,32712,FL,Apopka,10.20.2.51:5501,506105,3,524041143729,ghana
1,30040,GA,CUMMING,100.89.158.247:49703,507186,75,000051F2FC44,egypt
1,98664,WA,Vancouver,100.89.176.116:49173,507235,60,000051F1B418,egypt
1,20743,MD,CAPITOL HEIGHTS,100.89.56.217:49518,507486,75,000051F2081A,egypt
1,36303,AL,DOTHAN,10.64.221.217:5500,507718,60,580053315061,ghana
1,20110,VA,MANASSAS,100.89.169.58:49862,507811,75,000051F1CAC8,egypt
1,92821,CA,Brea,10.64.224.15:5500,507969,60,580053230757,ghana
1,00714,PR,Arroyo,10.64.218.74:5500,508359,60,580053387417,ghana
1,30312,GA,Atlanta,100.89.171.13:49167,508371,75,000051F1C7CE,egypt
1,02840,RI,Newport,10.8.95.223:5501,508394,60,998070541430,peru
1,95356,CA,Modesto,10.64.218.12:5501,508509,60,580053322653,germany
1,32442,FL,GRAND RIDGE,10.8.99.139:5501,508627,60,998070651205,ghana
1,75051,TX,Grand Prairie,100.89.150.241:1234,508655,47,650073224037,israel
1,95356,CA,Modesto,10.64.217.223:5500,508770,60,580053369738,israel
1,93063,CA,Simi Valley,10.64.218.221:5500,508773,60,580053341976,germany
1,84088,UT,West Jordan,100.89.161.122:49646,508991,47,000051F2F57D,israel
0,L2N3N5,ON,St.Catharines,198.48.177.182:9064,509056,43,54216010B140,angola
1,48187,CA,Canton,10.64.217.182:5500,420858,60,580053355117,israel
1,32312,FL,TALLAHASSEE,100.89.145.251:1234,509218,174,650073231560,israel
1,54082,WI,Houlton,10.64.209.209:5501,508454,12,580053240731,israel
1,94590,CA,Vallejo,10.64.217.241:5500,509422,60,580053304628,germany
1,33777,FL,Seminole,10.64.222.139:5500,509653,60,580053343873,ghana
1,20745,MD,Oxon Hill,100.89.171.201:49332,509760,75,000051F1EE68,israel
1,93662,CA,Selma,10.64.219.223:5500,509780,60,580053337131,peru
1,30296,GA,Riverdale,100.89.162.231:49574,509895,75,000051F2FB08,israel
1,95476,CA,Sonoma,10.64.219.49:5500,510193,60,580053250052,germany
0,K0M 2L0,ON,Norland,10.65.105.155:9329,509979,43,54216010BF4F,cuba
1,34481,FL,Ocala,10.64.216.162:5500,510528,60,580053389025,egypt
1,93534,CA,Lancaster ,10.64.221.33:5500,510546,60,580053350258,egypt
1,92708,1,Fountain Valley,10.64.214.48:5501,510560,97,580050913827,ghana
1,32750,FL,Longwood,10.65.109.242:5501,510790,60,580053237828,ghana
1,36759,AL,MARION JUNCTION,10.8.99.128:5500,510769,60,998070592185,ghana
1,30223,GA,GRIFFIN,100.89.174.255:49459,510905,75,000051F1C33D,egypt
1,32819,FL,Orlando,71.142.232.21:4096,510966,18,54216000EADC,peru
1,90023,CA,Los Angeles,10.64.220.254:5500,511198,60,580053365223,egypt
1,70811,LA,Baton Rouge,10.64.221.113:5500,511244,60,580053270878,egypt
1,80909,CO,Colorado Springs,100.89.193.79:1234,511349,60,650073780293,israel
1,77450,TX,Katy,100.89.166.234:49944,511429,75,000051F19C6E,israel
1,28501,NC,Kinston,10.8.102.19:5501,511506,60,998070717691,egypt
1,92308,CA,Apple Valley,10.64.218.40:5500,511586,60,580053372161,ghana
1,38732,MS,Cleveland,10.64.220.19:5500,426182,60,580053387110,egypt
1,92058,CA,Oceanside,10.64.221.111:5501,512006,60,580053333296,israel
1,91345,CA,Mission Hills,10.65.111.151:5500,512197,60,580053353880,peru
1,32712,FL,Apopka,10.64.218.24:5500,512266,60,580053341950,ghana
1,92201,CA,Indio,10.65.115.123:5500,512722,60,580053257289,egypt
1,00612,PR,Arecibo,10.64.17.113:1234,512780,60,518005028309,israel
1,92264,CA,Palm Springs,10.64.219.130:5500,512890,60,580053343386,ghana
0,Guelph ,ON,Kitchener,64.228.153.232:10574,512944,43,54216010C517,angola
1,18509,PA,Scranton,10.8.104.147:5501,513229,60,998071087128,peru
1,34744,FL,KISSIMMEE,100.89.151.197:1234,502451,174,650073231305,egypt
1,54810,WI,Balsam Lake,100.89.206.106:5501,442613,12,998070949625,israel
1,92881,CA,Corona,10.65.111.77:5500,513436,60,580053364333,egypt
1,30349,GA,Atlanta,100.89.172.216:49311,513497,75,000051F1F036,israel
1,37918,TN,Knoxville,10.64.214.0:5500,513541,60,580053315038,israel
1,32068,FL,MIDDLEBURG,100.89.150.66:1234,505632,174,650073238045,israel
1,28327,NC,Carthage,10.8.102.61:5501,513606,60,998070731916,egypt
1,20613,MD,Brandywine,10.64.221.32:5500,513714,60,580053301970,peru
1,20735,MD,Clinton,100.89.166.47:49248,513758,75,000051F19F76,israel
1,81050,CO,La Junta,100.89.23.44:49492,513877,47,000051F2A4A8,egypt
0,L9C1S,ON,Hamilton,99.236.107.93:9457,514186,43,54216010CA27,peru
1,30349,GA,Atlanta,100.89.162.230:49798,514284,75,000051F2FB0E,israel
1,92395,CA,Victorville,10.65.116.252:5500,514772,60,580053391518,germany
1,79415,TX,Lubbock,100.89.197.88:1234,514923,60,650073976917,egypt
1,87506,NM,Santa fe,10.20.41.207:5500,514961,56,524043495457,israel
1,36562,AL,Perdido,10.64.220.222:5500,515124,60,580053365140,egypt
1,00683,PR,SAN GERMAN,10.65.115.95:5500,515240,60,580053231920,peru
1,92395,CA,Victorville,10.65.111.148:5501,515313,60,580053332942,israel
1,11952,1,Mattituck,100.83.187.54:5501,506126,10,000051D371C6,ghana
1,92392,CA,Victorville,10.65.115.61:5500,515661,60,580053315053,ghana
1,29810,SC,Allendale,10.65.59.19:4097,515663,47,45AB51CA7550,ghana
1,08043,NJ,Voorhees,100.89.163.133:49154,515749,75,000051F156CB,israel
2,2107,NSW,Whale Beach,10.20.51.2:5500,515805,37,580050222682,germany
1,92583,CA,San Jacinto,10.65.111.121:5500,515996,60,580053388621,egypt
1,85621,AZ,Nogales,100.89.174.188:49281,516104,60,000051F1D0D4,egypt
1,00678,PR,QUEBRADILLAS,10.64.216.221:5500,516114,60,580053386690,germany
1,39071,MS,FLORA,10.8.102.170:5501,430848,60,998070764669,ghana
1,75052,57,Grand Prairie,100.89.153.158:1234,516362,47,650074507323,egypt
1,19720,DE,New Castle,10.64.221.8:5500,516569,60,580053325813,germany
1,19123,PA,PHILADELPHIA,10.8.105.5:5501,456342,60,998071033163,germany
1,85019,AZ,Phoenix,100.89.149.241:1234,516779,75,650073276052,egypt
1,00745,PR,RIO GRANDE,10.64.216.222:5501,516914,60,580053325821,egypt
0,N9B2H6,ON,Windsor,198.84.130.66:9523,428756,43,542160101D86,ghana
1,92543,CA,Hemet,10.65.109.162:5501,516981,60,580053275901,peru
1,78218,57,San Antonio,100.89.150.202:1234,517084,47,650073182094,egypt
1,78045,TX,Laredo,100.89.152.112:1234,517281,60,650073234135,egypt
0,L8M1C6,ON,Hamilton,198.13.196.113:62361,517286,43,54216010C9F4,cuba
1,28166,NC,Troutman,173.92.238.33:11866,517584,56,54216010D271,wales
288,16820,288,Midrand,41.169.52.20:1234,517515,40,000000559195,peru
1,92582,CA,SAN JACINTO,,10.65.115.137:5500,517630,60,580053279218,peru
1,20748,MD,Temple Hills,10.64.221.174:5500,517932,60,580053349847,israel
1,92543,CA,Hemet,10.65.107.29:5500,518090,60,580053391658,peru
1,93722,CA,Fresno,10.65.112.17:5500,518226,60,580053367302,israel
1,93722,CA,Fresno,10.65.110.6:5500,518246,60,580053390775,germany
0,K2J5Y7,ON,Ottawa,174.112.152.28:9235,518261,43,542160103583,cuba
1,90631,CA,La Habra,10.65.110.56:5500,518416,60,580053272635,germany
1,27529,NC,Garner,10.64.223.181:5501,518623,60,580053344947,israel
1,15644,PA,JEANNETTE,10.64.220.178:5500,518695,60,580053325730,germany
1,10516,NY,COLD SPRING,10.8.105.220:5501,518754,60,998071168795,egypt
1,90262,CA,lynwood,10.64.209.38:5500,447137,60,580053270837,ghana
1,85326,AZ,Buckeye,100.89.149.251:1234,519232,75,650073220886,israel
1,00739,PR,CIDRA,10.65.115.187:5501,519405,60,580053270985,egypt
1,71646,AR,HAMBURG,10.65.108.1:5500,519407,60,580053360455,germany
1,90631,CA,La Habra,10.65.107.255:5501,519487,60,580053343931,egypt
1,75056,57,The Colony,100.89.196.108:1234,519557,47,650073858198,israel
0,V1M2B1,BC,Langley,108.172.50.113:9152,519933,43,54216010C696,cuba
0,V9N 9M5,ON,Courtenay,207.216.237.162:9239,520015,43,542160109DB2,peru
1,13410,NY,Nelliston,10.8.101.52:5501,520094,60,998070733748,israel
1,08043,NJ,Voorhees,100.89.38.50:49823,520150,75,000051D8D4F5,egypt
1,41339,KY,Jackson,100.89.207.30:1234,520347,60,650073237807,israel
1,76549,57,Killeen,100.89.146.208:1234,520415,47,650073324696,israel
1,70058,LA,Harvey,100.89.146.171:1234,520535,75,650073229499,egypt
1,81004,CO,Pueblo,10.64.169.111:4097,520553,47,44BA1A1349B6,peru
1,81006,,,10.65.60.165:4097,520694,47,44BA1A236FA5,ghana
1,70126,LA,New Orleans,10.64.63.192:1234,521005,75,518005205071,egypt
1,21901,MD,North East,100.88.4.131:5500,471461,31,00003E4C0ED7,None
1,01468,MA,Templeton,10.64.220.75:5500,521117,60,580053351306,germany
1,78628,TX,GEORGETOWN ,10.64.223.173:5500,521156,60,580053370884,israel
1,31907,GA,Columbus,100.89.188.95:1234,521299,75,650073819034,egypt
1,70087,LA,Saint Rose,100.89.146.210:1234,521439,75,650073321783,egypt
1,81001,CO,Pueblo,10.65.8.194:4097,521445,47,44BA1A1F6CBE,ghana
1,92234,CA,Cathedral City,100.83.204.217:5500,521591,60,000051E58DB1,ghana
1,81008,CO,Pueblo,10.65.29.144:4097,521608,47,44BA1A215E10,ghana
1,38866,MS,Saltillo,10.8.101.133:5501,521806,60,998070764792,egypt
1,81007,CO,Pueblo,10.65.31.181:4097,521886,47,44BA1A1F7417,ghana
1,31907,GA,Columbus,100.89.188.87:1234,522045,75,650073961992,israel
1,81007,CO,Pueblo,100.89.191.100:1234,522274,47,650078145278,israel
1,40011,KY,Campbellsburg,10.64.218.80:5500,507829,60,580053301939,ghana
1,81001,CO,Pueblo,10.65.1.179:4097,522392,47,44BA1A235F67,ghana
0,L7B 0E5,ON,King,99.249.29.153:9147,522589,43,542160000612,angola
1,39756,MS,PRAIRIE,10.8.101.36:5501,458017,60,998070731858,germany
1,39194,,,10.65.31.58:4097,522839,47,44BA1A21BE53,germany
1,39367,,,10.65.38.255:4097,522847,47,44BA1A1FAD41,germany
1,83401,,,10.64.184.126:4097,522891,47,44BA1A1348FA,germany
1,29624,,,10.65.104.116:4097,522910,47,44BA1A217BD7,israel
1,29620,,,10.65.24.200:4097,522919,47,44BA1A1E7B3D,israel
1,29044,,,10.65.38.188:4097,522943,47,45AB51CA5F8F,ghana
1,29010,,,10.65.48.189:4097,522946,47,44BA1A11542D,ghana
1,29010,,,10.65.92.32:4097,522947,47,44BA1A22DD7D,germany
1,29128,,,10.65.39.159:4097,522962,47,45AB51D193D2,germany
1,29556,,,10.65.55.3:4097,522978,47,45AB51CA1A66,germany
1,70760,LA,New Roads,100.89.151.55:1234,523119,75,650073231578,israel
1,71665,AR,Rison,10.8.108.208:5501,523326,60,998071491502,egypt
1,85282,AZ,Tempe,100.89.192.160:1234,523329,75,650073847993,egypt
1,81008,CO,Pueblo,10.65.37.176:4097,523371,47,44BA1A1F034C,egypt
1,93535,CA,Lancaster,10.65.110.116:5500,523568,60,580053385874,germany
1,25704,WV,Huntington,100.89.150.151:1234,523634,60,650073141942,egypt
1,32301,FL,TALLAHASSEE,100.89.147.191:1234,501304,174,650073229192,israel
1,70501,LA,Lafayette,100.89.246.18:1234,524097,75,650078742157,israel
1,78612,TX,Cedar Creek,100.89.191.124:1234,524116,60,650073953734,israel
1,70812,LA,Baton Rouge,100.89.210.97:1234,524303,75,650078245938,egypt
1,81007,,,10.65.9.158:4097,524306,47,44BA1A1EFA78,egypt
1,91740,CA,Glendora,172.115.12.15:9987,430472,43,5421601027D3,cuba
1,30457,GA,Soperton,10.64.218.162:5500,524504,60,580053389736,germany
1,80907,,,10.65.83.170:4097,524617,47,44BA1A1F0114,egypt
1,21075,MD,Elkridge,100.89.151.115:1234,524727,75,650073214384,egypt
1,75002,TX,Allen,100.89.246.147:1234,525470,75,650078383150,israel
1,01020,MA,Chicopee,10.8.105.47:5501,525474,60,998071176137,germany
1,80817,CO,Fountain,10.65.102.112:4097,525657,47,45AB51C9F944,egypt
1,75154,TX,Red Oak,100.89.246.119:1234,525721,75,650078658650,israel
1,84040,,,10.65.74.54:4097,525742,47,45AB51C6FCF4,egypt
1,71646,AR,Hamburg,10.65.110.86:5500,525785,60,580053268963,egypt
1,35810,AL,Huntsville,10.8.103.105:5500,525824,60,998071086013,israel
1,84302,57,Brigham City,100.89.244.199:1234,525856,47,650078497844,israel
1,85351,AZ,Sun City,100.89.194.94:1234,526069,75,650073973187,egypt
1,23860,VA,Hopewell,10.65.62.194:4097,526144,47,45AB51D08D56,egypt
1,92867,CA,Orange,10.64.216.214:5500,526145,60,580052905987,germany
1,02780,MA,Taunton,100.83.195.193:5501,526261,60,000042F3FC82,ghana
1,94301,CA,Palo Alto,100.89.62.115:1234,493886,10,000000535319,ghana
1,34654,FL,New Port Richy,10.64.221.162:5500,453385,60,580053266868,ghana
1,23803,,,10.65.39.107:4097,526382,47,45AB51D0A451,egypt
1,19141,PA,Philadelphia,100.89.210.217:1234,526384,75,650078035446,israel
1,23860,,,10.65.94.175:4097,526509,47,45AB51D12FE4,ghana
1,46254,IN,Indianapolis,157.130.99.154:46633,526549,10,54216010DCAC,peru
1,77093,TX,Houston,100.89.208.222:1234,526553,75,650073801537,israel
1,70807,LA,Baton Rouge,100.89.209.71:1234,526769,75,650073855152,israel
1,23805,,,10.65.56.252:4097,527006,47,45AB51D0E0BD,ghana
1,23832,,,10.65.92.153:4097,527323,47,44BA19F2CEC8,ghana
1,29440,SC,Georgetown,10.64.204.138:1234,527350,60,335052398010,germany
1,23150,VA,SANDSTONE,10.65.32.244:4097,527362,47,45AB51D0E650,germany
0,T9M 1S2,AB,Cold Lake,24.142.24.183:9287,527406,43,54216010D56C,cuba
1,23075,VA,Henrico,10.65.96.118:4097,527422,47,45AB51CA3E13,germany
1,22903,VA,Charlottesville,10.65.40.160:4097,527440,47,45AB51CAA11D,ghana
1,84107,UT,Murray,10.65.88.56:4097,527525,47,45AB51CFDFD3,ghana
1,00674,PR,MANATI,10.65.107.252:5501,527726,60,580053359887,peru
1,91791,CA,West Covina ,10.65.107.86:5500,527802,60,580053303414,germany
1,85546,57,Safford,100.89.226.7:1234,528049,47,650078245961,israel
1,95307,CA,Ceres,100.89.225.175:1234,528203,60,650078010290,egypt
0,V4N6S8,BC,Surrey,173.180.250.31:9030,528211,43,54216010C91E,peru
1,30032,GA,DECATUR,100.89.33.74:49216,528167,75,000051DE2BF2,israel
1,78721,TX,Austin,100.89.246.128:1234,528283,75,650078684219,israel
1,21237,MD,Baltimore ,10.64.209.30:5500,482010,60,580053325409,peru
1,39452,MS,Lucedale,10.64.1.150:5501,528476,3,580051010029,egypt
1,85207,AZ,Mesa,10.65.111.120:5501,528587,60,580053332728,ghana
1,23223,VA,Richmond,10.65.84.49:4097,528697,47,45AB51D0DEC6,egypt
1,92648,1,Huntington Beach,10.65.181.172:5501,528751,97,580053551491,germany
1,76502,57,Temple,100.89.216.232:1234,529264,47,650078261794,israel
1,66528,KS,Quenemo,71.34.193.87:1234,528065,92,B8B7D700376B,egypt
1,78725,TX,Austin,100.89.218.71:1234,529545,75,650078256885,egypt
1,23607,,,10.65.55.146:4097,529705,47,44BA1A23408F,peru
1,00612,PR,ARECIBO,10.64.216.240:5500,529746,60,580053322471,ghana
1,34982,FL,Fort Pierce,10.65.114.71:5500,529973,60,580053364226,israel
1,42104,KY,Bowling Green,100.89.228.29:1234,530123,60,650078268443,egypt
0,V1C1B7,BC,Cranbrook,24.66.64.37:9320,453107,43,542160108FDA,ghana
1,84041,57,Layton,100.89.210.197:1234,530216,47,650078356206,egypt
1,32533,FL,Cantonment,10.20.26.75:5500,422835,32,524042967431,egypt
1,85138,AZ,Maricopa,100.89.218.83:1234,530474,75,650078354037,israel
1,00674,PR,Manati,10.65.107.91:5500,530544,60,580053233876,peru
154,52140,Estado de Mexico,Metepec,189.189.96.35:10281,530577,198,54216010D604,angola
1,86323,AZ,Chino Valley,10.65.109.168:5500,530593,60,580053243206,israel
0,V4W 4A7,BC,Aldergrove,184.65.214.93:9040,530617,43,54216010C91A,peru
0,M9V1A2,ON,Etobicoke,76.70.47.47:9231,531123,43,54216000128A,cuba
1,80219,,,10.65.66.3:4097,531243,47,413584967A80,egypt
1,91752,CA,Eastvale,10.65.112.29:5500,531247,60,580053276537,ghana
1,92404,CA,SAN BERNARDINO ,100.83.56.7:5501,531298,89,998071480679,egypt
1,38133,,,10.65.23.239:4097,531335,47,44BA1A12124E,ghana
1,02907,RI,Providence,10.65.181.141:5501,531514,60,580053736704,peru
1,81003,,,10.65.58.194:4097,531663,47,41358496A65D,israel
1,81005,CO,Pueblo,10.65.10.89:4097,531809,47,4135849454A8,egypt
1,28301,,,10.65.32.116:4097,531946,47,4135849441F7,germany
1,81050,CO,La Junta,10.65.63.119:4097,531960,47,41358494550B,israel
1,21601,MD,Easton,10.8.112.228:5501,531967,60,998071716379,israel
1,28303,,,10.65.32.65:4097,532246,47,413584943713,israel
1,28314,NC,Fayetteville,10.65.35.130:4097,532273,47,413584935443,peru
1,45240,OH,Cincinnati,100.83.8.127:1234,532338,60,650078383432,israel
1,92223,CA,Cherry Valley,10.65.113.19:5500,532455,60,580053257644,israel
1,28364,NC,Maxton,10.64.26.127:1234,532782,60,335051290622,egypt
1,20018,DC,Washington,100.89.193.34:1234,532850,75,650078026486,egypt
1,27610,NC,Raleigh,10.65.34.1:4097,532927,47,41358493D433,egypt
1,20904,MD,Silver Spring,100.89.193.43:1234,533345,75,650073934452,israel
1,84404,,,10.65.52.152:4097,533591,47,413584935A83,peru
1,36532,AL,Fairhope,100.83.67.131:5500,450053,32,998072194360,ghana
1,21784,MD,SYKESVILLE,100.89.192.248:1234,534176,75,650078105082,egypt
1,76020,TX,Azle,100.89.245.93:1234,534187,47,650078567042,egypt
2,2148,,BLACKTOWN,1.41.44.170:9201,451457,67,54216010426B,ghana
1,84014,UT,Centerville,100.83.12.136:1234,534772,47,650078539454,israel
1,84067,,,10.65.30.243:4097,535145,47,413584935FB4,israel
1,78401,TX,Corpus Christi,100.89.225.254:1234,535170,12,650073970183,egypt
1,84040,,,10.65.7.221:4097,535509,47,413584934924,israel
1,70761,LA,Norwood,10.64.196.139:1234,535870,60,335052299465,egypt
0,M9N 4A2,ON,York,76.65.20.116:9234,535880,43,5421600014D9,peru
1,89156,NV,North Las Vegas,100.83.13.62:1234,535925,60,650078452500,israel
1,31088,GA,Warner Robins,100.83.28.228:5500,535978,56,998071166351,israel
1,21061,MD,GLEN BURNIE,100.83.15.147:1234,536166,75,650078452567,israel
1,30039,GA,Snellville,100.89.255.65:1234,536173,75,650078676140,israel
1,28304,,,10.65.26.111:4097,536197,47,41358494335E,peru
1,71913,AR,Hot Springs National Park,10.64.223.97:5500,536543,60,580053365496,ghana
1,84015,,,10.65.5.18:4097,536820,47,41358494491F,egypt
1,84062,UT,Pleasant Grove,10.65.102.85:4097,536875,47,44BA1A1ED746,ghana
1,90041,CA,Los Angeles ,10.65.116.136:5500,537004,60,580053365199,ghana
1,77591,TX,Texas City,100.83.13.35:1234,537027,47,650078620726,egypt
1,77587,TX,South Houston,100.89.229.67:1234,537319,75,650073800646,israel
1,91406,CA,Van Nuys,10.65.114.20:5501,537651,60,580053562845,ghana
1,30344,GA,East point,100.89.189.151:1234,537783,75,650073752078,israel
1,30337,GA,College park,100.89.189.135:1234,537811,75,650073774437,israel
1,39421,MS,BASSFIELD,10.8.116.88:5501,448090,60,998072353735,peru
0,M6M1C5,ON,Toronto,108.175.234.30:1234,533841,43,000000637376,peru
1,00969,PR,Guaynabo,10.64.64.118:1234,538293,60,518005204801,israel
1,81067,CO,Rocky Ford,100.83.8.70:1234,538419,47,650078385015,israel
1,83402,ID,Idaho Falls,10.65.243.33:4097,538621,47,4135849879C9,peru
1,63379,MO,Troy,100.89.252.199:1234,538788,60,650078565152,israel
1,27983,,,10.65.233.119:4097,538942,47,413584962DFE,israel
1,30228,GA,Hampton,100.89.216.149:1234,538965,75,650078149064,israel
1,27909,,,10.65.224.127:4097,539263,47,41358496F97A,germany
1,94804,CA,Richmond,10.8.112.88:5501,539363,60,998071725800,peru
1,42642,KY,RUSSELL SPRINGS,10.8.106.214:5501,420359,60,998071521837,germany
1,84106,,,10.64.183.107:4097,539615,47,44BA1A12E576,egypt
1,84115,UT,Salt Lake City,100.83.16.167:1234,539629,47,650078496994,egypt
1,39437,MS,Ellisville,10.64.199.34:1234,539797,60,335052469894,egypt
1,23851,,,10.65.236.219:4097,539978,47,4135849725D4,ghana
1,29554,SC,Hemingway,10.64.52.18:1234,540109,60,335051545827,egypt
1,39474,MS,PRENTISS,10.8.105.45:5501,540427,60,998071174587,israel
1,75853,TX,Montalba,10.64.199.104:1234,540781,60,335052486484,ghana
1,29732,SC,Rock Hill,10.64.204.16:1234,540837,60,335052471742,israel
1,87120,NM,ALBUQUERQUE,100.83.53.245:5501,541269,60,998071492146,israel
1,08087,CT,Little Egg Harbor,100.83.66.18:9262,541298,31,542160004952,peru
1,29118,SC,Orangeburg,10.64.198.93:1234,541505,60,335052482046,egypt
1,36830,AL,Auburn,100.89.195.179:1234,541571,60,650078120792,egypt
1,70767,LA,Port Allen,100.83.124.27:1234,541957,60,636094674445,egypt
1,30236,GA,Jonesboro,100.83.13.95:1234,542244,75,650078673097,israel
1,77449,TX,Katy,100.83.130.114:1234,542259,60,636094807318,israel
1,84058,UT,Orem,10.65.234.75:4097,542395,47,413584937809,peru
1,60411,IL,CHICAGO HEIGHTS,10.64.217.96:5501,542763,47,580053305591,peru
1,20707,MD,Laurel,100.83.126.150:1234,542903,75,636094618756,egypt
1,75216,TX,Dallas,100.83.15.57:1234,543588,75,650078564239,egypt
1,39095,MS,LEXINGTON,10.8.115.210:5500,544088,60,998072301064,egypt
1,30034,GA,DECATUR,100.89.198.89:1234,544197,75,650073766482,israel
1,78244,TX,San Antonio,100.83.125.113:1234,544204,75,636094203328,israel
1,30297,GA,Forest Park,100.83.116.161:1234,544360,75,636094219159,israel
1,20019,DC,Washington,100.89.146.180:1234,544625,75,650073204658,israel
1,84070,UT,Sandy,10.65.242.16:4097,544748,47,41358496B221,ghana
1,20759,MD,Fulton,100.89.208.66:1234,544794,75,650073891413,israel
1,84067,,,10.65.31.44:4097,544812,47,413584934E5D,ghana
1,39365,MS,Union,100.83.119.164:1234,544881,143,636094724877,israel
1,92128,CA,San Diego,10.64.216.114:5500,545100,60,580053343667,ghana
0,R2J0Y4,MB,Winnipeg,10.64.30.66:1234,544343,112,000000567405,ghana
1,30642,GA,Greensboro,10.64.198.17:1234,545685,60,335052463830,peru
1,95037,CA,Morgan Hill,100.89.232.152:1234,545958,12,650078159600,egypt
1,84337,,,10.65.27.147:4097,546845,47,41358493337C,ghana
1,98802,WA,East Wenatchee,100.89.232.201:1234,546864,12,650078261711,israel
1,84404,UT,Plain City,10.65.33.145:4097,547015,47,413584944618,peru
1,66217,KS,Shawnee,100.89.232.168:1234,547133,12,650073882974,egypt
1,30039,GA,Snellville,100.83.118.185:1234,547192,75,636094634951,israel
1,76112,TX,Fort Worth,100.83.122.119:1234,547346,75,636094728613,egypt
1,70070,LA,Luling,100.83.119.126:1234,547463,60,650077446925,israel
1,75042,TX,Garland,100.83.122.99:1234,547707,75,636094720644,israel
1,67207,KS,WICHITA,100.89.219.231:1234,547849,12,650078147712,egypt
1,21740,MD,Hagerston,100.89.232.156:1234,547909,12,650078300329,egypt
1,70811,LA,Baton Rouge,100.89.223.167:1234,548418,75,650078256687,egypt
1,32433,FL,Defuniak Springs,100.83.118.31:1234,548693,60,636093770723,egypt
1,01035,MA,Hadley,100.89.219.244:1234,548802,12,650078356511,egypt
1,34994,FL,stuart,100.89.232.189:1234,548906,12,650073892544,israel
1,70764,LA,Plaquemine,10.64.197.233:1234,549384,60,335052413967,ghana
1,84119,UT,West Valley City,100.83.134.226:1234,549387,47,636094734520,israel
1,12303,NY,Schenectady,100.89.232.154:1234,549461,12,650078226623,israel
1,08324,NJ,na,100.89.232.176:1234,549584,12,650078335028,israel
1,42701,KY,Elizabethtown,100.89.232.199:1234,549739,12,650073807567,israel
1,84015,UT,Clearfield,100.83.134.214:1234,549825,47,636094619556,israel
1,08234,NJ,na,100.89.230.76:1234,549901,12,650078317281,egypt
1,29210,SC,Columbia,100.89.220.11:1234,549953,12,650078290041,egypt
1,45332,UT,	   HOLLANSBURG,10.8.117.226:5500,550340,60,998071961728,germany
1,11214,NJ,Brooklyn,100.89.220.17:1234,550581,12,650078155921,israel
1,33139,FL,Miami Beach,100.89.230.75:1234,550764,12,650078318792,israel
1,30809,GA,Evans,100.89.230.84:1234,550818,12,650078309502,israel
1,15061,PA,Monaca,100.89.220.0:1234,550932,12,650073901030,egypt
1,95831,CA,Sacramento,100.89.227.106:1234,550972,75,650078146524,egypt
1,30501,GA,Gainesville,100.89.219.233:1234,550986,12,650078144354,israel
1,84070,UT,Sandy,10.65.57.39:4097,551199,47,45AB51CF4F6C,egypt
1,84404,,,10.66.10.59:4097,551345,47,4135849B8813,germany
1,08807,NJ,Bridgewater,100.89.230.95:1234,551613,12,650078148355,israel
1,31206,GA,Macon,10.64.196.212:1234,551782,60,335052434393,egypt
1,33308,FL,oakland park,100.89.230.62:1234,551850,12,650078296329,egypt
1,32114,FL,Daytona Beach,100.89.230.61:1234,551856,12,650078306482,israel
1,06901,CT,Stamford,100.89.230.70:1234,551884,12,650078335473,egypt
1,85711,AZ,Tucson,100.89.230.67:1234,552161,12,650078335127,israel
1,95678,CA,Roseville,100.83.121.163:1234,552260,75,636094710520,israel
1,17202,PA,Chambersburg,100.89.230.89:1234,552299,12,650078334468,israel
1,29829,,,10.66.16.247:4097,552358,47,413584996EAC,peru
1,08234,NJ,na,100.89.219.239:1234,552466,12,650078225062,egypt
1,07652,NJ,Paramus,100.89.220.5:1234,552563,12,650078253031,israel
1,38930,MS,Greenwood,10.64.68.202:1234,552659,60,335052299846,israel
1,29180,,,10.66.132.20:4097,552826,47,41358498DA46,ghana
1,07421,NJ,Hewitt,100.89.251.105:1234,552860,60,650078608911,egypt
1,02364,MA,Kingston,100.89.230.73:1234,553117,12,650078335259,egypt
1,91767,CA,POMONA ,10.8.119.36:5501,553334,60,998072513809,egypt
1,98626,WA,Kelso ,100.83.232.51:1234,553391,60,152100297420,egypt
1,95203,CA,Stockton,100.89.227.102:1234,553414,75,650073893369,israel
1,00641,PR,Utuado,10.65.198.177:5501,553424,60,580053544835,egypt
1,60073,IL,ROUND LAKE,100.89.232.169:1234,553489,12,650078274722,egypt
1,84119,UT,West Valley City,100.83.137.166:1234,554264,47,636094676374,egypt
1,28273,NC,Charlotte,10.66.170.59:4097,554893,1,4135849C6CFB,ghana
1,36874,AL,Salem,100.83.247.92:1234,555049,60,152100416574,egypt
0,H9X 1E2,QC,Sainte-Anne-de-Bellevue,142.122.39.207:9731,506346,43,54216010ABF0,peru
1,38901,MS,Grenada,10.66.68.225:4097,555772,47,4135849A4DBF,peru
1,85365,AZ,Yuma,100.83.138.167:1234,555907,47,636094226915,egypt
1,84401,,,10.66.8.192:4097,555964,47,4135849B8BD1,ghana
1,29936,SC,Ridgeland,10.64.198.232:1234,556002,60,335052489785,ghana
1,39652,MS,MAGNOLIA,10.66.35.32:4097,556145,47,413584995146,ghana
1,39648,MS,MCCOMB,10.65.245.103:4097,556154,47,4135849AD339,germany
1,39648,MS,MCCOMB,10.65.247.52:4097,556165,47,4135849AF652,germany
1,39648,MS,MCCOMB,10.66.0.173:4097,556175,47,4135849AF630,peru
1,44406,OH,Canfield,100.83.7.110:1234,547785,60,650078680860,egypt
242,20000,Maldonado,Maldonado,10.64.82.55:1234,556482,30,518005302316,israel
1,38635,,,10.65.245.90:4097,556731,47,4135849AF726,germany
1,38063,TN,Ripley,100.88.193.54:49157,465162,47,000047AF792D,None
1,33616,FL,Tampa,10.66.13.64:4097,557038,1,4135849AB459,tahiti
1,65052,MO,Linn Creek,100.83.247.120:1234,557144,60,636096123557,egypt
1,85355,AZ,Waddell,100.83.240.133:1234,557315,75,636096119167,israel
1,10530,NY,Hartsdale,100.89.230.42:1234,557411,12,650078364325,egypt
1,84043,UT,Lehi,10.64.208.4:1234,558036,47,307000161176,egypt
1,89134,NV,Las Vegas,100.88.5.4:1234,558120,75,152100280939,egypt
1,08324,NJ,na,100.89.230.48:1234,558443,12,650078316820,egypt
1,29483,,,10.65.49.121:4097,558706,47,45AB51CA4532,israel
1,31008,GA,Byron,10.8.118.111:5501,534729,60,998072676515,peru
1,29483,,,10.66.127.89:4097,558796,47,4135849D37EA,egypt
1,08324,NJ,na,100.89.221.82:1234,558514,12,650078308348,israel
1,08234,NJ,Na,100.89.221.59:1234,559243,12,650073963204,israel
1,08234,NJ,na,100.89.221.67:1234,559291,12,650073875051,israel
1,91405,CA,Van Nuys,100.83.38.60:5501,559495,97,998070617404,egypt
1,39501,,,10.66.58.146:4097,560164,47,4135849EB50F,israel
1,90274,CA,Palos Verdes,70.175.149.144:7555,498119,89,5421607011FE,ghana
1,81004,,,10.66.71.121:4097,561233,47,4135849DBE12,ghana
1,08234,NJ,na,100.88.39.151:1234,561262,12,636096640600,egypt
1,NA,VA,NA,100.83.252.85:1234,561279,12,152100264065,egypt
1,08234,NJ,na,100.88.35.175:1234,561287,12,636096657935,egypt
1,NA,NJ,NA,100.88.35.105:1234,561301,12,636096664279,israel
1,08234,NJ,na,100.88.35.170:1234,561302,12,636096658065,egypt
1,NA,VA,NA,100.88.35.102:1234,561311,12,636096662190,israel
1,NA,VA,NA,100.88.33.201:1234,561369,12,636096633613,israel
1,NA,VA,NA,100.88.34.0:1234,561376,12,636096587132,egypt
1,70343,,,10.66.121.40:4097,561666,47,4135849E2A4A,germany
1,70517,LA,Breaux Bridge,100.83.229.173:1234,561755,60,152100264438,egypt
1,00698,PR,Yauco,10.65.149.127:1234,562456,60,307000171084,israel
1,84321,,,10.66.70.145:4097,563191,47,4135849EB8E5,egypt
1,31730,GA,Camilla,100.83.239.63:1234,563736,60,152100340543,egypt
1,70805,LA,Baton Rouge,100.83.235.37:1234,563872,60,636099930156,israel
1,89156,NV,Las Vegas,100.83.249.251:1234,564010,75,636099078857,israel
1,12550,NY,Newburgh,100.83.239.182:1234,564043,60,636096118755,egypt
1,08234,NJ,na,100.88.48.95:1234,564452,12,152101490990,egypt
1,NA,VA,NA,100.88.43.218:1234,564548,12,152101486816,israel
1,08234,NJ,na,100.88.55.213:1234,564549,12,636096856743,egypt
1,08234,NJ,na,100.88.48.119:1234,564562,12,152102072995,israel
1,75068,TX,Little Elm,100.88.34.173:1234,564587,60,636096633530,israel
1,NA,VA,NA,100.88.43.204:1234,564590,12,152101487426,israel
1,30350,GA,Atlanta,100.83.234.250:1234,564592,75,636099933580,egypt
1,08234,NJ,na,100.88.58.47:1234,564743,12,636096879042,israel
1,NA,VA,NA,100.88.54.244:1234,564749,12,636096856305,egypt
1,08234,NJ,na,100.88.55.204:1234,564784,12,636096878291,israel
1,08234,NJ,na,100.88.58.226:1234,564792,12,636096856644,israel
1,89149,NV,Las Vegas,100.83.66.115:11336,564866,10,542160000825,egypt
1,84116,,,10.65.221.207:4097,565143,47,4135849830F3,peru
1,29360,,,10.65.61.168:4097,522832,47,44BA1A120730,peru
1,39652,MS,Magnolia,100.83.246.90:1234,565545,60,152100348314,egypt
0,N1H 4H2,ON,Guelph,10.65.116.116:5500,565575,24,580053302390,egypt
1,84604,UT,Provo,100.83.248.79:1234,566205,47,636099092197,israel
1,70818,LA,Baton Rouge,100.83.244.119:1234,566364,60,152100343059,egypt
1,20772,MD,UPPER MARLBORO,100.88.109.227:1234,566425,75,636096985104,egypt
1,60647,IL,CHICAGO,100.83.87.94:5501,566825,136,998072726542,ghana
1,06120,CT,Hartford ,100.88.107.75:1234,567431,20,636096943111,israel
1,14172,NY,Wilson,10.64.208.31:1234,568430,166,307000158263,egypt
1,84302,,,10.66.106.219:4097,568438,47,4135849ECB75,germany
1,78660,TX,Pflugerville,100.83.230.184:1234,568660,60,152100358636,egypt
1,06255,CT,North Groversnerdale,100.83.95.227:5500,463284,60,998071712048,israel
1,84043,UT,Lehi,100.88.206.21:1234,569067,47,152105328139,egypt
1,06606,CT,Bridgeport,100.83.96.145:5501,569174,60,998071715264,ghana
1,23435,VA,SUFFOLK,100.83.141.196:5500,498371,56,998073444640,israel
1,31794,GA,Tifton,100.83.153.97:5501,492161,60,998073454268,ghana
1,78412,TX,Corpus Christi,10.64.139.1:1234,570216,189,335052352983,israel
1,06351,CT,Griswold,10.8.3.195:5501,438368,60,998072426788,egypt
1,95210,CA,Stockton,100.83.149.56:5501,570655,60,998071561197,ghana
1,85375,,,10.66.126.164:4097,570662,47,4135849E29DF,peru
1,72116,AR,North Little Rock,100.88.128.24:1234,570967,60,152101510151,egypt
1,28301,,,10.66.44.166:4097,572191,47,4135849EE624,israel
1,28314,,,10.66.41.224:4097,572237,47,4135849ED562,israel
1,28352,,,10.66.51.100:4097,572347,47,4135849B4B1B,israel
1,36545,AL,Jackson,10.65.153.164:1234,572367,60,307000161572,israel
1,39114,MS,MENDENHALL,10.8.3.135:5501,432604,60,998073142103,israel
1,28348,,,10.66.51.156:4097,572439,47,4135849C574B,peru
1,28306,,,10.66.47.199:4097,572449,47,4135849B3582,israel
1,95350,CA,Modesto,100.83.96.59:5501,572642,60,998071754115,egypt
1,12084,NY,Guilderland,10.64.201.6:1234,573288,20,335052296107,germany
1,29440,SC,Georgetown,10.64.207.248:1234,573968,14,335052465041,egypt
1,84104,,,10.66.79.127:4097,574103,47,4135849B41E3,israel
1,67460,KS,mcpherson,24.255.196.153:9094,575035,47,54216001BF3C,angola
1,28269,NC,Charlotte ,100.88.57.83:5501,484628,60,998073258404,egypt
1,39563,MS,Moss Point,10.66.63.18:4097,483633,47,4135849F535B,egypt
1,06010,CT,Bristol,100.88.55.139:5501,436919,60,998073411144,egypt
1,28301,NC,Fayetteville,10.66.44.211:4097,576131,47,4135849E8266,germany
1,28314,NC,Fayetteville,10.66.43.148:4097,576265,47,4135849B5044,germany
2,2093,NSW,Balgowlah Heights,10.65.129.191:1234,507880,121,000001041089,orange,12
2,2213,NSW,Panania,10.65.135.109:1234,507906,121,000001041090,dubbo,12
292,38471,Kalmar,TIMMERNABBEN,81.229.127.107:1234,464676,13,000001151110,poland,12
292,82194,Gavleborg,,10.65.131.217:1234,464829,17,000001086240,poland,12
28,2640,,Mortsel,94.104.95.34:1234,464662,16,000000623336,austria,12
