1,27944,NC,Hertford,10.20.31.84:5500,420662,60,524043356691,egypt
1,32080,FL,SAINT AUGUSTINE,10.20.33.100:5500,420798,60,524043310078,ghana
1,92880,CA,Corona,10.20.43.71:5500,421525,60,524043341636,ghana
1,48433,MI,Flushing,10.20.42.148:5500,421834,60,524043488296,egypt
1,59405,MT,GREAT FALLS,10.20.42.146:5500,421891,60,524043482612,egypt
1,35634,AL,FLORENCE,10.20.31.137:5500,422068,60,524043344234,germany
1,01129,MA,SPRINGFIELD,10.20.23.219:5500,422310,60,524042996158,ghana
1,90272,CA,Pacific Palisades,10.20.42.51:5500,422518,60,524043499285,israel
0,L6M3Y9,ON,Oakville,104.158.11.151:9194,422876,43,542160100A61,ghana
0,L5E2M9,ON,Mississauga,10.20.44.157:5500,423760,43,524043481689,egypt
1,91342,CA,SYLMAR,10.20.35.238:5500,424082,60,524043368571,peru
1,06492,CT,WALLINGFORD,10.20.43.211:5500,425032,60,524043362079,israel
1,60137,IL,Glen Ellyn,24.14.190.11:9091,425262,20,54216010305B,ghana
0,L7T3P6,ON,Burlington,65.95.156.91:9071,425378,43,542160101044,ghana
1,92009,CA,Carlsbad,10.20.38.196:5500,425516,60,524043489823,ghana
0,L5M7G2,ON,Mississauga,99.245.92.80:10550,425746,43,542160100F80,angola
1,91977,CA,SPRING VALLEY,100.83.140.193:5500,426368,60,000042F6207C,ghana
1,08527,NJ,Jackson,10.20.47.157:5501,428028,60,524043487157,egypt
0,L0R1H2,ON,Carlisle,24.141.188.58,428252,43,542160101CDB,ghana
1,75230,1,Dallas,10.20.26.174:5500,429240,61,524042972787,germany
1,39339,1,LOUISIANA,100.83.148.35:5501,429858,60,000042F3FC91,egypt
0,M6C1S7,ON,Toronto,10.20.57.54:5501,429960,43,580050107958,israel
1,75043,TX,Garland,10.20.49.82:5500,432240,60,580050105879,germany
1,45506,OH,SPRINGFIELD,100.83.184.160:5501,433787,60,000049999D50,egypt
1,36582,AL,Theodore,100.88.4.178:5501,433807,32,00003E4C14D1,israel
1,27605,NC,Raleigh,100.88.31.49:5501,434930,6,000049998F33,ghana
0,K0L 2H0,ON,Lakefield,76.75.94.215:9724,435394,43,542160102AC3,angola
1,60620,IL,Chicago,100.83.187.145:5500,435181,60,000049A1AE19,israel
0,T3H 3G4,AB,Calgary,68.146.199.39:9585,435511,43,5421601035B0,cuba
1,90066,CA,Los Angeles,100.83.223.37:5501,435966,60,000049A1955A,ghana
1,45244,OH,CINCINNATI,100.83.179.99:5501,436935,60,0000499990AF,ghana
0,T0E 0T0,AB,Evansburg,173.252.46.23:9917,437590,43,5421601032BA,peru
1,45417,OH,DAYTON,100.83.179.11:5501,438776,60,00003E4C0593,israel
112,110085,ND,New Delhi,223.190.13.214:9143,439261,39,54216010168C,wales
1,34653,FL,New port richey,100.83.174.196:5501,439486,60,000049A19717,israel
0,V8P 3W6,BC,Victoria,173.183.76.7:9276,439847,43,5421601039B4,ghana
0,M6E4W2,ON,Toronto,108.168.60.169:9571,439988,43,542160103BA8,angola
1,36527,AL,Spanish Fort,100.88.37.116:5500,438199,32,00003E4C6F2A,israel
1,31906,GA,Columbus,100.88.36.227:5501,441204,79,00004999AFA3,egypt
1,34683,FL,Palm harbor,100.83.192.227:5500,441595,60,000049995DE1,ghana
1,32259,FL,Jacksonville ,100.83.190.221:5501,441650,60,00003E4BDA1C,ghana
1,31906,GA,Columbus,100.88.36.25:5500,441771,79,000049A1C8A1,israel
1,90745,CA,CARSON,100.83.173.140:5501,441826,60,00003E4BA449,israel
1,34734,FL,gotha,10.20.43.182:5500,441974,60,524043358333,ghana
1,33844,FL,Haines City,100.83.192.87:5500,442352,60,00003E4C872E,israel
1,75180-2272,TX,BALCH SPRINGS,10.20.52.227:9245,443004,18,5421601034E8,ghana
0,L6R 1S8,ON,Brampton,99.234.120.189:9208,443212,43,5421601045C1,wales
1,93619,CA,Clovis,100.88.30.49:5500,443247,6,00003E4C6929,israel
1,46403,IN,Gary,10.20.30.204:5500,443817,14,524043355230,ghana
1,33860,FL,MULBERRY,100.83.213.45:11875,443864,60,5421601043E1,israel
1,91745,CA,Hacienda Heights,100.83.198.21:5501,443950,10,000049A190D1,israel
0,T3S0C1,AB,Calgary,10.20.64.62:5501,444600,141,580050241468,peru
112,122003,,Delhi,14.140.207.98:51616,444800,39,5421601013FD,ghana
1,90640,CA,Gardena,100.83.227.131:5501,444804,10,000049A1CD54,egypt
0,M4N1Z4,ON,TORONTO,99.240.194.91:9363,445592,89,542160104AEE,peru
1,27603,OK,Raleigh,100.88.37.64:5500,445692,6,000049997F03,israel
1,89178,NV,Las Vegas,100.83.177.11:5501,446349,10,00004999A3A1,egypt
1,91106,CA,Pasadena,100.83.149.216:5501,446401,10,00003E4C2A2D,egypt
1,06901,CT,Stamford,173.220.217.250,446728,56,542160104023,angola
1,94606,CA,OAKLAND,100.83.192.57:5501,447419,60,00004999925D,israel
112,110005,112,New Delhi,10.20.52.67:9040,448231,39,54216010450E,ghana
1,90405,CA,Santa Monica,100.83.210.243:5501,448512,10,000049A1B18E,ghana
1,33810,FL,Lakeland,100.83.226.8:5501,449132,60,000049A1C828,egypt
1,32803,FL,Orlando,100.83.152.140:5500,449890,60,00004D955AF4,ghana
1,77541,TX,FREEPORT,100.83.152.182:5501,449992,60,00004D95F8FD,ghana
1,38334,TN,FINGER,100.83.169.49:5501,450257,60,000051D0F512,israel
1,33594,FL,Valrico,100.83.153.218:5501,450821,60,00004D82EDFA,egypt
1,31907,GA,Columbus,100.88.35.250:5500,450837,79,000049A1ECDC,ghana
0,L4K5J7,ON,Vaughan,99.247.125.187:9144,451195,43,542160104C65,angola
0,L5N 2A2,ON,Mississauga,99.232.245.6:9050,451372,43,542160105401,angola
1,90621,CA,Buena Park,76.169.17.46:9192,451452,89,542160105281,peru
0,V7C 5S1,BC,Richmond,154.5.229.247:11115,451235,43,542160104D13,peru
1,80013,CO,Aurora,100.88.93.88:9322,451746,47,54216010588E,ghana
1,32628,FL,Cross City,100.83.169.239:5501,451855,60,00004D950025,ghana
0,L3Y 8P7,ON,Newmarket,72.140.137.154:9067,452460,43,542160105332,angola
1,10579,NY,Putnam Valley,100.83.141.213:5501,452753,60,000051CD79FA,ghana
1,23666,1,Hampton,100.88.95.97:5501,452783,56,000051CD7343,ghana
1,35218,AL,Birmingham ,100.83.171.134:5500,452841,60,000051CD9696,israel
1,90712,CA,Lakewood,100.83.216.192:5501,452844,10,000051D13773,israel
1,45744,OH,Lowell,100.83.140.102:5501,452961,60,00004D955B61,ghana
1,71119,LA,SHREVEPORT,75.65.87.64:9153,453164,47,542160105895,peru
1,93304,CA,Bakersfield,100.83.170.91:5501,453167,60,000051CD8282,egypt
0,M2H 1H9,ON,Toronto,10.20.72.94:9166,453743,43,54216010590F,peru
1,20772,MD,Upper Marlboro,100.83.192.132:5501,454070,60,000049998623,israel
0,M3N 2S5,ON,North York,99.255.253.188:10149,454082,43,542160105900,ghana
1,92543,CA,Hemet,100.83.184.113:5500,454427,60,000049999751,egypt
1,39422,MS,Bay Springs,100.83.153.144:5501,454584,60,00004D95516B,ghana
1,90255,CA,Huntington Park,100.83.199.93:5501,454592,60,00004D9D2A84,egypt
1,31210,GA,Macon,100.83.153.27:5501,454763,60,00004D95062A,egypt
0,T0C2L0,AB,Stettler,108.173.110.17:9017,454922,43,542160105911,ghana
1,76123,57,Fort Worth,100.88.111.65:49412,455304,47,000051D4E94F,israel
1,38632,MS,HERNANDO,100.83.154.35:5501,455369,60,00004D853E8C,israel
1,76133,57,Fort Worth,100.88.160.115:49784,455388,47,000051DC0388,germany
0,R3J3A3,MB,Winnipeg,24.77.32.125:9123,455865,43,542160105E08,ghana
1,76002,TX,Arlington,100.88.65.187:49600,455887,47,000047AE1291,egypt
1,76002,TX,Arlington,100.88.65.180:49411,456170,47,000047AE0D61,israel
1,36582,AL,Theodore,100.88.133.161:5500,456453,32,000051CD70A8,ghana
1,31906,GA,Columbus,100.88.30.37:5500,456587,79,00003E4C7270,egypt
0,L6H7K7,ON,Oakville,24.150.192.150:9103,456703,43,542160105D67,ghana
1,27713,NC,Durham,45.37.68.13:9349,456866,43,542160105EE0,wales
1,64151,MO,KANSAS CITY,100.83.167.183:5501,457058,60,00004D82F58F,ghana
1,02136,MA,Hyde park,100.83.177.111:5500,457100,60,00004D9B5AB8,israel
1,12863,NY,ROCK CITY FALLS,100.83.169.184:5501,457136,60,000051D0F784,egypt
1,89015,NV,Henderson,100.83.148.111:5501,457219,60,00004D853ECE,egypt
1,76039,57,Euless,100.88.141.42:50488,457212,47,000051D4109F,egypt
1,91750,CA,La Verne,100.83.219.94:5501,458181,60,00004D9D41E0,egypt
1,85043,AZ,Phoenix,100.83.180.90:5501,459023,60,00004D9B3AC2,ghana
0,N2A0G4,ON,Kitchener,99.251.73.245:9089,459027,43,542160105405,wales
1,06824,CT,Fairfield,100.83.189.94:5500,459298,60,00004D9D287B,egypt
1,99203,WA,Spokane,100.83.162.42:5501,459646,60,000051D9A406,ghana
0,L6V3N3,ON,Brampton,99.234.162.141:10666,459748,43,542160105D16,wales
1,90262,CA,Lynwood,100.83.150.8:5501,459869,10,000049A1D3A6,egypt
1,13450,NY,Saint Johnsville,100.83.200.160:5501,460519,60,00004D9D1F5D,ghana
1,20872,MD,damascus,100.88.87.212:49795,460829,75,000051D02173,germany
1,30273,1,rex,100.88.197.127:50504,460991,75,000047AF7ED6,germany
1,39366,MS,VOSSBURG,100.83.163.151:5501,461209,60,000051D99D4D,israel
1,23666,1,Hampton,100.88.126.23:5500,461612,56,000051CD77D0,ghana
1,38654,MS,OLIVE BRANCH,100.83.142.80:5501,461747,60,000051D9EB96,egypt
1,31021,GA,Dublin,100.83.186.225:5501,462417,60,000051D34783,egypt
1,76179,57,Fort Worth,100.88.180.53:50213,462499,47,000051D89CC3,egypt
1,92683,CA,Westminster,100.83.164.65:5500,462747,60,000051D34577,israel
0,M9W7B3,ON,Etobicoke,99.253.61.3:9037,463242,43,542160106725,ghana
1,29554,SC,Hemingway,100.83.215.123:5501,463702,60,000051E4AECA,israel
1,32751,FL,Maitland,100.83.145.42:5501,463773,60,00004D9B10DC,ghana
1,70722,LA,CLINTON,100.83.140.230:5501,463780,60,000051D379B3,egypt
1,90631,CA,La Habra,100.83.163.95:5501,463916,60,000051D365F6,israel
1,31088,GA,Warner Radins,100.83.188.225:5500,463963,60,000051D34781,egypt
1,70647,LA,Iowa,100.83.202.242:5501,464740,60,000051E4A5F0,israel
1,94931,CA,Cotati,100.83.201.236:5500,465278,60,000051E4A895,ghana
1,71362,LA,Plaucheville,100.83.147.202:5501,465488,60,000051E4E7DA,israel
1,28358,NC,Lumberton,100.83.158.92:5501,465919,60,000051E4A05C,ghana
1,20603,MD,WALDORF,100.88.241.106:50465,465956,75,000051DE15A0,israel
1,49045,MI,Decatur,100.83.186.43:5501,466327,60,000051D357CE,ghana
1,32514,FL,Pensacola,104.185.100.134:9225,466592,32,542160104EE0,angola
1,30213,GA,Fairburn,100.83.142.64:5501,466773,60,000051CD86CB,ghana
1,39338,MS,LOUIN,100.83.152.142:5500,466940,60,00004D853F84,israel
1,63049,MO,HIGH RIDGE,100.83.212.241:5501,467259,60,000051E46C42,ghana
1,84088,UT,West Jordan,76.8.215.50:62446,518383,1,000000499012,germany
0,L6M2P7,ON,Oakville,170.52.100.121:9242,467595,43,542160106F73,angola
1,92251,CA,Imperial,100.83.201.132:5501,467612,60,000051D900EF,egypt
1,44883,OH,Tiffin,100.88.221.17:5501,467699,106,000051E49DED,egypt
1,21783,MD,Smithsburg,100.83.201.81:5501,467790,60,000051E4AF00,ghana
1,29554,SC,Hemingway,100.83.186.105:5501,468668,60,000051D9A116,ghana
112,110034,,New Delhi,122.161.204.184:9201,451480,39,54216010166A,angola
1,30017,GA,GRAYSON,100.89.22.13:50588,468955,75,000051DE0F6E,egypt
1,91732,CA,El Monte,100.83.203.150:5501,469299,60,000051E4E296,ghana
1,02019,MA,Bellingham,100.83.201.80:5501,469593,60,000051E4B960,israel
1,86426,AZ,Fort Mohave,100.83.186.231:5501,469899,60,000051D98786,israel
1,35501,AL,JASPER,100.83.146.16:5501,470003,60,000051CD7283,ghana
1,39663,MS,Silver Creek,100.83.162.228:5501,470175,60,000051D9A968,ghana
1,43420,OH,Fremont ,100.83.226.143:5500,470191,60,000051E5B176,israel
1,30079,GA,SCOTTDALE,100.89.20.109:49508,470349,75,000051DE0D77,israel
1,32025,FL,LAKE CITY,100.83.217.108:5501,470606,60,000051E5A779,israel
1,31030,1,Fort Valley,100.88.220.57:5501,470609,56,000051E4E292,israel
1,35211,AL,BIRMINGHAM,100.83.157.218:5501,470614,60,000051E5D196,ghana
0,H4W1N1,QC,Cote-St-Luc,173.177.124.47:9377,470686,43,542160107801,peru
1,35079,AL,HAYDEN,100.83.226.220:5501,471373,60,000051E4A60A,ghana
1,35010,AL,ALEXANDER CITY,100.83.208.84:5501,471456,60,000051E493E6,egypt
1,92405,CA,San Bernardino,100.83.187.236:5501,471642,60,000051D347C1,ghana
1,33909,FL,Cape Coral ,100.83.227.232:5501,471960,60,000051E4DCED,israel
1,93727,CA,Fresno,100.83.162.209:5501,472032,60,000051D9A5E2,ghana
0,H8T2Z3,QC,Lachine,173.178.241.24:9266,472038,43,5421601075DC,angola
1,33460,FL,Lake worth,100.83.201.40:5500,472643,60,000051E592CD,israel
1,06067,CT,Rocky Hill,100.83.159.18:5501,472670,60,000051E5C790,ghana
1,29841,SC,N. Augusta,100.83.212.166:5501,472969,60,000051E4A81F,ghana
1,56435,MN,BACKUS,100.89.2.221:5500,473025,18,000051E5C7A7,ghana
1,94565,CA,Pittsburg,100.89.6.91:50908,473094,60,000051DC700E,israel
1,94565,CA,Pittsburg,100.83.156.246:5501,473167,60,000051D9F527,ghana
1,38401,TN,columbia,100.89.18.63:50841,473508,20,000051DCE16C,israel
1,90805,CA,Long Beach,100.83.157.20:5500,473843,60,000051E5B288,egypt
1,30263,GA,NEWNAN,100.88.229.69:49172,474560,75,000051DCD0A1,israel
0,L0G1W0,ON,Tottenham,65.94.192.126:9295,474602,43,5421601010F7,angola
1,95816,CA,N Sacramento,100.83.223.186:5501,474708,60,000051D382FE,ghana
1,10573,NJ,Port Chester,100.89.63.91:11161,474716,31,542160108046,egypt
1,02720,MA,Fall River,100.83.160.25:5501,474995,60,000051E5C6CE,israel
1,90403,CA,Santa Monica,100.83.217.168:5501,475609,60,00004D9D3FBC,egypt
1,30058,GA,LITHONIA ,100.83.205.20:5500,475614,60,000051E5B6A7,ghana
1,33525,FL,DADE CITY,100.83.207.172:5501,476010,60,000051E5B2A1,egypt
0,K1G 1P7,ON,Ottawa,70.31.50.182:9209,475944,43,542160107FA4,cuba
0,L6V 3C9,ON,Brampton,99.234.244.138:9763,476085,43,542160107F74,ghana
1,96002,CA,Redding,100.83.208.168:5501,476410,60,000051E589ED,israel
1,93551,CA,PALMDALE,100.83.226.144:5501,476631,60,000051E5B1A9,ghana
1,01532,MA,NORTHBOROUGH,100.88.37.1:5501,477021,56,000049A1E2F1,egypt
1,32081,FL,PONTE VEDRA,10.20.16.49:5501,477092,56,524042222100,ghana
1,33598,FL,WIMAUMA,10.20.15.232:5501,477222,56,524042217340,egypt
1,34211,FL,BRADENTON,10.20.16.63:5500,477276,56,524042208612,germany
1,34212,FL,BRADENTON,10.20.17.204:5500,477283,56,524042207671,egypt
1,34638,FL,LAND O LAKES,10.20.34.241:5500,477298,56,524043318113,israel
1,33543,FL,WESLEY CHAPEL,10.20.18.232:5501,477350,56,524042270927,egypt
1,33543,FL,WESLEY CHAPEL,10.20.24.59:5500,477360,56,524042984741,ghana
1,33543,FL,WESLEY CHAPEL,10.20.23.236:5500,477363,56,524042995721,germany
1,33545,FL,WESLEY CHAPEL,10.20.44.132:5500,477379,56,524043487280,egypt
1,33578,FL,RIVERVIEW,100.88.43.185:5500,477417,56,00003E4C2BC2,egypt
1,34211,FL,BRADENTON,10.20.27.93:5500,477461,56,524042995234,egypt
1,08609,NJ,Trenton,100.88.220.230:9435,477557,54,542160105288,israel
1,06704,CT,waterbury,100.83.207.20:5500,477819,60,000051E5A6F3,egypt
1,20744,GA,FORT WASHINGTON,100.88.193.59:50178,477822,75,000047AFB549,israel
1,93420,CA,Arroyo Grande,100.83.159.174:5501,478461,60,000051E5A7C9,israel
1,32218,FL,Jacksonville,100.83.161.69:5501,478685,60,000051E5C3E3,egypt
1,00656,PR,GUAYANILLA,10.64.5.46:5501,478701,60,580050931431,germany
0,L1P1N6,ON,Whitby,99.232.46.199:9411,479074,43,5421601083BF,wales
1,38930,MS,Greenwood,100.83.207.192:5501,479182,60,000051E4AFD2,ghana
0,T3J 0R5,AB,Calgary,108.173.148.92:9221,479674,43,54216010872E,peru
1,01040,MA,Holyoke ,10.8.89.53:5501,479738,60,998070130507,egypt
0,L7T4L4,ON,Burlington,142.116.150.149,444979,43,542160103CA2,cuba
1,33598,FL,Wimauma ,100.83.226.56:5501,480533,60,000051E5A5A1,egypt
1,39563,MS,Moss Point,100.88.138.119:49170,480826,47,000051D40E3E,egypt
1,02302,MA,Brockton,10.8.89.115:5501,480907,60,998070124518,ghana
0,K1T 0R1,ON,Gloucester,70.30.91.136:9228,480998,43,5421601086E4,cuba
1,39501,MS,Gulfport,100.83.206.106:5501,481142,60,000051E591DB,ghana
0,V7M1K6,BC,North Vancouver,207.216.154.20:9038,476265,43,542160107803,angola
1,84078,UT,Vernal,10.64.18.41:1234,481396,60,518005036120,israel
1,30507,GA,GAINESVILLE,10.64.2.240:5501,481406,60,580050972252,israel
0,M1W 2E3,ON,Scarborough,192.235.247.178:9087,481596,43,542160108634,wales
1,81611,CO,ASPEN,100.88.103.240:10651,482071,56,54216010086A,egypt
1,95357,CA,Modesto,10.64.114.21:5501,482285,60,580051044549,egypt
1,00767,PR,Yabucoa,10.64.115.58:5501,482827,60,580050896816,germany
1,92021,CA,El Cajon,10.64.116.187:5501,483336,60,580050913686,egypt
1,92021,CA,El Cajon,10.64.134.160:5501,483468,60,580050933288,peru
1,06013,CT,Burlington,10.64.137.161:5500,483938,60,580050913207,germany
1,94515,CA,Calistoga,10.64.134.87:5501,484260,60,580050971361,peru
1,38701,MS,Greenville,10.8.90.63:5501,484519,60,998070168259,egypt
1,34753,FL,Mascotte,10.64.135.208:5501,484531,60,580050838966,ghana
1,30106,GA,AUSTELL,100.88.194.35:50321,484573,75,000047AF8958,egypt
1,77494,TX,KATY,10.64.113.35:5501,484634,60,580050933023,egypt
1,92253,CA,La Quinta,10.8.89.209:5501,484108,60,998070128592,peru
1,23663,1,Hampton,100.88.4.61:5501,484882,56,00003E4BD880,egypt
1,23704,VA,Portsmouth,10.8.90.235:5501,485102,60,998070403763,germany
1,39111,MS,MAGEE,10.8.90.65:5501,485210,60,998070153418,ghana
0,N1G 3G8,ON,Guelph,72.136.30.155:9098,485222,43,542160108811,angola
1,32340,FL,Madison,10.8.90.104:5501,485531,60,998070204773,germany
0,L7L 7E3,ON,Burlington,69.156.138.209:9156,485578,43,542160108E63,wales
1,39120,MS,Natchez,100.89.60.21:5501,485611,47,998070109352,ghana
1,06066,CT,Vernon ,10.8.92.92:5501,485644,60,998070416872,egypt
1,39120,MS,Natchez,100.88.4.84:5501,485776,47,00003E4BB3DC,egypt
1,39204,MS,Jackson,100.89.56.110:49157,486426,60,000051F20875,egypt
0,A0N 2C0,NL,Stephenville Crossing,96.44.108.199:62110,486608,43,542160108E73,angola
1,97346,OR,GATES,100.83.169.253:5501,486633,60,00004D952281,egypt
1,93247,CA,Lindsay,10.64.136.230:5500,486714,60,580050937479,germany
1,13406,NY,Middleville,10.64.137.6:5501,486867,60,580050959010,israel
1,54124,WI,GILLETT,10.20.24.161:5501,487656,56,524042990417,peru
1,39705,MS,Columbus,100.83.207.196:5501,487825,60,000051E4AC3D,ghana
1,39474,MS,PRENTISS,10.8.92.127:5501,488138,60,998070399409,germany
1,34606,FL,Spring Hill,10.64.82.20:5501,488283,60,580050881909,israel
0,L6M 0V7,ON,Oakville,184.147.156.168:9189,488458,43,5421601098A3,wales
1,92562,CA,MURRIETTA,100.89.111.11:5500,486486,89,998070406733,israel
0,v4b2a9,BC,White rock,10.64.80.154:5500,488590,80,580050969779,peru
1,35613,AL,ATHENS,100.83.197.226:5501,489031,60,00004D9B46D8,egypt
1,98370,WA,POULSBO,100.88.30.233:10397,489127,18,5421601072C9,egypt
1,94544,CA,Hayward,10.64.149.114:5500,489231,60,580052924798,ghana
1,27520,NC,Clayton,10.64.145.186:5501,489352,60,580052942360,egypt
1,66111,KS,KANSAS CITY,100.83.188.5:5501,490342,60,000051D358C9,egypt
0,V6X 2R2,BC,Richmond,10.20.86.233:9131,491132,43,542160109071,peru
1,84104,UT,Salt Lake,100.89.26.104:49289,491216,60,000051F2AE52,israel
0,R3G 3E4,MB,WINNIPEG,50.71.52.182:5348,491180,43,54216070080A,peru
1,30039,GA,SNELLVILLE,100.89.26.39:49431,492106,75,000051F2A6BC,israel
1,92240,CA,Hot Springs,10.64.209.58:5501,492492,60,580052910193,germany
0,K0H 1T0,ON,Godfrey,45.78.121.0:10990,492600,43,542160109D8A,peru
0,V2S 6Y5,BC,Abbotsford,184.65.109.102:10518,492632,43,542160109D89,wales
1,12061,NY,East Greenbush,10.8.92.129:5501,492738,60,998070402880,germany
1,28530,NC,GRIFTON,10.64.210.198:5501,492995,60,580052928765,egypt
1,38028,TN,Eads,100.88.238.66:50071,493170,47,000051DE1CBC,egypt
1,92241,CA,Desert Hot Springs,10.64.213.210:5501,493259,60,580052941842,ghana
1,39355,MS,QUITMAN,10.64.4.147:5501,493610,60,580050971759,israel
0,T8C 1H2,AB,Sherwood Park,69.168.164.61:39453,493785,43,542160109D81,wales
1,32703,FL,Apopka ,10.64.146.143:5501,494657,60,580050918495,israel
1,06051,CT,New Britain,100.89.131.109:5501,494826,31,998070535689,ghana
1,93230,CA,Hanford,10.64.146.34:5500,494998,60,580051034151,peru
0,L9C5L3,ON,Hamilton,70.50.136.221:9298,495162,43,54216010A1FC,ghana
0,R5G 0S7,MB,Steinbach,10.64.30.58:1234,495434,112,000000567218,egypt
1,71251,LA,Jonesboro,10.64.213.153:5501,495590,60,580050911938,israel
1,92284,CA,Yucca Valley,10.64.211.188:5501,495756,60,580053012304,germany
1,01247,MA,Florida,10.64.212.197:5501,495811,60,580051046072,germany
0,T5H3H7,AB,Edmonton,65.110.10.159:10500,476691,43,5421601084E4,angola
1,39090,MS,Kosciusko,10.64.214.151:5501,496298,60,580053025215,peru
1,70631,LA,CAMERON,10.20.18.3:5500,496555,56,524042254517,peru
1,70601,LA,LAKE CHARLES,10.20.26.119:5500,496585,56,524042993619,ghana
1,70611,LA,LAKE CHARLES,100.88.133.149:5501,496625,56,000051CFADC2,ghana
1,94945,CA,Grass Valley,100.83.191.76:5501,495976,60,00004D9B5497,egypt
1,30253,GA,McDonough,10.64.212.81:5501,496951,60,580050956321,peru
0,J0L 1B0,QC,Kahnawake,67.68.142.187:9013,496954,43,54216010A20B,cuba
1,46001,IN,Alexandria,10.64.211.109:5500,497372,60,580051034136,ghana
1,31904,GA,Columbus,100.89.130.143:5501,497416,79,998070529369,egypt
1,28364,NC,Maxton,10.64.144.110:5501,496281,60,580052887730,ghana
1,92705,CA,Santa Ana,10.64.214.235:5500,498256,60,580053256984,egypt
1,32082,FL,PONTE VEDRA BEACH,10.20.41.248:5500,498963,56,524043485490,israel
1,32221,FL,JACKSONVILLE,10.20.68.193:5501,499214,56,580050664651,ghana
1,72562,AR,Newark,10.64.210.229:5501,500093,60,580053009227,peru
0,L6P 2Z7,ON,Brampton,50.101.110.188:9190,500535,43,54216010A3BD,angola
1,35954,AL,ATTALLA,10.8.95.198:5500,492766,60,998070521325,ghana
1,00778,PR,GURABO,10.64.219.115:5501,500549,60,580053315129,israel
1,30188,GA,WOODSTOCK,100.89.50.168:49708,500677,75,000051F2AC30,israel
1,19038,PA,GLENSIDE,10.8.96.51:5501,500721,60,998070515087,israel
1,35401,AL,Tuscaloosa,100.89.28.154:49155,501171,60,000051F2A433,israel
1,76541,TX,Killeen,100.89.29.9:49560,501419,60,000051F2A1EE,israel
1,78520,TX,BROWNSVILLE,100.89.35.51:49285,501547,22,000051DE29F1,israel
0,H8R2N8,QC,Lasalle,104.247.234.86:10421,501786,43,54216010A9F4,wales
1,23320,VA,Chesapeake,100.89.71.148:5501,502161,56,000051E5D04C,egypt
1,00612,PR,ARECIBO,10.64.223.192:5501,502187,60,580053232662,israel
1,74547,OK,HARTSHORNE,10.20.35.111:5500,502668,56,524043313395,peru
1,95630,CA,Folsom,10.64.221.152:5501,502898,60,580053359937,germany
1,38833,MS,Burnsville,10.8.98.200:5501,503008,60,998070731957,israel
0,T7Y 0C4,AB,Parkland County,207.228.78.18:30551,503321,43,54216010A909,ghana
1,39213,MS,Jackson,100.89.47.110:49995,504038,47,000051F2ADF8,egypt
1,33952,FL,Port Charlotte ,10.64.145.249:5500,504396,60,580052928211,ghana
1,30058,GA,LITHONIA ,100.89.158.120:49489,504521,75,000051F2F49D,egypt
1,30349,GA,ATLANTA ,100.89.170.140:49393,504525,75,000051F1C57E,egypt
1,92324,CA,Colton,10.64.221.171:5501,505155,60,580053389504,israel
1,06851,CT,NORWALK,67.85.8.104:9311,505210,56,5421601016EC,wales
1,13619,NY,Teresa,10.64.223.168:5501,505460,60,580053343659,germany
1,38732,MS,Cleveland,10.64.5.212:5500,505483,60,580050919683,israel
1,84128,UT,West Valley City,100.89.146.54:1234,505514,47,650073289873,egypt
1,30236,GA,JONESBORO,100.89.175.111:50056,505532,75,000051F1F209,israel
1,92410,CA,San Bernadino,10.64.224.2:5500,505678,60,580053390072,ghana
1,92509,CA,Riverside,10.64.223.59:5500,505790,60,580053389595,egypt
1,75241,TX,Dallas,100.89.105.162:5501,505836,22,998070394384,israel
1,30035,GA,DECATUR,100.89.15.241:49959,505934,75,000051DCD182,israel
1,47340,IN,Farmland,100.89.169.185:49560,506196,60,000051F1C787,egypt
1,36532,AL,Fairhope,100.89.206.160:5500,506251,32,998070951290,israel
1,78653,TX,Manor,100.89.145.221:1234,506266,47,650073187242,egypt
0,V4B 3J8,BC,White Rock,50.98.176.88:9087,506287,43,54216010AC2E,peru
1,20109,VA,Manassas,100.89.155.189:49163,506658,75,000047AEF17E,egypt
1,20747,MD,District Heights,100.89.29.163:50161,506682,75,000051F2A40E,israel
1,84128,57,West Valley City,100.89.145.193:1234,506872,47,650073216470,egypt
1,93612,CA,Clovis,10.64.221.79:5500,507034,60,580053389868,israel
1,19707,DE,Hockessin,10.156.78.247:5500,507078,31,000045922AEB,egypt
1,98664,WA,Vancouver,100.89.176.116:49173,507235,60,000051F1B418,egypt
1,20743,MD,CAPITOL HEIGHTS,100.89.56.217:49518,507486,75,000051F2081A,egypt
1,36303,AL,DOTHAN,10.64.221.217:5500,507718,60,580053315061,ghana
1,00714,PR,Arroyo,10.64.218.74:5500,508359,60,580053387417,ghana
1,95356,CA,Modesto,10.64.218.12:5501,508509,60,580053322653,germany
1,32442,FL,GRAND RIDGE,10.8.99.139:5501,508627,60,998070651205,ghana
1,93063,CA,Simi Valley,10.64.218.221:5500,508773,60,580053341976,germany
1,46218,IN,Indianapolis,100.89.197.188:1234,508889,60,650073686854,israel
1,93021,CA,Moorepark,10.64.218.22:5501,508922,60,580053373045,israel
0,L2N3N5,ON,St.Catharines,198.48.177.182:9064,509056,43,54216010B140,angola
1,48187,CA,Canton,10.64.217.182:5500,420858,60,580053355117,israel
1,48126,MI,Dearborn,100.89.165.59:49509,509161,60,000051F19D88,egypt
1,32312,FL,TALLAHASSEE,100.89.145.251:1234,509218,174,650073231560,israel
1,54082,WI,Houlton,10.64.209.209:5501,508454,12,580053240731,egypt
1,94590,CA,Vallejo,10.64.217.241:5500,509422,60,580053304628,germany
1,75056,TX,The Colony,100.89.153.116:1234,509487,47,650073223997,egypt
1,33777,FL,Seminole,10.64.222.139:5500,509653,60,580053343873,ghana
1,93662,CA,Selma,10.64.219.223:5500,509780,60,580053337131,peru
1,30296,GA,Riverdale,100.89.162.231:49574,509895,75,000051F2FB08,israel
0,K0M 2L0,ON,Norland,10.65.105.155:9329,509979,43,54216010BF4F,cuba
1,34481,FL,Ocala,10.64.216.162:5500,510528,60,580053389025,egypt
1,93534,CA,Lancaster ,10.64.221.33:5500,510546,60,580053350258,egypt
1,85037,AZ,phoenix,100.89.163.221:49628,510550,75,000051F155C9,israel
1,60915,IL,Bradley,100.88.231.116:49966,510634,60,000051DCCD4C,israel
1,30223,GA,GRIFFIN,100.89.174.255:49459,510905,75,000051F1C33D,egypt
0,V5T 4K9,BC,Vancouver,24.86.131.85:9453,495514,89,54216010A15B,ghana
1,20854,MD,Potomac,100.89.173.80:49874,511230,75,000051F1C7D5,israel
1,70811,LA,Baton Rouge,10.64.221.113:5500,511244,60,580053270878,egypt
1,77030,TX,Houston,100.89.162.5:49290,511322,75,000051F2EDB2,egypt
1,77450,TX,Katy,100.89.166.234:49944,511429,75,000051F19C6E,israel
0,J7V7R2,QC,L'Ile-Perrot,173.177.224.145:9244,511466,43,54216010BEEA,cuba
1,28501,NC,Kinston,10.8.102.19:5501,511506,60,998070717691,egypt
1,28083,NC,Kannapolis,10.64.218.157:5500,511526,60,580053303380,ghana
1,92308,CA,Apple Valley,10.64.218.40:5500,511586,60,580053372161,ghana
0,N5R 0H9,ON,St Thomas,10.64.222.50:9084,512169,43,54216010C604,cuba
1,91345,CA,Mission Hills,10.65.111.151:5500,512197,60,580053353880,peru
1,32712,FL,Apopka,10.64.218.24:5500,512266,60,580053341950,ghana
1,30038,GA,LITHONIA,100.89.165.114:49317,512383,75,000051F19D66,israel
1,28119,NC,Morven,100.89.9.63:49251,512707,47,000051DC8E2A,egypt
1,00612,PR,Arecibo,10.64.17.113:1234,512780,60,518005028309,egypt
0,Guelph ,ON,Kitchener,64.228.153.232:10574,512944,43,54216010C517,angola
1,20748,MD,Temple Hills,100.89.158.241:49854,512973,75,000051F2FB7B,israel
1,54810,WI,Balsam Lake,100.89.206.106:5501,442613,12,998070949625,israel
1,92881,CA,Corona,10.65.111.77:5500,513436,60,580053364333,egypt
1,30349,GA,Atlanta,100.89.172.216:49311,513497,75,000051F1F036,israel
1,32068,FL,MIDDLEBURG,100.89.150.66:1234,505632,174,650073238045,israel
1,28327,NC,Carthage,10.8.102.61:5501,513606,60,998070731916,egypt
1,20613,MD,Brandywine,10.64.221.32:5500,513714,60,580053301970,peru
0,L6P 4G1,ON,Brampton,99.234.146.110:9193,513754,43,54216010CAC0,angola
1,20735,MD,Clinton,100.89.166.47:49246,513758,75,000051F19F76,israel
1,21214,MD,Baltimore ,10.64.218.165:5500,514005,60,580053349540,ghana
1,92503,CA,Riverside,10.65.106.11:5500,514294,60,580053242828,germany
1,92395,CA,Victorville,10.65.116.252:5500,514772,60,580053391518,germany
1,70769,LA,Prairieville,100.89.145.150:1234,514895,75,650073290079,israel
1,79415,TX,Lubbock,100.89.197.88:1234,514923,60,650073976917,egypt
1,20176,VA,LEESBURG,100.89.49.109:49738,515031,75,000051F2A9A5,israel
1,00683,PR,SAN GERMAN,10.65.115.95:5500,515240,60,580053231920,peru
1,11952,1,Mattituck,100.83.187.54:5501,506126,10,000051D371C6,ghana
1,08043,NJ,Voorhees,100.89.163.133:49154,515749,75,000051F156CB,israel
2,2107,NSW,Whale Beach,10.20.51.2:5500,515805,37,580050222682,germany
1,92583,CA,San Jacinto,10.65.111.121:5500,515996,60,580053388621,egypt
1,85621,AZ,Nogales,100.89.174.188:49281,516104,60,000051F1D0D4,egypt
1,92363,CA,Needles,10.65.110.108:5501,516271,60,580053343550,israel
0,T6H 5M8,AB,EDMONTON,199.126.239.138:9183,516482,43,54216010C6B7,cuba
0,N8H0E1,ON,Leamington,10.65.111.119:9883,516769,43,54216010C8FD,cuba
0,L5N2N9,ON,Mississauga,67.71.23.173:9223,516852,43,54216010C9CF,ghana
1,00745,PR,RIO GRANDE,10.64.216.222:5501,516914,60,580053325821,egypt
0,L8M1C6,ON,Hamilton,198.13.196.113:62361,517286,43,54216010C9F4,cuba
1,70126,LA,New Orleans,100.89.157.234:49809,517602,75,000051F12D15,egypt
288,16820,288,Midrand,41.169.52.20:1234,517515,40,000000559195,peru
1,20748,MD,Temple Hills,10.64.221.174:5500,517932,60,580053349847,israel
1,92258,CA,N Plam Springs,10.64.221.6:5500,518010,60,580053385643,ghana
1,92543,CA,Hemet,10.65.107.29:5500,518090,60,580053391658,peru
1,90631,CA,La Habra,10.65.110.56:5500,518416,60,580053272635,germany
0,N5C3J6,ON,Ingersoll,72.136.101.111:57177,518504,43,54216010C714,ghana
1,29506,SC,Florence,100.89.161.128:49203,518506,47,000051F15349,egypt
1,27529,NC,Garner,10.64.223.181:5501,518623,60,580053344947,germany
1,95307,CA,CERES,100.83.158.40:5501,438804,60,000051CD4DD5,ghana
1,00739,PR,CIDRA,10.65.115.187:5501,519405,60,580053270985,egypt
1,71646,AR,HAMBURG,10.65.108.1:5500,519407,60,580053360455,germany
1,75056,57,The Colony,100.89.196.108:1234,519557,47,650073858198,israel
0,J7Y0H5,QC,Saint-Jerome,184.160.154.119:9079,519604,43,542160109E49,peru
1,38242,TN,Paris,10.8.105.167:5501,519756,60,998071170049,israel
1,00659,PR,Hatillo,10.65.115.94:5500,518547,60,580053359879,israel
1,13410,NY,Nelliston,10.8.101.52:5501,520094,60,998070733748,israel
1,41339,KY,Jackson,100.89.207.30:1234,520347,60,650073237807,israel
1,95357,CA,Modesto,10.65.112.5:5501,520438,60,580053540155,egypt
1,34109,FL,Naple,100.89.60.132:1234,520530,179,000000540576,egypt
1,31906,GA,Columbus,100.89.189.180:1234,520562,75,650073956836,israel
1,30297,GA,FOREST PARK,100.89.176.210:49358,520772,75,000051F1BCAD,israel
1,75757,TX,Bullard,10.8.108.147:5501,520992,60,998071518122,egypt
1,01468,MA,Templeton,10.64.220.75:5500,521117,60,580053351306,germany
1,78628,TX,GEORGETOWN ,10.64.223.173:5500,521156,60,580053370884,israel
1,38866,MS,Saltillo,10.8.101.133:5500,521806,60,998070764792,peru
1,40011,KY,Campbellsburg,10.64.218.80:5500,507829,60,580053301939,ghana
1,19120,PA,Philadelphia,100.89.146.168:1234,523070,75,650073229366,israel
1,20602,MD,Waldorf,100.89.144.183:1234,523090,75,650073190154,israel
1,70760,LA,New Roads,100.89.151.55:1234,523119,75,650073231578,israel
1,71665,AR,Rison,10.8.108.208:5501,523326,60,998071491502,egypt
1,70084,LA,Reserve,100.89.244.216:1234,523380,75,650078406068,egypt
1,31907,GA,Columbus,100.89.150.180:1234,524003,75,650074506903,egypt
1,70812,LA,Baton Rouge,100.89.210.97:1234,524303,75,650078245938,egypt
1,30228,GA,HAMPTON,100.89.47.12:49184,524354,75,000051F2AA08,israel
1,91740,CA,Glendora,172.115.12.15:9987,430472,43,5421601027D3,cuba
1,21075,MD,Elkridge,100.89.151.115:1234,524727,75,650073214384,egypt
1,37216,TN,NASHVILLE,100.89.214.218:1234,525169,20,650078261588,egypt
1,92019,CA,El Cajon,100.83.29.63:5500,524572,6,998071189577,ghana
1,32805,FL,Orlando,100.89.195.33:1234,525608,60,650078105561,israel
1,33617,FL,Tampa,100.89.209.70:1234,525722,75,650078325284,israel
1,71646,AR,Hamburg,10.65.110.86:5500,525785,60,580053268963,egypt
1,84302,57,Brigham City,100.89.244.199:1234,525856,47,650078497844,israel
0,B0K2A0,NS,Westville,156.57.22.51:9315,526062,43,5421600006D2,cuba
1,92867,CA,Orange,10.64.216.214:5500,526145,60,580052905987,germany
1,34654,FL,New Port Richy,10.64.221.162:5500,453385,60,580053266868,ghana
1,19141,PA,Philadelphia,100.89.210.217:1234,526384,75,650078035446,israel
1,46254,IN,Indianapolis,157.130.99.154:46633,526549,10,54216010DCAC,peru
1,77093,TX,Houston,100.89.208.222:1234,526553,75,650073801537,israel
0,T9M 1S2,AB,Cold Lake,24.142.24.183:9287,527406,43,54216010D56C,cuba
1,78557,TX,HIDALGO,100.89.244.189:1234,527566,35,650078464877,egypt
1,92571,CA,Perris,10.8.106.198:5501,527672,60,998070672029,egypt
1,00674,PR,MANATI,10.65.107.252:5501,527726,60,580053359887,peru
0,H9R3Z4,QC,Pointe Claire,67.68.22.94:9637,527766,43,54216000142B,cuba
1,85546,57,Safford,100.89.226.7:1234,528049,47,650078245961,israel
0,V4N6S8,BC,Surrey,173.180.250.31:9030,528211,43,54216010C91E,peru
1,30032,GA,DECATUR,100.89.33.74:49216,528167,75,000051DE2BF2,israel
1,30034,GA,Decatur,100.89.231.191:1234,528306,75,650078245631,egypt
1,21237,MD,Baltimore ,10.64.209.30:5500,482010,60,580053325409,peru
1,39452,MS,Lucedale,10.64.1.150:5500,528476,3,580051010029,israel
1,78640,TX,Kyle,100.89.218.42:1234,528509,75,650078152035,israel
1,39629,MS,BOGUE CHITTO,10.8.107.99:5501,528574,60,998070606951,egypt
1,76502,57,Temple,100.89.216.232:1234,529264,47,650078261794,israel
1,86440,AZ,Mohave Valley,10.65.107.19:5501,457068,60,580053547481,egypt
1,78725,TX,Austin,100.89.218.71:1234,529545,75,650078256885,egypt
1,00745,PR,RIO GRAND,10.64.216.228:5500,529959,60,580053303463,israel
1,34982,FL,Fort Pierce,10.65.114.71:5500,529973,60,580053364226,israel
1,42104,KY,Bowling Green,100.89.228.29:1234,530123,60,650078268443,egypt
1,70094,LA,Westwego,100.89.208.196:1234,530162,75,650078144248,egypt
1,84041,57,Layton,100.89.210.197:1234,530216,47,650078356206,egypt
0,R2M 1A3,MB,Winnipeg,142.161.53.12:9116,531008,43,54216000143B,wales
1,91752,CA,Eastvale,10.65.112.29:5500,531247,60,580053276537,ghana
1,20746,MD,Suitland,100.89.151.150:1234,531312,75,650073231438,israel
1,20110,VA,Manassas,100.89.228.191:1234,531541,75,650078316879,israel
1,20904,MD,Silver Spring,100.89.193.43:1234,533345,75,650073934452,israel
1,21212,MD,Baltimore,100.89.215.14:1234,533358,75,650078325193,israel
1,30032,GA,Decatur,100.89.228.70:1234,532183,75,650078362923,israel
0,N0E 1Y0,ON,Waterford,142.46.247.217:9237,533483,43,542160000432,cuba
1,85351,AZ,Sun city,100.89.255.118:1234,533740,75,650078597189,israel
1,36532,AL,Fairhope,100.83.67.131:5500,450053,32,998072194360,ghana
0,L4L0H9,ON,Woodbridge,135.0.193.133:9119,534622,43,542160000477,cuba
1,84014,UT,Centerville,100.83.12.136:1234,534772,47,650078539454,israel
1,84107,UT,Salt Lake City,100.83.12.134:1234,534901,47,650078564726,israel
1,78401,TX,Corpus Christi,100.89.225.254:1234,535170,12,650073970183,egypt
1,70761,LA,Norwood,10.64.196.139:1234,535870,60,335052299465,egypt
1,89156,NV,North Las Vegas,100.83.13.62:1234,535925,60,650078452500,israel
1,30039,GA,Snellville,100.89.255.65:1234,536173,75,650078676140,israel
0,T7Z 1Y4,AB,Stony Plain,68.150.12.160:9283,536418,43,54216000044B,cuba
1,30019,GA,Dacula,100.89.246.240:1234,536626,75,650078743494,israel
1,30291,GA,Union City,100.89.248.246:1234,536806,75,650078379513,israel
1,77587,TX,South Houston,100.89.229.67:1234,537319,75,650073800646,israel
0,N9A 3B8,ON,Windsor,10.64.143.102:10224,490395,43,542160109060,angola
1,30344,GA,East point,100.89.189.151:1234,537783,75,650073752078,israel
1,30337,GA,College park,100.89.189.135:1234,537811,75,650073774437,israel
0,M6M1C5,ON,Toronto,108.175.234.30:1234,533841,43,000000637376,peru
1,81067,CO,Rocky Ford,100.83.8.70:1234,538419,47,650078385015,israel
1,34946,FL,Fort pierce,10.8.96.155:5501,538614,60,998070541109,peru
1,30228,GA,Hampton,100.89.216.149:1234,538965,75,650078149064,israel
1,84302,,,10.65.221.191:4097,539142,47,413584986F14,peru
1,42642,KY,RUSSELL SPRINGS,10.8.106.214:5501,420359,60,998071521837,germany
1,30238,GA,jonesboro,100.89.210.116:1234,539604,75,650078277428,egypt
1,84115,UT,Salt Lake City,100.83.16.167:1234,539629,47,650078496994,egypt
1,85365,AZ,Yuma,100.89.148.116:1234,540015,47,650073242831,egypt
1,21239,MD,Baltimore ,10.8.116.69:5501,540077,60,998072306311,peru
1,39474,MS,PRENTISS,10.8.105.45:5501,540427,60,998071174587,israel
1,75853,TX,Montalba,10.64.199.104:1234,540781,60,335052486484,ghana
1,29732,SC,Rock Hill,10.64.204.16:1234,540837,60,335052471742,israel
1,75089,TX,Rowlett,10.8.105.200:5501,541195,60,998071176954,germany
1,08087,CT,Little Egg Harbor,100.83.66.18:9262,541298,31,542160004952,peru
1,29118,SC,Orangeburg,10.64.198.93:1234,541505,60,335052482046,egypt
1,36830,AL,Auburn,100.89.195.179:1234,541571,60,650078120792,egypt
1,70767,LA,Port Allen,100.83.124.27:1234,541957,60,636094674445,egypt
1,30236,GA,Jonesboro,100.83.13.95:1234,542244,75,650078673097,israel
1,60411,IL,CHICAGO HEIGHTS,10.64.217.96:5501,542763,47,580053305591,peru
1,75216,TX,Dallas,100.83.15.57:1234,543588,75,650078564239,egypt
1,39095,MS,Lexington,10.64.197.40:1234,544051,60,335052413199,peru
1,39095,MS,LEXINGTON,10.8.115.210:5500,544088,60,998072301064,egypt
1,30034,GA,DECATUR,100.89.198.89:1234,544197,75,650073766482,israel
1,78244,TX,San Antonio,100.83.125.113:1234,544204,75,636094203328,israel
1,81621,CO,BASALT,216.237.93.172:11807,482058,56,54216010050F,peru
1,30297,GA,Forest Park,100.83.116.161:1234,544360,75,636094219159,israel
1,20019,DC,Washington,100.89.146.180:1234,544625,75,650073204658,israel
1,76108,TX,Fort Worth,100.89.253.94:1234,544632,47,650078615775,egypt
1,39365,MS,Union,100.83.119.164:1234,544881,143,636094724877,israel
1,92128,CA,San Diego,10.64.216.114:5500,545100,60,580053343667,ghana
1,83402,ID,Idaho Falls,100.83.15.25:1234,545181,47,650078586364,israel
1,39212,MS,JACKSON,10.8.117.34:5501,481679,60,998072211271,israel
1,30642,GA,Greensboro,10.64.198.17:1234,545685,60,335052463830,peru
1,19090,PA,Willow Grove,100.89.232.148:1234,546074,12,650078351942,israel
1,30288,GA,Conley,100.83.118.89:1234,546276,75,636094175369,israel
1,98802,WA,East Wenatchee,100.89.232.201:1234,546864,12,650078261711,israel
1,66217,KS,Shawnee,100.89.232.168:1234,547133,12,650073882974,egypt
1,76112,TX,Fort Worth,100.83.122.119:1234,547346,75,636094728613,egypt
1,70811,LA,Baton Rouge,100.89.223.167:1234,548418,75,650078256687,egypt
0,L9T 2X5,ON,MILTON,142.180.20.223:7504,548485,89,5421607011A4,peru
1,34994,FL,stuart,100.89.232.189:1234,548906,12,650073892544,israel
1,70764,LA,Plaquemine,10.64.197.233:1234,549384,60,335052413967,ghana
1,84119,UT,West Valley City,100.83.134.226:1234,549387,47,636094734520,israel
1,12303,NY,Schenectady,100.89.232.154:1234,549461,12,650078226623,israel
1,08324,NJ,na,100.89.232.176:1234,549584,12,650078335028,israel
1,08234,NJ,na,100.89.230.76:1234,549901,12,650078317281,egypt
1,45332,UT,	   HOLLANSBURG,10.8.117.226:5500,550340,60,998071961728,germany
1,42301,KY,Owensboro,100.83.17.70:1234,550459,60,650074839528,egypt
1,11214,NJ,Brooklyn,100.89.220.17:1234,550581,12,650078155921,israel
1,33139,FL,Miami Beach,100.89.230.75:1234,550764,12,650078318792,israel
1,15061,PA,Monaca,100.89.220.0:1234,550932,12,650073901030,egypt
1,95831,CA,Sacramento,100.89.227.106:1234,550972,75,650078146524,egypt
1,31206,GA,Macon,10.64.196.212:1234,551782,60,335052434393,egypt
1,32114,FL,Daytona Beach,100.89.230.61:1234,551856,12,650078306482,israel
1,06901,CT,Stamford,100.89.230.70:1234,551884,12,650078335473,egypt
1,85711,AZ,Tucson,100.89.230.67:1234,552161,12,650078335127,israel
1,08234,NJ,na,100.89.219.239:1234,552466,12,650078225062,egypt
1,72205,AR,Little Rock,100.83.125.89:1234,464645,60,636094681119,israel
1,38930,MS,Greenwood,10.64.68.202:1234,552659,60,335052299846,israel
1,07421,NJ,Hewitt,100.89.251.105:1234,552860,60,650078608911,israel
1,85043,AZ,Phoenix,174.22.240.180:9169,510244,18,542160108597,peru
1,02364,MA,Kingston,100.89.230.73:1234,553117,12,650078335259,egypt
0,V7E 5B7,BC,Richmond,24.80.75.58:9844,553050,43,5421600046F3,peru
1,60073,IL,ROUND LAKE,100.89.232.169:1234,553489,12,650078274722,egypt
1,17876,PA,Shamokin Dam,100.89.252.56:1234,553674,60,650078671448,egypt
1,84119,UT,West Valley City,100.83.137.166:1234,554264,47,636094676374,egypt
0,N2B 3E9,ON,Kitchener,10.65.199.201:5501,554280,69,580053852030,peru
1,89031,NV,North Las Vegas,10.64.201.233:1234,555528,75,307000160871,israel
0,H9X 1E2,QC,Sainte-Anne-de-Bellevue,142.122.39.207:9731,506346,43,54216010ABF0,peru
1,44406,OH,Canfield,100.83.7.110:1234,547785,60,650078680860,egypt
242,20000,Maldonado,Maldonado,10.64.82.55:1234,556482,30,518005302316,israel
1,33616,FL,Tampa,10.66.13.64:4097,557038,1,4135849AB459,tahiti
1,65052,MO,Linn Creek,100.83.247.120:1234,557144,60,636096123557,egypt
1,85355,AZ,Waddell,100.83.240.133:1234,557315,75,636096119167,israel
1,10530,NY,Hartsdale,100.89.230.42:1234,557411,12,650078364325,egypt
1,31008,GA,Byron,10.8.118.111:5501,534729,60,998072676515,peru
1,08234,NJ,Na,100.89.221.59:1234,559243,12,650073963204,israel
1,08234,NJ, na,100.89.221.85:1234,559449,12,650073875226,israel
1,77389,TX,Spring,100.83.13.0:1234,560478,31,650078577686,israel
1,21060,MD,Glen Burnie,10.8.115.181:5501,509754,60,998072365374,germany
1,08234,NJ,na,100.88.39.151:1234,561262,12,636096640600,egypt
1,NA,VA,NA,100.83.252.85:1234,561279,12,152100264065,egypt
1,08234,NJ,na,100.88.35.175:1234,561287,12,636096657935,egypt
1,NA,VA,NA,100.88.39.226:1234,561288,12,636096679202,egypt
1,NA,VA,NA,100.88.34.0:1234,561376,12,636096587132,egypt
1,70517,LA,Breaux Bridge,100.83.229.173:1234,561755,60,152100264438,egypt
1,08234,NJ,na,100.88.30.52:1234,562840,12,636096652308,egypt
1,75974,TX,Tenaha,10.64.188.173:1234,563194,14,335052469951,egypt
2,5253,SA,Murray Bridge,10.66.223.105:1234,563315,104,372080053149,israel
1,06095,CT,Windsor,10.8.112.255:5501,563345,60,998071725503,israel
1,71371,LA,Trout,10.8.104.86:5501,464014,60,998071070637,egypt
1,31730,GA,Camilla,100.83.239.63:1234,563736,60,152100340543,egypt
1,60605,IL,Chicago,100.88.34.157:1234,564226,60,636096631120,egypt
1,08234,NJ,na,100.88.48.235:1234,564327,12,152101424320,israel
1,08234,NJ,na,100.88.44.121:1234,564482,12,152101473145,egypt
1,08234,NJ,na,100.88.44.193:1234,564494,12,152101472840,israel
1,08234,NJ,na,100.88.48.119:1234,564562,12,152102072995,israel
1,78006,TX,BOERNE,100.83.89.63:5500,564753,12,998072722657,ghana
1,08234,NJ,na,100.88.55.204:1234,564784,12,636096878291,israel
1,08234,NJ,na,100.88.58.226:1234,564792,12,636096856644,israel
1,NA,VA,NA,100.88.55.148:1234,564855,12,636096879034,egypt
1,08234,NJ,na,100.88.46.195:1234,565054,12,152101493234,egypt
1,00745,PR,Rio Grande,10.65.160.25:1234,565576,60,307000172942,egypt
1,08234,NJ,na,100.88.59.163:1234,566198,12,636096878200,egypt
1,NA,VA,NA,100.88.59.183:1234,566218,12,636096847395,israel
1,70818,LA,Baton Rouge,100.83.244.119:1234,566364,60,152100343059,egypt
1,20772,MD,UPPER MARLBORO,100.88.109.227:1234,566425,75,636096985104,egypt
1,60647,IL,CHICAGO,100.83.87.94:5501,566825,136,998072726542,ghana
1,NA,NJ,NA,100.88.65.124:1234,567510,12,636096847387,egypt
1,NA,VA,NA,100.88.69.143:1234,567527,12,636096839293,egypt
1,08234,NJ,na,100.88.62.133:1234,567607,12,636096863749,egypt
1,08234,NJ,na,100.88.62.224:1234,567626,12,636096853963,israel
1,08234,NJ,na,100.88.69.119:1234,567650,12,636096847742,egypt
1,na,NJ,08234,100.88.69.187:1234,567683,12,636096847965,israel
1,08234,NJ,na ,100.88.69.135:1234,567701,12,636096847825,egypt
1,NA,VA,NA,100.88.69.132:1234,567771,12,636096847783,israel
1,08234,NJ,na,100.88.69.97:1234,567776,12,636096847676,egypt
1,08234,NJ,na,100.88.69.114:1234,567789,12,636096847767,egypt
1,08234,NJ,na,100.88.69.101:1234,562842,12,636096847650,egypt
1,NA,VA,NA,100.88.59.128:1234,567809,12,636096878192,egypt
1,08234,NJ,na,100.88.60.23:1234,561453,12,636096847585,israel
1,NA,NJ,NA,100.88.60.75:1234,567845,12,636096847593,israel
1,08234,NJ,na,100.88.59.64:1234,567849,12,636096878283,egypt
1,NA,VA,NA,100.88.54.100:1234,567996,12,636096876410,israel
1,08234,NJ,na,100.88.17.173:1234,568005,12,636096845852,egypt
1,08234,NJ,na,100.88.54.27:1234,568018,12,636096876683,egypt
1,NA,VA,NA,100.88.62.173:1234,568026,12,636096839103,egypt
1,78660,TX,Pflugerville,100.83.230.184:1234,568660,60,152100358636,egypt
1,39562,MS,Moss Point,100.83.94.175:5501,568720,3,998072443296,israel
1,84043,UT,Lehi,100.88.206.21:1234,569067,47,152105328139,egypt
1,06606,CT,Bridgeport,100.83.96.145:5501,569174,60,998071715264,ghana
1,38109,TN,Memphis,100.83.243.119:1234,569223,31,152100347704,None
1,78412,TX,Corpus Christi,10.64.139.1:1234,570216,189,335052352983,israel
1,06351,CT,Griswold,10.8.3.195:5501,438368,60,998072426788,egypt
1,95210,CA,Stockton,100.83.149.56:5501,570655,60,998071561197,ghana
1,72116,AR,North Little Rock,100.88.128.24:1234,570967,60,152101510151,egypt
1,36343,AL,Gordon,100.83.150.62:5501,571152,60,998071480760,egypt
1,35810,AL,Huntsville,100.88.131.108:1234,571758,60,636096983018,egypt
1,39114,MS,MENDENHALL,10.8.3.135:5501,432604,60,998073142103,egypt
1,38967,MS,WINONA,10.8.92.46:5501,485275,60,998070421062,israel
1,29649,SC,Greenwood,100.88.151.187:1234,572827,60,636096987597,egypt
1,42406,NY,Arkville,100.83.151.175:5500,571724,60,998071494159,egypt
1,90062,CA,Los Angeles,10.20.24.102:5500,573810,60,524042977448,ghana
1,29440,SC,Georgetown,10.64.207.248:1234,573968,14,335052465041,egypt
1,67460,KS,mcpherson,24.255.196.153:9094,575035,47,54216001BF3C,angola
1,28269,NC,Charlotte ,100.88.57.83:5501,484628,60,998073258404,egypt
1,27320,NC,Reidsville,100.88.108.239:5501,453771,60,998073257729,ghana
1,01880,MA,Wakefield,72.74.53.219:43862,575985,31,000000564131,cuba
1,74733,OK,COLBERT,100.88.192.206:1234,557002,19,152105308040,egypt
2,2093,NSW,Balgowlah Heights,10.65.129.191:1234,507880,121,000001041089,orange,12
2,2213,NSW,Panania,10.65.135.109:1234,507906,121,000001041090,dubbo,12
2,2170,NSW,Sydney,10.64.124.80:1234,507996,121,000000854058,dubbo,12
2,2765,NSW,Marsden Park,10.66.223.138:1234,542342,122,372081137719,dubbo,8
2,3338,VIC,Melton South,10.66.223.173:1234,542370,122,372081138105,dubbo,8
292,38471,Kalmar,TIMMERNABBEN,81.229.127.107:1234,464676,13,000001151110,poland,12
292,82194,Gavleborg,,10.65.131.217:1234,464829,17,000001086240,poland,12
28,2640,,Mortsel,94.104.95.34:1234,464662,16,000000623336,austria,12
