1,32080,FL,SAINT AUGUSTINE,10.20.33.100:5500,420798,60,524043310078,ghana
1,92821,CA,Brea,10.20.32.172:5500,421051,60,524043323733,ghana
1,48154,MI,Livonia,10.20.35.62:5500,421079,60,524043319087,germany
1,59405,MT,GREAT FALLS,10.20.42.146:5500,421891,60,524043482612,egypt
1,91723,CA,Covina,10.20.42.152:5500,422331,60,524043502310,israel
1,90272,CA,Pacific Palisades,10.20.42.51:5500,422518,60,524043499285,israel
1,34786,FL,Windermere,97.104.246.4:10008,422611,43,5421601005A5,wales
0,L6M3Y9,ON,Oakville,104.158.11.151:9194,422876,43,542160100A61,ghana
1,35554,AL,Eldridge,10.20.47.107:5500,423010,32,524043498295,egypt
1,35570,AL,Hamilton,10.20.47.38:5500,423686,32,524043477919,germany
1,90660,CA,Pico Rivera,10.20.45.170:5501,424248,10,524043495747,israel
1,32776,FL,Sorrento,10.20.33.208:5500,424312,60,524043313403,egypt
1,39042,MS,Brandon,10.20.48.95:5500,431458,60,580050083647,peru
1,60137,IL,Glen Ellyn,24.14.190.11:9091,425262,20,54216010305B,ghana
1,90717,CA,Lomita,100.83.183.28:5501,427870,10,000042F3FAD0,israel
1,90660,CA,Pico Rivera,100.83.195.104:5501,425650,60,000042F62065,israel
0,L7T3P6,ON,Burlington,65.95.156.91:9071,425378,43,542160101044,ghana
1,91977,CA,SPRING VALLEY,100.83.140.193:5500,426368,60,000042F6207C,ghana
1,92782,CA,TUSTIN,100.83.147.155:5501,427466,60,000042F3F9CA,egypt
1,92301,CA,Adelanto,100.83.195.111:5500,427874,60,000042F625D0,ghana
0,L6X0M3,ON,Brampton,72.137.63.64:9295,433194,43,5421601027F2,cuba
0,L5E2M6,ON,Mississauga,99.246.88.62:9222,430540,43,5421601027CF,wales
1,08527,NJ,Jackson,10.20.47.157:5501,428028,60,524043487157,egypt
1,75230,1,Dallas,10.20.26.174:5500,429240,61,524042972787,germany
0,T3Z3J6,AB,Calgary,10.20.46.240:10260,429810,43,542160101D40,egypt
1,39339,1,LOUISIANA,100.83.148.35:5501,429858,60,000042F3FC91,egypt
1,01904,MA,Lynn,100.83.196.116:5501,429910,60,000042F3F079,ghana
1,75043,TX,Garland,10.20.49.82:5500,432240,60,580050105879,germany
1,45506,OH,SPRINGFIELD,100.83.184.160:5501,433787,60,000049999D50,egypt
1,36582,AL,Theodore,100.88.4.178:5501,433807,32,00003E4C14D1,israel
0,L4C 8T4,ON,Richmond Hill,174.88.190.7:9136,435180,43,542160102A3C,cuba
112,110045,ND,New Delhi,10.20.38.7:9147,435219,39,54216010167D,peru
1,60620,IL,Chicago,100.83.187.145:5500,435181,60,000049A1AE19,israel
1,90066,CA,Los Angeles,100.83.223.37:5501,435966,60,000049A1955A,ghana
1,19713,1,Newark,100.88.31.9:5501,437310,31,000049A1D8A9,israel
0,T6J 0X4,AB,Edmonton,10.20.60.44:9274,437320,43,5421601034CE,ghana
0,M1S 1G4,ON,Scarborough,184.145.67.214:9029,437348,43,54216010341C,wales
0,T0E 0T0,AB,Evansburg,173.252.46.23:9917,437590,43,5421601032BA,peru
1,45417,OH,DAYTON,100.83.179.11:5501,438776,60,00003E4C0593,israel
112,110085,ND,New Delhi,223.190.13.214:9143,439261,39,54216010168C,wales
1,34653,FL,New port richey,100.83.174.196:5501,439486,60,000049A19717,israel
0,M6E4W2,ON,Toronto,108.168.60.169:9571,439988,43,542160103BA8,angola
1,36527,AL,Spanish Fort,100.88.37.116:5500,438199,32,00003E4C6F2A,israel
1,08724,NJ,Brick,73.199.129.225:9252,441284,56,5421601039FC,peru
1,32259,FL,Jacksonville ,100.83.190.221:5501,441650,60,00003E4BDA1C,ghana
0,L5G0B5,ON,Mississauga,50.101.172.251:9061,441746,43,542160103A17,peru
1,31906,GA,Columbus,100.88.36.25:5500,441771,79,000049A1C8A1,israel
1,90502,CA,Torrance,100.83.196.186:5501,441796,60,00004D9B3BA9,egypt
1,33844,FL,Haines City,100.83.192.87:5500,442352,60,00003E4C872E,israel
1,28625,NC,Statesville,10.20.28.52:5500,442458,60,524043310532,germany
0,S7L 6J4,SK,Saskatoon,216.197.168.161:9060,442576,43,54216010462E,cuba
1,93619,CA,Clovis,100.88.30.49:5500,443247,6,00003E4C6929,israel
1,46403,IN,Gary,10.20.30.204:5500,443817,14,524043355230,ghana
0,T4B 3B1,AB,Airdrie,184.64.62.236:9314,443830,43,5421601041F7,angola
1,33860,FL,MULBERRY,100.83.213.45:11875,443864,60,5421601043E1,israel
1,91745,CA,Hacienda Heights,100.83.198.21:5501,443950,10,000049A190D1,israel
0,L5M7K3,ON,Missisauga,99.246.111.102:9953,423095,43,5421601034B8,wales
0,T3S0C1,AB,Calgary,10.20.64.62:5501,444600,141,580050241468,peru
112,122003,,Delhi,14.140.207.98:51616,444800,39,5421601013FD,ghana
1,90670,CA,Santa Fe Springs,100.83.173.146:5501,445050,10,00003E4BEA6F,ghana
1,84004,UT,NA,10.20.35.119:5500,419418,1,524043327262,germany
0,M4N1Z4,ON,TORONTO,99.240.194.91:9363,445592,89,542160104AEE,peru
1,27603,OK,Raleigh,100.88.37.64:5500,445692,6,000049997F03,israel
0,T2T 1W4,AB,Calgary,75.159.46.53:9321,445911,43,5421601040AA,wales
1,89178,NV,Las Vegas,100.83.177.11:5501,446349,10,00004999A3A1,egypt
1,91106,CA,Pasadena,100.83.149.216:5501,446401,10,00003E4C2A2D,egypt
0,L6H0G6,ON,Oakville,24.150.129.45:9192,446700,43,5421601041AB,cuba
0,L6J 7C6,ON,Oakville,10.20.65.87:9180,446704,43,54216010419D,ghana
1,94606,CA,OAKLAND,100.83.192.57:5501,447419,60,00004999925D,israel
0,T3M0V9,AB,Calgary,68.147.143.203:9180,447767,43,542160104D37,peru
112,110005,112,New Delhi,10.20.52.67:9040,448231,39,54216010450E,ghana
1,90405,CA,Santa Monica,100.83.210.243:5501,448512,10,000049A1B18E,ghana
1,91607,CA,Valley Village,100.83.227.188:5501,448714,60,00003E4BF3EA,israel
1,90262,CA,Lynwood,100.83.176.76:5501,448721,60,000049A19FE4,ghana
1,33810,FL,Lakeland,100.83.226.8:5501,449132,60,000049A1C828,egypt
1,32803,FL,Orlando,100.83.152.140:5500,449890,60,00004D955AF4,ghana
1,77541,TX,FREEPORT,100.83.152.182:5501,449992,60,00004D95F8FD,ghana
1,11220,NY,Brooklyn,100.83.167.151:5501,450650,60,000051D0DDB0,egypt
1,33594,FL,Valrico,100.83.153.218:5501,450821,60,00004D82EDFA,egypt
1,31907,GA,Columbus,100.88.35.250:5500,450837,79,000049A1ECDC,ghana
1,90621,CA,Buena Park,76.169.17.46:9192,451452,89,542160105281,peru
0,L3Y 8P7,ON,Newmarket,72.140.137.154:9067,452460,43,542160105332,angola
1,10579,NY,Putnam Valley,100.83.141.213:5501,452753,60,000051CD79FA,ghana
1,23666,1,Hampton,100.88.95.97:5501,452783,56,000051CD7343,ghana
1,35218,AL,Birmingham ,100.83.171.134:5500,452841,60,000051CD9696,israel
1,45744,OH,Lowell,100.83.140.102:5501,452961,60,00004D955B61,ghana
1,71119,LA,SHREVEPORT,75.65.87.64:9153,453164,47,542160105895,peru
1,93304,CA,Bakersfield,100.83.170.91:5501,453167,60,000051CD8282,egypt
1,93536,CA,Lancaster,100.83.157.193:5501,453583,60,000051CD930B,egypt
2,2144,NSW,Auburn,10.20.72.2,453043,67,542160104258,peru
1,20772,MD,Upper Marlboro,100.83.192.132:5501,454070,60,000049998623,israel
0,M3N 2S5,ON,North York,99.255.253.188:10149,454082,43,542160105900,ghana
1,19390,PA,West Grove,100.88.3.135:5500,453856,31,000049998F0A,egypt
1,39422,MS,Bay Springs,100.83.153.144:5501,454584,60,00004D95516B,ghana
1,90255,CA,Huntington Park,100.83.199.93:5501,454592,60,00004D9D2A84,egypt
1,38632,MS,HERNANDO,100.83.154.35:5501,455369,60,00004D853E8C,israel
1,95833,CA,Sacramento,100.88.103.37:5501,455494,18,00004D955D10,egypt
0,L4J8G9,ON,Thornhill,99.228.247.212:9427,455868,43,5421601053D1,peru
1,34747,FL,Kissimmee,100.83.173.229:5501,456146,60,00004D9B5AE0,israel
1,92551,CA,Moreno Valley,100.83.170.159:5501,456499,60,000051CD8159,ghana
0,L6H7K7,ON,Oakville,24.150.192.150:9103,456703,43,542160105D67,ghana
1,36581,AL,SUNFLOWER,100.83.146.195:5501,456906,60,000051D0E6C1,ghana
1,64151,MO,KANSAS CITY,100.83.167.183:5501,457058,60,00004D82F58F,ghana
1,02136,MA,Hyde park,100.83.177.111:5500,457100,60,00004D9B5AB8,israel
1,91750,CA,La Verne,100.83.219.94:5501,458181,60,00004D9D41E0,egypt
1,95341,CA,Merced,100.83.216.199:5500,458354,60,000051CFACB3,israel
1,38635,MS,HOLLY SPRINGS,10.20.77.117:5501,458480,60,580050660808,peru
1,95307,CA,Ceres,100.83.141.1:5501,458687,60,00004D9D4247,egypt
1,85043,AZ,Phoenix,100.83.180.90:5501,459023,60,00004D9B3AC2,ghana
0,N2A0G4,ON,Kitchener,99.251.73.245:9089,459027,43,542160105405,wales
1,06824,CT,Fairfield,100.83.189.94:5500,459298,60,00004D9D287B,egypt
1,33544,FL,Wesley Chapel,100.88.126.8:5501,459231,10,000051CD89CC,egypt
1,99203,WA,Spokane,100.83.162.42:5501,459646,60,000051D9A406,ghana
0,V9A2P1,BC,Victoria,70.66.182.82:9435,434653,43,5421601025E4,cuba
0,L6V3N3,ON,Brampton,99.234.162.141:10666,459748,43,542160105D16,wales
1,60628,IL,Chicago,100.83.195.234:5501,459865,60,00004D9B6396,egypt
1,90262,CA,Lynwood,100.83.150.8:5501,459869,10,000049A1D3A6,egypt
0,L0K 1E0,ON,Oro-Medonte,70.54.68.122,460229,43,542160105DB4,peru
1,91505,CA,Burbank,100.83.164.50:5500,457497,60,000051D34639,ghana
1,27849,NC,Lewiston,100.83.200.173:5501,460446,60,00004D9D3A2C,ghana
1,23666,1,Hampton,100.88.126.23:5500,461612,56,000051CD77D0,ghana
1,38654,MS,OLIVE BRANCH,100.83.142.80:5501,461747,60,000051D9EB96,egypt
0,L4W2H7,ON,Mississauga,70.27.50.2:9935,462154,43,542160106711,wales
1,95832,CA,Sacramento,100.88.37.59:5500,462522,56,0000499999C8,egypt
1,91436,CA,ENCINO,100.88.133.131:5501,461030,18,000051CD919F,egypt
0,M9W7B3,ON,Etobicoke,99.253.61.3:9037,463242,43,542160106725,ghana
1,29554,SC,Hemingway,100.83.215.123:5501,463702,60,000051E4AECA,israel
1,32751,FL,Maitland,100.83.145.42:5501,463773,60,00004D9B10DC,ghana
1,70722,LA,CLINTON,100.83.140.230:5501,463780,60,000051D379B3,egypt
1,90631,CA,La Habra,100.83.163.95:5501,463916,60,000051D365F6,israel
1,31088,GA,Warner Radins,100.83.188.225:5500,463963,60,000051D34781,egypt
1,70647,LA,Iowa,100.83.202.242:5501,464740,60,000051E4A5F0,israel
1,94931,CA,Cotati,100.83.201.236:5500,465278,60,000051E4A895,ghana
1,71362,LA,Plaucheville,100.83.147.202:5501,465488,60,000051E4E7DA,israel
1,28358,NC,Lumberton,100.83.158.92:5501,465919,60,000051E4A05C,ghana
1,49045,MI,Decatur,100.83.186.43:5501,466327,60,000051D357CE,ghana
1,39338,MS,LOUIN,100.83.152.142:5500,466940,60,00004D853F84,israel
0,M9M 0C6,ON,Toronto,70.48.106.242:10626,467040,43,542160106FDD,wales
1,38635,MS,HOLLY SPRINGS,100.83.227.80:5501,467055,60,000051D9F9BF,egypt
1,01104,MA,Springfield,10.20.44.191:5500,467159,60,524043348110,egypt
1,63049,MO,HIGH RIDGE,100.83.212.241:5501,467259,60,000051E46C42,ghana
1,84088,UT,West Jordan,76.8.215.50:62446,518383,1,000000499012,germany
1,73121,OK,FOREST PARK,100.88.37.85:5501,467692,92,00003E4B42CF,egypt
1,21783,MD,Smithsburg,100.83.201.81:5501,467790,60,000051E4AF00,ghana
2,6060,VIC,Yokine,10.20.63.218:5501,467920,37,580050270228,egypt
1,38127,TN,Memphis,100.88.103.246:9441,469000,47,5421601051DF,ghana
1,91732,CA,El Monte,100.83.203.150:5501,469299,60,000051E4E296,ghana
1,38617,MS,COAHOMA,100.83.203.206:5501,469467,60,000051E48EDD,ghana
1,43206,OH,Columbus ,100.83.142.244:5501,469667,60,000051E5BE8F,ghana
1,86426,AZ,Fort Mohave,100.83.186.231:5501,469899,60,000051D98786,israel
1,35501,AL,JASPER,100.83.146.16:5501,470003,60,000051CD7283,ghana
1,38655,MS,Oxford,100.83.215.61:5501,470466,60,000051E4AB5F,ghana
1,32025,FL,LAKE CITY,100.83.217.108:5501,470606,60,000051E5A779,israel
1,31030,1,Fort Valley,100.88.220.57:5501,470609,56,000051E4E292,israel
0,P0M1B0,ON,Azilda,148.64.73.207:9302,470680,43,5421601077FE,wales
0,H4W1N1,QC,Cote-St-Luc,173.177.124.47:9377,470686,43,542160107801,peru
1,35079,AL,HAYDEN,100.83.226.220:5501,471373,60,000051E4A60A,ghana
1,92405,CA,San Bernardino,100.83.187.236:5501,471642,60,000051D347C1,ghana
1,33909,FL,Cape Coral ,100.83.227.232:5501,471960,60,000051E4DCED,israel
1,93727,CA,Fresno,100.83.162.209:5501,472032,60,000051D9A5E2,ghana
0,H8T2Z3,QC,Lachine,173.178.241.24:9266,472038,43,5421601075DC,angola
0,J7V0T5,QC,Vaudreuil-Dorion,184.148.205.159:11646,472587,43,542160107B13,ghana
1,33592,FL,THONOTOSASSA,100.83.190.110:5501,452621,60,000051D38BEB,israel
1,06067,CT,Rocky Hill,100.83.159.18:5501,472670,60,000051E5C790,ghana
1,85374,AZ,Surprise,100.83.203.41:5500,472755,60,000051E5AF79,ghana
1,95822,CA,Sacramento,100.83.164.19:5500,472791,60,000051D35299,ghana
1,70131,LA,New Orleans,100.89.5.154:49429,472916,60,000051DC6074,egypt
1,29841,SC,N. Augusta,100.83.212.166:5501,472969,60,000051E4A81F,ghana
1,34746,FL,Kissimmee,100.83.161.20:5501,468561,60,000051E5D0B3,israel
1,94565,CA,Pittsburg,100.89.6.91:50908,473094,60,000051DC700E,israel
0,L5W 1K6,ON,Mississauga,99.246.105.94:9563,473134,43,542160107851,ghana
1,94565,CA,Pittsburg,100.83.156.246:5501,473167,60,000051D9F527,ghana
1,32448,FL,MARIANNA,100.83.160.152:5501,473793,60,000051E5C759,egypt
1,90805,CA,Long Beach,100.83.157.20:5500,473843,60,000051E5B288,egypt
1,91790,CA,West Covina,100.83.160.26:5501,474450,60,000051E5B6E1,egypt
1,30263,GA,NEWNAN,100.88.229.69:49172,474560,75,000051DCD0A1,israel
1,95691,CA,West Sacramento,100.83.160.178:5501,474608,60,000051E5A559,israel
1,95816,CA,N Sacramento,100.83.223.186:5501,474708,60,000051D382FE,ghana
0,L0P 1K0,ON,Norval,10.20.89.255:9105,475049,43,542160107F25,peru
1,30058,GA,LITHONIA ,100.83.205.20:5500,475614,60,000051E5B6A7,ghana
1,33525,FL,DADE CITY,100.83.207.172:5501,476010,60,000051E5B2A1,egypt
1,28360,NC,Lumberton,100.83.204.214:5500,476105,60,000051E5AEEC,egypt
0,K1G 1P7,ON,Ottawa,70.31.50.182:9209,475944,43,542160107FA4,cuba
1,93551,CA,PALMDALE,100.83.226.144:5501,476631,60,000051E5B1A9,ghana
1,92880,CA,Eastvale,100.83.202.9:5500,476833,60,000051E4BF37,israel
1,01532,MA,NORTHBOROUGH,100.88.37.1:5501,477021,56,000049A1E2F1,egypt
1,32034,FL,AMELIA ISLAND,10.20.16.209:5500,477081,56,524042284837,peru
1,32081,FL,PONTE VEDRA,10.20.16.49:5501,477092,56,524042222100,ghana
1,33543,FL,WESLEY CHAPEL,10.20.18.251:5500,477150,56,524042277039,egypt
1,33544,FL,WESLEY CHAPEL,10.20.34.223:5500,477169,56,524043315820,peru
1,33547,FL,LITHIA,10.20.20.146:5500,477179,56,524042268533,israel
1,33598,FL,WIMAUMA,10.20.15.232:5501,477222,56,524042217340,egypt
1,34211,FL,BRADENTON,10.20.16.63:5500,477276,56,524042208612,germany
1,34655,FL,NEW PORT RICHEY,10.20.18.250:5500,477306,56,524042277468,peru
1,34711,FL,CLERMONT,10.20.22.96:5500,477313,56,524042982612,egypt
1,33510,FL,BRANDON,10.20.29.113:5500,477340,56,524043352815,israel
1,33543,FL,WESLEY CHAPEL,10.20.18.232:5501,477350,56,524042270927,egypt
1,33545,FL,WESLEY CHAPEL,10.20.44.132:5500,477379,56,524043487280,egypt
1,33578,FL,RIVERVIEW,100.88.43.185:5500,477417,56,00003E4C2BC2,egypt
1,33579,FL,RIVERVIEW,10.20.30.226:5500,477418,56,524043366260,egypt
1,33579,FL,RIVERVIEW,10.20.19.73:5501,477421,56,524042239245,israel
1,34203,FL,BRADENTON,10.20.24.3:5500,477450,56,524042997602,peru
1,34211,FL,BRADENTON,10.20.27.93:5500,477461,56,524042995234,egypt
1,34231,FL,SARASOTA,10.20.29.42:5500,477472,56,524043364059,ghana
1,34637,FL,LAND O LAKES,10.20.34.214:5500,477480,56,524043318709,peru
1,40204,KY,LOUISVILLE,10.20.49.218:5501,477618,56,580050245113,germany
1,28463,NC,Tabor City,100.83.205.174:5501,478281,47,000051E59E86,egypt
1,32218,FL,Jacksonville,100.83.161.69:5501,478685,60,000051E5C3E3,egypt
1,06405,CT,Brandford ,100.83.161.45:5500,478708,60,000051E5BDE9,israel
0,L1P1N6,ON,Whitby,99.232.46.199:9411,479074,43,5421601083BF,wales
1,38930,MS,Greenwood,100.83.207.192:5501,479182,60,000051E4AFD2,ghana
0,T3J 0R5,AB,Calgary,108.173.148.92:9221,479674,43,54216010872E,peru
1,39455,MS,LUMBERTON,100.83.191.154:5501,480398,60,000051E5A448,ghana
0,T4R 2E2,AB,Reddeer,199.126.138.3:9229,480465,43,542160108751,ghana
0,T2W 5V9,AB,CALGARY,68.146.130.226:9049,480496,43,542160108631,peru
1,33598,FL,Wimauma ,100.83.226.56:5501,480533,60,000051E5A5A1,egypt
1,02302,MA,Brockton,10.8.89.115:5501,480907,60,998070124518,ghana
1,84078,UT,Vernal,10.64.18.41:1234,481396,60,518005036120,israel
1,30507,GA,GAINESVILLE,10.64.2.240:5501,481406,60,580050972252,israel
0,M1W 2E3,ON,Scarborough,192.235.247.178:9087,481596,43,542160108634,wales
1,81611,CO,ASPEN,100.88.103.240:10651,482071,56,54216010086A,egypt
1,78639,TX,Kingsland,100.83.210.130:5501,482256,60,000051E48A49,israel
1,95357,CA,Modesto,10.64.114.21:5501,482285,60,580051044549,egypt
1,95758,CA,Elk Grove ,10.64.114.243:5500,480493,60,580050851670,peru
1,00767,PR,Yabucoa,10.64.115.58:5501,482827,60,580050896816,germany
1,92021,CA,El Cajon,10.64.116.187:5501,483336,60,580050913686,egypt
0,H9R 1K9,QC,Pointe-Claire,67.68.28.92:9203,483418,43,542160108796,ghana
1,92021,CA,El Cajon,10.64.134.160:5501,483468,60,580050933288,peru
1,30078,GA,Snellville,100.89.9.253:49490,483848,60,000051DC9145,egypt
1,34684,FL,Palm Harbor,10.64.112.231:5501,483918,60,580050909320,peru
1,06013,CT,Burlington,10.64.137.161:5500,483938,60,580050913207,germany
1,94515,CA,Calistoga,10.64.134.87:5501,484260,60,580050971361,peru
1,34753,FL,Mascotte,10.64.135.208:5501,484531,60,580050838966,ghana
1,77494,TX,KATY,10.64.113.35:5501,484634,60,580050933023,egypt
1,92253,CA,La Quinta,10.8.89.209:5501,484108,60,998070128592,peru
1,23663,1,Hampton,100.88.4.61:5501,484882,56,00003E4BD880,egypt
1,38641,MS,LAKE COMRANT,10.8.91.34:5501,485074,60,998070420213,egypt
1,23704,VA,Portsmouth,10.8.90.235:5501,485102,60,998070403763,germany
1,39111,MS,MAGEE,10.8.90.65:5501,485210,60,998070153418,ghana
0,N1G 3G8,ON,Guelph,72.136.30.155:9098,485222,43,542160108811,angola
1,39204,MS,Jackson,100.89.56.110:49157,486426,60,000051F20875,egypt
0,A0N 2C0,NL,Stephenville Crossing,96.44.108.199:62110,486608,43,542160108E73,angola
1,93247,CA,Lindsay,10.64.136.230:5500,486714,60,580050937479,germany
1,13406,NY,Middleville,10.64.137.6:5501,486867,60,580050959010,israel
1,11234,NY,Brooklyn,10.64.5.13:5500,487324,60,580050963491,israel
0,L4G 4R6,ON,Aurora,74.14.154.5:10340,487355,43,542160108DE5,peru
1,39705,MS,Columbus,100.83.207.196:5501,487825,60,000051E4AC3D,ghana
1,39474,MS,PRENTISS,10.8.92.127:5501,488138,60,998070399409,germany
1,11226,NY,Brooklyn,100.89.106.166,488257,31,542160109719,ghana
1,34606,FL,Spring Hill,10.64.82.20:5501,488283,60,580050881909,israel
0,L6M 0V7,ON,Oakville,184.147.156.168:9189,488458,43,5421601098A3,wales
1,95062,CA,Santa Cruz,10.64.146.74:5500,488833,60,580051047278,germany
1,35613,AL,ATHENS,100.83.197.226:5501,489031,60,00004D9B46D8,egypt
1,98370,WA,POULSBO,100.88.30.233:10397,489127,18,5421601072C9,egypt
1,94544,CA,Hayward,10.64.149.114:5500,489231,60,580052924798,ghana
1,94545,CA,Hayward,10.64.148.217:5501,489491,60,580052895188,ghana
1,66111,KS,KANSAS CITY,100.83.188.5:5501,490342,60,000051D358C9,egypt
1,92399,CA,Yucaipa,10.64.137.174:5501,490693,60,580051041990,egypt
1,91103,CA,Pasadena,10.64.115.220:5501,490980,60,580050701487,israel
0,V6X 2R2,BC,Richmond,10.20.86.233:9131,491132,43,542160109071,peru
0,R3G 3E4,MB,WINNIPEG,50.71.52.182:5348,491180,43,54216070080A,peru
1,02892,RI,Richmond,10.64.134.237:5500,492401,60,580051034342,peru
1,32773,FL,Sanford,10.8.90.121:5501,492429,60,998070170941,peru
0,K0H 1T0,ON,Godfrey,45.78.121.0:10990,492600,43,542160109D8A,peru
1,34472,FL,OCALA,10.64.136.148:5501,492617,60,580050910963,peru
1,28530,NC,GRIFTON,10.64.210.198:5501,492995,60,580052928765,egypt
1,92241,CA,Desert Hot Springs,10.64.213.210:5501,493259,60,580052941842,ghana
1,39355,MS,QUITMAN,10.64.4.147:5501,493610,60,580050971759,israel
1,63901,MO,Poplar Bluff,10.64.212.178:5501,494025,60,580052900368,egypt
1,32703,FL,Apopka ,10.64.146.143:5501,494657,60,580050918495,israel
1,06614,CT,Stratford,100.89.131.111:5501,494825,31,998070536562,ghana
1,93230,CA,Hanford,10.64.146.34:5500,494998,60,580051034151,peru
0,L9C5L3,ON,Hamilton,70.50.136.221:9298,495162,43,54216010A1FC,ghana
0,R5G 0S7,MB,Steinbach,10.64.30.58:1234,495434,112,000000567218,egypt
1,71251,LA,Jonesboro,10.64.213.153:5501,495590,60,580050911938,israel
1,92284,CA,Yucca Valley,10.64.211.188:5501,495756,60,580053012304,germany
0,T5H3H7,AB,Edmonton,65.110.10.159:10500,476691,43,5421601084E4,angola
1,92119,CA,San Diego,10.8.94.198:5501,495894,60,998070534484,peru
1,70631,LA,CAMERON,10.20.18.3:5500,496555,56,524042254517,peru
1,30253,GA,McDonough,10.64.212.81:5501,496951,60,580050956321,peru
0,J0L 1B0,QC,Kahnawake,67.68.142.187:9013,496954,43,54216010A20B,cuba
1,46001,IN,Alexandria,10.64.211.109:5500,497372,60,580051034136,ghana
1,95968,CA,Palermo,100.83.154.187:5500,497654,60,00004D82EEE3,ghana
1,00641,PR,UTUADO,10.64.212.28:5500,497106,60,580053140485,germany
1,28364,NC,Maxton,10.64.144.110:5501,496281,60,580052887730,ghana
0,V2X 0X2,BC,	 Maple Ridge,154.20.242.231:9344,497896,43,542160109DA1,cuba
1,92705,CA,Santa Ana,10.64.214.235:5500,498256,60,580053256984,egypt
1,32034,FL,FERNANDINA BEACH,10.20.26.163:5500,498638,56,524042972845,germany
1,32034,FL,FERNANDINA BEACH,10.20.41.208:5500,498707,56,524043497255,ghana
1,32034,FL,FERNANDINA BEACH,10.20.24.143:5500,498738,56,524042996836,egypt
1,32082,FL,PONTE VEDRA BEACH,10.20.41.248:5500,498963,56,524043485490,israel
1,32092,FL,SAINT AUGUSTINE,10.20.26.171:5500,499001,56,524042979451,ghana
1,32221,FL,JACKSONVILLE,10.20.68.193:5501,499214,56,580050664651,egypt
1,32233,FL,ATLANTIC BEACH,10.20.44.163:5500,499296,56,524043490441,germany
1,55372,MN,PRIOR LAKE,100.88.43.132:5501,499908,56,00003E4C24AB,egypt
1,74531,OK,CALVIN,10.20.15.54:5500,499960,56,524041906356,israel
1,72562,AR,Newark,10.64.210.229:5501,500093,60,580053009227,peru
1,35954,AL,ATTALLA,10.8.95.198:5500,492766,60,998070521325,ghana
1,00778,PR,GURABO,10.64.219.115:5501,500549,60,580053315129,israel
1,19038,PA,GLENSIDE,10.8.96.51:5501,500721,60,998070515087,israel
1,35401,AL,Tuscaloosa,100.89.28.154:49155,501171,60,000051F2A433,israel
1,76541,TX,Killeen,100.89.29.9:49560,501419,60,000051F2A1EE,israel
0,H8R2N8,QC,Lasalle,104.247.234.86:10421,501786,43,54216010A9F4,wales
1,00612,PR,ARECIBO,10.64.223.192:5501,502187,60,580053232662,israel
1,95630,CA,Folsom,10.64.221.152:5501,502898,60,580053359937,germany
1,27542,NC,Kenly,10.64.211.70:5501,498044,60,580053243628,peru
1,30349,GA,ATLANTA ,100.89.170.140:49393,504525,75,000051F1C57E,egypt
1,78738,TX,Lakeway,100.89.151.2:1234,504850,47,650073144680,egypt
1,13619,NY,Teresa,10.64.223.168:5501,505460,60,580053343659,germany
1,38732,MS,Cleveland,10.64.5.212:5500,505483,60,580050919683,israel
1,92410,CA,San Bernadino,10.64.224.2:5500,505678,60,580053390072,ghana
1,,,,10.64.141.70:33794,505742,118,753090156504,peru
1,92509,CA,Riverside,10.64.223.59:5500,505790,60,580053389595,egypt
1,75241,TX,Dallas,100.89.105.162:5501,505836,22,998070394384,israel
1,47340,IN,Farmland,100.89.169.185:49560,506196,60,000051F1C787,egypt
1,36532,AL,Fairhope,100.89.206.160:5500,506251,32,998070951290,israel
1,78653,TX,Manor,100.89.145.221:1234,506266,47,650073187242,egypt
1,93612,CA,Clovis,10.64.221.79:5500,507034,60,580053389868,israel
1,98664,WA,Vancouver,100.89.176.116:49173,507235,60,000051F1B418,egypt
1,36303,AL,DOTHAN,10.64.221.217:5500,507718,60,580053315061,ghana
1,00714,PR,Arroyo,10.64.218.74:5500,508359,60,580053387417,ghana
1,30312,GA,Atlanta,100.89.171.13:49167,508371,75,000051F1C7CE,egypt
1,95356,CA,Modesto,10.64.218.12:5501,508509,60,580053322653,germany
1,32442,FL,GRAND RIDGE,10.8.99.139:5501,508627,60,998070651205,ghana
1,93063,CA,Simi Valley,10.64.218.221:5500,508773,60,580053341976,germany
1,46218,IN,Indianapolis,100.89.197.188:1234,508889,60,650073686854,israel
1,93021,CA,Moorepark,10.64.218.22:5501,508922,60,580053373045,israel
1,93065,CA,Simi Valley,10.64.217.124:5500,508931,60,580053349854,peru
0,L2N3N5,ON,St.Catharines,198.48.177.182:9064,509056,43,54216010B140,angola
1,48187,CA,Canton,10.64.217.182:5500,420858,60,580053355117,israel
1,94590,CA,Vallejo,10.64.217.241:5500,509422,60,580053304628,germany
1,33777,FL,Seminole,10.64.222.139:5500,509653,60,580053343873,ghana
1,93662,CA,Selma,10.64.219.223:5500,509780,60,580053337131,peru
1,30213,GA,FAIRBURN,100.89.158.172:49381,509859,75,000051F1301F,egypt
1,34481,FL,Ocala,10.64.216.162:5500,510528,60,580053389025,egypt
1,93534,CA,Lancaster ,10.64.221.33:5500,510546,60,580053350258,egypt
1,36759,AL,MARION JUNCTION,10.8.99.128:5500,510769,60,998070592185,ghana
1,32819,FL,Orlando,71.142.232.21:4096,510966,18,54216000EADC,peru
1,90023,CA,Los Angeles,10.64.220.254:5500,511198,60,580053365223,egypt
1,70811,LA,Baton Rouge,10.64.221.113:5500,511244,60,580053270878,egypt
1,28451,NC,Leland,10.64.223.201:5500,511292,60,580053302218,germany
1,80909,CO,Colorado Springs,100.89.193.79:1234,511349,60,650073780293,israel
1,92307,CA,Apple Valley,10.64.219.194:5500,511449,60,580053277121,germany
1,28501,NC,Kinston,10.8.102.19:5501,511506,60,998070717691,egypt
1,28083,NC,Kannapolis,10.64.218.157:5500,511526,60,580053303380,ghana
1,92308,CA,Apple Valley,10.64.218.40:5500,511586,60,580053372161,ghana
1,91345,CA,Mission Hills,10.65.111.151:5500,512197,60,580053353880,peru
1,32712,FL,Apopka,10.64.218.24:5500,512266,60,580053341950,ghana
1,92201,CA,Indio,10.65.115.123:5500,512722,60,580053257289,egypt
0,Guelph ,ON,Kitchener,64.228.153.232:10574,512944,43,54216010C517,angola
1,18509,PA,Scranton,10.8.104.147:5501,513229,60,998071087128,peru
1,54810,WI,Balsam Lake,100.89.206.106:5501,442613,12,998070949625,israel
1,92881,CA,Corona,10.65.111.77:5500,513436,60,580053364333,egypt
1,30349,GA,Atlanta,100.89.172.216:49311,513497,75,000051F1F036,israel
1,28327,NC,Carthage,10.8.102.61:5501,513606,60,998070731916,egypt
1,20613,MD,Brandywine,10.64.221.32:5500,513714,60,580053301970,peru
1,21214,MD,Baltimore ,10.64.218.165:5500,514005,60,580053349540,ghana
1,92395,CA,Victorville,10.65.116.252:5500,514772,60,580053391518,germany
1,92543,CA,Hemet,10.65.107.89:5500,514875,60,580053231276,germany
1,79415,TX,Lubbock,100.89.197.88:1234,514923,60,650073976917,egypt
1,20176,VA,LEESBURG,100.89.49.109:49738,515031,75,000051F2A9A5,israel
1,00683,PR,SAN GERMAN,10.65.115.95:5500,515240,60,580053231920,peru
1,11952,1,Mattituck,100.83.187.54:5501,506126,10,000051D371C6,ghana
1,29810,SC,Allendale,10.65.59.19:4097,515663,47,45AB51CA7550,ghana
2,2107,NSW,Whale Beach,10.20.51.2:5500,515805,37,580050222682,germany
1,27801,NC,Rocky Mount,10.64.172.207:4097,515931,47,44BA1A134B7E,peru
1,92583,CA,San Jacinto,10.65.111.121:5500,515996,60,580053388621,egypt
1,85621,AZ,Nogales,100.89.174.188:49281,516104,60,000051F1D0D4,egypt
1,92363,CA,Needles,10.65.110.108:5501,516271,60,580053343550,israel
1,39071,MS,FLORA,10.8.102.170:5501,430848,60,998070764669,ghana
1,19123,PA,PHILADELPHIA,10.8.105.5:5501,456342,60,998071033163,germany
1,00745,PR,RIO GRANDE,10.64.216.222:5501,516914,60,580053325821,egypt
0,N9B2H6,ON,Windsor,198.84.130.66:9523,428756,43,542160101D86,ghana
1,92543,CA,Hemet,10.65.109.162:5501,516981,60,580053275901,peru
1,78045,TX,Laredo,100.89.152.112:1234,517281,60,650073234135,egypt
0,L8M1C6,ON,Hamilton,198.13.196.113:62361,517286,43,54216010C9F4,cuba
288,16820,288,Midrand,41.169.52.20:1234,517515,40,000000559195,peru
1,92582,CA,SAN JACINTO,,10.65.115.137:5500,517630,60,580053279218,peru
1,20748,MD,Temple Hills,10.64.221.174:5500,517932,60,580053349847,israel
1,92543,CA,Hemet,10.65.107.29:5500,518090,60,580053391658,peru
0,K2J5Y7,ON,Ottawa,174.112.152.28:9235,518261,43,542160103583,cuba
1,29506,SC,Florence,10.65.59.178:4097,518356,47,45AB51CA6B40,peru
1,90631,CA,La Habra,10.65.110.56:5500,518416,60,580053272635,germany
1,81004,CO,Pueblo,10.65.74.74:4097,518541,47,44BA1A1F0795,egypt
1,10516,NY,COLD SPRING,10.8.105.220:5501,518754,60,998071168795,egypt
1,95828,CA,Sarcamento,100.83.165.101:5501,518807,60,00004D95FF35,israel
1,80906,CO,Colorado Springs,10.65.82.57:4097,519332,47,44BA1A1F7EDB,ghana
1,00739,PR,CIDRA,10.65.115.187:5501,519405,60,580053270985,egypt
1,71646,AR,HAMBURG,10.65.108.1:5500,519407,60,580053360455,germany
1,90631,CA,La Habra,10.65.107.255:5501,519487,60,580053343931,egypt
0,K1V2J1,ON,Ottawa,72.141.244.98:9451,519668,43,54216010DBDD,cuba
0,V9N 9M5,ON,Courtenay,207.216.237.162:9239,520015,43,542160109DB2,peru
1,13410,NY,Nelliston,10.8.101.52:5501,520094,60,998070733748,israel
0,V2E 2G2,BC,Kamlpops,23.16.154.189:9192,520290,43,54216010DBC0,angola
1,41339,KY,Jackson,100.89.207.30:1234,520347,60,650073237807,israel
1,34109,FL,Naple,100.89.60.132:1234,520530,179,000000540576,egypt
1,70058,LA,Harvey,100.89.146.171:1234,520535,75,650073229499,egypt
1,81006,,,10.65.60.165:4097,520694,47,44BA1A236FA5,ghana
1,81008,,,10.65.59.211:4097,520785,47,44BA1A1F7DF5,ghana
1,81001,CO,Pueblo,10.65.6.28:4097,520870,47,44BA1A1E48FE,peru
1,75757,TX,Bullard,10.8.108.147:5501,520992,60,998071518122,egypt
1,70126,LA,New Orleans,10.64.63.192:1234,521005,75,518005205071,egypt
1,21901,MD,North East,100.88.4.131:5500,471461,31,00003E4C0ED7,None
1,01468,MA,Templeton,10.64.220.75:5500,521117,60,580053351306,germany
1,78628,TX,GEORGETOWN ,10.64.223.173:5500,521156,60,580053370884,israel
1,47331,IN,CONNERSVILLE ,10.64.220.194:5500,521362,60,580053336497,peru
1,81001,CO,Pueblo,10.65.8.194:4097,521445,47,44BA1A1F6CBE,ghana
1,92234,CA,Cathedral City,100.83.204.217:5500,521591,60,000051E58DB1,ghana
1,81008,CO,Pueblo,10.65.29.144:4097,521608,47,44BA1A215E10,ghana
1,81003,,,10.65.44.160:4097,521622,47,44BA1A1F3DC2,peru
1,39305,MS,MERIDIAN ,10.8.104.68:5501,522052,60,998071085205,ghana
1,40011,KY,Campbellsburg,10.64.218.80:5500,507829,60,580053301939,ghana
1,81001,CO,Pueblo,10.65.1.179:4097,522392,47,44BA1A235F67,ghana
1,29360,,,10.65.18.13:4097,522831,47,44BA1A21B77F,israel
1,39367,,,10.65.38.255:4097,522847,47,44BA1A1FAD41,germany
1,38676,,,10.65.72.248:4097,522865,47,44BA1A213A31,israel
1,39305,,,10.65.53.120:4097,522879,47,44BA1A11551D,peru
1,38703,,,10.65.86.250:4097,522886,47,44BA1A1F35DC,peru
1,29624,,,10.65.104.116:4097,522910,47,44BA1A217BD7,israel
1,29620,,,10.65.24.200:4097,522919,47,44BA1A1E7B3D,israel
1,29824,,,10.65.71.138:4097,522934,47,44BA1A1F89B9,ghana
1,29044,,,10.65.38.188:4097,522943,47,45AB51CA5F8F,ghana
1,29010,,,10.65.92.32:4097,522947,47,44BA1A22DD7D,germany
1,29128,,,10.65.39.159:4097,522962,47,45AB51D193D2,germany
1,29556,,,10.65.55.3:4097,522978,47,45AB51CA1A66,germany
1,71665,AR,Rison,10.8.108.208:5501,523326,60,998071491502,egypt
1,81008,CO,Pueblo,10.65.37.176:4097,523371,47,44BA1A1F034C,egypt
1,86442,AZ,Bullhead City,10.65.106.120:5500,523505,60,580053543647,peru
1,86442,AZ,Bullhead City,10.65.113.33:5501,523566,60,580053244899,ghana
1,25704,WV,Huntington,100.89.150.151:1234,523634,60,650073141942,egypt
1,93535,CA,Lancaster,10.65.111.95:5501,523682,60,580053390130,israel
1,81007,,,10.65.9.158:4097,524306,47,44BA1A1EFA78,egypt
1,91740,CA,Glendora,172.115.12.15:9987,430472,43,5421601027D3,cuba
1,80817,CO,Fountain,10.65.5.4:4097,524446,47,44BA1A1F6B95,ghana
1,80907,,,10.65.83.170:4097,524617,47,44BA1A1F0114,egypt
1,80817,CO,Fountain,10.65.51.221:4097,524634,47,44BA1A1F3571,israel
1,92019,CA,El Cajon,100.83.29.63:5500,524572,6,998071189577,ghana
1,32805,FL,Orlando,100.89.195.33:1234,525608,60,650078105561,israel
1,80817,CO,Fountain,10.65.102.112:4097,525657,47,45AB51C9F944,egypt
1,84040,,,10.65.74.54:4097,525742,47,45AB51C6FCF4,egypt
1,71646,AR,Hamburg,10.65.110.86:5500,525785,60,580053268963,egypt
1,84302,57,Brigham City,100.89.244.199:1234,525856,47,650078497844,israel
1,81006,CO,Pueblo,10.65.86.174:4097,525994,47,45AB51CA88F0,ghana
1,23860,VA,Hopewell,10.65.62.194:4097,526144,47,45AB51D08D56,egypt
1,92867,CA,Orange,10.64.216.214:5500,526145,60,580052905987,germany
1,02780,MA,Taunton,100.83.195.193:5501,526261,60,000042F3FC82,ghana
1,34654,FL,New Port Richy,10.64.221.162:5500,453385,60,580053266868,ghana
1,23860,,,10.65.30.208:4097,526486,47,45AB51D0E66A,germany
1,46254,IN,Indianapolis,157.130.99.154:46633,526549,10,54216010DCAC,peru
1,23831,VA,Chester,10.65.54.235:4097,526961,47,45AB51D069E4,peru
1,23805,,,10.65.56.252:4097,527006,47,45AB51D0E0BD,ghana
59,23234,VA,Richmond,10.65.32.73:4097,527152,47,45AB51D0A758,germany
1,23832,VA,Chesterfield,10.65.28.84:4097,527244,47,45AB51CFD5DD,israel
1,23832,,,10.65.92.153:4097,527323,47,44BA19F2CEC8,ghana
1,29440,SC,Georgetown,10.64.204.138:1234,527350,60,335052398010,germany
1,23150,VA,SANDSTONE,10.65.32.244:4097,527362,47,45AB51D0E650,germany
1,22903,VA,Charlottesville,10.65.40.160:4097,527440,47,45AB51CAA11D,ghana
1,65203,MO,Columbia,10.64.14.81:1234,527472,3,000000534202,israel
1,84107,UT,Murray,10.65.88.56:4097,527525,47,45AB51CFDFD3,ghana
1,22903,VA,Charlottesville,10.65.96.86:4097,527599,47,45AB51CF4B6D,peru
1,23111,VA,Mechanicsville,10.65.93.8:4097,527437,47,45AB51CA453A,israel
1,23860,VA,Hopewell,10.65.100.169:4097,527482,47,45AB51D1FFF2,germany
1,00674,PR,MANATI,10.65.107.252:5501,527726,60,580053359887,peru
1,95307,CA,Ceres,100.89.225.175:1234,528203,60,650078010290,egypt
1,21237,MD,Baltimore ,10.64.209.30:5500,482010,60,580053325409,peru
1,78612,TX,Cedar Creek,100.89.246.144:1234,528583,75,650078677593,egypt
1,92648,1,Huntington Beach,10.65.181.172:5501,528751,97,580053551491,germany
1,86440,AZ,Mohave Valley,10.65.107.19:5501,457068,60,580053547481,israel
1,23704,VA,Portsmouth,10.65.59.150:4097,529457,47,45AB51C9BFB6,egypt
1,23607,,,10.65.55.146:4097,529705,47,44BA1A23408F,peru
1,00745,PR,RIO GRAND,10.64.216.228:5500,529959,60,580053303463,israel
1,34982,FL,Fort Pierce,10.65.114.71:5500,529973,60,580053364226,israel
1,42104,KY,Bowling Green,100.89.228.29:1234,530123,60,650078268443,egypt
0,V1C1B7,BC,Cranbrook,24.66.64.37:9320,453107,43,542160108FDA,ghana
1,32533,FL,Cantonment,10.20.26.75:5500,422835,32,524042967431,egypt
0,V4W 4A7,BC,Aldergrove,184.65.214.93:9040,530617,43,54216010C91A,peru
0,R2M 1A3,MB,Winnipeg,142.161.53.12:9116,531008,43,54216000143B,wales
1,80219,,,10.65.66.3:4097,531243,47,413584967A80,egypt
1,91752,CA,Eastvale,10.65.112.29:5500,531247,60,580053276537,ghana
1,38133,,,10.65.23.239:4097,531335,47,44BA1A12124E,ghana
1,80022,CO,Commerce City,10.65.4.199:4097,531392,47,4135849445EF,egypt
1,20110,VA,Manassas,100.89.228.191:1234,531541,75,650078316879,israel
1,84058,UT,Orem,10.65.91.231:4097,531562,47,45AB51D08D4E,peru
1,81003,,,10.65.58.194:4097,531663,47,41358496A65D,israel
1,81005,CO,Pueblo,10.65.10.89:4097,531809,47,4135849454A8,egypt
1,28334,NC,Dunn,10.65.28.155:4097,531829,47,413584935629,ghana
1,81050,CO,La Junta,10.65.63.119:4097,531960,47,41358494550B,israel
1,28301,NC,Fayetteville,10.65.31.41:4097,532015,47,413584943E2B,peru
1,28303,NC,Fayetteville,10.65.27.89:4097,532115,47,41358493393A,ghana
1,28303,NC,Fayetteville,10.65.32.11:4097,532154,47,4135849434D1,germany
1,28303,,,10.65.32.65:4097,532246,47,413584943713,israel
1,92675,CA,San Juan Capistrano,10.64.220.9:5500,532433,60,580053390064,israel
1,28303,NC,Fayetteville,10.65.32.127:4097,532509,47,413584941D32,israel
1,28314,NC,Fayetteville ,10.65.33.155:4097,532606,47,41358494177F,peru
1,28364,NC,Maxton,10.64.26.127:1234,532782,60,335051290622,egypt
1,20018,DC,Washington,100.89.193.34:1234,532850,75,650078026486,israel
1,27610,NC,Raleigh,10.65.34.1:4097,532927,47,41358493D433,egypt
1,20904,MD,Silver Spring,100.89.193.43:1234,533345,75,650073934452,israel
0,N0E 1Y0,ON,Waterford,142.46.247.217:9237,533483,43,542160000432,cuba
1,36532,AL,Fairhope,100.83.67.131:5500,450053,32,998072194360,ghana
1,84014,UT,Centerville,100.83.12.136:1234,534772,47,650078539454,israel
1,28348,NC,Hope Mills,10.65.22.211:4097,534844,47,41358494157E,ghana
1,84067,,,10.65.30.243:4097,535145,47,413584935FB4,israel
1,84040,,,10.65.7.221:4097,535509,47,413584934924,israel
1,70761,LA,Norwood,10.64.196.139:1234,535870,60,335052299465,egypt
0,M9N 4A2,ON,York,76.65.20.116:9234,535880,43,5421600014D9,peru
1,89156,NV,North Las Vegas,100.83.13.62:1234,535925,60,650078452500,israel
1,30039,GA,Snellville,100.89.255.65:1234,536173,75,650078676140,israel
1,28304,,,10.65.26.111:4097,536197,47,41358494335E,peru
1,84075,UT,Syracuse,10.65.71.94:4097,536346,47,413584962066,peru
1,84057,UT,Orem,10.65.29.116:4097,536412,47,413584942F78,peru
0,T7Z 1Y4,AB,Stony Plain,68.150.12.160:9283,536418,43,54216000044B,cuba
1,84015,,,10.65.5.18:4097,536820,47,41358494491F,egypt
1,84062,UT,Pleasant Grove,10.65.102.85:4097,536875,47,44BA1A1ED746,ghana
1,91406,CA,Van Nuys,10.65.114.20:5501,537651,60,580053562845,ghana
0,M6M1C5,ON,Toronto,108.175.234.30:1234,533841,43,000000637376,peru
1,70546,LA,Jennings,10.64.204.36:1234,538264,60,335052403414,ghana
1,00969,PR,Guaynabo,10.64.64.118:1234,538293,60,518005204801,israel
1,81067,CO,Rocky Ford,100.83.8.70:1234,538419,47,650078385015,israel
1,83402,ID,Idaho Falls,10.65.243.33:4097,538621,47,4135849879C9,peru
1,27983,,,10.65.233.119:4097,538942,47,413584962DFE,israel
1,38671,MS,Southhaven,10.65.3.174:4097,538979,47,44BA1A22A77C,germany
1,84302,,,10.65.221.191:4097,539142,47,413584986F14,peru
1,27909,,,10.65.224.127:4097,539263,47,41358496F97A,germany
1,42642,KY,RUSSELL SPRINGS,10.8.106.214:5501,420359,60,998071521837,germany
1,84106,,,10.64.183.107:4097,539615,47,44BA1A12E576,egypt
1,39437,MS,Ellisville,10.64.199.34:1234,539797,60,335052469894,egypt
1,23851,,,10.65.236.219:4097,539978,47,4135849725D4,ghana
1,39474,MS,PRENTISS,10.8.105.45:5501,540427,60,998071174587,israel
1,75853,TX,Montalba,10.64.199.104:1234,540781,60,335052486484,ghana
1,29732,SC,Rock Hill,10.64.204.16:1234,540837,60,335052471742,israel
1,87120,NM,ALBUQUERQUE,100.83.53.245:5501,541269,60,998071492146,israel
1,08087,CT,Little Egg Harbor,100.83.66.18:9262,541298,31,542160004952,peru
1,29118,SC,Orangeburg,10.64.198.93:1234,541505,60,335052482046,egypt
1,36830,AL,Auburn,100.89.195.179:1234,541571,60,650078120792,egypt
1,82901,,,10.65.221.219:4097,541698,47,41358498F414,germany
1,82901,,,10.65.45.237:4097,541725,47,4135849677ED,israel
1,84058,UT,Orem,10.65.234.170:4097,541567,47,41358497422E,germany
1,70767,LA,Port Allen,100.83.124.27:1234,541957,60,636094674445,egypt
1,84058,UT,Orem,10.65.234.75:4097,542395,47,413584937809,peru
1,60411,IL,CHICAGO HEIGHTS,10.64.217.96:5501,542763,47,580053305591,peru
1,75216,TX,Dallas,100.83.15.57:1234,543588,75,650078564239,egypt
1,39095,MS,Lexington,10.64.197.40:1234,544051,60,335052413199,peru
1,39095,MS,LEXINGTON,10.8.115.210:5500,544088,60,998072301064,egypt
1,84070,UT,Sandy,10.65.242.16:4097,544748,47,41358496B221,ghana
1,39365,MS,Union,100.83.119.164:1234,544881,143,636094724877,israel
1,92128,CA,San Diego,10.64.216.114:5500,545100,60,580053343667,ghana
1,30642,GA,Greensboro,10.64.198.17:1234,545685,60,335052463830,peru
1,19090,PA,Willow Grove,100.89.232.148:1234,546074,12,650078351942,israel
1,84337,,,10.65.27.147:4097,546845,47,41358493337C,ghana
1,98802,WA,East Wenatchee,100.89.232.201:1234,546864,12,650078261711,israel
1,84404,UT,Plain City,10.65.33.145:4097,547015,47,413584944618,peru
1,66217,KS,Shawnee,100.89.232.168:1234,547133,12,650073882974,egypt
1,76112,TX,Fort Worth,100.83.122.119:1234,547346,75,636094728613,egypt
1,84302,,,10.65.103.121:4097,547356,47,45AB51CAA3B8,peru
1,70811,LA,Baton Rouge,100.89.223.167:1234,548418,75,650078256687,egypt
1,34994,FL,stuart,100.89.232.189:1234,548906,12,650073892544,israel
1,70764,LA,Plaquemine,10.64.197.233:1234,549384,60,335052413967,ghana
1,12303,NY,Schenectady,100.89.232.154:1234,549461,12,650078226623,israel
1,06249,CT,Lebanon,10.8.114.26:5501,425164,60,998072011069,germany
1,29583,SC,Pamplico,10.64.39.67:1234,549493,60,335051780101,israel
1,08324,NJ,na,100.89.232.176:1234,549584,12,650078335028,israel
1,72142,AR,Scott,100.89.251.60:1234,523363,60,650078661662,israel
1,42701,KY,Elizabethtown,100.89.232.199:1234,549739,12,650073807567,israel
1,08234,NJ,na,100.89.230.76:1234,549901,12,650078317281,egypt
1,38925,MS,DUCK HILL,10.8.116.71:5500,549923,60,998072351218,germany
1,12345,UT,Lehi,10.66.93.96:4097,550070,1,4135849C1D7A,germany
1,45332,UT,	   HOLLANSBURG,10.8.117.226:5500,550340,60,998071961728,germany
1,42301,KY,Owensboro,100.83.17.70:1234,550459,60,650074839528,egypt
1,11214,NJ,Brooklyn,100.89.220.17:1234,550581,12,650078155921,israel
1,84601,1,Provo,10.65.70.189:4097,550644,47,45AB51C94208,egypt
1,33139,FL,Miami Beach,100.89.230.75:1234,550764,12,650078318792,israel
1,30809,GA,Evans,100.89.230.84:1234,550818,12,650078309502,israel
1,15061,PA,Monaca,100.89.220.0:1234,550932,12,650073901030,egypt
1,84070,UT,Sandy,10.65.57.39:4097,551199,47,45AB51CF4F6C,egypt
1,91387,AL,SANTA CLARITA,100.83.92.25:5500,521993,89,998072514567,ghana
1,31206,GA,Macon,10.64.196.212:1234,551782,60,335052434393,egypt
1,33308,FL,oakland park,100.89.230.62:1234,551850,12,650078296329,egypt
1,32114,FL,Daytona Beach,100.89.230.61:1234,551856,12,650078306482,israel
1,06901,CT,Stamford,100.89.230.70:1234,551884,12,650078335473,egypt
1,29115,,,10.66.123.41:4097,552116,47,413584983B01,israel
1,85711,AZ,Tucson,100.89.230.67:1234,552161,12,650078335127,israel
1,29720,,,10.66.127.76:4097,552195,47,41358497EC90,peru
1,17202,PA,Chambersburg,100.89.230.89:1234,552299,12,650078334468,israel
1,29829,,,10.65.14.102:4097,552348,47,413584992862,ghana
1,29829,,,10.66.16.247:4097,552358,47,413584996EAC,peru
1,08234,NJ,na,100.89.219.239:1234,552466,12,650078225062,egypt
1,29118,,,10.66.138.96:4097,552643,47,413584984461,peru
1,38930,MS,Greenwood,10.64.68.202:1234,552659,60,335052299846,israel
1,29180,1,Winnsboro,10.66.16.198:4097,552798,47,413584996CA3,germany
1,29180,,,10.66.132.20:4097,552826,47,41358498DA46,ghana
1,84070,1,Sandy,10.66.8.132:4097,552921,47,4135849A7FB1,israel
1,02364,MA,Kingston,100.89.230.73:1234,553117,12,650078335259,egypt
1,98626,WA,Kelso ,100.83.232.51:1234,553391,60,152100297420,egypt
1,60073,IL,ROUND LAKE,100.89.232.169:1234,553489,12,650078274722,egypt
1,17876,PA,Shamokin Dam,100.89.252.56:1234,553674,60,650078671448,egypt
1,84302,,,10.66.6.188:4097,553838,47,4135849AED8C,peru
0,N2B 3E9,ON,Kitchener,10.65.199.201:5501,554280,69,580053852030,peru
1,84401,,,10.66.8.209:4097,554590,47,4135849AD3ED,israel
1,28273,NC,Charlotte,10.66.170.59:4097,554893,1,4135849C6CFB,ghana
1,84302,,,10.66.9.201:4097,554953,47,4135849BC8DC,israel
1,36874,AL,Salem,100.83.247.92:1234,555049,60,152100416574,egypt
0,H9X 1E2,QC,Sainte-Anne-de-Bellevue,142.122.39.207:9731,506346,43,54216010ABF0,peru
1,84401,,,10.65.221.143:4097,555712,47,413584983445,egypt
1,38606,,,10.66.161.54:4097,555718,47,4135849BEBD4,israel
1,38901,MS,Grenada,10.66.68.225:4097,555772,47,4135849A4DBF,peru
1,84401,,,10.66.8.192:4097,555964,47,4135849B8BD1,ghana
1,29936,SC,Ridgeland,10.64.198.232:1234,556002,60,335052489785,ghana
1,39648,MS,MCCOMB,10.65.245.103:4097,556154,47,4135849AD339,germany
1,39648,MS,MCCOMB,10.65.247.52:4097,556165,47,4135849AF652,germany
1,39648,MS,MCCOMB,10.66.0.173:4097,556175,47,4135849AF630,peru
1,44406,OH,Canfield,100.83.7.110:1234,547785,60,650078680860,egypt
1,38635,,,10.65.245.90:4097,556731,47,4135849AF726,germany
1,33616,FL,Tampa,10.66.13.64:4097,557038,1,4135849AB459,tahiti
1,65052,MO,Linn Creek,100.83.247.120:1234,557144,60,636096123557,egypt
1,85355,AZ,Waddell,100.83.240.133:1234,557315,75,636096119167,israel
1,10530,NY,Hartsdale,100.89.230.42:1234,557411,12,650078364325,egypt
1,08324,NJ,na,100.89.230.48:1234,558443,12,650078316820,egypt
1,29483,,,10.65.49.121:4097,558706,47,45AB51CA4532,israel
1,31008,GA,Byron,10.8.118.111:5501,534729,60,998072676515,peru
1,08234,NJ,Na,100.89.221.59:1234,559243,12,650073963204,israel
1,08234,NJ,na,100.89.221.67:1234,559291,12,650073875051,israel
1,08234,NJ, na,100.89.221.85:1234,559449,12,650073875226,israel
1,84047,UT,Midvale,10.66.70.201:4097,555501,47,4135849EAA33,egypt
1,39501,,,10.66.58.146:4097,560164,47,4135849EB50F,israel
1,77389,TX,Spring,100.83.13.0:1234,560478,31,650078577686,israel
1,90274,CA,Palos Verdes,70.175.149.144:7555,498119,89,5421607011FE,ghana
1,81004,,,10.66.71.121:4097,561233,47,4135849DBE12,ghana
1,21060,MD,Glen Burnie,10.8.115.181:5501,509754,60,998072365374,germany
1,08234,NJ,na,100.88.39.151:1234,561262,12,636096640600,egypt
1,NA,VA,NA,100.83.252.85:1234,561279,12,152100264065,egypt
1,08234,NJ,na,100.88.35.175:1234,561287,12,636096657935,egypt
1,NA,VA,NA,100.88.34.0:1234,561376,12,636096587132,egypt
1,70343,,,10.66.121.40:4097,561666,47,4135849E2A4A,germany
1,70517,LA,Breaux Bridge,100.83.229.173:1234,561755,60,152100264438,egypt
1,70817,,,10.66.119.142:4097,561941,47,4135849E23AF,peru
1,00698,PR,Yauco,10.65.149.127:1234,562456,60,307000171084,israel
1,08234,NJ,na,100.88.30.52:1234,562840,12,636096652308,egypt
1,84321,,,10.66.70.145:4097,563191,47,4135849EB8E5,egypt
1,31730,GA,Camilla,100.83.239.63:1234,563736,60,152100340543,egypt
1,89156,NV,Las Vegas,100.83.249.251:1234,564010,75,636099078857,israel
1,12550,NY,Newburgh,100.83.239.182:1234,564043,60,636096118755,egypt
1,08234,NJ,na,100.88.48.235:1234,564327,12,152101424320,israel
1,08234,NJ,na,100.88.44.121:1234,564482,12,152101473145,egypt
1,08234,NJ,na,100.88.44.193:1234,564494,12,152101472840,israel
1,08234,NJ,na,100.88.55.213:1234,564549,12,636096856743,egypt
1,08234,NJ,na,100.88.48.119:1234,564562,12,152102072995,israel
1,NA,VA,NA,100.88.43.204:1234,564590,12,152101487426,israel
1,08234,NJ,na,100.88.58.47:1234,564743,12,636096879042,israel
1,08234,NJ,na,100.88.55.204:1234,564784,12,636096878291,israel
1,08234,NJ,na,100.88.58.226:1234,564792,12,636096856644,israel
1,84116,,,10.65.221.207:4097,565143,47,4135849830F3,peru
1,29360,,,10.65.61.168:4097,522832,47,44BA1A120730,peru
1,39652,MS,Magnolia,100.83.246.90:1234,565545,60,152100348314,egypt
1,00745,PR,Rio Grande,10.65.160.25:1234,565576,60,307000172942,egypt
1,84066,,,10.65.89.56:4097,565911,47,44BA1A1F0885,egypt
1,91710,CA,Chino,100.83.183.130:5500,566077,60,00003E4C7C0C,ghana
1,70818,LA,Baton Rouge,100.83.244.119:1234,566364,60,152100343059,egypt
1,20772,MD,UPPER MARLBORO,100.88.109.227:1234,566425,75,636096985104,egypt
1,60647,IL,CHICAGO,100.83.87.94:5501,566825,136,998072726542,ghana
1,07006,NJ,North Caldwell,100.83.95.82:5501,566896,31,998072473798,israel
1,06120,CT,Hartford ,100.88.107.75:1234,567431,20,636096943111,israel
1,08234,NJ,na,100.88.62.133:1234,567607,12,636096863749,egypt
1,na,NJ,08234,100.88.69.187:1234,567683,12,636096847965,israel
1,NA,VA,NA,100.88.69.132:1234,567771,12,636096847783,israel
1,08234,NJ,na,100.88.69.97:1234,567776,12,636096847676,egypt
1,08234,NJ,na,100.88.69.114:1234,567789,12,636096847767,egypt
1,08234,NJ,na,100.88.69.101:1234,562842,12,636096847650,egypt
1,08234,NJ,na,100.88.60.23:1234,561453,12,636096847585,israel
1,NA,NJ,NA,100.88.60.75:1234,567845,12,636096847593,israel
1,NA,VA,NA,100.88.54.100:1234,567996,12,636096876410,israel
1,08234,NJ,na,100.88.17.173:1234,568005,12,636096845852,egypt
1,08234,NJ,na,100.88.54.27:1234,568018,12,636096876683,egypt
1,78660,TX,Pflugerville,100.83.230.184:1234,568660,60,152100358636,egypt
1,85375,,,10.65.51.135:4097,569000,47,41358496A3FB,peru
1,06606,CT,Bridgeport,100.83.96.145:5501,569174,60,998071715264,ghana
1,00669,PR,Lares,10.65.158.228:1234,569351,60,307000169492,egypt
1,78412,TX,Corpus Christi,10.64.139.1:1234,570216,189,335052352983,israel
1,06351,CT,Griswold,10.8.3.195:5501,438368,60,998072426788,egypt
1,85351,,,10.66.126.111:4097,570324,47,4135849EF001,peru
1,95210,CA,Stockton,100.83.149.56:5501,570655,60,998071561197,ghana
1,85375,,,10.66.126.164:4097,570662,47,4135849E29DF,peru
1,02459,MA,NEWTON,100.83.95.193:5501,420344,60,998071753273,ghana
1,72116,AR,North Little Rock,100.88.128.24:1234,570967,60,152101510151,egypt
1,36343,AL,Gordon,100.83.150.62:5501,571152,60,998071480760,egypt
1,85374,,,10.66.1.62:4097,571218,47,4135849A8312,peru
1,32808,FL,Orlando,100.83.86.78:5500,571471,60,998073047799,egypt
1,27803,,,10.66.79.143:4097,571652,47,4135849E4CA5,germany
1,28301,,,10.66.44.193:4097,572159,47,4135849ED2F8,egypt
1,28301,,,10.66.44.166:4097,572191,47,4135849EE624,israel
1,28301,,,10.66.42.19:4097,572211,47,4135849A5F14,egypt
1,28314,,,10.66.41.224:4097,572237,47,4135849ED562,israel
1,28352,,,10.66.52.42:4097,572307,47,4135849B3352,israel
1,28352,,,10.66.51.100:4097,572347,47,4135849B4B1B,israel
1,28348,,,10.66.51.156:4097,572439,47,4135849C574B,peru
1,28334,NC,Dunn,10.66.67.145:4097,572645,47,4135849D616D,egypt
1,83263,,,10.66.43.119:4097,573477,47,4135849E8424,israel
1,90062,CA,Los Angeles,10.20.24.102:5500,573810,60,524042977448,ghana
1,29440,SC,Georgetown,10.64.207.248:1234,573968,14,335052465041,egypt
1,84104,,,10.66.79.127:4097,574103,47,4135849B41E3,israel
1,84403,UT,Ogden,10.65.247.242:4097,574119,47,4135849AB935,ghana
1,84404,UT,Ogden,10.66.176.175:4097,574173,47,4135849A98FB,egypt
0,t0m 1l0,AB,Madden,10.64.112.91:5501,492017,135,580050970660,israel
1,56338,MN,Hillman,100.88.191.214:1234,575017,60,152105309048,israel
1,67460,KS,mcpherson,24.255.196.153:9094,575035,47,54216001BF3C,angola
1,28269,NC,Charlotte ,100.88.57.83:5501,484628,60,998073258404,egypt
1,39204,MS,Jackson,10.66.53.14:4097,490267,47,413584A02C90,israel
1,06010,CT,Bristol,100.88.55.139:5501,436919,60,998073411144,egypt
1,06708,CT,Waterbury ,100.83.97.113:5500,575364,60,998073381024,israel
1,84302,UT,Brigham City,10.66.56.231:4097,575549,47,4135849F34F6,peru
1,28311,NC,Fayetteville,10.64.178.247:4097,575693,47,44BA1A1318DD,peru
1,30296,GA,Riverdale,100.83.233.114:1234,527385,75,636099931014,israel
1,21215,MD,Baltimore,100.88.129.166:5501,469037,60,998073276315,ghana
1,01880,MA,Wakefield,72.74.53.219:43862,575985,31,000000564131,cuba
1,74733,OK,COLBERT,100.88.192.206:1234,557002,19,152105308040,egypt
1,28314,NC,Fayetteville,10.66.43.148:4097,576265,47,4135849B5044,germany
2,2093,NSW,Balgowlah Heights,10.65.129.191:1234,507880,121,000001041089,orange,12
2,2213,NSW,Panania,10.65.135.109:1234,507906,121,000001041090,dubbo,12
2,2170,NSW,Sydney,10.64.124.80:1234,507996,121,000000854058,dubbo,12
2,3338,VIC,Melton South,10.66.223.173:1234,542370,122,372081138105,dubbo,8
292,38471,Kalmar,TIMMERNABBEN,81.229.127.107:1234,464676,13,000001151110,poland,12
292,82194,Gavleborg,,10.65.131.217:1234,464829,17,000001086240,poland,12
28,2640,,Mortsel,94.104.95.34:1234,464662,16,000000623336,austria,12
