1,48141,MI,Inkster,10.20.35.61:5500,420234,60,524043326710,ghana
1,32080,FL,SAINT AUGUSTINE,10.20.33.100:5500,420798,60,524043310078,egypt
1,92821,CA,Brea,10.20.32.172:5500,421051,60,524043323733,ghana
1,89131,NV,Las Vegas,10.20.42.242:5501,422369,60,524043347435,peru
1,21237,MD,BALTIMORE,10.20.32.224:5500,421384,60,524043318295,ghana
1,92880,CA,Corona,10.20.43.71:5500,421525,60,524043341636,israel
1,35634,AL,FLORENCE,10.20.31.137:5500,422068,60,524043344234,germany
0,L6M3Y9,ON,Oakville,104.158.11.151:9194,422876,43,542160100A61,ghana
1,35554,AL,Eldridge,10.20.47.107:5500,423010,32,524043498295,germany
1,35555,AL,Fayette,10.20.47.68:5500,423858,32,524043476820,germany
1,32776,FL,Sorrento,10.20.33.208:5500,424312,60,524043313403,germany
1,39042,MS,Brandon,10.20.48.95:5501,431458,60,580050083647,israel
1,90717,CA,Lomita,100.83.183.28:5501,427870,10,000042F3FAD0,ghana
0,L7T3P6,ON,Burlington,65.95.156.91:9071,425378,43,542160101044,ghana
1,91977,CA,SPRING VALLEY,100.83.140.193:5500,426368,60,000042F6207C,ghana
0,T3M2B2,AB,Calgary,68.144.97.216:9061,433072,43,542160102B24,wales
0,L5E2M6,ON,Mississauga,99.246.88.62:9222,430540,43,5421601027CF,wales
1,08527,NJ,Jackson,10.20.47.157:5501,428028,60,524043487157,egypt
0,L0R1H2,ON,Carlisle,24.141.188.58,428252,43,542160101CDB,ghana
1,01602,MA,Worchester,10.20.28.164:5500,428640,60,524043360339,egypt
1,48420,MI,Clio,100.83.181.149:5500,428738,60,000042F3FE35,israel
1,92545,CA,Hemet,100.83.198.91:5500,431546,10,00003E4C6C84,egypt
1,39339,1,LOUISIANA,100.83.148.35:5501,429858,60,000042F3FC91,egypt
1,36507,AL,Bay Minette,10.20.47.131:5501,429838,32,580050106687,ghana
0,M6C1S7,ON,Toronto,10.20.57.54:5501,429960,43,580050107958,israel
1,90631,CA,LA HABRA,10.20.48.239:5501,430642,60,580050103916,ghana
1,75043,TX,Garland,10.20.49.82:5500,432240,60,580050105879,germany
1,30157,1,Dallas,100.83.224.89:5501,432508,60,000049998769,egypt
0,M2J 4V6,ON,Toronto,10.20.46.245:9010,433694,43,542160102702,ghana
1,27707,NC,Durham,100.83.215.38:5501,434613,60,0000499992E3,ghana
1,60620,IL,Chicago,100.83.187.145:5500,435181,60,000049A1AE19,israel
0,T3H 3G4,AB,Calgary,68.146.199.39:9585,435511,43,5421601035B0,cuba
0,L5C 3Y8,ON,Mississauga,64.229.46.1:9084,435877,43,54216010324A,peru
1,90066,CA,Los Angeles,100.83.223.37:5501,435966,60,000049A1955A,ghana
1,92832,CA,Fullerton,100.88.30.69:5500,436384,6,00003E4BA3F9,israel
1,06084,CT,Tolland,100.83.222.61:5501,436739,60,0000499983E5,egypt
1,35611,AL,Athens,100.83.183.87:5501,437003,60,000049997E97,ghana
1,60651,IL,Chicago ,100.83.173.122:5501,437026,60,00004999B27A,ghana
1,19713,1,Newark,100.88.31.9:5501,437310,31,000049A1D8A9,ghana
0,T6J 0X4,AB,Edmonton,10.20.60.44:9274,437320,43,5421601034CE,ghana
0,T3H 5T9,AB,Calgary,24.66.146.98:9092,437352,43,54216010341A,ghana
0,H1S0A6,QC,Montreal,76.67.171.185:9086,437924,43,542160103356,angola
1,45417,OH,DAYTON,100.83.179.11:5501,438776,60,00003E4C0593,israel
1,34653,FL,New port richey,100.83.174.196:5501,439486,60,000049A19717,israel
1,32312,FL,Tallahassee,100.83.185.125:5501,439512,60,000049997878,israel
0,M6E4W2,ON,Toronto,108.168.60.169:9571,439988,43,542160103BA8,angola
112,110092,ND,New Delhi,10.20.56.44:9003,441065,39,542160103C03,peru
0,T2J 0L9,AB,Calgary,24.64.107.142:9217,441115,43,5421601039D9,ghana
1,31906,GA,Columbus,100.88.36.227:5501,441204,79,00004999AFA3,egypt
1,08724,NJ,Brick,73.199.129.225:9252,441284,56,5421601039FC,cuba
1,34474,FL,Ocala,100.83.225.74:5501,441532,60,0000499979B3,ghana
1,34683,FL,Palm harbor,100.83.192.227:5501,441595,60,000049995DE1,israel
1,31906,GA,Columbus,100.88.36.25:5500,441771,79,000049A1C8A1,israel
1,33844,FL,Haines City,100.83.192.87:5500,442352,60,00003E4C872E,israel
1,27302,NC,Mebane,100.83.193.105:5501,442459,60,00004999AB4A,ghana
1,30032,GA,Decatur ,10.20.24.96:5500,442767,60,524042985599,egypt
0,L9K 1K7,ON,Ancaster,24.141.116.169:9137,442798,43,54216010461F,angola
1,93619,CA,Clovis,100.88.30.49:5500,443247,6,00003E4C6929,ghana
0,V6S 2B9,BC,Vancouver,24.85.242.170:9485,443618,43,5421601040FE,peru
1,34601,FL,Brooksville ,100.83.150.98:5501,443920,60,000049A1C02F,israel
112,110058,,New Delhi,182.64.29.162:9141,444529,39,542160102B8C,ghana
112,122003,,Delhi,14.140.207.98:51616,444800,39,5421601013FD,ghana
1,90640,CA,Gardena,100.83.227.131:5501,444804,10,000049A1CD54,israel
0,L4H3X4,ON,Kleinburg,64.228.139.57:9065,444978,43,54216010412D,peru
1,90670,CA,Santa Fe Springs,100.83.173.146:5501,445050,10,00003E4BEA6F,israel
1,36830,AL,Auburn,100.88.36.106:5500,445360,79,000049A1D3FB,egypt
1,84004,UT,NA,10.20.25.132:5500,419418,1,524042979238,egypt
0,M4N1Z4,ON,TORONTO,99.240.194.91:9363,445592,89,542160104AEE,peru
1,27605,NC,Raleigh,100.88.37.125:5501,445693,6,000049998F25,ghana
112,110085,,New Delhi,45.120.126.26:26726,446124,39,542160104455,ghana
1,89178,NV,Las Vegas,100.83.177.11:5501,446349,10,00004999A3A1,ghana
1,91106,CA,Pasadena,100.83.149.216:5501,446401,10,00003E4C2A2D,egypt
1,06901,CT,Stamford,173.220.217.250,446728,56,542160104023,angola
1,30318,GA,Atlanta,100.88.36.15:5501,446735,10,000049A1B0E8,ghana
1,48150,MI,Livonia,100.83.226.238:5501,446936,60,000049A1BF94,egypt
0,L9N 1L7,ON,Holland Landing,24.212.177.19:9173,447475,43,542160104D34,cuba
112,110005,112,New Delhi,10.20.52.67:9040,448231,39,54216010450E,ghana
1,90405,CA,Santa Monica,100.83.210.243:5501,448512,10,000049A1B18E,ghana
1,91741,CA,Glendora,100.83.168.173:5500,448553,10,000051D12A43,israel
1,91607,CA,Valley Village,100.83.227.188:5501,448714,60,00003E4BF3EA,egypt
1,93455,SC,Anderson,100.83.153.236:5501,449059,60,00004D8B0F66,israel
1,36608,AL,Mobile,100.88.103.64:5500,449230,32,00004D95FF6C,ghana
1,32776,FL,Sorrento,100.83.153.127:5501,449953,60,00004D9550BA,egypt
1,77541,TX,FREEPORT,100.83.152.182:5501,449992,60,00004D95F8FD,ghana
1,33594,FL,Valrico,100.83.154.113:5501,450362,60,00004D956072,ghana
0,T8A 6A9,AB,Sherwood Park,50.65.84.207:10581,450392,43,542160104C81,peru
1,11220,NY,Brooklyn,100.83.167.151:5501,450650,60,000051D0DDB0,egypt
1,33594,FL,Valrico,100.83.153.218:5501,450821,60,00004D82EDFA,egypt
1,71001,LA,Arcadia,100.83.221.65:5501,451124,60,00004D95529B,egypt
0,L4K5J7,ON,Vaughan,99.247.125.187:9144,451195,43,542160104C65,angola
1,33594,FL,Valrico,100.83.213.175:5500,451360,60,0000499974D6,egypt
1,92394,CA,Victorville,100.83.169.192:5500,452092,60,000051D0DAB2,ghana
0,L3Y 8P7,ON,Newmarket,72.140.137.154:9067,452460,43,542160105332,angola
1,10579,NY,Putnam Valley,100.83.141.213:5501,452753,60,000051CD79FA,ghana
1,23666,1,Hampton,100.88.95.97:5501,452783,56,000051CD7343,ghana
1,35218,AL,Birmingham ,100.83.171.134:5500,452841,60,000051CD9696,israel
1,90712,CA,Lakewood,100.83.216.192:5501,452844,10,000051D13773,ghana
1,45744,OH,Lowell,100.83.140.102:5501,452961,60,00004D955B61,ghana
1,93304,CA,Bakersfield,100.83.170.91:5501,453167,60,000051CD8282,egypt
0,R0A1E0,MB,Niverville,142.160.74.182:9180,453188,43,5421601053A2,ghana
1,92543,CA,Hemet,100.83.184.113:5501,454427,60,000049999751,egypt
1,90255,CA,Huntington Park,100.83.199.93:5501,454592,60,00004D9D2A84,egypt
1,39735,MS,ACKERMAN,100.83.153.108:5500,454931,60,00004D82F056,ghana
1,76123,57,Fort Worth,100.88.111.65:49412,455304,47,000051D4E94F,israel
1,95833,CA,Sacramento,100.88.103.37:5500,455494,18,00004D955D10,egypt
0,R3J3A3,MB,Winnipeg,24.77.32.125:9123,455865,43,542160105E08,ghana
1,76002,TX,Arlington,100.88.65.187:49599,455887,47,000047AE1291,egypt
1,31906,GA,Columbus,100.88.30.37:5500,456587,79,00003E4C7270,egypt
1,38676,MS,Tunica,100.88.135.139:49541,456616,47,000047A5962A,germany
0,L6H7K7,ON,Oakville,24.150.192.150:9103,456703,43,542160105D67,ghana
1,39180,MS,VICKSBURG,100.83.212.165:5501,456749,60,000049A1F236,ghana
1,92345,CA,Hesperia,100.83.170.111:5501,456813,60,00004D853F61,egypt
1,36581,AL,SUNFLOWER,100.83.146.195:5501,456906,60,000051D0E6C1,ghana
1,64151,MO,KANSAS CITY,100.83.167.183:5501,457058,60,00004D82F58F,israel
1,36608,1,Mobile,67.177.71.210:9877,457069,19,5421601062CC,cuba
1,02136,MA,Hyde park,100.83.177.111:5500,457100,60,00004D9B5AB8,israel
1,12863,NY,ROCK CITY FALLS,100.83.169.184:5501,457136,60,000051D0F784,egypt
1,76039,57,Euless,100.88.141.42:50488,457212,47,000051D4109F,egypt
1,37073,TN,Greenbrier,100.83.225.145:5500,457382,60,00004999B5E2,israel
1,38635,MS,HOLLY SPRINGS,10.20.77.117:5501,458480,60,580050660808,israel
1,95307,CA,Ceres,100.83.227.120:5501,458706,60,00004D9D4082,ghana
1,75224,TX,Dallas,100.88.190.159:52342,459620,47,000051D40DA2,germany
1,33873,FL,WAUCHULA,100.83.165.94:5501,460336,60,00004D955BCA,ghana
1,13450,NY,Saint Johnsville,100.83.200.160:5501,460519,60,00004D9D1F5D,israel
1,71351,LA,Marksville,100.83.193.237:5501,460914,60,000051D120B1,israel
0,M1E3G4,ON,Scarborough,10.20.74.187:9174,460984,43,542160105DA5,peru
0,L7E 0J6,ON,Caledon,69.17.176.133:9181,444552,43,54216010432A,angola
1,38654,MS,OLIVE BRANCH,100.83.142.80:5501,461747,60,000051D9EB96,egypt
0,T8H1N3,AB,Sherwood Park,75.158.38.60:9002,462254,43,542160106202,wales
1,31021,GA,Dublin,100.83.186.225:5501,462417,60,000051D34783,egypt
1,71001,LA,Arcadia,100.83.146.120:5500,462463,60,000051E4B17A,egypt
1,76179,57,Fort Worth,100.88.180.53:50213,462499,47,000051D89CC3,egypt
1,95832,CA,Sacramento,100.88.37.59:5500,462522,56,0000499999C8,egypt
1,91436,CA,ENCINO,100.88.133.131:5501,461030,18,000051CD919F,egypt
0,K1S0R8,ON,Ottawa,64.229.94.211:9881,445238,43,542160104044,angola
1,30213,GA,ATLANTA,100.88.206.140:51399,463562,75,000047AF8BAD,germany
1,29554,SC,Hemingway,100.83.215.123:5501,463702,60,000051E4AECA,israel
1,70722,LA,CLINTON,100.83.140.230:5501,463780,60,000051D379B3,egypt
1,31088,GA,Warner Radins,100.83.188.225:5500,463963,60,000051D34781,egypt
1,75052,57,Grand Prairie,100.88.192.44:53992,464101,47,000051D87DA3,germany
1,27608,NC,Raleigh,100.88.15.146:5501,464182,6,00004999A217,egypt
1,70647,LA,Iowa,100.83.202.242:5501,464740,60,000051E4A5F0,israel
1,78617,TX,Del Valle,100.88.188.105:53281,464880,47,B8B7D7001713,israel
112,110018,ND,New Delhi,10.20.74.192:9195,465286,39,542160105637,ghana
1,48223,MI,Detroit ,100.83.187.69:5501,465318,60,000051D36187,egypt
1,28358,NC,Lumberton,100.83.158.92:5501,465919,60,000051E4A05C,ghana
1,30213,GA,Fairburn,100.83.142.64:5501,466773,60,000051CD86CB,ghana
1,39338,MS,LOUIN,100.83.152.142:5500,466940,60,00004D853F84,israel
1,38635,MS,HOLLY SPRINGS,100.83.227.80:5501,467055,60,000051D9F9BF,israel
1,01104,MA,Springfield,10.20.44.191:5500,467159,60,524043348110,peru
1,30097,GA,JOHN CREEK,100.88.229.73:50451,467235,75,000051DCCDFF,israel
1,63049,MO,HIGH RIDGE,100.83.212.241:5501,467259,60,000051E46C42,ghana
1,84088,UT,West Jordan,76.8.215.50:62446,518383,1,000000499012,germany
1,30028,GA,Cumming,100.88.194.149:50553,467688,75,000047AF8556,egypt
1,44883,OH,Tiffin,100.88.221.17:5501,467699,106,000051E49DED,egypt
1,29554,SC,Hemingway,100.83.186.105:5501,468668,60,000051D9A116,ghana
112,110034,,New Delhi,122.161.204.184:9201,451480,39,54216010166A,angola
1,30017,GA,GRAYSON,100.89.22.13:50586,468955,75,000051DE0F6E,egypt
1,91732,CA,El Monte,100.83.203.150:5501,469299,60,000051E4E296,ghana
1,30213,GA,FAIRBURN,100.88.229.37:54321,469695,75,000051DCC9D0,israel
1,86426,AZ,Fort Mohave,100.83.186.231:5501,469899,60,000051D98786,israel
1,85614,AZ,Green Valley,100.83.157.221:5501,470035,60,000051CD9B44,israel
1,39663,MS,Silver Creek,100.83.162.228:5501,470175,60,000051D9A968,ghana
1,32024,FL,Lake city ,100.83.199.105:5501,470394,60,00004D9D2A87,ghana
1,32025,FL,LAKE CITY,100.83.217.108:5501,470606,60,000051E5A779,israel
1,31030,1,Fort Valley,100.88.220.57:5501,470609,56,000051E4E292,israel
1,35474,AL,MOUNDVILLE,100.83.208.138:5501,470937,60,000051E4B8CB,ghana
1,32219,FL,Jacksonville ,100.83.178.43:5500,471372,60,000051E59F56,egypt
1,35079,AL,HAYDEN,100.83.226.220:5501,471373,60,000051E4A60A,ghana
1,35010,AL,ALEXANDER CITY,100.83.208.84:5501,471456,60,000051E493E6,egypt
1,39648,MS,MC COMB,10.64.5.250:5501,471576,60,580050874102,peru
1,75692,TX,Waskom,100.83.208.40:5501,471599,60,000051E4B26B,egypt
1,92405,CA,San Bernardino,100.83.187.236:5501,471642,60,000051D347C1,ghana
1,33909,FL,Cape Coral ,100.83.227.232:5501,471960,60,000051E4DCED,israel
1,33162,FL,North Miami Beach,100.83.206.55:5500,452382,60,000051E48940,ghana
1,93727,CA,Fresno,100.83.162.209:5501,472032,60,000051D9A5E2,ghana
1,27983,NC,Windsor,100.83.209.229:5501,472142,60,000051E4B535,ghana
1,06067,CT,Rocky Hill,100.83.159.18:5501,472670,60,000051E5C790,ghana
1,85374,AZ,Surprise,100.83.203.41:5501,472755,60,000051E5AF79,israel
1,95822,CA,Sacramento,100.83.164.19:5501,472791,60,000051D35299,egypt
1,29841,SC,N. Augusta,100.83.212.166:5501,472969,60,000051E4A81F,ghana
1,36401,AL,EVERGREEN,100.83.225.62:5500,473015,60,000051E4BCE3,israel
1,94565,CA,Pittsburg,100.89.6.91:50907,473094,60,000051DC700E,egypt
1,94565,CA,Pittsburg,100.83.156.246:5501,473167,60,000051D9F527,egypt
0,T2Y 0E3,AB,Calgary,70.77.24.31:9352,473584,43,542160107ADA,ghana
1,90805,CA,Long Beach,100.83.157.20:5500,473843,60,000051E5B288,egypt
1,38141,TN,Memphis,100.88.4.72:5500,473870,47,00003E4BB6D8,ghana
0,L4W 5M5,ON,Mississauga,70.52.230.141:9057,474039,43,542160107F35,angola
1,30461,GA,Statesboro,100.83.159.15:5501,474146,60,000051E5B749,ghana
1,30263,GA,NEWNAN,100.88.229.69:49172,474560,75,000051DCD0A1,israel
1,95691,CA,West Sacramento,100.83.160.178:5501,474608,60,000051E5A559,ghana
1,95816,CA,N Sacramento,100.83.223.186:5501,474708,60,000051D382FE,ghana
1,30213,GA,FAIRBURN,100.88.229.76:50360,474772,75,000051DCCE04,israel
1,75241,57,Dallas,100.88.196.87:50102,474884,47,000047AFB3FD,egypt
1,72601,AR,Harrison,100.83.204.116:5500,474905,60,000051E47E29,israel
1,90403,CA,Santa Monica,100.83.217.168:5500,475609,60,00004D9D3FBC,israel
1,30058,GA,LITHONIA,100.89.19.86:50339,475997,75,000051DCE5F4,egypt
0,L1P0B7,ON,Whitby,99.232.41.93:9652,476080,43,542160107EFD,cuba
0,K1G 1P7,ON,Ottawa,70.31.50.182:9209,475944,43,542160107FA4,cuba
1,90746,CA,Carson,100.83.206.44:5501,476199,60,000051E5AD86,egypt
1,31826,GA,Shiloh,100.83.207.222:5501,476246,60,000051E5B2A8,israel
1,96002,CA,Redding,100.83.208.168:5501,476410,60,000051E589ED,israel
1,96019,CA,Shasta Lake,100.83.206.204:5500,476505,60,000051E58F00,ghana
1,39183,MS,VICKSBURG,100.83.205.252:5501,476621,60,000051E5CEC5,ghana
2,2769,NSW,The Ponds,124.169.57.40:9194,476198,67,542160103983,ghana
1,06033,CT,GLASTONBURY,10.20.24.186:5501,477085,56,524042985078,egypt
1,32081,FL,PONTE VEDRA,10.20.16.49:5500,477092,56,524042222100,peru
1,33510,FL,BRANDON,10.20.29.113:5500,477340,56,524043352815,germany
1,33543,FL,WESLEY CHAPEL,10.20.23.236:5500,477363,56,524042995721,germany
1,34202,FL,LAKEWOOD RANCH,10.20.20.38:5501,477446,56,524042248766,germany
1,08609,NJ,Trenton,100.88.220.230:9435,477557,54,542160105288,israel
1,70601,LA,LAKE CHARLES,10.20.75.239:5501,478373,56,580050667514,peru
1,01077,MA,Southwick,100.83.206.87:5501,478398,60,000051E5901D,israel
1,32218,FL,Jacksonville,100.83.161.69:5501,478685,60,000051E5C3E3,egypt
1,00656,PR,GUAYANILLA,10.64.5.46:5501,478701,60,580050931431,germany
0,L1P1N6,ON,Whitby,99.232.46.199:9411,479074,43,5421601083BF,wales
0,M1P0A4,ON,Scarborough,99.227.12.138:9129,479677,43,542160108428,angola
1,30349,GA,College park,100.83.159.102:5501,479950,60,000051E5BF4A,egypt
0,L2E 3X8,ON,Niagara Falls,173.238.205.196:9153,480176,43,542160108694,cuba
1,02302,MA,Brockton,10.8.89.115:5501,480907,60,998070124518,ghana
1,39501,MS,Gulfport,100.83.206.106:5501,481142,60,000051E591DB,ghana
1,84078,UT,Vernal,10.64.18.41:1234,481396,60,518005036120,israel
0,M1W 2E3,ON,Scarborough,192.235.247.178:9087,481596,43,542160108634,wales
0,M1L4H3,ON,Scarborough,174.91.112.77:9172,482022,43,542160108680,angola
1,81611,CO,ASPEN,100.88.103.240:10651,482071,56,54216010086A,egypt
1,95319,CA,Empire,10.64.115.36:5501,482158,60,580050963483,germany
1,95357,CA,Modesto,10.64.114.21:5501,482285,60,580051044549,egypt
0,M4N1W2,ON,Toronto,69.159.11.190:9108,482358,43,54216010876C,peru
1,95758,CA,Elk Grove ,10.64.114.243:5500,480493,60,580050851670,egypt
1,00767,PR,Yabucoa,10.64.115.58:5501,482827,60,580050896816,germany
1,39466,MS,Picayune,100.88.4.138:5500,483306,47,00003E4C29BB,egypt
2,2590,NSW,Cootamundra,10.64.15.224:1234,483343,104,372080057355,egypt
112,110018,ND,New Delhi,139.5.252.136:10503,483583,39,5421601057A8,angola
1,10977,NY,Chestnut Ridge,10.64.137.181:5501,484479,60,580050952916,israel
1,38701,MS,Greenville,10.8.90.63:5501,484519,60,998070168259,peru
1,30106,GA,AUSTELL,100.88.194.35:50321,484573,75,000047AF8958,egypt
1,77494,TX,KATY,10.64.113.35:5501,484634,60,580050933023,peru
1,92253,CA,La Quinta,10.8.89.209:5501,484108,60,998070128592,germany
1,23148,VA,St Stephens Church,10.64.4.176:5501,484807,60,580050955802,germany
1,23663,1,Hampton,100.88.4.61:5501,484882,56,00003E4BD880,egypt
1,92410,CA,San Bernardino,10.64.133.251:5501,484989,60,580051041222,peru
1,01772,MA,Southburogh,10.64.111.254:5500,485097,60,580050957998,egypt
1,23704,VA,Portsmouth,10.8.90.235:5501,485102,60,998070403763,germany
1,39111,MS,MAGEE,10.8.90.65:5501,485210,60,998070153418,ghana
1,32340,FL,Madison,10.8.90.104:5501,485531,60,998070204773,germany
0,L1N1V8,ON,Whitby,50.100.201.230:9049,485589,43,542160108E21,cuba
1,39120,MS,Natchez,100.89.60.21:5501,485611,47,998070109352,ghana
292,13665,Stockholm,Arsta,83.145.48.130:1234,485632,90,000000559031,ghana
1,75691,TX,Tatum,10.8.91.200:5501,485723,60,998070407913,egypt
1,35151,AL,SYLACAUGA,100.83.225.170:5501,485779,60,000051E49F21,israel
1,39204,MS,Jackson,100.89.56.110:49156,486426,60,000051F20875,egypt
1,97346,OR,GATES,100.83.169.253:5501,486633,60,00004D952281,israel
0,K2M 0B4,ON,Kanata,72.137.122.39:9260,486933,43,542160108FEC,wales
1,11234,NY,Brooklyn,10.64.5.13:5501,487324,60,580050963491,peru
1,92154,CA,San Diego,10.64.149.16:5501,487764,60,580052925035,egypt
1,39705,MS,Columbus,100.83.207.196:5501,487825,60,000051E4AC3D,ghana
1,30052,GA,LOGANVILLE,100.88.200.216:49928,488261,75,000047AFAE29,israel
1,34606,FL,Spring Hill,10.64.82.20:5501,488283,60,580050881909,peru
0,L7L 7B6,ON,Burlington,74.12.40.49:9104,488308,43,542160108F66,wales
1,38966,MS,WEBB,10.8.90.27:5501,488417,60,998070155371,egypt
1,71040,LA,Homer,10.64.134.172:5500,488244,60,580050839683,peru
0,L6M 0V7,ON,Oakville,184.147.156.168:9189,488458,43,5421601098A3,wales
1,92562,CA,MURRIETTA,100.89.111.11:5501,486486,89,998070406733,israel
1,35613,AL,ATHENS,100.83.197.226:5501,489031,60,00004D9B46D8,egypt
0,M4V 1Y3,ON,Toronto,142.112.159.226:9219,488843,43,5421601098A4,cuba
1,98370,WA,POULSBO,100.88.30.233:10380,489127,18,5421601072C9,egypt
1,94544,CA,Hayward,10.64.149.114:5500,489231,60,580052924798,ghana
1,77357,TX,NEW CANEY ,10.8.89.230:5501,489980,60,998070138435,ghana
1,38401,TN,COLUMBIA,100.89.23.232:49784,487983,20,000051F2A8F6,israel
1,84104,UT,Salt Lake,100.89.26.104:49289,491216,60,000051F2AE52,israel
0,R3G 3E4,MB,WINNIPEG,50.71.52.182:5348,491180,43,54216070080A,peru
0,V0J3A3,BC,Cluculz Lake,10.64.113.157:5500,491717,88,580050963319,germany
1,30093,GA,NORCROSS,100.89.48.0:51903,491983,75,000051F2A7E8,israel
1,63966,MO,Wappapello,10.64.213.34:5501,492061,60,580051041438,germany
1,02892,RI,Richmond,10.64.134.237:5500,492401,60,580051034342,egypt
1,32773,FL,Sanford,10.8.90.121:5501,492429,60,998070170941,egypt
0,K0H 1T0,ON,Godfrey,45.78.121.0:10990,492600,43,542160109D8A,peru
1,34472,FL,OCALA,10.64.136.148:5501,492617,60,580050910963,egypt
1,93292,CA,Visalia,100.83.139.198:5501,492638,60,000042F62543,israel
1,75070,57,McKinney,100.88.198.68:49570,492660,47,000047AF9013,egypt
1,12061,NY,East Greenbush,10.8.92.129:5501,492738,60,998070402880,egypt
1,84401,57,Ogden,100.89.34.251:49362,492801,47,000051DE2337,israel
1,28530,NC,GRIFTON,10.64.210.198:5501,492995,60,580052928765,egypt
1,92241,CA,Desert Hot Springs,10.64.213.210:5501,493259,60,580052941842,ghana
1,38611,MS,BYHALIA,10.8.94.37:5501,459629,60,998070458585,egypt
1,39355,MS,QUITMAN,10.64.4.147:5501,493610,60,580050971759,israel
1,84096,57,Herriman,100.89.35.39:49613,493866,47,000051DE0DD8,israel
1,63901,MO,Poplar Bluff,10.64.212.178:5500,494025,60,580052900368,egypt
1,30213,GA,Fairburn,100.89.10.2:49379,494134,56,000051DC9525,egypt
1,29118,SC,Orangeburg,100.89.25.132:53093,494471,47,000051F2ACD2,egypt
0,T2A4B9,AB,Calgary,68.145.65.39:9279,494604,43,542160109E69,cuba
1,32703,FL,Apopka ,10.64.146.143:5501,494657,60,580050918495,israel
1,06051,CT,New Britain,100.89.131.109:5501,494826,31,998070535689,ghana
0,M5A 2H9,ON,Toronto,174.119.109.117:9779,495164,43,54216010A1F1,cuba
0,R5G 0S7,MB,Steinbach,10.64.30.58:1234,495434,112,000000567218,egypt
1,07106,NJ,Newark,100.89.129.86:9243,495486,31,542160109ED1,peru
1,71251,LA,Jonesboro,10.64.213.153:5501,495590,60,580050911938,israel
1,92284,CA,Yucca Valley,10.64.211.188:5501,495756,60,580053012304,ghana
1,01247,MA,Florida,10.64.212.197:5501,495811,60,580051046072,germany
1,39090,MS,Kosciusko,10.64.214.151:5501,496298,60,580053025215,peru
1,90232,CA,CULVER CITY,208.57.51.130:65092,496460,56,542160E00580,cuba
1,70611,LA,LAKE CHARLES,100.88.133.149:5501,496625,56,000051CFADC2,egypt
1,94945,CA,Grass Valley,100.83.191.76:5501,495976,60,00004D9B5497,israel
1,30253,GA,McDonough,10.64.212.81:5501,496951,60,580050956321,peru
1,35447,AL,CARROLLTON,10.8.95.179:5501,497157,60,998070524444,egypt
1,95968,CA,Palermo,100.83.154.187:5500,497654,60,00004D82EEE3,israel
1,28364,NC,Maxton,10.64.144.110:5501,496281,60,580052887730,ghana
1,29649,SC,Greenwood,100.89.33.158:49488,497774,47,000051D8D46E,israel
1,31204,GA,Macon,100.89.33.24:49479,497922,75,000051DE2CF5,egypt
1,32092,FL,SAINT AUGUSTINE,10.20.26.171:5500,499001,56,524042979451,peru
1,32207,FL,JACKSONVILLE,10.20.41.202:5500,499106,56,524043492298,peru
1,32221,FL,JACKSONVILLE,10.20.68.193:5501,499214,56,580050664651,ghana
1,32256,FL,JACKSONVILLE,10.20.44.67:5500,499350,56,524043487025,egypt
1,74531,OK,CALVIN,10.20.15.54:5500,499960,56,524041906356,ghana
1,30058,GA,LITLHONIA,100.89.46.84:49299,500172,75,000051F2AAD1,egypt
1,21229,MD,BALTIMORE,100.89.55.238:49345,500479,75,000051F2A135,egypt
1,00778,PR,GURABO,10.64.219.115:5501,500549,60,580053315129,israel
1,21054,MD,Gambrills,100.89.28.249:49341,500808,75,000051F2A66C,egypt
1,92865,CA,Orange,10.64.222.158:5500,500950,60,580053275984,peru
1,35401,AL,Tuscaloosa,100.89.28.154:49155,501171,60,000051F2A433,israel
1,38756,MS,LELAND,100.89.24.191:49155,500848,3,000051F2ACAA,egypt
1,76541,TX,Killeen,100.89.29.9:49560,501419,60,000051F2A1EE,israel
1,60641,IL,chicago,10.64.45.33:1234,501451,136,335051839998,ghana
1,78520,TX,BROWNSVILLE,100.89.35.51:49285,501547,22,000051DE29F1,israel
1,90805,CA,Long Beach,10.64.210.186:5500,501646,60,580053231979,germany
0,H2J3Z3,QC,Montreal,67.70.115.105:9242,501800,43,54216010A8D5,peru
1,71049,LA,Logansport,10.8.98.126:5501,501874,60,998070750940,peru
1,29154,NC,Sumter,100.89.157.136:49543,502286,60,000051F15752,egypt
1,95237,CA,Lockeford,10.64.210.148:5501,502635,60,580053271561,ghana
1,74547,OK,HARTSHORNE,10.20.35.111:5500,502668,56,524043313395,peru
1,00612,PR,ARECIBO,10.64.21.88:1234,502854,60,518005027129,egypt
1,95630,CA,Folsom,10.64.221.152:5501,502898,60,580053359937,germany
0,L4S 0B2,ON,Richmond Hill,174.88.190.240:25405,502984,43,54216010A947,cuba
1,38833,MS,Burnsville,10.8.98.200:5501,503008,60,998070731957,israel
1,33584,FL,Seffner,100.89.148.76:1234,503237,75,650073220720,israel
0,T7Y 0C4,AB,Parkland County,207.228.78.18:30551,503321,43,54216010A909,ghana
1,27542,NC,Kenly,10.64.211.70:5501,498044,60,580053243628,israel
112,110018,ND,Delhi,112.196.185.38:36463,448828,39,5421601051EE,peru
1,38753,MS,Inverness,100.89.47.122:49377,503971,47,000051F2AAEA,egypt
1,38930,MS,Greenwood,100.89.49.138:49325,504480,47,000051F209BC,israel
1,30058,GA,LITHONIA ,100.89.158.120:49489,504521,75,000051F2F49D,egypt
1,30349,GA,ATLANTA ,100.89.170.140:49392,504525,75,000051F1C57E,egypt
1,84737,57,Hurricane,100.89.149.144:1234,504893,47,650074507091,egypt
1,78738,TX,Lakeway,100.89.151.2:1234,504850,47,650073144680,egypt
1,30214,GA,FAYETTEVILLE,100.89.29.107:49332,504935,75,000051F2A293,egypt
1,06851,CT,NORWALK,67.85.8.104:9311,505210,56,5421601016EC,wales
1,13619,NY,Teresa,10.64.223.168:5501,505460,60,580053343659,germany
1,84128,UT,West Valley City,100.89.146.54:1234,505514,47,650073289873,egypt
1,92410,CA,San Bernadino,10.64.224.2:5500,505678,60,580053390072,ghana
1,92509,CA,Riverside,10.64.223.59:5500,505790,60,580053389595,egypt
1,30228,GA,HAMPTON,100.89.161.19:49955,506033,75,000051F2F6F9,israel
1,47340,IN,Farmland,100.89.169.185:49560,506196,60,000051F1C787,egypt
1,30315,GA,ATLANTA,100.89.159.121:49639,506213,75,000051F15A2F,israel
1,94954,CA,Petaluma,10.64.217.187:5500,506349,60,580053334294,egypt
1,30088,GA,STONE MOUNTAIN,100.89.52.169:49213,506738,75,000051F20A30,israel
1,84128,57,West Valley City,100.89.145.193:1234,506872,47,650073216470,egypt
1,30038,GA,Lithonia,100.88.21.144:56152,507146,50,000047A64D77,egypt
1,30214,GA,FAYETTEVILLE ,100.89.167.253:49389,508057,75,000051F1E947,egypt
1,30238,GA,JONESBORO,100.89.29.96:49166,508215,75,000051F2A62E,egypt
1,30312,GA,Atlanta,100.89.171.13:49166,508371,75,000051F1C7CE,egypt
1,30236,GA,JONESBORO,100.89.175.29:49337,508473,75,000051F1EF7C,israel
1,95356,CA,Modesto,10.64.218.12:5501,508509,60,580053322653,germany
1,32442,FL,GRAND RIDGE,10.8.99.139:5501,508627,60,998070651205,ghana
1,75051,TX,Grand Prairie,100.89.150.241:1234,508655,47,650073224037,israel
1,93063,CA,Simi Valley,10.64.218.221:5500,508773,60,580053341976,germany
1,11372,NY,Jackson Heights,100.89.168.55:52455,508913,60,000051F1E800,israel
1,93021,CA,Moorepark,10.64.218.22:5501,508922,60,580053373045,israel
1,93065,CA,Simi Valley,10.64.223.31:5500,508929,60,580053326852,ghana
1,48187,CA,Canton,10.64.217.182:5500,420858,60,580053355117,israel
1,48126,MI,Dearborn,100.89.165.59:49509,509161,60,000051F19D88,egypt
1,95035,CA,MILPITAS,10.64.221.208:5501,509419,60,580053353831,peru
1,18371,PA,Tamiment,100.89.169.4:49449,509451,60,000051F1CAC1,egypt
1,32571,FL,Pace,67.44.240.4:46024,509473,32,54216010A61F,cuba
1,30349,GA,ATLANTA,100.89.159.127:49194,509486,75,000051F2EE7F,israel
1,93662,CA,Selma,10.64.219.223:5500,509780,60,580053337131,peru
1,07010,NJ,Cliffside Park,100.83.3.158:9048,509799,31,54216010BF2F,peru
1,03820,NH,DOVER ,100.83.206.156:5501,509817,60,000051E4B578,israel
1,30213,GA,FAIRBURN,100.89.158.172:49379,509859,75,000051F1301F,israel
1,30296,GA,Riverdale,100.89.162.231:49572,509895,75,000051F2FB08,israel
1,20721,MD,Bowie,10.64.217.143:5501,510217,60,580053282659,peru
28,4040,Liege,Herstal,194.78.181.2:1234,510239,90,000001025045,ghana
1,94559,CA,Napa,10.8.97.241:5501,510342,60,998070628088,germany
1,93534,CA,Lancaster ,10.64.221.33:5500,510546,60,580053350258,egypt
1,85037,AZ,phoenix,100.89.163.221:49626,510550,75,000051F155C9,israel
1,92708,1,Fountain Valley,10.64.214.48:5501,510560,97,580050913827,peru
1,92154,CA,San Diego,10.64.218.36:5500,510715,60,580053307316,peru
1,32750,FL,Longwood,10.65.109.242:5501,510790,60,580053237828,peru
1,30296,GA,RIVERDALE ,100.89.171.171:49433,510898,75,000051F1C9AC,egypt
1,30223,GA,GRIFFIN,100.89.174.255:49457,510905,75,000051F1C33D,egypt
0,V5T 4K9,BC,Vancouver,24.86.131.85:9453,495514,89,54216010A15B,ghana
1,93023,CA,Ojai,10.65.106.16:5500,511037,60,580053233918,israel
1,75227,TX,Dallas,100.89.150.224:1234,511184,47,650073227493,egypt
1,90023,CA,Los Angeles,10.64.220.254:5500,511198,60,580053365223,israel
1,28451,NC,Leland,10.64.223.201:5501,511292,60,580053302218,israel
1,77450,TX,Katy,100.89.166.234:49942,511429,75,000051F19C6E,israel
1,92307,CA,Apple Valley,10.64.219.194:5500,511449,60,580053277121,germany
1,32962,FL,Vero beach ,10.64.216.159:5500,511488,60,580053364259,peru
1,28501,NC,Kinston,10.8.102.19:5501,511506,60,998070717691,egypt
1,28083,NC,Kannapolis,10.64.218.157:5500,511526,60,580053303380,ghana
1,84040,57,Layton,100.89.145.80:1234,512023,47,650073231644,egypt
1,91345,CA,Mission Hills,10.65.111.151:5500,512197,60,580053353880,peru
1,28658,NC,Newton,10.64.210.101:5500,512250,60,580053232639,ghana
1,32712,FL,Apopka,10.64.218.24:5500,512266,60,580053341950,ghana
1,30291,GA,UNION CITY,100.89.162.13:49166,512341,75,000051F16399,egypt
1,00612,PR,Arecibo,10.64.17.113:1234,512780,60,518005028309,egypt
1,84081,57,West Jordan,100.89.146.115:1234,512860,47,650073188141,egypt
0,Guelph ,ON,Kitchener,64.228.153.232:10574,512944,43,54216010C517,angola
1,34744,FL,KISSIMMEE,100.89.151.197:1234,502451,174,650073231305,egypt
1,92881,CA,Corona,10.65.111.77:5500,513436,60,580053364333,egypt
1,30349,GA,Atlanta,100.89.172.216:49311,513497,75,000051F1F036,israel
1,29485,SC,Summerville,10.64.41.12:1234,513509,60,335051740113,egypt
1,32068,FL,MIDDLEBURG,100.89.150.66:1234,505632,174,650073238045,israel
1,28327,NC,Carthage,10.8.102.61:5501,513606,60,998070731916,egypt
1,20613,MD,Brandywine,10.64.221.32:5500,513714,60,580053301970,peru
1,39086,MS,Hermanville,10.64.42.98:1234,513734,60,335051701560,ghana
1,38301,TN,JACKSON,10.64.213.195:5500,513851,60,580053253387,israel
1,81050,CO,La Junta,100.89.23.44:49491,513877,47,000051F2A4A8,egypt
1,30349,GA,Atlanta,100.89.165.140:49741,513961,75,000051F19F54,israel
189,00956,Bayamon,bayamon,10.64.220.127:5501,514139,60,580053346637,israel
1,30127,GA,POWDER SPRINGS,100.89.174.88:49242,514243,75,000051F1F098,israel
1,92503,CA,Riverside,10.65.106.11:5500,514294,60,580053242828,germany
112,110062,112,Delhi,10.20.74.128:9144,448851,39,542160102C90,ghana
1,92395,CA,Victorville,10.65.116.252:5500,514772,60,580053391518,germany
1,92583,CA,San Jacinto,10.65.112.215:5500,514805,60,580053243057,egypt
1,70769,LA,Prairieville,100.89.145.150:1234,514895,75,650073290079,israel
1,79415,TX,Lubbock,100.89.197.88:1234,514923,60,650073976917,egypt
1,87506,NM,Santa fe,10.20.41.207:5500,514961,56,524043495457,ghana
1,20176,VA,LEESBURG,100.89.49.109:49738,515031,75,000051F2A9A5,israel
1,00683,PR,SAN GERMAN,10.65.115.95:5500,515240,60,580053231920,peru
1,92345,CA,Hesperia,10.65.111.111:5500,515281,60,580053386278,israel
1,92395,CA,Victorville,10.65.111.148:5501,515313,60,580053332942,germany
1,11952,1,Mattituck,100.83.187.54:5501,506126,10,000051D371C6,ghana
1,75098,57,Wylie,100.89.149.240:1234,515652,47,650073270279,israel
1,08043,NJ,Voorhees,100.89.163.133:49154,515749,75,000051F156CB,israel
1,92545,CA,Hemet,10.65.112.254:5500,515757,60,580053311763,peru
2,2107,NSW,Whale Beach,10.20.51.2:5500,515805,37,580050222682,germany
0,L3P4G2,ON,Markham,99.244.248.97:9205,516057,43,54216010C608,angola
1,85621,AZ,Nogales,100.89.174.188:49281,516104,60,000051F1D0D4,egypt
1,70520,LA,Carencro,100.89.157.247:49181,516257,75,000051F15272,israel
1,92363,CA,Needles,10.65.110.108:5501,516271,60,580053343550,israel
1,75052,57,Grand Prairie,100.89.153.158:1234,516362,47,650074507323,egypt
1,84129,UT,Taylorsville,100.89.161.104:49796,516281,47,000051F2FA06,israel
1,00680,PR,MAYAGUEZ,10.64.218.127:5500,516422,60,580053343493,egypt
1,90280,CA,South Gate,10.65.110.189:5500,516622,60,580053337602,peru
0,N8H0E1,ON,Leamington,10.65.111.119:9880,516769,43,54216010C8FD,angola
1,85019,AZ,Phoenix,100.89.149.241:1234,516779,75,650073276052,egypt
1,92543,CA,Hemet,10.65.109.162:5501,516981,60,580053275901,peru
1,70126,LA,New Orleans,100.89.157.234:49806,517602,75,000051F12D15,egypt
1,00678,PR,Quebradillas,10.64.20.205:1234,517785,60,518005028333,egypt
1,39826,GA,Bronwood,10.8.106.115:5501,517799,60,998071176921,peru
1,20748,MD,Temple Hills,10.64.221.174:5500,517932,60,580053349847,israel
1,85043,AZ,Phoenix,100.89.217.152:1234,517977,75,650078318826,israel
1,92258,CA,N Plam Springs,10.64.221.6:5500,518010,60,580053385643,ghana
1,36029,AL,Fitzpatrick,100.83.32.137:5500,518018,66,998071347795,ghana
1,92543,CA,Hemet,10.65.107.29:5500,518090,60,580053391658,peru
1,00612,PR,Arecibo,10.64.20.132:1234,518142,60,518005028358,egypt
1,90631,CA,La Habra,10.65.110.56:5500,518416,60,580053272635,peru
1,29506,SC,Florence,100.89.161.128:49203,518506,47,000051F15349,egypt
1,27529,NC,Garner,10.64.223.181:5501,518623,60,580053344947,germany
1,95307,CA,CERES,100.83.158.40:5501,438804,60,000051CD4DD5,ghana
1,85326,AZ,Buckeye,100.89.149.251:1234,519232,75,650073220886,israel
1,90631,CA,La Habra,10.65.107.255:5500,519487,60,580053343931,germany
1,75056,57,The Colony,100.89.196.108:1234,519557,47,650073858198,israel
1,30236,GA,Jonesboro,100.89.159.252:49808,519645,60,000051F2F7B5,israel
1,38242,TN,Paris,10.8.105.167:5501,519756,60,998071170049,israel
1,34221,FL,Palmetto,10.64.224.20:5500,519820,60,580053344814,israel
1,00659,PR,Hatillo,10.65.115.94:5500,518547,60,580053359879,israel
1,93304,CA,Bakersfield,10.65.110.12:5500,520134,60,580053390387,israel
1,08043,NJ,Voorhees,100.89.38.50:49822,520150,75,000051D8D4F5,egypt
1,41339,KY,Jackson,100.89.207.30:1234,520347,60,650073237807,israel
1,95357,CA,Modesto,10.65.112.5:5501,520438,60,580053540155,egypt
1,34109,FL,Naple,100.89.60.132:1234,520530,179,000000540576,egypt
1,35810,AL,Huntsville,10.8.105.203:5501,520603,60,998071168274,ghana
1,20677,MD,Port Tobacco,69.251.111.230:4718,520635,18,54216000EBE5,peru
1,75757,TX,Bullard,10.8.108.147:5501,520992,60,998071518122,egypt
1,20011,DC,Washingotn,10.64.216.242:5501,521213,60,580053371023,germany
1,85031,AZ,Phoenix,100.89.146.116:1234,521511,75,650072675593,israel
1,32309,FL,Tallahassee,10.8.99.227:5500,521863,60,998070928629,egypt
1,31907,GA,Columbus,100.89.188.87:1234,522045,75,650073961992,israel
1,81007,CO,Pueblo,100.89.191.100:1234,522274,47,650078145278,israel
1,36460,AL,Monroeville,10.64.216.255:5500,522323,60,580053312027,ghana
1,37841,TN,Oneida,10.8.107.240:5501,522327,60,998071525903,peru
1,70815,LA,Baton Rouge,100.89.151.64:1234,522492,75,650073217817,israel
1,39756,MS,PRAIRIE,10.8.101.36:5501,458017,60,998070731858,egypt
1,29620,,,100.89.156.87:55681,522921,47,000051F16A92,israel
1,71665,AR,Rison,10.8.108.208:5501,523326,60,998071491502,egypt
1,85282,AZ,Tempe,100.89.192.160:1234,523329,75,650073847993,egypt
1,86442,AZ,Bullhead City,10.65.113.33:5501,523566,60,580053244899,israel
1,77057,TX,Houston,100.89.188.63:1234,523578,75,650073955101,israel
1,19134,PA,Philadelphia,100.89.188.229:1234,523645,60,650078069528,egypt
1,30349,GA,Atlanta,100.89.188.84:1234,523662,75,650073947470,israel
1,93535,CA,Lancaster,10.65.111.95:5501,523682,60,580053390130,peru
1,31907,GA,Columbus,100.89.150.180:1234,524003,75,650074506903,egypt
1,91740,CA,Glendora,172.115.12.15:9987,430472,43,5421601027D3,cuba
1,29138,SC,Saluda,100.89.194.185:1234,524688,60,650073956810,egypt
1,32805,FL,Orlando,100.89.195.33:1234,525608,60,650078105561,israel
1,84041,57,Layton,100.89.244.170:1234,525656,47,650078592404,israel
1,75154,TX,Red Oak,100.89.246.119:1234,525721,75,650078658650,israel
1,84302,57,Brigham City,100.89.244.199:1234,525856,47,650078497844,israel
1,86426,AZ,Fort Mohave,10.65.114.58:5500,525857,60,580053386260,germany
1,85351,AZ,Sun City,100.89.194.94:1234,526069,75,650073973187,egypt
1,34654,FL,New Port Richy,10.64.221.162:5500,453385,60,580053266868,ghana
1,19141,PA,Philadelphia,100.89.210.217:1234,526384,75,650078035446,israel
1,46254,IN,Indianapolis,157.130.99.154:46633,526549,10,54216010DCAC,peru
1,77093,TX,Houston,100.89.208.222:1234,526553,75,650073801537,israel
1,27306,NC,Mt Gilead,100.89.244.159:1234,527063,60,650078601403,israel
1,06614,CT,Stratford,100.83.38.36:5500,526894,31,998070615598,israel
0,T9M 1S2,AB,Cold Lake,24.142.24.183:9287,527406,43,54216010D56C,cuba
1,30035,GA,DECATUR,100.89.167.105:49245,527481,75,000051F18526,israel
1,78557,TX,HIDALGO,100.89.244.189:1234,527566,35,650078464877,israel
1,92571,CA,Perris,10.8.106.198:5501,527672,60,998070672029,egypt
1,33405,FL,West Palm Beach,10.64.216.130:5500,527720,60,580053345399,egypt
1,00674,PR,MANATI,10.65.107.252:5501,527726,60,580053359887,peru
1,85546,57,Safford,100.89.226.7:1234,528049,47,650078245961,israel
0,V4N6S8,BC,Surrey,173.180.250.31:9030,528211,43,54216010C91E,peru
1,30032,GA,DECATUR,100.89.33.74:49215,528167,75,000051DE2BF2,israel
1,21237,MD,Baltimore ,10.64.209.30:5500,482010,60,580053325409,peru
1,39452,MS,Lucedale,10.64.1.150:5501,528476,3,580051010029,egypt
1,78640,TX,Kyle,100.89.218.42:1234,528509,75,650078152035,israel
1,36877,AL,SMITHS,10.64.220.79:5500,528502,60,580053271066,ghana
1,78612,TX,Cedar Creek,100.89.246.144:1234,528583,75,650078677593,egypt
1,92648,1,Huntington Beach,10.65.181.172:5501,528751,97,580053551491,israel
1,76502,57,Temple,100.89.216.232:1234,529264,47,650078261794,israel
1,78725,TX,Austin,100.89.218.71:1234,529545,75,650078256885,egypt
1,75253,57,Dallas,100.89.207.10:1234,529853,47,650073194396,israel
1,00745,PR,RIO GRAND,10.64.216.228:5500,529959,60,580053303463,israel
1,34982,FL,Fort Pierce,10.65.114.71:5500,529973,60,580053364226,israel
1,42104,KY,Bowling Green,100.89.228.29:1234,530123,60,650078268443,egypt
0,V1C1B7,BC,Cranbrook,24.66.64.37:9320,453107,43,542160108FDA,ghana
1,84041,57,Layton,100.89.210.197:1234,530216,47,650078356206,egypt
1,32533,FL,Cantonment,10.20.26.75:5500,422835,32,524042967431,egypt
1,85139,AZ,Maricopa,100.89.218.74:1234,530296,75,650078256604,israel
1,70094,LA,Westwego,100.89.211.68:1234,530349,75,650073894813,egypt
1,85138,AZ,Maricopa,100.89.218.83:1234,530474,75,650078354037,israel
0,L5A2M2,ON,Mississauga,99.245.21.124:9231,530606,43,5421600014CE,wales
1,70127,LA,New Orleans,100.89.218.152:1234,530933,75,650078366411,israel
0,R2M 1A3,MB,Winnipeg,142.161.53.12:9116,531008,43,54216000143B,wales
1,20746,MD,Suitland,100.89.151.150:1234,531312,75,650073231438,israel
1,02907,RI,Providence,10.65.181.141:5501,531514,60,580053736704,israel
1,85033,AZ,Phoenix,100.89.192.152:1234,531911,75,650078222861,israel
1,28425,NC,Burgaw,10.64.66.109:1234,532248,60,335052292783,ghana
1,85035,AZ,Phoenix,100.89.187.159:1234,532521,75,650073959194,israel
1,28364,NC,Maxton,10.64.26.127:1234,532782,60,335051290622,peru
1,28399,OK,White Oak,10.64.194.164:1234,532999,60,335052490494,israel
1,28371,NC,Parkton,100.88.13.255:1234,533310,60,650078752180,israel
1,30126,GA,MABLETON,100.89.212.36:1234,533398,75,650078298143,israel
0,N0E 1Y0,ON,Waterford,142.46.247.217:9237,533483,43,542160000432,cuba
1,30274,GA,Riverdale,100.89.228.68:1234,533476,75,650078302515,israel
1,85351,AZ,Sun city,100.89.255.118:1234,533740,75,650078597189,israel
0,L6S 4M3,ON,Brampton,99.234.168.216:7190,533935,89,542160701147,cuba
1,36532,AL,Fairhope,100.83.67.131:5501,450053,32,998072194360,egypt
1,76020,TX,Azle,100.89.245.93:1234,534187,47,650078567042,egypt
1,84107,UT,Salt Lake City,100.83.12.134:1234,534901,47,650078564726,israel
1,70761,LA,Norwood,10.64.196.139:1234,535870,60,335052299465,peru
1,89156,NV,North Las Vegas,100.83.13.62:1234,535925,60,650078452500,israel
1,86440,AZ,Mohave Valley,10.64.220.212:5500,536049,60,580053355208,ghana
1,85033,AZ,Phoenix,100.83.8.54:1234,536110,75,650078611618,israel
1,30019,GA,Dacula,100.89.246.240:1234,536626,75,650078743494,israel
1,30236,GA,Jonesboro,100.83.12.163:1234,536907,75,650078743890,egypt
1,85635,AZ,Sierra Vista,100.89.214.184:1234,536982,47,650078128142,israel
1,77591,TX,Texas City,100.83.13.35:1234,537027,47,650078620726,egypt
0,N9A 3B8,ON,Windsor,10.64.143.102:10224,490395,43,542160109060,angola
1,91406,CA,Van Nuys,10.65.114.20:5501,537651,60,580053562845,egypt
0,M6M1C5,ON,Toronto,108.175.234.30:1234,533841,43,000000637376,peru
1,81067,CO,Rocky Ford,100.83.8.70:1234,538419,47,650078385015,israel
1,30238,GA,Jonesboro,100.89.216.52:1234,539185,75,650078366353,israel
1,38748,MS,Hollandale,100.88.238.73:56721,488617,47,000051DE1CDD,None
1,42642,KY,RUSSELL SPRINGS,10.8.106.214:5501,420359,60,998071521837,germany
1,84115,UT,Salt Lake City,100.83.16.167:1234,539629,47,650078496994,egypt
1,39474,MS,PRENTISS,10.8.105.45:5501,540427,60,998071174587,israel
1,30008,GA,Marietta,100.89.253.182:1234,540572,75,650078677379,israel
1,75853,TX,Montalba,10.64.199.104:1234,540781,60,335052486484,ghana
1,29732,SC,Rock Hill,10.64.204.16:1234,540837,60,335052471742,israel
1,75089,TX,Rowlett,10.8.105.200:5501,541195,60,998071176954,germany
1,87120,NM,ALBUQUERQUE,100.83.53.245:5501,541269,60,998071492146,ghana
1,36830,AL,Auburn,100.89.195.179:1234,541571,60,650078120792,egypt
1,78211,TX,San Antonio,100.83.130.213:1234,541577,75,636094200514,egypt
1,70767,LA,Port Allen,100.83.124.27:1234,541957,60,636094674445,egypt
1,70394,LA,Raceland,100.83.137.91:1234,542375,75,636094226600,israel
1,84401,UT,Ogden,100.83.8.206:1234,542803,47,650078598104,israel
1,20707,MD,Laurel,100.83.126.150:1234,542903,75,636094618756,egypt
1,39095,MS,LEXINGTON,10.8.115.210:5500,544088,60,998072301064,egypt
1,78244,TX,San Antonio,100.83.125.113:1234,544204,75,636094203328,israel
1,81621,CO,BASALT,216.237.93.172:11807,482058,56,54216010050F,peru
1,20019,DC,Washington,100.89.146.180:1234,544625,75,650073204658,israel
1,76108,TX,Fort Worth,100.89.253.94:1234,544632,47,650078615775,egypt
1,08691,NJ,HAMILTON,100.83.129.91:1234,544715,60,636094275581,israel
1,20759,MD,Fulton,100.89.208.66:1234,544794,75,650073891413,israel
1,39365,MS,Union,100.83.119.164:1234,544881,143,636094724877,israel
1,39212,MS,JACKSON,10.8.117.34:5501,481679,60,998072211271,israel
1,30458,GA,Statesboro,10.64.203.143:1234,545640,60,335052484315,germany
1,30642,GA,Greensboro,10.64.198.17:1234,545685,60,335052463830,peru
1,06519,CT,New Haven,10.8.117.157:5500,545882,60,998071970109,egypt
1,19090,PA,Willow Grove,100.89.232.148:1234,546074,12,650078351942,israel
1,28326,NC,Cameron,100.83.120.173:1234,546298,143,636094704234,israel
1,98802,WA,East Wenatchee,100.89.232.201:1234,546864,12,650078261711,israel
1,32174,FL,Ormon beach,10.8.115.141:5501,441010,60,998072387196,israel
1,66217,KS,Shawnee,100.89.232.168:1234,547133,12,650073882974,egypt
1,76112,TX,Fort Worth,100.83.122.119:1234,547346,75,636094728613,egypt
1,31093,GA,Warner Robins,100.83.139.97:1234,547626,75,636094796115,egypt
1,70811,LA,Baton Rouge,100.89.223.167:1234,548418,75,650078256687,egypt
1,32433,FL,Defuniak Springs,100.83.118.31:1234,548693,60,636093770723,egypt
1,00612,PR,Arecibo,10.64.63.236:1234,548732,60,518005205204,egypt
1,34994,FL,stuart,100.89.232.189:1234,548906,12,650073892544,israel
1,49221,MI,Adrian,100.83.17.39:1234,549083,60,650078465437,israel
1,84119,UT,West Valley City,100.83.134.226:1234,549387,47,636094734520,israel
1,12303,NY,Schenectady,100.89.232.154:1234,549461,12,650078226623,israel
1,06249,CT,Lebanon,10.8.114.26:5501,425164,60,998072011069,israel
1,08324,NJ,na,100.89.232.176:1234,549584,12,650078335028,israel
1,11763,NY,Medford,100.89.220.4:1234,549630,12,650073872223,egypt
1,08234,NJ,na,100.89.230.76:1234,549901,12,650078317281,egypt
1,38925,MS,DUCK HILL,10.8.116.71:5500,549923,60,998072351218,peru
1,84067,UT,Roy,100.89.197.98:1234,550190,47,650078183170,egypt
1,42301,KY,Owensboro,100.83.17.70:1234,550459,60,650074839528,egypt
1,11214,NJ,Brooklyn,100.89.220.17:1234,550581,12,650078155921,israel
1,33139,FL,Miami Beach,100.89.230.75:1234,550764,12,650078318792,israel
1,15061,PA,Monaca,100.89.220.0:1234,550932,12,650073901030,egypt
0,R2X1M5,MB,Winnipeg,206.45.171.49:9217,551151,43,542160003CD5,angola
1,32223,FL,Jacksonville ,10.8.119.131:5501,551779,60,998072509971,peru
1,32114,FL,Daytona Beach,100.89.230.61:1234,551856,12,650078306482,israel
1,06901,CT,Stamford,100.89.230.70:1234,551884,12,650078335473,egypt
1,85711,AZ,Tucson,100.89.230.67:1234,552161,12,650078335127,israel
1,84084,UT,West Jordan,100.83.119.3:1234,552261,60,636093757613,egypt
1,08234,NJ,na,100.89.219.239:1234,552466,12,650078225062,egypt
1,72205,AR,Little Rock,100.83.125.89:1234,464645,60,636094681119,israel
1,29118,1,Orangeburg,10.65.232.181:4097,552654,47,41358498A7A4,egypt
1,38930,MS,Greenwood,10.64.68.202:1234,552659,60,335052299846,israel
1,07421,NJ,Hewitt,100.89.251.105:1234,552860,60,650078608911,israel
1,02364,MA,Kingston,100.89.230.73:1234,553117,12,650078335259,egypt
0,V7E 5B7,BC,Richmond,24.80.75.58:9844,553050,43,5421600046F3,peru
1,00641,PR,Utuado,10.65.198.177:5500,553424,60,580053544835,peru
1,31093,GA,WARNER ROBINS,100.83.76.254:5500,553448,56,998072204128,israel
1,60073,IL,ROUND LAKE,100.89.232.169:1234,553489,12,650078274722,egypt
1,17876,PA,Shamokin Dam,100.89.252.56:1234,553674,60,650078671448,egypt
1,84119,UT,West Valley City,100.83.137.166:1234,554264,47,636094676374,egypt
0,N2B 3E9,ON,Kitchener,10.65.199.201:5501,554280,69,580053852030,peru
1,29803,SC,Aiken,10.8.120.46:5501,438514,60,998072709563,ghana
1,36874,AL,Salem,100.83.247.92:1234,555049,60,152100416574,israel
1,30180,UT,VILLA RICA,10.8.101.183:5501,555320,60,998070714557,ghana
1,89031,NV,North Las Vegas,10.64.201.233:1234,555528,75,307000160871,israel
1,33616,FL,Tampa,10.66.13.64:4097,557038,1,4135849AB459,tahiti
1,65052,MO,Linn Creek,100.83.247.120:1234,557144,60,636096123557,israel
1,85355,AZ,Waddell,100.83.240.133:1234,557315,75,636096119167,israel
1,10530,NY,Hartsdale,100.89.230.42:1234,557411,12,650078364325,egypt
1,06120,CT,Hartford,100.83.253.246:1234,557597,60,152100360004,egypt
1,84043,UT,Lehi,100.83.123.160:1234,558032,47,636094137161,egypt
1,84043,UT,Lehi,10.64.208.4:1234,558036,47,307000161176,egypt
1,89134,NV,Las Vegas,100.88.5.4:1234,558120,75,152100280939,egypt
1,31008,GA,Byron,10.8.118.111:5501,534729,60,998072676515,peru
1,08234,NJ,Na,100.89.221.59:1234,559243,12,650073963204,israel
1,08234,NJ, na,100.89.221.85:1234,559449,12,650073875226,israel
1,92543,CA,Hemet,100.83.243.212:1234,559532,60,152100280400,egypt
1,48768,MI,Vassar,100.83.231.12:1234,560089,60,152100358859,egypt
1,77389,TX,Spring,100.83.13.0:1234,560478,31,650078577686,israel
1,21060,MD,Glen Burnie,10.8.115.181:5501,509754,60,998072365374,israel
1,08234,NJ,na,100.88.39.151:1234,561262,12,636096640600,egypt
1,NA,VA,NA,100.83.252.85:1234,561279,12,152100264065,egypt
1,08234,NJ,na,100.88.35.175:1234,561287,12,636096657935,egypt
1,NA,VA,NA,100.88.39.226:1234,561288,12,636096679202,egypt
1,NA,VA,NA,100.88.34.0:1234,561376,12,636096587132,egypt
1,NA,VA,NA,100.88.34.194:1234,561475,12,636096631161,israel
1,37876,TN,Sevierville,100.88.24.183:1234,561698,60,636098001736,israel
1,70517,LA,Breaux Bridge,100.83.229.173:1234,561755,60,152100264438,israel
0,T3J0A2,AB,Calgary,68.145.78.252:9241,427454,43,542160101DEF,ghana
1,08234,NJ,na,100.88.30.52:1234,562840,12,636096652308,egypt
1,06095,CT,Windsor,10.8.112.255:5501,563345,60,998071725503,israel
1,71371,LA,Trout,10.8.104.86:5501,464014,60,998071070637,germany
1,31730,GA,Camilla,100.83.239.63:1234,563736,60,152100340543,egypt
1,85283,AZ,Tempe,100.88.17.143:1234,563818,75,636096122161,israel
1,60605,IL,Chicago,100.88.34.157:1234,564226,60,636096631120,egypt
1,08234,NJ,na,100.88.48.235:1234,564327,12,152101424320,israel
1,08234,NJ,na,100.88.44.121:1234,564482,12,152101473145,egypt
1,08234,NJ,na,100.88.44.193:1234,564494,12,152101472840,israel
1,08234,NJ,na,100.88.48.119:1234,564562,12,152102072995,israel
1,08234,NJ,na,100.88.55.204:1234,564784,12,636096878291,israel
1,08234,NJ,na,100.88.58.226:1234,564792,12,636096856644,israel
1,NA,VA,NA,100.88.55.148:1234,564855,12,636096879034,egypt
1,89149,NV,Las Vegas,100.83.66.115:11336,564866,10,542160000825,ghana
1,08234,NJ,na,100.88.46.195:1234,565054,12,152101493234,egypt
1,22079,VA,LORTON,100.88.175.6:1234,565079,75,152105204363,israel
1,32003,FL,FLEMING ISLAND,100.83.90.249:5500,565163,56,998073050728,israel
1,02071,MA,Walpole,10.8.114.43:5501,565167,60,998072008842,germany
1,31787,GA,SMITHVILLE,10.8.114.35:5500,433655,60,998072011119,germany
1,90305,CA,Inglewood,100.88.24.117:1234,554944,75,636099070839,egypt
1,91710,CA,Chino,100.83.183.130:5501,566077,60,00003E4C7C0C,egypt
1,08234,NJ,na,100.88.59.163:1234,566198,12,636096878200,egypt
1,84604,UT,Provo,100.83.248.79:1234,566205,47,636099092197,israel
1,NA,VA,NA,100.88.59.183:1234,566218,12,636096847395,israel
1,20772,MD,UPPER MARLBORO,100.88.109.227:1234,566425,75,636096985104,egypt
1,60647,IL,CHICAGO,100.83.87.94:5501,566825,136,998072726542,ghana
1,NA,NJ,NA,100.88.65.124:1234,567510,12,636096847387,egypt
1,NA,VA,NA,100.88.69.143:1234,567527,12,636096839293,egypt
1,08234,NJ,na,100.88.62.133:1234,567607,12,636096863749,egypt
1,08234,NJ,na,100.88.62.224:1234,567626,12,636096853963,israel
1,08234,NJ,na,100.88.69.125:1234,567643,12,636096847775,egypt
1,08234,NJ,na,100.88.69.119:1234,567650,12,636096847742,egypt
1,08234,NJ,na,100.88.69.105:1234,567672,12,636096847692,israel
1,na,NJ,08234,100.88.69.187:1234,567683,12,636096847965,israel
1,08234,NJ,na ,100.88.69.135:1234,567701,12,636096847825,egypt
288,+27,Mpumalanga,Lydenburg,10.3.4.56:63297,567760,196,72523100016A,finland
1,NA,VA,NA,100.88.69.132:1234,567771,12,636096847783,israel
1,08234,NJ,na,100.88.69.97:1234,567776,12,636096847676,egypt
1,08234,NJ,na,100.88.69.114:1234,567789,12,636096847767,egypt
1,08234,NJ,na,100.88.69.101:1234,562842,12,636096847650,egypt
1,NA,VA,NA,100.88.59.128:1234,567809,12,636096878192,egypt
1,08234,NJ,na,100.88.60.23:1234,561453,12,636096847585,israel
1,NA,NJ,NA,100.88.60.75:1234,567845,12,636096847593,israel
1,08234,NJ,na,100.88.59.64:1234,567849,12,636096878283,egypt
1,NA,VA,NA,100.88.54.100:1234,567996,12,636096876410,israel
1,08234,NJ,na,100.88.17.173:1234,568005,12,636096845852,egypt
1,08234,NJ,na,100.88.54.27:1234,568018,12,636096876683,egypt
1,NA,VA,NA,100.88.62.173:1234,568026,12,636096839103,egypt
1,14172,NY,Wilson,10.64.208.31:1234,568430,166,307000158263,egypt
1,84043,UT,Lehi,100.88.206.21:1234,569067,47,152105328139,egypt
1,06606,CT,Bridgeport,100.83.96.145:5501,569174,60,998071715264,israel
1,23435,VA,SUFFOLK,100.83.141.196:5501,498371,56,998073444640,ghana
1,00669,PR,Lares,10.65.158.228:1234,569351,60,307000169492,israel
1,19141,PA,West Philadelphia,100.88.95.176:1234,569580,60,636096939796,egypt
1,78412,TX,Corpus Christi,10.64.139.1:1234,570216,189,335052352983,israel
1,06351,CT,Griswold,10.8.3.195:5501,438368,60,998072426788,egypt
1,95210,CA,Stockton,100.83.149.56:5501,570655,60,998071561197,ghana
1,84120,UT,West Valley City,10.65.153.232:1234,570725,47,307000161168,egypt
1,72116,AR,North Little Rock,100.88.128.24:1234,570967,60,152101510151,egypt
1,36343,AL,Gordon,100.83.150.62:5501,571152,60,998071480760,egypt
1,35810,AL,Huntsville,100.88.131.108:1234,571758,60,636096983018,egypt
1,30311,GA,Atlanta,100.88.50.77:1234,572199,60,152102092746,israel
1,38967,MS,WINONA,10.8.92.46:5501,485275,60,998070421062,israel
1,95350,CA,Modesto,100.83.96.59:5500,572642,60,998071754115,israel
1,29649,SC,Greenwood,100.88.151.187:1234,572827,60,636096987597,egypt
1,42406,NY,Arkville,100.83.151.175:5501,571724,60,998071494159,israel
1,90062,CA,Los Angeles,10.20.24.102:5500,573810,60,524042977448,ghana
1,29440,SC,Georgetown,10.64.207.248:1234,573968,14,335052465041,egypt
1,40514,KY,Lexington,173.187.129.32:9788,574680,56,542160004F46,peru
0,t0m 1l0,AB,Madden,10.64.112.91:5501,492017,135,580050970660,egypt
1,28269,NC,Charlotte ,100.88.57.83:5501,484628,60,998073258404,egypt
1,06010,CT,Bristol,100.88.55.139:5501,436919,60,998073411144,israel
1,39363,MS,STONEWALL,100.88.41.151:1234,572072,60,636094716212,egypt
1,74733,OK,COLBERT,100.88.192.206:1234,557002,19,152105308040,egypt
1,33487,FL,Boca Raton ,100.83.146.217:5500,576660,60,998073454342,egypt
1,28315,NC,   ABERDEEN ,100.83.140.87:5501,576688,60,998073416390,egypt
1,95409,CA,Santa Rosa,100.88.110.133:1234,577138,60,152101497672,israel
1,28314,NC,Fayetteville,100.88.57.239:1234,577895,47,152102117295,egypt
1,32746,FL,Lake Mary,10.64.27.194:1234,577220,1,335051282645,egypt
1,31525,GA,Brunswick,100.83.145.64:1234,578241,60,152105405374,egypt
1,46143,IN,Greenwood,100.83.143.179:1234,578409,60,152105981986,egypt
1,00757,PR,Santa Isabel,10.65.147.148:1234,578413,60,307000165516,israel
1,00647,PR,Ensenada,10.65.148.231:1234,578465,60,307000165524,israel
1,30349,GA,College Park,100.89.158.105:49164,514860,75,000051F162F3,egypt
0,G1P2A5,QC,Quebec,10.65.155.88:1234,578561,109,307000184988,israel
1,00956,PR,Bayamon,10.65.160.189:1234,578619,60,307000175408,israel
1,08234,NJ,na,100.88.60.45:1234,578621,12,636096847619,israel
242,11300,Montevideo,Montevideo ,10.65.244.247:1234,578624,30,518005040106,israel
242,70000,Salto,Salto ,10.65.244.112:1234,578628,30,518005044751,israel
288,1111,Gauteng,Johannesburg,10.3.139.144:63624,517772,196,7252310001CA,finland
1,00783,PR,Corozal,10.65.156.175:1234,578637,60,307000175341,egypt
1,31088,GA,WARNER ROBINS,100.88.2.138:1234,578641,56,152106232330,egypt
242,20000,Maldonado,Maldonado,10.65.244.188:1234,578643,30,518005044991,egypt
1,08234,NJ,na,100.89.230.78:1234,558661,12,650078311763,egypt
1,31088,GA,WARNER ROBINS,100.88.95.196:1234,578647,56,636096976467,israel
1,14226,NY,cheektowaga,10.65.160.100:1234,578652,166,307000184830,egypt
1,31030,GA,FORT VALLEY,100.88.132.211:1234,578655,56,636096965528,israel
0,J0R1R1,QC,ST-SAUVEUR,10.65.158.179:1234,578656,109,307000187403,egypt
242,12900,Montevideo,MONTEVIDEO,10.65.244.34:1234,578658,30,518005040577,israel
1,08324,NJ,na,100.89.232.179:1234,549616,12,650078161747,egypt
0,g1w1h4,QC,Quebec,10.65.159.221:1234,578559,109,307000180309,egypt
1,36581,AL,SUNFLOWER,100.83.201.12:5501,510432,60,998073430540,ghana
2,2093,NSW,Balgowlah Heights,10.65.129.191:1234,507880,121,000001041089,orange,12
2,2213,NSW,Panania,10.65.135.109:1234,507906,121,000001041090,dubbo,12
2,2170,NSW,Sydney,10.64.124.80:1234,507996,121,000000854058,dubbo,12
2,2000,NSW,Miranda,10.64.125.118:1234,542292,122,372080056449,dubbo,8
2,2000,NSW,Miranda,10.64.125.165:1234,542293,122,372080056282,dubbo,8
2,3020,VIC,Sunshine West,10.64.15.182:1234,542313,122,372080056514,orange,8
2,2132,NSW,CROYDON,27.32.133.55:9163,542345,67,542160104296,orange,4
2,2138,NSW,Rhodes,58.96.30.211:52373,542359,67,542160104253,orange,4
292,76100,Stockholm,,95.192.4.41:1234,464212,5,000001005330,poland,12
292,215 35 ,Skane,Vintrie,10.65.141.209:1234,464539,11,000001240366,poland,12
292,38471,Kalmar,TIMMERNABBEN,81.229.127.107:1234,464676,13,000001151110,poland,12
