1,79423,TX,Lubbock,10.20.24.184,419784,20,524042995408,israel
1,01606,MA,Worchester,10.20.27.228:5500,420732,60,524043324053,peru
1,32080,FL,SAINT AUGUSTINE,10.20.33.100:5500,420798,60,524043310078,ghana
1,92821,CA,Brea,10.20.32.172:5500,421051,60,524043323733,ghana
1,92880,CA,Corona,10.20.43.71:5500,421525,60,524043341636,ghana
1,06492,CT,WALLINGFORD,10.20.29.235:5500,421634,60,524043362673,egypt
1,19013,PA,CHESTER,10.20.37.63:5500,421793,60,524043346486,ghana
1,01129,MA,SPRINGFIELD,10.20.23.219:5500,422310,60,524042996158,ghana
1,92395,CA,Victorville,10.20.41.184:5500,422495,60,524043478370,israel
1,90272,CA,Pacific Palisades,10.20.42.51:5500,422518,60,524043499285,ghana
0,L6M3Y9,ON,Oakville,104.158.11.151:9194,422876,43,542160100A61,ghana
1,35554,AL,Eldridge,10.20.47.107:5500,423010,32,524043498295,peru
1,34654,FL,NEW PORT RICHEY,10.20.43.124:5500,423469,60,524043341123,germany
0,L5E2M9,ON,Mississauga,10.20.44.157:5500,423760,43,524043481689,egypt
1,90660,CA,Pico Rivera,10.20.45.170:5501,424248,10,524043495747,israel
1,32776,FL,Sorrento,10.20.33.208:5500,424312,60,524043313403,egypt
1,39042,MS,Brandon,10.20.48.95:5500,431458,60,580050083647,peru
1,91902,CA,Bonita,75.33.208.102:9379,424346,43,542160100E93,wales
1,60137,IL,Glen Ellyn,24.14.190.11:9091,425262,20,54216010305B,ghana
1,92107,CA,SAN DIEGO,100.83.141.15:5501,426116,60,000042F62277,ghana
1,91977,CA,SPRING VALLEY,100.83.140.193:5500,426368,60,000042F6207C,ghana
0,T6V1J4,AB,Edmonton,69.168.160.163:19181,427082,43,5421601024C8,peru
1,90004,CA,Los Angeles,100.83.179.191:5501,427154,60,000042F3FB38,egypt
1,92807,CA,Anaheim,100.83.139.161:5501,427352,60,000042F62249,israel
1,92782,CA,TUSTIN,100.83.147.155:5501,427466,60,000042F3F9CA,egypt
0,J4Y1G6,QC,Brossard,96.22.191.97:9239,427592,43,5421601024E0,peru
1,92301,CA,Adelanto,100.83.195.111:5500,427874,60,000042F625D0,egypt
0,T3M2B2,AB,Calgary,68.144.97.216:9061,433072,43,542160102B24,wales
1,08527,NJ,Jackson,10.20.47.157:5501,428028,60,524043487157,egypt
1,75230,1,Dallas,10.20.26.174:5500,429240,61,524042972787,germany
1,39339,1,LOUISIANA,100.83.148.35:5501,429858,60,000042F3FC91,egypt
1,01904,MA,Lynn,100.83.196.116:5501,429910,60,000042F3F079,ghana
1,75043,TX,Garland,10.20.49.82:5500,432240,60,580050105879,germany
1,91761,CA,Ontario,100.83.223.182:5501,433403,60,00004999AB0B,egypt
1,91791,CA,West Covina,100.83.184.33:5501,433456,60,000049985B34,israel
1,36582,AL,Theodore,100.88.4.178:5501,433807,32,00003E4C14D1,israel
0,J5K 0C1,QC,St. Colomban,107.171.252.143:9301,434644,43,5421601027E2,cuba
1,90503,CA,Torrance,100.83.142.186:5501,434734,60,00003E4C95CA,israel
1,32514,FL,Pensacola,100.88.0.67:5501,434761,32,00003E4BC4D9,egypt
1,27605,NC,Raleigh,100.88.31.49:5501,434930,6,000049998F33,ghana
1,60620,IL,Chicago,100.83.187.145:5500,435181,60,000049A1AE19,israel
112,110034,ND,New Delhi,27.56.143.179:9211,435564,39,542160102FC4,ghana
0,L6Z3K7,ON,Brampton,104.158.138.145:9132,436156,43,542160103284,cuba
1,92501,CA,Riverside,100.83.182.18:5500,436857,60,000049997FC5,egypt
1,35611,AL,Athens,100.83.183.87:5500,437003,60,000049997E97,egypt
1,92127,CA,San Diego,100.83.228.97:5500,437108,60,000049999FC0,israel
1,19713,1,Newark,100.88.31.9:5501,437310,31,000049A1D8A9,israel
1,21117,MD,Owings mills,10.20.26.213:5500,437495,60,524042985938,israel
0,T4P 3K5,AB,Red Deer,24.66.20.211:9301,438026,43,5421601033FE,wales
0,H9R 2T5,QC,Pointe Claire,70.48.116.100:10013,438493,43,54216010352B,peru
112,110085,ND,New Delhi,223.190.13.214:9143,439261,39,54216010168C,wales
112,110096,ND,New Delhi,103.55.60.96:9006,439293,39,542160103C00,ghana
1,34653,FL,New port richey,100.83.174.196:5501,439486,60,000049A19717,israel
0,V8P 3W6,BC,Victoria,173.183.76.7:9276,439847,43,5421601039B4,ghana
0,L4H 4T2,ON,Kleinburg,10.20.52.164:9213,440211,43,542160103AC9,ghana
112,110062,ND,New Delhi,103.95.83.126:26290,440639,39,542160102B8A,angola
0,T2J 0L9,AB,Calgary,24.64.107.142:9217,441115,43,5421601039D9,ghana
1,08724,NJ,Brick,73.199.129.225:9252,441284,56,5421601039FC,peru
1,34474,FL,Ocala,100.83.225.74:5501,441532,60,0000499979B3,egypt
1,32259,FL,Jacksonville ,100.83.190.221:5501,441650,60,00003E4BDA1C,ghana
1,90502,CA,Torrance,100.83.196.186:5501,441796,60,00004D9B3BA9,egypt
1,34734,FL,gotha,10.20.43.182:5501,441974,60,524043358333,peru
1,15065,PA,Natrona Heights,100.83.189.208:5500,442507,60,00003E4C6C52,israel
112,110059,,New Delhi,49.36.140.22:9177,442623,39,5421601043B1,cuba
0,T5E 3B9,AB,Edmonton,75.158.50.101:9049,442665,43,54216010461B,wales
0,L7G4S8,ON,Georgetown,136.143.143.182:9365,442917,43,54216010463E,peru
0,L6R 1S8,ON,Brampton,99.234.120.189:9208,443212,43,5421601045C1,wales
0,V6S 2B9,BC,Vancouver,24.85.242.170:9485,443618,43,5421601040FE,peru
1,46403,IN,Gary,10.20.30.204:5500,443817,14,524043355230,ghana
1,33860,FL,MULBERRY,100.83.213.45:11875,443864,60,5421601043E1,israel
1,84106,UT,Salt Lake City,96.73.10.233:7883,443745,47,54216000E792,angola
0,K1C2J9,ON,Ottawa,174.114.41.64:9310,444306,43,5421601041F3,cuba
112,110058,,New Delhi,122.180.203.185:9141,444529,39,542160102B8C,ghana
1,90640,CA,Gardena,100.83.227.131:5501,444804,10,000049A1CD54,ghana
1,90670,CA,Santa Fe Springs,100.83.173.146:5501,445050,10,00003E4BEA6F,ghana
1,27603,OK,Raleigh,100.88.37.64:5500,445692,6,000049997F03,israel
0,H8Y 1S1,QC,pierrefonds,173.176.59.226:9399,445919,43,542160103DAD,cuba
0,V6A0G2,BC,Vancouver,66.183.247.235:9274,446062,43,5421601040E7,peru
1,89178,NV,Las Vegas,100.83.177.11:5501,446349,10,00004999A3A1,egypt
1,91106,CA,Pasadena,100.83.149.216:5501,446401,10,00003E4C2A2D,egypt
112,110005,112,New Delhi,10.20.52.67:9040,448231,39,54216010450E,ghana
0,L4A 1M4,ON,Stouffville,70.48.234.31:9131,448380,43,542160104D78,cuba
1,77389,TX,Spring,100.83.215.214:5501,448433,60,000049A1EC68,israel
1,90405,CA,Santa Monica,100.83.210.243:5501,448512,10,000049A1B18E,ghana
1,91607,CA,Valley Village,100.83.227.188:5501,448714,60,00003E4BF3EA,israel
1,33810,FL,Lakeland,100.83.226.8:5501,449132,60,000049A1C828,egypt
1,77541,TX,FREEPORT,100.83.152.182:5501,449992,60,00004D95F8FD,ghana
1,11220,NY,Brooklyn,100.83.167.151:5501,450650,60,000051D0DDB0,egypt
112,110012,ND,Delhi,122.176.100.251:9152,450769,39,542160102C32,angola
1,33594,FL,Valrico,100.83.153.218:5501,450821,60,00004D82EDFA,egypt
1,31907,GA,Columbus,100.88.35.250:5500,450837,79,000049A1ECDC,ghana
1,90621,CA,Buena Park,76.169.17.46:9192,451452,89,542160105281,peru
0,V7L3G2,BC,North Vancouver,207.216.146.177,451822,43,542160105365,angola
0,L3Y 8P7,ON,Newmarket,72.140.137.154:9067,452460,43,542160105332,angola
1,90058,CA,Los Angeles,100.83.213.210:5500,452465,10,000049A1C98A,ghana
0,L0R 1B2,ON,Beamsville,67.201.160.58:61737,452768,43,542160105416,peru
1,35218,AL,Birmingham ,100.83.171.134:5500,452841,60,000051CD9696,israel
1,45744,OH,Lowell,100.83.140.102:5501,452961,60,00004D955B61,ghana
1,71119,LA,SHREVEPORT,75.65.87.64:9153,453164,47,542160105895,peru
1,20772,MD,Upper Marlboro,100.83.192.132:5501,454070,60,000049998623,israel
0,M3N 2S5,ON,North York,99.255.253.188:10149,454082,43,542160105900,ghana
1,10980,NY,Stony Point,100.83.152.123:5501,454164,60,00004D95FDEC,egypt
1,92880,CA,Corona,100.83.171.13:5501,454204,10,000051CD7F2C,egypt
1,92543,CA,Hemet,100.83.184.113:5500,454427,60,000049999751,egypt
1,39422,MS,Bay Springs,100.83.153.144:5501,454584,60,00004D95516B,ghana
1,90255,CA,Huntington Park,100.83.199.93:5501,454592,60,00004D9D2A84,egypt
0,L9P1X2,ON,Uxbridge,142.114.140.22:9389,454869,43,542160105335,wales
1,76123,57,Fort Worth,100.88.111.65:49412,455304,47,000051D4E94F,israel
1,38632,MS,HERNANDO,100.83.154.35:5501,455369,60,00004D853E8C,israel
1,95833,CA,Sacramento,100.88.103.37:5501,455494,18,00004D955D10,egypt
1,76002,TX,Arlington,100.88.65.187:49600,455887,47,000047AE1291,egypt
1,34747,FL,Kissimmee,100.83.173.229:5501,456146,60,00004D9B5AE0,israel
1,27536,NC,Henderson,100.88.23.155:5500,456497,47,00003E4C5C20,ghana
0,L6H7K7,ON,Oakville,24.150.192.150:9103,456703,43,542160105D67,ghana
1,36581,AL,SUNFLOWER,100.83.146.195:5501,456906,60,000051D0E6C1,israel
1,76115,57,Fort Worth,100.88.155.95:50408,456940,47,000051D8649D,germany
1,64151,MO,KANSAS CITY,100.83.167.183:5501,457058,60,00004D82F58F,ghana
1,02136,MA,Hyde park,100.83.177.111:5500,457100,60,00004D9B5AB8,israel
1,89015,NV,Henderson,100.83.148.111:5500,457219,60,00004D853ECE,egypt
1,76039,57,Euless,100.88.141.42:50488,457212,47,000051D4109F,egypt
1,91750,CA,La Verne,100.83.219.94:5501,458181,60,00004D9D41E0,egypt
1,95355,CA,Modesto,100.83.167.47:5501,458212,60,000051D110E8,ghana
1,95356,CA,Modesto,100.83.146.186:5501,458478,60,00004D9B13FE,israel
1,38635,MS,HOLLY SPRINGS,10.20.77.117:5501,458480,60,580050660808,peru
1,95307,CA,Ceres,100.83.141.1:5501,458687,60,00004D9D4247,egypt
1,95307,CA,Ceres,100.83.227.120:5501,458706,60,00004D9D4082,israel
1,85043,AZ,Phoenix,100.83.180.90:5501,459023,60,00004D9B3AC2,ghana
1,33544,FL,Wesley Chapel,100.88.126.8:5501,459231,10,000051CD89CC,egypt
1,75224,TX,Dallas,100.88.190.159:52346,459620,47,000051D40DA2,germany
1,99203,WA,Spokane,100.83.162.42:5501,459646,60,000051D9A406,ghana
1,90262,CA,Lynwood,100.83.150.8:5501,459869,10,000049A1D3A6,israel
1,91505,CA,Burbank,100.83.164.50:5500,457497,60,000051D34639,ghana
1,27849,NC,Lewiston,100.83.200.173:5501,460446,60,00004D9D3A2C,ghana
1,30273,1,rex,100.88.197.127:50504,460991,75,000047AF7ED6,germany
0,H2R3C1,QC,Montreal,69.159.167.71:9212,461386,43,54216010629C,wales
0,L7E 0J6,ON,Caledon,69.17.176.133:9181,444552,43,54216010432A,angola
1,28717,NC,Cashiers,72.173.241.1:10479,461575,66,542160105A27,cuba
1,23666,1,Hampton,100.88.126.23:5500,461612,56,000051CD77D0,ghana
1,38654,MS,OLIVE BRANCH,100.83.142.80:5501,461747,60,000051D9EB96,egypt
1,26581,WV,Wileyville,100.83.224.180:5501,461749,106,00004D9D2A34,israel
0,T2J3L6,AB,Calgary,142.59.140.217:9108,462229,43,54216010616C,wales
1,88101,NM,Clovis,67.0.11.209:11086,462354,43,5421601062F8,angola
1,76179,57,Fort Worth,100.88.180.53:50215,462499,47,000051D89CC3,egypt
1,95832,CA,Sacramento,100.88.37.59:5501,462522,56,0000499999C8,ghana
1,91436,CA,ENCINO,100.88.133.131:5501,461030,18,000051CD919F,egypt
1,19713,DE,Newark,100.88.94.40:5500,462388,31,000051CD7277,israel
1,30135,GA,DOUGLASVILLE,100.88.206.97:49938,462969,75,000047AFB315,germany
1,78255,TX,SAN ANTONIO,45.21.6.88:9216,463434,31,542160106593,wales
1,76021,57,Bedford,100.88.199.169:49469,463514,47,000047AF76CD,egypt
1,29554,SC,Hemingway,100.83.215.123:5501,463702,60,000051E4AECA,israel
1,70722,LA,CLINTON,100.83.140.230:5501,463780,60,000051D379B3,egypt
1,89118,NV,LAS VAGAS,100.88.207.83:49266,463961,60,000047AF9144,germany
1,31088,GA,Warner Radins,100.83.188.225:5500,463963,60,000051D34781,egypt
1,25311,WV,Charlston,10.20.31.8:5500,464398,56,524043360057,peru
1,21113,1,ODENTON,100.88.240.56:50955,464622,75,000051DCD2D6,germany
1,94931,CA,Cotati,100.83.201.236:5500,465278,60,000051E4A895,ghana
1,71362,LA,Plaucheville,100.83.147.202:5501,465488,60,000051E4E7DA,israel
1,30248,1,LOCUST GROVE,100.88.209.154:50515,465721,75,000047AF7CBF,israel
1,28358,NC,Lumberton,100.83.158.92:5501,465919,60,000051E4A05C,ghana
1,78253,57,San Antonio,100.88.197.73:50297,465950,47,000047AFAFC7,israel
1,90063,CA,Los Angeles,100.83.203.75:5501,466069,60,000051E4BD77,israel
1,49045,MI,Decatur,100.83.186.43:5501,466327,60,000051D357CE,ghana
1,38635,MS,HOLLY SPRINGS,100.83.227.80:5501,467055,60,000051D9F9BF,israel
1,76040,57,Euless,100.88.192.85:49453,467062,47,000051D87D0D,israel
1,23803,VA,PETERSBURG,10.64.3.119:5500,425526,60,580051028401,germany
1,84088,UT,West Jordan,76.8.215.50:62446,518383,1,000000499012,germany
1,21783,MD,Smithsburg,100.83.201.81:5501,467790,60,000051E4AF00,israel
2,6060,VIC,Yokine,10.20.63.218:5501,467920,37,580050270228,egypt
1,33463,FL,Lake worth ,100.83.170.178:5501,468153,60,00004D9D425F,egypt
0,M5P2J9,ON,Toronto,99.239.177.111:9257,468603,43,542160107267,cuba
1,29554,SC,Hemingway,100.83.186.105:5501,468668,60,000051D9A116,egypt
1,60639,IL,Chicago,100.88.232.162:52763,468721,60,000051DCE2B0,egypt
1,77836,TX,Caldwell,100.83.208.75:5501,468928,60,000051E4BD67,israel
1,30017,GA,GRAYSON,100.89.22.13:50588,468955,75,000051DE0F6E,egypt
0,H3P 2G2,QC,MONT-ROYAL,135.19.7.114:6917,469149,109,5421607004FF,cuba
1,15059,PA,MIDLAND,100.83.187.12:5501,469322,60,000051D9D678,egypt
1,90631,CA,La Habra,100.83.203.70:5501,469518,60,000051E4EC54,egypt
1,30179,GA,Temple,100.88.207.97:49319,469537,75,000047AF9185,israel
1,30213,GA,FAIRBURN,100.88.229.37:54328,469695,75,000051DCC9D0,israel
1,86426,AZ,Fort Mohave,100.83.186.231:5501,469899,60,000051D98786,israel
1,36482,AL,Whatley,100.83.185.206:5501,470016,60,000051D3481D,israel
1,32025,FL,LAKE CITY,100.83.217.108:5501,470606,60,000051E5A779,ghana
0,H4W1N1,QC,Cote-St-Luc,173.177.124.47:9377,470686,43,542160107801,peru
1,35079,AL,HAYDEN,100.83.226.220:5501,471373,60,000051E4A60A,ghana
1,35010,AL,ALEXANDER CITY,100.83.208.84:5501,471456,60,000051E493E6,egypt
1,92405,CA,San Bernardino,100.83.187.236:5501,471642,60,000051D347C1,ghana
1,92405,CA,San Bernardino,100.83.207.62:5500,471792,60,000051E4B457,israel
1,33909,FL,Cape Coral ,100.83.227.232:5501,471960,60,000051E4DCED,ghana
1,93727,CA,Fresno,100.83.162.209:5501,472032,60,000051D9A5E2,ghana
0,H8T2Z3,QC,Lachine,173.178.241.24:9266,472038,43,5421601075DC,angola
0,J7V0T5,QC,Vaudreuil-Dorion,184.148.205.159:11646,472587,43,542160107B13,ghana
1,10128,NY,New York,100.88.220.194:9355,472615,31,54216010778D,peru
1,29841,SC,N. Augusta,100.83.212.166:5501,472969,60,000051E4A81F,ghana
1,94565,CA,Pittsburg,100.89.6.91:50908,473094,60,000051DC700E,israel
0,L7M 4K7,ON,Burlington,24.141.227.51:9174,473493,43,542160107AAB,ghana
0,T2Y 0E3,AB,Calgary,70.77.24.31:9352,473584,43,542160107ADA,ghana
1,90805,CA,Long Beach,100.83.157.20:5500,473843,60,000051E5B288,egypt
1,91790,CA,West Covina,100.83.160.26:5501,474450,60,000051E5B6E1,egypt
1,95691,CA,West Sacramento,100.83.160.178:5501,474608,60,000051E5A559,israel
1,95816,CA,N Sacramento,100.83.223.186:5501,474708,60,000051D382FE,ghana
1,90403,CA,Santa Monica,100.83.217.168:5501,475609,60,00004D9D3FBC,israel
0,L5N4T3,ON,Mississauga,24.246.64.164:9564,475619,43,542160107F98,ghana
0,L3P2M7,ON,Markham,174.94.60.45:9178,476054,43,542160107EB2,peru
0,L1P0B7,ON,Whitby,99.232.41.93:9652,476080,43,542160107EFD,cuba
0,K1G 1P7,ON,Ottawa,70.31.50.182:9209,475944,43,542160107FA4,cuba
1,90746,CA,Carson,100.83.206.44:5501,476199,60,000051E5AD86,ghana
1,90745,CA,Carson,100.83.205.23:5500,476291,60,000051E5ADA0,israel
0,L6V 3C9,ON,Brampton,99.234.244.138:9763,476085,43,542160107F74,ghana
1,96002,CA,Redding,100.83.208.168:5500,476410,60,000051E589ED,egypt
1,93551,CA,PALMDALE,100.83.226.144:5501,476631,60,000051E5B1A9,ghana
1,92880,CA,Eastvale,100.83.202.9:5500,476833,60,000051E4BF37,israel
1,31794,GA,Tifton,100.83.206.99:5501,476950,60,000051E58EC4,ghana
1,01702,MA,FRAMINGHAM,100.88.43.212:5501,477045,56,00003E4BDA0F,ghana
1,33543,FL,WESLEY CHAPEL,10.20.24.34:5500,477163,56,524042985359,germany
1,33547,FL,LITHIA,10.20.20.146:5501,477179,56,524042268533,israel
1,34211,FL,BRADENTON,10.20.16.63:5500,477276,56,524042208612,germany
1,34711,FL,CLERMONT,10.20.22.96:5500,477313,56,524042982612,egypt
1,33510,FL,BRANDON,10.20.29.113:5500,477340,56,524043352815,israel
1,33578,FL,RIVERVIEW,100.88.43.185:5501,477417,56,00003E4C2BC2,israel
1,33579,FL,RIVERVIEW,10.20.19.73:5501,477421,56,524042239245,israel
1,95482,CA,Ukiah,100.83.208.38:5500,477995,60,000051E5A03D,ghana
0,L6Z 3S2,ON,Brampton,99.234.192.61:9379,478554,43,54216010838C,wales
1,32218,FL,Jacksonville,100.83.161.69:5501,478685,60,000051E5C3E3,egypt
1,06405,CT,Brandford ,100.83.161.45:5500,478708,60,000051E5BDE9,israel
1,84405,UT,Ogden,100.88.221.85:49698,478843,47,000047AF84ED,israel
0,L1P1N6,ON,Whitby,99.232.46.199:9411,479074,43,5421601083BF,wales
1,02725,MA,Somerset,100.83.143.60:5500,479121,60,000051E588EF,israel
0,T6R 0B6,AB,Edmonton,50.93.53.187:9118,479657,43,542160108462,wales
0,L2E 3X8,ON,Niagara Falls,173.238.205.196:9153,480176,43,542160108694,cuba
1,39455,MS,LUMBERTON,100.83.191.154:5501,480398,60,000051E5A448,ghana
1,39563,MS,Moss Point,100.89.3.185:49162,480480,47,000051DC3C03,egypt
1,33598,FL,Wimauma ,100.83.226.56:5501,480533,60,000051E5A5A1,egypt
1,39563,MS,Moss Point,100.88.138.119:49170,480826,47,000051D40E3E,egypt
1,02302,MA,Brockton,10.8.89.115:5501,480907,60,998070124518,ghana
1,39501,MS,Gulfport,100.83.206.106:5501,481142,60,000051E591DB,egypt
0,M1W 2E3,ON,Scarborough,192.235.247.178:9087,481596,43,542160108634,wales
1,81611,CO,ASPEN,100.88.103.240:10651,482071,56,54216010086A,egypt
1,95319,CA,Empire,10.64.115.36:5501,482158,60,580050963483,egypt
1,95357,CA,Modesto,10.64.114.21:5501,482285,60,580051044549,egypt
0,M4N1W2,ON,Toronto,69.159.11.190:9108,482358,43,54216010876C,peru
1,92014,CA,Del Mar,10.20.82.59:5501,481632,6,580050962485,ghana
1,70611,LA,Lake Charles,10.64.3.223:5501,482761,56,580050861075,ghana
1,00767,PR,Yabucoa,10.64.115.58:5501,482827,60,580050896816,germany
1,76123,TX,Fort Worth,100.88.190.22:49488,455328,47,000051D4F2E0,israel
1,39466,MS,Picayune,100.88.4.138:5501,483306,47,00003E4C29BB,ghana
0,H9R 1K9,QC,Pointe-Claire,67.68.28.92:9203,483418,43,542160108796,ghana
1,92021,CA,El Cajon,10.64.134.160:5501,483468,60,580050933288,ghana
0,L5L4P5,ON,Mississauga,72.141.153.251:10118,483563,43,54216010881B,wales
1,73003,OK,EDMOND,100.89.45.123:51868,483229,10,000051F2AE9B,israel
1,06013,CT,Burlington,10.64.137.161:5500,483938,60,580050913207,germany
1,00656,PR,GUAYANILLA,10.64.5.156:5501,484164,60,580050912977,peru
1,94515,CA,Calistoga,10.64.134.87:5501,484260,60,580050971361,egypt
1,39503,MS,Gulfport,100.88.242.150:50236,484480,47,000051DE15D8,israel
1,34753,FL,Mascotte,10.64.135.208:5501,484531,60,580050838966,ghana
1,77494,TX,KATY,10.64.113.35:5501,484634,60,580050933023,peru
1,92335,CA,Fontona,10.64.112.108:5501,484800,60,580051047021,ghana
1,23663,1,Hampton,100.88.4.61:5501,484882,56,00003E4BD880,egypt
1,92410,CA,San Bernardino,10.64.133.251:5501,484989,60,580051041222,germany
1,38641,MS,LAKE COMRANT,10.8.91.34:5501,485074,60,998070420213,egypt
0,N1G 3G8,ON,Guelph,72.136.30.155:9098,485222,43,542160108811,angola
0,L1N1V8,ON,Whitby,50.100.201.230:9049,485589,43,542160108E21,cuba
1,39120,MS,Natchez,100.89.60.21:5501,485611,47,998070109352,egypt
1,39204,MS,Jackson,100.89.56.110:49157,486426,60,000051F20875,egypt
1,93247,CA,Lindsay,10.64.136.230:5500,486714,60,580050937479,germany
112,110032,112,NEW DELHI,10.20.60.187:9004,452917,39,542160103C04,ghana
1,11234,NY,Brooklyn,10.64.5.13:5500,487324,60,580050963491,israel
1,39474,MS,PRENTISS,10.8.92.127:5501,488138,60,998070399409,germany
1,34606,FL,Spring Hill,10.64.82.20:5501,488283,60,580050881909,israel
0,M8V 2E8,ON,Toronto,70.28.65.209:9234,488304,43,5421601085DC,angola
0,L7L 7B6,ON,Burlington,74.12.40.49:9104,488308,43,542160108F66,wales
1,92562,CA,MURRIETTA,100.89.111.11:5501,486486,89,998070406733,israel
1,75657,TX,Jefferson,10.64.146.66:5501,486908,60,580050918750,ghana
1,35613,AL,ATHENS,100.83.197.226:5501,489031,60,00004D9B46D8,egypt
1,98370,WA,POULSBO,100.88.30.233:10397,489127,18,5421601072C9,egypt
1,94544,CA,Hayward,10.64.149.114:5500,489231,60,580052924798,ghana
1,66111,KS,KANSAS CITY,100.83.188.5:5501,490342,60,000051D358C9,egypt
0,R3G 3E4,MB,WINNIPEG,50.71.52.182:5348,491180,43,54216070080A,peru
1,64124,MO,Kansas City,100.89.54.195:49592,491928,60,000051F2D479,egypt
1,02892,RI,Richmond,10.64.134.237:5500,492401,60,580051034342,peru
1,32773,FL,Sanford,10.8.90.121:5501,492429,60,998070170941,peru
1,92241,CA,Dessert Hot Springs,10.64.212.117:5501,492496,60,580050961362,israel
0,K0H 1T0,ON,Godfrey,45.78.121.0:10990,492600,43,542160109D8A,peru
1,12061,NY,East Greenbush,10.8.92.129:5501,492738,60,998070402880,egypt
1,92003,CA,Bonsall,100.83.217.2:5501,492981,60,00004D9D3ABB,egypt
1,28530,NC,GRIFTON,10.64.210.198:5501,492995,60,580052928765,ghana
1,84770,57,Saint George,100.89.34.246:49375,493044,47,000051DE2A0B,egypt
1,75070,57,McKinney,100.88.199.190:50639,493077,47,000047AF77B3,egypt
1,92241,CA,Desert Hot Springs,10.64.212.132:5501,493184,60,580050918164,germany
1,63901,MO,Poplar Bluff,10.64.212.178:5501,494025,60,580052900368,egypt
1,91010,CA,Duarte,10.64.215.75:5501,494540,60,580051035240,israel
0,T3J 4Y5,AB,Calgary,68.145.144.14:9238,494605,43,542160109E84,wales
1,34974,FL,OKEECHOBEE,71.199.217.157:10027,494750,20,542160103060,wales
1,93230,CA,Hanford,10.64.146.34:5500,494998,60,580051034151,peru
112,110095,ND,New Delhi,182.68.56.238:10569,438147,39,5421601051E3,peru
0,L9C5L3,ON,Hamilton,70.50.136.221:9298,495162,43,54216010A1FC,ghana
1,07106,NJ,Newark,100.89.129.86:9243,495486,31,542160109ED1,peru
1,30315,GA,ATLANTA,100.89.38.147:49400,495525,75,000051DE2AC9,egypt
1,71251,LA,Jonesboro,10.64.213.153:5501,495590,60,580050911938,israel
0,L9R 0K5,ON,Alliston,65.95.55.0:9250,495688,43,54216010A1C8,wales
1,92284,CA,Yucca Valley,10.64.211.188:5501,495756,60,580053012304,germany
1,27589,NC,Warrenton,10.8.96.163:5501,496083,60,998070542768,peru
1,70660,LA,SINGER,10.20.21.63:5500,496567,56,524042279944,egypt
1,70601,LA,LAKE CHARLES,10.20.26.119:5500,496585,56,524042993619,germany
1,06606,CT,Stratford,100.89.140.185:9534,496865,31,54216010A0DF,ghana
1,30253,GA,McDonough,10.64.212.81:5501,496951,60,580050956321,peru
1,46001,IN,Alexandria,10.64.211.109:5500,497372,60,580051034136,ghana
1,95965,CA,Oroville,10.64.210.173:5501,497510,60,580053271264,israel
1,84074,57,Tooele,100.89.19.38:50362,497660,47,000051DCE416,egypt
1,00641,PR,UTUADO,10.64.212.28:5500,497106,60,580053140485,germany
1,29649,SC,Greenwood,100.89.33.158:49488,497774,47,000051D8D46E,israel
0,V2N6A6,BC,Prince George,209.52.88.26:21506,497720,88,54216000E731,angola
1,31204,GA,Macon,100.89.33.24:49480,497922,75,000051DE2CF5,egypt
1,20774,MD,Upper Marlboro ,10.64.210.199:5500,498002,60,580053231565,egypt
1,92705,CA,Santa Ana,10.64.214.235:5500,498256,60,580053256984,egypt
1,32034,FL,FERNANDINA BEACH,10.20.26.156:5500,498636,56,524042966011,peru
1,32034,FL,FERNANDINA BEACH,10.20.41.208:5500,498707,56,524043497255,ghana
1,32073,FL,ORANGE PARK,10.20.24.225:5500,498882,56,524042996448,peru
1,32233,FL,ATLANTIC BEACH,10.20.44.163:5500,499296,56,524043490441,germany
1,32256,FL,JACKSONVILLE,10.20.22.48:5500,499370,56,524042968694,egypt
1,55372,MN,PRIOR LAKE,100.88.43.132:5501,499908,56,00003E4C24AB,israel
1,72562,AR,Newark,10.64.210.229:5501,500093,60,580053009227,peru
1,30058,GA,LITLHONIA,100.89.46.84:49300,500172,75,000051F2AAD1,egypt
1,00778,PR,GURABO,10.64.219.115:5501,500549,60,580053315129,israel
1,30188,GA,WOODSTOCK,100.89.50.168:49708,500677,75,000051F2AC30,israel
1,70535,LA,Eunice,10.64.209.24:5500,500774,60,580053242216,germany
1,21054,MD,Gambrills,100.89.28.249:49341,500808,75,000051F2A66C,egypt
1,39669,MS,WOODVILLE,10.8.96.81:5501,500817,60,998070527397,peru
1,92225,CA,Blythe,10.64.210.51:5500,500941,60,580053231003,peru
1,35401,AL,Tuscaloosa,100.89.28.154:49155,501171,60,000051F2A433,israel
0,L1Z 2C7,ON,Ajax,10.64.142.165:9154,501516,43,54216010A998,ghana
1,78504,TX,McAllen,100.89.146.224:1234,501764,35,650073203692,israel
1,00959,PR,BAYAMON,10.64.220.228:5500,502067,60,580053388001,peru
1,00612,PR,ARECIBO,10.64.223.192:5501,502187,60,580053232662,israel
1,30248,GA,LOCUST GROVE,100.89.192.245:1234,502305,75,650078233165,israel
1,71295,LA,Winnsboro,10.8.95.72:5501,502616,60,998070517018,germany
1,74547,OK,HARTSHORNE,10.20.35.111:5500,502668,56,524043313395,peru
0,L4N 6M7,ON,Barrie,99.233.202.146:9262,502760,43,54216010A8EB,cuba
1,95630,CA,Folsom,10.64.221.152:5501,502898,60,580053359937,germany
1,33584,FL,Seffner,100.89.148.76:1234,503237,75,650073220720,israel
1,39743,MS,CRAWFORD,10.8.98.197:5501,503437,60,998070703949,germany
1,30045,GA,LAWRENCEVILLE,100.89.157.172:49457,503534,75,000051F157D9,egypt
1,76123,57,Fort Worth,100.88.136.153:50485,503807,47,000047A59551,germany
1,38753,MS,Inverness,100.89.47.122:49377,503971,47,000051F2AAEA,egypt
1,30228,GA,HAMPTON,100.89.12.202:49385,504078,75,000051DCADF2,egypt
1,71730,AR,EL DORADO,100.83.200.112:5500,504287,60,00004D9D41DA,ghana
0,k7k8n8,ON,Kingston,10.64.30.13:1234,504409,112,000000589409,israel
1,29210,SC,Columbia,10.64.222.216:5500,504425,60,580053390577,peru
1,30058,GA,LITHONIA ,100.89.158.120:49489,504521,75,000051F2F49D,egypt
1,78738,TX,Lakeway,100.89.151.2:1234,504850,47,650073144680,egypt
1,92078,CA,San Marcos,10.64.219.129:5500,505009,60,580053325920,egypt
1,30316,GA,ATLANTA ,10.8.98.27:5501,505145,60,998070584760,egypt
1,30022,GA,ALPHARETTA,100.89.158.137:49690,505393,75,000051F152CA,israel
1,38732,MS,Cleveland,10.64.5.212:5500,505483,60,580050919683,israel
1,30236,GA,JONESBORO,100.89.175.111:50058,505532,75,000051F1F209,israel
1,92410,CA,San Bernadino,10.64.224.2:5500,505678,60,580053390072,ghana
1,06511,CT,New Haven,10.64.217.49:5500,505709,60,580053383788,israel
1,21212,MD,BALTIMORE,10.64.223.119:5500,505722,60,580053388092,peru
1,,,,10.64.141.70:33794,505742,118,753090156504,peru
1,75056,TX,The Colony,100.89.54.95:49211,505783,47,000051F2D506,egypt
1,92509,CA,Riverside,10.64.223.59:5500,505790,60,580053389595,egypt
1,75241,TX,Dallas,100.89.105.162:5501,505836,22,998070394384,israel
1,30228,GA,HAMPTON,100.89.161.19:49956,506033,75,000051F2F6F9,israel
1,47340,IN,Farmland,100.89.169.185:49560,506196,60,000051F1C787,egypt
1,36532,AL,Fairhope,100.89.206.160:5500,506251,32,998070951290,israel
1,78653,TX,Manor,100.89.145.221:1234,506266,47,650073187242,egypt
0,V4B 3J8,BC,White Rock,50.98.176.88:9087,506287,43,54216010AC2E,peru
1,20747,MD,District Heights,100.89.29.163:50161,506682,75,000051F2A40E,israel
1,84128,57,West Valley City,100.89.145.193:1234,506872,47,650073216470,egypt
1,93612,CA,Clovis,10.64.221.79:5500,507034,60,580053389868,israel
1,19707,DE,Hockessin,10.155.240.114:5500,507078,31,000045922AEB,egypt
1,95403,CA,Santa Rosa,10.64.218.13:5500,507170,60,580053343840,egypt
1,32712,FL,Apopka,10.20.2.51:5501,506105,3,524041143729,ghana
1,30040,GA,CUMMING,100.89.158.247:49703,507186,75,000051F2FC44,egypt
1,98664,WA,Vancouver,100.89.176.116:49173,507235,60,000051F1B418,egypt
1,00792,PR,HUMACAO,10.64.217.189:5500,507342,60,580053391740,peru
1,00778,PR,GURABO,10.64.220.77:5500,507475,60,580053304719,germany
1,20743,MD,CAPITOL HEIGHTS,100.89.56.217:49518,507486,75,000051F2081A,egypt
1,36303,AL,DOTHAN,10.64.221.217:5500,507718,60,580053315061,ghana
1,20110,VA,MANASSAS,100.89.169.58:49862,507811,75,000051F1CAC8,egypt
1,92821,CA,Brea,10.64.224.15:5500,507969,60,580053230757,ghana
1,00714,PR,Arroyo,10.64.218.74:5500,508359,60,580053387417,ghana
1,30312,GA,Atlanta,100.89.171.13:49167,508371,75,000051F1C7CE,egypt
1,02840,RI,Newport,10.8.95.223:5501,508394,60,998070541430,peru
1,32442,FL,GRAND RIDGE,10.8.99.139:5501,508627,60,998070651205,ghana
1,95356,CA,Modesto,10.64.217.223:5500,508770,60,580053369738,israel
1,93063,CA,Simi Valley,10.64.218.221:5500,508773,60,580053341976,germany
1,48187,CA,Canton,10.64.217.182:5500,420858,60,580053355117,israel
1,32312,FL,TALLAHASSEE,100.89.145.251:1234,509218,174,650073231560,israel
1,94590,CA,Vallejo,10.64.217.241:5500,509422,60,580053304628,germany
1,33777,FL,Seminole,10.64.222.139:5500,509653,60,580053343873,ghana
1,20745,MD,Oxon Hill,100.89.171.201:49332,509760,75,000051F1EE68,israel
1,30213,GA,FAIRBURN,100.89.158.172:49383,509859,75,000051F1301F,israel
1,30296,GA,Riverdale,100.89.162.231:49574,509895,75,000051F2FB08,israel
0,B1K 2X1,NS,Mira Gut,216.118.145.236:9427,510030,43,54216010BED0,ghana
1,95476,CA,Sonoma,10.64.219.49:5500,510193,60,580053250052,germany
1,94559,CA,Napa,10.8.97.241:5501,510342,60,998070628088,ghana
1,02904,RI,Providence,10.64.218.110:5500,510401,60,580053385833,ghana
1,34481,FL,Ocala,10.64.216.162:5500,510528,60,580053389025,egypt
1,93534,CA,Lancaster ,10.64.221.33:5500,510546,60,580053350258,egypt
1,92708,1,Fountain Valley,10.64.214.48:5501,510560,97,580050913827,ghana
1,32750,FL,Longwood,10.65.109.242:5501,510790,60,580053237828,ghana
1,30296,GA,RIVERDALE ,100.89.171.171:49434,510898,75,000051F1C9AC,egypt
1,30223,GA,GRIFFIN,100.89.174.255:49459,510905,75,000051F1C33D,egypt
1,32819,FL,Orlando,71.142.232.21:4096,510966,18,54216000EADC,peru
1,90023,CA,Los Angeles,10.64.220.254:5500,511198,60,580053365223,egypt
1,20854,MD,Potomac,100.89.173.80:49876,511230,75,000051F1C7D5,israel
1,70811,LA,Baton Rouge,10.64.221.113:5500,511244,60,580053270878,egypt
1,80909,CO,Colorado Springs,100.89.193.79:1234,511349,60,650073780293,israel
1,28501,NC,Kinston,10.8.102.19:5501,511506,60,998070717691,egypt
1,92308,CA,Apple Valley,10.64.218.40:5500,511586,60,580053372161,ghana
1,36785,AL,TYLER,10.8.99.122:5501,511621,60,998070716446,egypt
1,38732,MS,Cleveland,10.64.220.19:5500,426182,60,580053387110,egypt
1,30045,GA,LAWRENCEVILLE,100.89.165.108:49699,511795,75,000051F19D03,egypt
1,30238,GA,JONESBORO,100.89.162.43:49879,511918,75,000051F164BF,israel
1,92058,CA,Oceanside,10.64.221.111:5501,512006,60,580053333296,israel
1,91345,CA,Mission Hills,10.65.111.151:5500,512197,60,580053353880,peru
1,32712,FL,Apopka,10.64.218.24:5500,512266,60,580053341950,ghana
1,92201,CA,Indio,10.65.115.123:5500,512722,60,580053257289,egypt
1,92264,CA,Palm Springs,10.64.219.130:5500,512890,60,580053343386,ghana
0,Guelph ,ON,Kitchener,64.228.153.232:10574,512944,43,54216010C517,angola
0,T6C3Z3,AB,Edmonton,199.126.193.222:9038,513138,43,54216010C61D,wales
1,18509,PA,Scranton,10.8.104.147:5501,513229,60,998071087128,peru
1,54810,WI,Balsam Lake,100.89.206.106:5501,442613,12,998070949625,israel
1,37918,TN,Knoxville,10.64.214.0:5500,513541,60,580053315038,israel
1,32068,FL,MIDDLEBURG,100.89.150.66:1234,505632,174,650073238045,israel
1,28327,NC,Carthage,10.8.102.61:5501,513606,60,998070731916,egypt
0,L6P 4G1,ON,Brampton,99.234.146.110:9193,513754,43,54216010CAC0,angola
1,20735,MD,Clinton,100.89.166.47:49248,513758,75,000051F19F76,israel
1,92553,CA,Moreno Valley,10.65.108.238:5500,513832,60,580053388183,israel
0,L9C1S,ON,Hamilton,99.236.107.93:9457,514186,43,54216010CA27,peru
1,92395,CA,Victorville,10.65.116.252:5500,514772,60,580053391518,germany
1,79415,TX,Lubbock,100.89.197.88:1234,514923,60,650073976917,egypt
1,87506,NM,Santa fe,10.20.41.207:5500,514961,56,524043495457,israel
1,92543,CA,Hemet,10.65.109.89:5500,515075,60,580053253353,egypt
1,36562,AL,Perdido,10.64.220.222:5500,515124,60,580053365140,egypt
1,00683,PR,SAN GERMAN,10.65.115.95:5500,515240,60,580053231920,peru
1,92395,CA,Victorville,10.65.111.148:5501,515313,60,580053332942,israel
1,11952,1,Mattituck,100.83.187.54:5501,506126,10,000051D371C6,ghana
1,92392,CA,Victorville,10.65.115.61:5500,515661,60,580053315053,ghana
1,08043,NJ,Voorhees,100.89.163.133:49154,515749,75,000051F156CB,israel
2,2107,NSW,Whale Beach,10.20.51.2:5500,515805,37,580050222682,germany
1,92583,CA,San Jacinto,10.65.111.121:5500,515996,60,580053388621,egypt
1,92337,CA,Fontana,10.64.219.100:5500,516027,60,580053308199,israel
0,M1L4S1,ON,North York,174.93.31.119:9238,516065,43,54216010C6EB,peru
1,85621,AZ,Nogales,100.89.174.188:49281,516104,60,000051F1D0D4,egypt
1,00678,PR,QUEBRADILLAS,10.64.216.221:5500,516114,60,580053386690,germany
1,84128,57,West Valley,100.89.187.112:1234,516279,47,650073779717,israel
1,39071,MS,FLORA,10.8.102.170:5501,430848,60,998070764669,ghana
1,00680,PR,MAYAGUEZ,10.64.218.127:5500,516422,60,580053343493,egypt
1,21113,MD,Odenton,10.64.212.61:5500,516451,60,580053305807,egypt
1,92543,CA,Hemet,10.65.113.59:5500,516460,60,580053232266,peru
1,19720,DE,New Castle,10.64.221.8:5500,516569,60,580053325813,germany
1,19123,PA,PHILADELPHIA,10.8.105.5:5501,456342,60,998071033163,germany
1,85019,AZ,Phoenix,100.89.149.241:1234,516779,75,650073276052,egypt
1,00745,PR,RIO GRANDE,10.64.216.222:5501,516914,60,580053325821,egypt
1,92543,CA,Hemet,10.65.109.162:5501,516981,60,580053275901,peru
1,78045,TX,Laredo,100.89.152.112:1234,517281,60,650073234135,egypt
1,28166,NC,Troutman,173.92.238.33:11866,517584,56,54216010D271,wales
1,92582,CA,SAN JACINTO,,10.65.115.137:5500,517630,60,580053279218,peru
1,85128,AZ,Coolidge,100.89.194.62:1234,517927,47,650078232316,egypt
1,20748,MD,Temple Hills,10.64.221.174:5500,517932,60,580053349847,israel
1,85043,AZ,Phoenix,100.89.217.152:1234,517977,75,650078318826,israel
1,92543,CA,Hemet,10.65.107.29:5500,518090,60,580053391658,peru
1,93722,CA,Fresno,10.65.112.17:5500,518226,60,580053367302,israel
1,93722,CA,Fresno,10.65.110.6:5500,518246,60,580053390775,germany
1,81006,CO,Pueblo,100.89.161.201:49563,518394,47,000051F2F58B,egypt
1,90631,CA,La Habra,10.65.110.56:5500,518416,60,580053272635,germany
0,N5C3J6,ON,Ingersoll,72.136.101.111:57177,518504,43,54216010C714,ghana
0,L9T 5W7,ON,Milton,173.206.72.238:9518,518619,43,54216010C754,wales
1,27529,NC,Garner,10.64.223.181:5501,518623,60,580053344947,israel
1,00685,PR,SAN SEBASTIAN,10.64.220.170:5500,518642,60,580053386237,egypt
1,15644,PA,JEANNETTE,10.64.220.178:5500,518695,60,580053325730,germany
1,10516,NY,COLD SPRING,10.8.105.220:5501,518754,60,998071168795,egypt
1,00983,PR,CAROLINA,10.64.216.254:5500,518955,60,580053369415,israel
1,07621,NJ,Bergenfeld,10.65.112.200:5500,519135,60,580053278186,egypt
1,74957,OK,Smithville,10.64.69.118:1234,519222,60,335052290902,ghana
1,90262,CA,lynwood,10.64.209.38:5500,447137,60,580053270837,ghana
1,85128,57,Coolidge,100.89.194.66:1234,519338,47,650078026379,israel
1,85326,AZ,Buckeye,100.89.149.251:1234,519232,75,650073220886,israel
1,00739,PR,CIDRA,10.65.115.187:5501,519405,60,580053270985,egypt
1,71646,AR,HAMBURG,10.65.108.1:5500,519407,60,580053360455,germany
1,90631,CA,La Habra,10.65.107.255:5501,519487,60,580053343931,egypt
1,75056,57,The Colony,100.89.196.108:1234,519557,47,650073858198,israel
0,K1V2J1,ON,Ottawa,72.141.244.98:9451,519668,43,54216010DBDD,cuba
0,V1M2B1,BC,Langley,108.172.50.113:9152,519933,43,54216010C696,cuba
1,13410,NY,Nelliston,10.8.101.52:5501,520094,60,998070733748,israel
1,08043,NJ,Voorhees,100.89.38.50:49823,520150,75,000051D8D4F5,egypt
0,V2E 2G2,BC,Kamlpops,23.16.154.189:9192,520290,43,54216010DBC0,angola
1,41339,KY,Jackson,100.89.207.30:1234,520347,60,650073237807,israel
1,95357,CA,Modesto,10.65.112.5:5501,520438,60,580053540155,ghana
1,70058,LA,Harvey,100.89.146.171:1234,520535,75,650073229499,egypt
1,81004,CO,Pueblo,10.64.169.111:4097,520553,47,44BA1A1349B6,peru
1,00953,PR,Toa Alta,10.65.113.38:5500,520597,60,580053367237,egypt
1,75757,TX,Bullard,10.8.108.147:5501,520992,60,998071518122,egypt
1,70126,LA,New Orleans,10.64.63.192:1234,521005,75,518005205071,egypt
1,01468,MA,Templeton,10.64.220.75:5500,521117,60,580053351306,germany
1,78628,TX,GEORGETOWN ,10.64.223.173:5500,521156,60,580053370884,israel
1,31907,GA,Columbus,100.89.188.95:1234,521299,75,650073819034,egypt
1,70087,LA,Saint Rose,100.89.146.210:1234,521439,75,650073321783,egypt
1,81001,CO,Pueblo,10.65.8.194:4097,521445,47,44BA1A1F6CBE,ghana
1,92234,CA,Cathedral City,100.83.204.217:5500,521591,60,000051E58DB1,ghana
1,39176,MS,VAIDEN,10.8.100.69:5501,474780,60,998070954500,israel
1,38866,MS,Saltillo,10.8.101.133:5501,521806,60,998070764792,egypt
1,39305,MS,MERIDIAN ,10.8.104.68:5501,522052,60,998071085205,ghana
1,22191,VA,woodbridge,10.64.219.147:5500,522111,60,580053341885,egypt
1,81007,CO,Pueblo,100.89.191.100:1234,522274,47,650078145278,israel
1,40011,KY,Campbellsburg,10.64.218.80:5500,507829,60,580053301939,ghana
0,L7B 0E5,ON,King,99.249.29.153:9147,522589,43,542160000612,angola
1,39756,MS,PRAIRIE,10.8.101.36:5501,458017,60,998070731858,germany
1,39194,,,10.65.31.58:4097,522839,47,44BA1A21BE53,germany
1,39367,,,10.65.38.255:4097,522847,47,44BA1A1FAD41,germany
1,83401,,,10.64.184.126:4097,522891,47,44BA1A1348FA,germany
1,29624,,,10.65.104.116:4097,522910,47,44BA1A217BD7,israel
1,29620,,,10.65.24.200:4097,522919,47,44BA1A1E7B3D,israel
1,29010,,,10.65.48.189:4097,522946,47,44BA1A11542D,ghana
1,29010,,,10.65.92.32:4097,522947,47,44BA1A22DD7D,germany
1,29128,,,10.65.39.159:4097,522962,47,45AB51D193D2,germany
1,70760,LA,New Roads,100.89.151.55:1234,523119,75,650073231578,israel
1,85282,AZ,Tempe,100.89.192.160:1234,523329,75,650073847993,egypt
1,92342,CA,Victorville,100.83.161.162:5501,523386,60,000051E5AC67,egypt
1,77520,TX,Baytown,100.89.150.154:1234,523477,75,650073152964,israel
1,86442,AZ,Bullhead City,10.65.106.120:5501,523505,60,580053543647,egypt
1,93535,CA,Lancaster,10.65.110.116:5500,523568,60,580053385874,germany
1,25704,WV,Huntington,100.89.150.151:1234,523634,60,650073141942,egypt
1,93535,CA,Lancaster,10.65.111.95:5500,523682,60,580053390130,germany
1,32301,FL,TALLAHASSEE,100.89.147.191:1234,501304,174,650073229192,israel
1,70501,LA,Lafayette,100.89.246.18:1234,524097,75,650078742157,israel
1,70812,LA,Baton Rouge,100.89.210.97:1234,524303,75,650078245938,egypt
1,81007,,,10.65.9.158:4097,524306,47,44BA1A1EFA78,egypt
1,30457,GA,Soperton,10.64.218.162:5500,524504,60,580053389736,germany
1,76123,57,Fort Worth,100.89.245.1:1234,524541,47,650078621666,israel
0,L1C4L5,ON,Bowmanville,69.156.102.130:9267,524851,43,5421600005C3,cuba
1,37216,TN,NASHVILLE,100.89.214.218:1234,525169,20,650078261588,egypt
1,75002,TX,Allen,100.89.246.147:1234,525470,75,650078383150,israel
1,01020,MA,Chicopee,10.8.105.47:5501,525474,60,998071176137,germany
1,75154,TX,Red Oak,100.89.246.119:1234,525721,75,650078658650,israel
1,84040,,,10.65.74.54:4097,525742,47,45AB51C6FCF4,egypt
1,71646,AR,Hamburg,10.65.110.86:5500,525785,60,580053268963,egypt
1,84302,57,Brigham City,100.89.244.199:1234,525856,47,650078497844,israel
1,85351,AZ,Sun City,100.89.194.94:1234,526069,75,650073973187,egypt
1,92867,CA,Orange,10.64.216.214:5500,526145,60,580052905987,germany
1,02780,MA,Taunton,100.83.195.193:5501,526261,60,000042F3FC82,ghana
1,94301,CA,Palo Alto,100.89.62.115:1234,493886,10,000000535319,ghana
1,34654,FL,New Port Richy,10.64.221.162:5500,453385,60,580053266868,ghana
1,19141,PA,Philadelphia,100.89.210.217:1234,526384,75,650078035446,israel
1,46254,IN,Indianapolis,157.130.99.154:46633,526549,10,54216010DCAC,peru
1,77093,TX,Houston,100.89.208.222:1234,526553,75,650073801537,israel
1,92345,CA,Hesperia,10.65.106.125:5501,526862,60,580053561425,peru
1,23805,,,10.65.56.252:4097,527006,47,45AB51D0E0BD,ghana
1,29440,SC,Georgetown,10.64.204.138:1234,527350,60,335052398010,germany
1,23150,VA,SANDSTONE,10.65.32.244:4097,527362,47,45AB51D0E650,germany
0,T9M 1S2,AB,Cold Lake,24.142.24.183:9287,527406,43,54216010D56C,cuba
1,00674,PR,MANATI,10.65.107.252:5501,527726,60,580053359887,peru
1,91791,CA,West Covina ,10.65.107.86:5500,527802,60,580053303414,germany
1,85546,57,Safford,100.89.226.7:1234,528049,47,650078245961,israel
1,95307,CA,Ceres,100.89.225.175:1234,528203,60,650078010290,egypt
1,78721,TX,Austin,100.89.246.128:1234,528283,75,650078684219,israel
1,21237,MD,Baltimore ,10.64.209.30:5500,482010,60,580053325409,peru
1,39452,MS,Lucedale,10.64.1.150:5501,528476,3,580051010029,egypt
1,92648,1,Huntington Beach,10.65.181.172:5501,528751,97,580053551491,germany
1,39440,MS,Laurel,10.64.39.37:1234,529149,60,335051862586,israel
1,76502,57,Temple,100.89.216.232:1234,529264,47,650078261794,israel
1,66528,KS,Quenemo,71.34.193.87:1234,528065,92,B8B7D700376B,egypt
1,23607,,,10.65.55.146:4097,529705,47,44BA1A23408F,peru
1,00612,PR,ARECIBO,10.64.216.240:5500,529746,60,580053322471,ghana
1,30034,GA,Decatur,100.89.231.219:1234,529901,75,650078302762,israel
1,34982,FL,Fort Pierce,10.65.114.71:5500,529973,60,580053364226,israel
1,42104,KY,Bowling Green,100.89.228.29:1234,530123,60,650078268443,egypt
1,84041,57,Layton,100.89.210.197:1234,530216,47,650078356206,egypt
1,32533,FL,Cantonment,10.20.26.75:5500,422835,32,524042967431,egypt
1,85139,AZ,Maricopa,100.89.218.74:1234,530296,75,650078256604,israel
1,85138,AZ,Maricopa,100.89.218.83:1234,530474,75,650078354037,israel
1,00674,PR,Manati,10.65.107.91:5500,530544,60,580053233876,peru
154,52140,Estado de Mexico,Metepec,189.189.96.35:10281,530577,198,54216010D604,angola
1,86323,AZ,Chino Valley,10.65.109.168:5500,530593,60,580053243206,israel
0,t4t 2a2,AB,Rocky Mountain House,52.124.12.174:4801,530605,135,542160701001,ghana
1,70127,LA,New Orleans,100.89.218.152:1234,530933,75,650078366411,israel
1,80219,,,10.65.66.3:4097,531243,47,413584967A80,egypt
1,91752,CA,Eastvale,10.65.112.29:5500,531247,60,580053276537,ghana
1,02907,RI,Providence,10.65.181.141:5501,531514,60,580053736704,peru
1,84044,57,Magna,100.89.214.188:1234,531637,47,650078294845,israel
1,81005,CO,Pueblo,10.65.10.89:4097,531809,47,4135849454A8,egypt
1,28301,,,10.65.32.116:4097,531946,47,4135849441F7,germany
1,21601,MD,Easton,10.8.112.228:5501,531967,60,998071716379,israel
1,28314,NC,Fayetteville,10.65.35.130:4097,532273,47,413584935443,peru
1,45240,OH,Cincinnati,100.83.8.127:1234,532338,60,650078383432,israel
1,92223,CA,Cherry Valley,10.65.113.19:5500,532455,60,580053257644,israel
1,85035,AZ,Phoenix,100.89.187.159:1234,532521,75,650073959194,israel
1,27529,NC,Garner,10.64.221.41:5500,532652,60,580053232373,ghana
1,28364,NC,Maxton,10.64.26.127:1234,532782,60,335051290622,egypt
1,20018,DC,Washington,100.89.193.34:1234,532850,75,650078026486,egypt
1,20904,MD,Silver Spring,100.89.193.43:1234,533345,75,650073934452,israel
1,30120,GA,Cartersville,100.83.8.116:1234,533970,75,650078653602,egypt
1,76020,TX,Azle,100.89.245.93:1234,534187,47,650078567042,egypt
0,L4L0H9,ON,Woodbridge,135.0.193.133:9119,534622,43,542160000477,cuba
1,84107,UT,Salt Lake City,100.83.12.134:1234,534901,47,650078564726,israel
1,84067,,,10.65.30.243:4097,535145,47,413584935FB4,israel
1,78401,TX,Corpus Christi,100.89.225.254:1234,535170,12,650073970183,egypt
1,84040,,,10.65.7.221:4097,535509,47,413584934924,israel
1,70761,LA,Norwood,10.64.196.139:1234,535870,60,335052299465,egypt
1,89156,NV,North Las Vegas,100.83.13.62:1234,535925,60,650078452500,israel
1,85033,AZ,Phoenix,100.83.8.54:1234,536110,75,650078611618,israel
1,21061,MD,GLEN BURNIE,100.83.15.147:1234,536166,75,650078452567,israel
1,30039,GA,Snellville,100.89.255.65:1234,536173,75,650078676140,israel
0,T7Z 1Y4,AB,Stony Plain,68.150.12.160:9283,536418,43,54216000044B,cuba
1,77061,TX,Houston,100.89.232.143:1234,536538,75,650078258642,israel
1,71913,AR,Hot Springs National Park,10.64.223.97:5500,536543,60,580053365496,ghana
1,84062,UT,Pleasant Grove,10.65.102.85:4097,536875,47,44BA1A1ED746,ghana
1,30034,GA,Decatur,100.89.246.220:1234,536892,75,650078448524,israel
1,90041,CA,Los Angeles ,10.65.116.136:5500,537004,60,580053365199,ghana
1,77591,TX,Texas City,100.83.13.35:1234,537027,47,650078620726,egypt
1,77587,TX,South Houston,100.89.229.67:1234,537319,75,650073800646,israel
1,91406,CA,Van Nuys,10.65.114.20:5501,537651,60,580053562845,ghana
1,84044,UT,Magna,100.89.223.118:1234,537664,75,650078187023,israel
1,30337,GA,College park,100.89.189.135:1234,537811,75,650073774437,israel
0,M6M1C5,ON,Toronto,108.175.234.30:1234,533841,43,000000637376,peru
1,00969,PR,Guaynabo,10.64.64.118:1234,538293,60,518005204801,israel
1,81067,CO,Rocky Ford,100.83.8.70:1234,538419,47,650078385015,israel
1,30296,GA,Riverdale,100.89.209.48:1234,538827,75,650073892148,israel
1,30228,GA,Hampton,100.89.216.149:1234,538965,75,650078149064,israel
1,17331,PA,Hanover,100.89.234.89:1234,539050,75,650078296238,egypt
1,30238,GA,Jonesboro,100.89.216.52:1234,539185,75,650078366353,israel
1,27909,,,10.65.224.127:4097,539263,47,41358496F97A,germany
1,94804,CA,Richmond,10.8.112.88:5501,539363,60,998071725800,peru
1,84115,UT,Salt Lake City,100.83.16.167:1234,539629,47,650078496994,egypt
1,39437,MS,Ellisville,10.64.199.34:1234,539797,60,335052469894,egypt
1,39474,MS,PRENTISS,10.8.105.45:5501,540427,60,998071174587,israel
1,30064,GA,Marietta,100.83.15.15:1234,540696,75,650078407520,israel
1,75853,TX,Montalba,10.64.199.104:1234,540781,60,335052486484,ghana
1,87120,NM,ALBUQUERQUE,100.83.53.245:5501,541269,60,998071492146,israel
1,08087,CT,Little Egg Harbor,100.83.66.18:9262,541298,31,542160004952,peru
1,29118,SC,Orangeburg,10.64.198.93:1234,541505,60,335052482046,egypt
1,36830,AL,Auburn,100.89.195.179:1234,541571,60,650078120792,egypt
1,43062,OH,Pataskala,100.89.233.101:1234,541602,60,650073908977,egypt
1,77449,TX,Katy,100.83.130.114:1234,542259,60,636094807318,israel
1,60411,IL,CHICAGO HEIGHTS,10.64.217.96:5501,542763,47,580053305591,peru
1,20707,MD,Laurel,100.83.126.150:1234,542903,75,636094618756,egypt
1,75216,TX,Dallas,100.83.15.57:1234,543588,75,650078564239,egypt
1,39095,MS,LEXINGTON,10.8.115.210:5500,544088,60,998072301064,egypt
1,30034,GA,DECATUR,100.89.198.89:1234,544197,75,650073766482,israel
1,78244,TX,San Antonio,100.83.125.113:1234,544204,75,636094203328,israel
1,30297,GA,Forest Park,100.83.116.161:1234,544360,75,636094219159,israel
1,20019,DC,Washington,100.89.146.180:1234,544625,75,650073204658,israel
1,84070,UT,Sandy,10.65.242.16:4097,544748,47,41358496B221,ghana
1,20759,MD,Fulton,100.89.208.66:1234,544794,75,650073891413,israel
1,39365,MS,Union,100.83.119.164:1234,544881,143,636094724877,israel
1,30315,GA,Atlanta,100.89.228.63:1234,545018,75,650078309395,israel
1,92128,CA,San Diego,10.64.216.114:5500,545100,60,580053343667,ghana
0,R2J0Y4,MB,Winnipeg,10.64.30.66:1234,544343,112,000000567405,ghana
1,30642,GA,Greensboro,10.64.198.17:1234,545685,60,335052463830,peru
1,95037,CA,Morgan Hill,100.89.232.152:1234,545958,12,650078159600,egypt
1,98802,WA,East Wenatchee,100.89.232.201:1234,546864,12,650078261711,israel
1,30058,GA,Lithonia,100.83.118.155:1234,547051,75,636094211883,israel
1,30039,GA,Snellville,100.83.118.185:1234,547192,75,636094634951,israel
1,76112,TX,Fort Worth,100.83.122.119:1234,547346,75,636094728613,egypt
1,30265,GA,NEWNAN,100.83.127.238:1234,547390,75,636094241641,israel
1,70070,LA,Luling,100.83.119.126:1234,547463,60,650077446925,israel
1,75042,TX,Garland,100.83.122.99:1234,547707,75,636094720644,israel
1,67207,KS,WICHITA,100.89.219.231:1234,547849,12,650078147712,egypt
1,21740,MD,Hagerston,100.89.232.156:1234,547909,12,650078300329,egypt
1,70811,LA,Baton Rouge,100.89.223.167:1234,548418,75,650078256687,egypt
1,01035,MA,Hadley,100.89.219.244:1234,548802,12,650078356511,egypt
1,70764,LA,Plaquemine,10.64.197.233:1234,549384,60,335052413967,ghana
1,84119,UT,West Valley City,100.83.134.226:1234,549387,47,636094734520,israel
1,12303,NY,Schenectady,100.89.232.154:1234,549461,12,650078226623,israel
1,42701,KY,Elizabethtown,100.89.232.199:1234,549739,12,650073807567,israel
1,84015,UT,Clearfield,100.83.134.214:1234,549825,47,636094619556,israel
1,08234,NJ,na,100.89.230.76:1234,549901,12,650078317281,egypt
1,29210,SC,Columbia,100.89.220.11:1234,549953,12,650078290041,egypt
1,45332,UT,	   HOLLANSBURG,10.8.117.226:5500,550340,60,998071961728,germany
1,42301,KY,Owensboro,100.83.17.70:1234,550459,60,650074839528,israel
1,84044,UT,Magna,100.83.122.249:1234,550801,47,636094220934,egypt
1,30809,GA,Evans,100.89.230.84:1234,550818,12,650078309502,israel
1,95831,CA,Sacramento,100.89.227.106:1234,550972,75,650078146524,egypt
1,30501,GA,Gainesville,100.89.219.233:1234,550986,12,650078144354,israel
0,R2X1M5,MB,Winnipeg,206.45.171.49:9217,551151,43,542160003CD5,angola
1,84070,UT,Sandy,10.65.57.39:4097,551199,47,45AB51CF4F6C,egypt
1,84404,,,10.66.10.59:4097,551345,47,4135849B8813,germany
1,08807,NJ,Bridgewater,100.89.230.95:1234,551613,12,650078148355,israel
1,08234,NJ,na,100.89.219.254:1234,551844,12,650078357121,israel
1,33308,FL,oakland park,100.89.230.62:1234,551850,12,650078296329,egypt
1,32114,FL,Daytona Beach,100.89.230.61:1234,551856,12,650078306482,israel
1,35235,AL,Birmingham,100.83.230.71:1234,551289,31,152100422531,israel
1,95678,CA,Roseville,100.83.121.163:1234,552260,75,636094710520,israel
1,17202,PA,Chambersburg,100.89.230.89:1234,552299,12,650078334468,israel
1,07652,NJ,Paramus,100.89.220.5:1234,552563,12,650078253031,israel
1,38930,MS,Greenwood,10.64.68.202:1234,552659,60,335052299846,israel
1,29180,,,10.66.132.20:4097,552826,47,41358498DA46,ghana
1,07421,NJ,Hewitt,100.89.251.105:1234,552860,60,650078608911,egypt
1,91767,CA,POMONA ,10.8.119.36:5501,553334,60,998072513809,egypt
1,98626,WA,Kelso ,100.83.232.51:1234,553391,60,152100297420,egypt
1,95203,CA,Stockton,100.89.227.102:1234,553414,75,650073893369,israel
1,00641,PR,Utuado,10.65.198.177:5501,553424,60,580053544835,egypt
1,36874,AL,Salem,100.83.247.92:1234,555049,60,152100416574,egypt
1,38901,MS,Grenada,10.66.68.225:4097,555772,47,4135849A4DBF,peru
1,84401,,,10.66.8.192:4097,555964,47,4135849B8BD1,ghana
1,29936,SC,Ridgeland,10.64.198.232:1234,556002,60,335052489785,ghana
1,39652,MS,MAGNOLIA,10.66.35.32:4097,556145,47,413584995146,ghana
1,29902,SC,Beaufort,10.64.195.1:1234,556177,60,335052474522,israel
1,44406,OH,Canfield,100.83.7.110:1234,547785,60,650078680860,egypt
242,20000,Maldonado,Maldonado,10.64.82.55:1234,556482,30,518005302316,israel
1,20001,DC,Washington,100.83.124.180:1234,556886,75,636094221023,egypt
1,33616,FL,Tampa,10.66.13.64:4097,557038,1,4135849AB459,tahiti
1,65052,MO,Linn Creek,100.83.247.120:1234,557144,60,636096123557,egypt
1,45417,OH,dayton,100.83.254.82:1234,557260,60,636098141169,israel
1,84043,UT,Lehi,10.64.208.4:1234,558036,47,307000161176,egypt
1,08324,NJ,na,100.89.230.48:1234,558443,12,650078316820,egypt
1,48340,MI,Pontiac,100.89.228.114:1234,558499,60,650073902731,egypt
1,31008,GA,Byron,10.8.118.111:5501,534729,60,998072676515,peru
1,08324,NJ,na,100.89.221.82:1234,558514,12,650078308348,israel
1,08234,NJ,na,100.89.221.51:1234,559092,12,650078307480,egypt
1,na,VA,na,100.89.221.94:1234,559230,12,650078290389,israel
0,V7K1L3,BC,North Vancouver,24.87.130.2:9215,559267,43,5421600047CC,ghana
1,08234,NJ,na,100.89.221.67:1234,559291,12,650073875051,israel
1,91405,CA,Van Nuys,100.83.38.60:5501,559495,97,998070617404,egypt
1,90274,CA,Palos Verdes,70.175.149.144:7555,498119,89,5421607011FE,ghana
1,21060,MD,Glen Burnie,10.8.115.181:5501,509754,60,998072365374,peru
1,08234,NJ,na,100.88.39.151:1234,561262,12,636096640600,egypt
1,NA,VA,NA,100.83.252.85:1234,561279,12,152100264065,egypt
1,08234,NJ,na,100.88.35.175:1234,561287,12,636096657935,egypt
1,NA,NJ,NA,100.88.35.105:1234,561301,12,636096664279,israel
1,08234,NJ,na,100.88.35.170:1234,561302,12,636096658065,egypt
1,NA,VA,NA,100.88.35.102:1234,561311,12,636096662190,israel
1,NA,VA,NA,100.88.33.201:1234,561369,12,636096633613,israel
1,NA,VA,NA,100.88.34.0:1234,561376,12,636096587132,egypt
1,70343,,,10.66.121.40:4097,561666,47,4135849E2A4A,germany
1,70517,LA,Breaux Bridge,100.83.229.173:1234,561755,60,152100264438,egypt
1,00698,PR,Yauco,10.65.149.127:1234,562456,60,307000171084,israel
242,20001,Maldonado,Maldonado,10.65.243.233:1234,563356,30,518004175770,israel
1,39474,MS,Prentiss,100.83.238.140:1234,563580,60,636099077610,egypt
1,31730,GA,Camilla,100.83.239.63:1234,563736,60,152100340543,egypt
1,77089,TX,HOUSTON,10.8.0.146:5501,436297,60,998072456272,germany
1,70805,LA,Baton Rouge,100.83.235.37:1234,563872,60,636099930156,israel
1,89156,NV,Las Vegas,100.83.249.251:1234,564010,75,636099078857,israel
1,12550,NY,Newburgh,100.83.239.182:1234,564043,60,636096118755,egypt
1,29829,SC,Graniteville,10.65.153.177:1234,564391,60,307000161663,israel
1,08234,NJ,na,100.88.48.95:1234,564452,12,152101490990,egypt
1,NA,VA,NA,100.88.43.218:1234,564548,12,152101486816,israel
1,08234,NJ,na,100.88.55.213:1234,564549,12,636096856743,egypt
1,08234,NJ,na,100.88.48.119:1234,564562,12,152102072995,israel
1,72211,AR,Little Rock,100.83.244.123:1234,564567,143,152100293213,israel
1,75068,TX,Little Elm,100.88.34.173:1234,564587,60,636096633530,israel
1,NA,VA,NA,100.88.43.204:1234,564590,12,152101487426,israel
1,30350,GA,Atlanta,100.83.234.250:1234,564592,75,636099933580,egypt
1,08234,NJ,na,100.88.58.47:1234,564743,12,636096879042,israel
1,NA,VA,NA,100.88.54.244:1234,564749,12,636096856305,egypt
1,78006,TX,BOERNE,100.83.89.63:5500,564753,12,998072722657,egypt
1,08234,NJ,na,100.88.55.34:1234,564771,12,636096878846,israel
1,08234,NJ,na,100.88.58.75:1234,564768,12,636096878572,israel
1,08234,NJ,na,100.88.55.204:1234,564784,12,636096878291,israel
1,08234,NJ,na,100.88.58.226:1234,564792,12,636096856644,israel
1,22079,VA,LORTON,100.88.175.6:1234,565079,75,152105204363,israel
1,29360,,,10.65.61.168:4097,522832,47,44BA1A120730,peru
0,N1H 4H2,ON,Guelph,10.65.116.116:5500,565575,24,580053302390,egypt
1,90305,CA,Inglewood,100.88.24.117:1234,554944,75,636099070839,israel
1,84043,UT,Lehi,100.83.12.203:1234,566121,47,650078743213,israel
1,84604,UT,Provo,100.83.248.79:1234,566205,47,636099092197,israel
1,70818,LA,Baton Rouge,100.83.244.119:1234,566364,60,152100343059,egypt
1,20772,MD,UPPER MARLBORO,100.88.109.227:1234,566425,75,636096985104,egypt
1,60647,IL,CHICAGO,100.83.87.94:5501,566825,136,998072726542,ghana
1,06120,CT,Hartford ,100.88.107.75:1234,567431,20,636096943111,israel
1,31204,GA,Macon,100.83.98.157:5501,568231,42,998073308928,egypt
1,84302,,,10.66.106.219:4097,568438,47,4135849ECB75,germany
1,78660,TX,Pflugerville,100.83.230.184:1234,568660,60,152100358636,egypt
1,84043,UT,Lehi,100.88.206.21:1234,569067,47,152105328139,egypt
1,06606,CT,Bridgeport,100.83.96.145:5501,569174,60,998071715264,ghana
1,38109,TN,Memphis,100.83.243.119:1234,569223,31,152100347704,None
1,83301,ID,Twin Falls,100.88.178.66:1234,569601,60,152105248253,israel
1,31794,GA,Tifton,100.83.153.97:5501,492161,60,998073454268,ghana
1,23435,VA,SUFFOLK,100.83.85.239:5501,498478,56,998073405310,israel
1,06351,CT,Griswold,10.8.3.195:5501,438368,60,998072426788,egypt
1,95210,CA,Stockton,100.83.149.56:5501,570655,60,998071561197,ghana
1,84120,UT,West Valley City,10.65.153.232:1234,570725,47,307000161168,egypt
1,02459,MA,NEWTON,100.83.95.193:5500,420344,60,998071753273,egypt
1,72116,AR,North Little Rock,100.88.128.24:1234,570967,60,152101510151,egypt
1,78723,TX,Austin,100.88.164.206:1234,571088,47,152105386046,israel
1,78413,TX,CORPUS CHRISTI,100.83.86.19:5501,571171,12,998073247043,israel
1,39209,MS,Jackson,100.88.89.218:1234,571267,143,152101535679,egypt
1,36545,AL,Jackson,10.65.153.164:1234,572367,60,307000161572,israel
1,39114,MS,MENDENHALL,10.8.3.135:5501,432604,60,998073142103,israel
1,38967,MS,WINONA,10.8.92.46:5501,485275,60,998070421062,peru
1,95350,CA,Modesto,100.83.96.59:5501,572642,60,998071754115,egypt
1,12084,NY,Guilderland,10.64.201.6:1234,573288,20,335052296107,germany
1,84404,UT,Ogden,100.88.186.236:1234,573589,47,152105423393,egypt
1,29440,SC,Georgetown,10.64.207.248:1234,573968,14,335052465041,egypt
1,67460,KS,mcpherson,24.255.196.153:9094,575035,47,54216001BF3C,angola
1,39563,MS,Moss Point,10.66.63.18:4097,483633,47,4135849F535B,egypt
1,21215,MD,Baltimore,100.83.250.195:1234,576451,31,636096083033,egypt
2,2093,NSW,Balgowlah Heights,10.65.129.191:1234,507880,121,000001041089,orange,12
2,2213,NSW,Panania,10.65.135.109:1234,507906,121,000001041090,dubbo,12
2,3020,VIC,Sunshine West,10.64.16.226:1234,542314,122,372081120509,orange,8
2,2570,NSW,COBBITTY,101.190.193.85:9057,542466,67,542160105132,orange,4
292,38471,Kalmar,TIMMERNABBEN,81.229.127.107:1234,464676,13,000001151110,poland,12
292,82194,Gavleborg,,10.65.131.217:1234,464829,17,000001086240,poland,12
28,2640,,Mortsel,94.104.95.34:1234,464662,16,000000623336,austria,12
