1,93730,CA,Fresno,10.20.27.62:5500,419775,60,524042991076,egypt
1,90745,CA,Carson,10.20.26.13:5500,420340,60,524042996067,egypt
1,32080,FL,SAINT AUGUSTINE,10.20.33.100:5500,420798,60,524043310078,egypt
1,91745,CA,Hacienda Heights,10.20.32.165:5500,420978,60,524043314682,israel
1,92821,CA,Brea,10.20.32.172:5500,421051,60,524043323733,ghana
1,89131,NV,Las Vegas,10.20.42.242:5501,422369,60,524043347435,peru
3,CF728DB,Mid Glamorgan,Llantrisant,10.20.21.237:9085,421162,1,542160100A51,peru
1,92880,CA,Corona,10.20.43.71:5500,421525,60,524043341636,israel
1,35634,AL,FLORENCE,10.20.31.137:5500,422068,60,524043344234,germany
1,01129,MA,SPRINGFIELD,10.20.23.219:5500,422310,60,524042996158,peru
1,91723,CA,Covina,10.20.42.152:5500,422331,60,524043502310,germany
1,33309,FL,Fort Lauderdale,10.20.37.190:5500,422483,60,524043352534,israel
1,92395,CA,Victorville,10.20.41.184:5500,422495,60,524043478370,ghana
1,90272,CA,Pacific Palisades,10.20.42.51:5500,422518,60,524043499285,peru
1,34786,FL,Windermere,97.104.246.4:10008,422611,43,5421601005A5,wales
0,L6M3Y9,ON,Oakville,104.158.11.151:9194,422876,43,542160100A61,ghana
0,L5E2M9,ON,Mississauga,10.20.44.157:5500,423760,43,524043481689,egypt
1,35555,AL,Fayette,10.20.47.68:5500,423858,32,524043476820,germany
1,90660,CA,Pico Rivera,10.20.45.170:5501,424248,10,524043495747,peru
1,32776,FL,Sorrento,10.20.33.208:5500,424312,60,524043313403,germany
1,39042,MS,Brandon,10.20.48.95:5501,431458,60,580050083647,israel
1,92392,CA,VICTORVILLE,100.83.178.70:5500,424762,60,000042F3F6D6,israel
1,60137,IL,Glen Ellyn,24.14.190.11:9091,425262,20,54216010305B,ghana
1,90717,CA,Lomita,100.83.183.28:5501,427870,10,000042F3FAD0,ghana
1,90660,CA,Pico Rivera,100.83.195.104:5501,425650,60,000042F62065,israel
1,92301,CA,Adelanto,100.83.195.111:5501,427874,60,000042F625D0,ghana
0,T3M2B2,AB,Calgary,68.144.97.216:9061,433072,43,542160102B24,wales
1,08527,NJ,Jackson,10.20.47.157:5501,428028,60,524043487157,egypt
1,28328,NC,Clinton,10.20.48.235:5501,429596,60,580050025325,egypt
1,92545,CA,Hemet,100.83.198.91:5500,431546,10,00003E4C6C84,egypt
1,39339,1,LOUISIANA,100.83.148.35:5501,429858,60,000042F3FC91,egypt
1,01904,MA,Lynn,100.83.196.116:5500,429910,60,000042F3F079,israel
0,H4N4A2,QC,Montreal,45.58.105.76,430104,43,542160101DC6,peru
1,75043,TX,Garland,10.20.49.82:5500,432240,60,580050105879,germany
1,91791,CA,West Covina,100.83.184.33:5500,433456,60,000049985B34,egypt
1,90503,CA,Torrance,100.83.142.186:5501,434734,60,00003E4C95CA,ghana
0,L0G 1W0,ON,Tottenham,216.181.186.172:10662,435015,43,542160102B45,peru
1,19971,DE,Rehoboth Beach,100.88.30.221:5501,435304,31,000049998DD8,egypt
1,60620,IL,Chicago,100.83.187.145:5500,435181,60,000049A1AE19,israel
1,32824,FL,oRLANDO,100.83.221.26:5501,435478,60,00003E4C6A75,egypt
0,L5J 1V6,ON,Mississauga,99.245.91.242:9136,436143,43,542160103450,peru
0,M1C 2E6,ON,Toronto,99.237.74.104:9228,436203,43,542160103293,angola
1,92832,CA,Fullerton,100.88.30.69:5500,436384,6,00003E4BA3F9,israel
1,45244,OH,CINCINNATI,100.83.179.99:5501,436935,60,0000499990AF,ghana
1,35611,AL,Athens,100.83.183.87:5501,437003,60,000049997E97,ghana
1,60651,IL,Chicago ,100.83.173.122:5501,437026,60,00004999B27A,ghana
1,19713,1,Newark,100.88.31.9:5501,437310,31,000049A1D8A9,ghana
0,M1S 1G4,ON,Scarborough,184.145.67.214:9029,437348,43,54216010341C,wales
0,L7M1H9,ON,Burlington,76.67.78.72:9224,437744,43,5421601034D0,wales
0,T4P 3K5,AB,Red Deer,24.66.20.211:9301,438026,43,5421601033FE,wales
1,30331,GA,Atlanta ,10.20.43.172:5501,438529,60,524043354308,germany
1,45417,OH,DAYTON,100.83.179.11:5501,438776,60,00003E4C0593,israel
112,110085,ND,New Delhi,223.190.86.235:9140,439261,39,54216010168C,cuba
112,110074,ND,New Delhi,121.46.85.8:9275,439287,39,542160102BD9,peru
112,110096,ND,New Delhi,103.55.60.96:9006,439293,39,542160103C00,ghana
1,34653,FL,New port richey,100.83.174.196:5501,439486,60,000049A19717,israel
1,32312,FL,Tallahassee,100.83.185.125:5500,439512,60,000049997878,egypt
0,V8P 3W6,BC,Victoria,173.183.76.7:9276,439847,43,5421601039B4,ghana
0,R2G 2Z6,MB,Winnipeg,207.161.143.40:9147,439885,43,542160103A33,angola
0,M6E4W2,ON,Toronto,108.168.60.169:9571,439988,43,542160103BA8,angola
112,110092,ND,New Delhi,10.20.56.44:9003,441065,39,542160103C03,peru
1,31906,GA,Columbus,100.88.36.227:5501,441204,79,00004999AFA3,egypt
0,M8Y1N9,ON,Toronto,50.100.206.95:9241,441208,43,542160103AB4,wales
1,12828,NY,Fort Edward,100.83.172.99:5501,441209,60,000049A1CD7D,israel
1,08724,NJ,Brick,73.199.129.225:9252,441284,56,5421601039FC,cuba
1,34474,FL,Ocala,100.83.225.74:5501,441532,60,0000499979B3,ghana
0,L5G0B5,ON,Mississauga,50.101.172.251:9061,441746,43,542160103A17,peru
1,31906,GA,Columbus,100.88.36.25:5500,441771,79,000049A1C8A1,israel
1,90502,CA,Torrance,100.83.196.186:5500,441796,60,00004D9B3BA9,israel
1,33844,FL,Haines City,100.83.192.87:5500,442352,60,00003E4C872E,israel
1,27302,NC,Mebane,100.83.193.105:5500,442459,60,00004999AB4A,egypt
1,15065,PA,Natrona Heights,100.83.189.208:5501,442507,60,00003E4C6C52,israel
0,S7L 6J4,SK,Saskatoon,216.197.168.161:9060,442576,43,54216010462E,cuba
1,29681,SC,Simpsonville,100.83.150.237:5501,442688,60,000049A1C3EA,egypt
1,30032,GA,Decatur ,10.20.24.96:5500,442767,60,524042985599,israel
0,L9K 1K7,ON,Ancaster,24.141.116.169:9137,442798,43,54216010461F,angola
1,33860,FL,MULBERRY,100.83.213.45:11874,443864,60,5421601043E1,ghana
112,110058,,New Delhi,182.64.29.162:9141,444529,39,542160102B8C,ghana
1,01930,MA,Gloucester ,100.83.220.164:5501,444638,60,00003E4BEF7A,egypt
112,122003,,Delhi,14.140.207.98:51616,444800,39,5421601013FD,ghana
1,90640,CA,Gardena,100.83.227.131:5501,444804,10,000049A1CD54,israel
1,34638,FL,Land O' Lakes,47.198.80.58:9058,444956,10,54216010163A,ghana
1,90670,CA,Santa Fe Springs,100.83.173.146:5501,445050,10,00003E4BEA6F,israel
0,M4N1Z4,ON,TORONTO,99.240.194.91:9363,445592,89,542160104AEE,peru
1,27603,OK,Raleigh,100.88.37.64:5500,445692,6,000049997F03,egypt
1,27605,NC,Raleigh,100.88.37.125:5501,445693,6,000049998F25,ghana
0,V6A0G2,BC,Vancouver,66.183.247.235:9274,446062,43,5421601040E7,peru
1,89178,NV,Las Vegas,100.83.177.11:5501,446349,10,00004999A3A1,ghana
0,L6J 7C6,ON,Oakville,10.20.65.87:9180,446704,43,54216010419D,ghana
1,31046,GA,Macon,100.83.228.168:5501,448045,60,00003E4C27B4,israel
112,110005,112,New Delhi,10.20.52.67:9040,448231,39,54216010450E,ghana
0,L4A 1M4,ON,Stouffville,70.48.234.31:9131,448380,43,542160104D78,cuba
1,91607,CA,Valley Village,100.83.227.188:5501,448714,60,00003E4BF3EA,egypt
1,27030,NC,Mt. Airy,100.83.155.203:9006,448717,60,542160104F05,egypt
1,93455,SC,Anderson,100.83.153.236:5501,449059,60,00004D8B0F66,israel
1,33810,FL,Lakeland,100.83.226.8:5501,449132,60,000049A1C828,ghana
1,77541,TX,FREEPORT,100.83.152.182:5501,449992,60,00004D95F8FD,ghana
1,33594,FL,Valrico,100.83.153.218:5501,450821,60,00004D82EDFA,egypt
1,29316,SC,boiling springs,100.83.175.102:5500,450971,60,00003E4C3E11,egypt
0,L3Y 8P7,ON,Newmarket,72.140.137.154:9067,452460,43,542160105332,angola
1,10579,NY,Putnam Valley,100.83.141.213:5501,452753,60,000051CD79FA,ghana
1,23666,1,Hampton,100.88.95.97:5501,452783,56,000051CD7343,ghana
1,35218,AL,Birmingham ,100.83.171.134:5500,452841,60,000051CD9696,israel
0,L5W1H4,ON,Mississauga,99.246.93.189:9886,453117,43,5421601053BE,wales
1,84015,UT,Clearfield,100.88.63.17:49458,453419,47,000047ADCE82,israel
2,2144,NSW,Auburn,10.20.72.2,453043,67,542160104258,peru
0,M2H 1H9,ON,Toronto,10.20.72.94:9166,453743,43,54216010590F,peru
1,30030,GA,Decatur,100.83.167.58:5501,454312,60,000051D0F7FA,egypt
1,39422,MS,Bay Springs,100.83.153.144:5501,454584,60,00004D95516B,egypt
1,90255,CA,Huntington Park,100.83.199.93:5501,454592,60,00004D9D2A84,egypt
1,76123,57,Fort Worth,100.88.111.65:49412,455304,47,000051D4E94F,israel
1,95833,CA,Sacramento,100.88.103.37:5500,455494,18,00004D955D10,egypt
0,R3J3A3,MB,Winnipeg,24.77.32.125:9123,455865,43,542160105E08,ghana
0,L4J8G9,ON,Thornhill,99.228.247.212:9427,455868,43,5421601053D1,peru
1,76002,TX,Arlington,100.88.65.187:49599,455887,47,000047AE1291,egypt
1,38676,MS,Tunica,100.88.135.139:49541,456616,47,000047A5962A,germany
1,68111,NE,Omaha,100.88.156.108:52096,456674,60,000051D8FC34,germany
0,L6H7K7,ON,Oakville,24.150.192.150:9103,456703,43,542160105D67,ghana
1,39180,MS,VICKSBURG,100.83.212.165:5501,456749,60,000049A1F236,ghana
1,92345,CA,Hesperia,100.83.170.111:5501,456813,60,00004D853F61,egypt
1,36581,AL,SUNFLOWER,100.83.146.195:5501,456906,60,000051D0E6C1,ghana
1,64151,MO,KANSAS CITY,100.83.167.183:5501,457058,60,00004D82F58F,israel
1,02136,MA,Hyde park,100.83.177.111:5500,457100,60,00004D9B5AB8,israel
1,12863,NY,ROCK CITY FALLS,100.83.169.184:5501,457136,60,000051D0F784,egypt
1,76039,57,Euless,100.88.141.42:50488,457212,47,000051D4109F,egypt
1,37073,TN,Greenbrier,100.83.225.145:5500,457382,60,00004999B5E2,israel
1,91750,CA,La Verne,100.83.219.94:5501,458181,60,00004D9D41E0,ghana
1,95356,CA,Modesto,100.83.146.186:5501,458478,60,00004D9B13FE,egypt
1,85043,AZ,Phoenix,100.83.180.90:5500,459023,60,00004D9B3AC2,israel
1,06824,CT,Fairfield,100.83.189.94:5501,459298,60,00004D9D287B,egypt
1,75224,TX,Dallas,100.88.190.159:52342,459620,47,000051D40DA2,germany
1,99203,WA,Spokane,100.83.162.42:5501,459646,60,000051D9A406,egypt
0,L0K 1E0,ON,Oro-Medonte,70.54.68.122,460229,43,542160105DB4,peru
1,13450,NY,Saint Johnsville,100.83.200.160:5501,460519,60,00004D9D1F5D,israel
1,71351,LA,Marksville,100.83.193.237:5501,460914,60,000051D120B1,israel
1,30273,1,rex,100.88.197.127:50494,460991,75,000047AF7ED6,germany
1,38654,MS,OLIVE BRANCH,100.83.142.80:5501,461747,60,000051D9EB96,egypt
1,76123,TX,Ft Worth,75.141.128.28:9159,462236,43,542160106199,cuba
1,88101,NM,Clovis,67.0.11.209:11086,462354,43,5421601062F8,angola
1,31021,GA,Dublin,100.83.186.225:5501,462417,60,000051D34783,egypt
1,76179,57,Fort Worth,100.88.195.52:51770,462492,47,000047AFB194,germany
1,76179,57,Fort Worth,100.88.180.53:50213,462499,47,000051D89CC3,egypt
1,95832,CA,Sacramento,100.88.37.59:5500,462522,56,0000499999C8,egypt
1,91436,CA,ENCINO,100.88.133.131:5501,461030,18,000051CD919F,egypt
1,78255,TX,SAN ANTONIO,45.21.6.88:9216,463434,31,542160106593,wales
1,30213,GA,ATLANTA,100.88.206.140:51399,463562,75,000047AF8BAD,germany
1,29554,SC,Hemingway,100.83.215.123:5501,463702,60,000051E4AECA,israel
1,38951,MS,PITTSBORO,100.83.186.160:5500,463741,60,000051D380AC,israel
1,70722,LA,CLINTON,100.83.140.230:5501,463780,60,000051D379B3,egypt
1,31088,GA,Warner Radins,100.83.188.225:5500,463963,60,000051D34781,egypt
1,29058,SC,Heath Springs,100.83.187.123:5501,464046,60,000051D98EAE,ghana
0,V3Z 6S7,BC,Surrey,10.20.80.178:5501,464491,80,580050915400,ghana
1,70647,LA,Iowa,100.83.202.242:5501,464740,60,000051E4A5F0,israel
1,78617,TX,Del Valle,100.88.188.105:53281,464880,47,B8B7D7001713,israel
1,73069,OK,BOULEVARD,100.88.206.115:54950,464950,92,000047AF73A0,egypt
1,29547,SC,Hamer,100.83.202.224:5500,465083,60,000051E4997A,ghana
1,20774,MD,Upper Marlboro ,100.83.202.214:5500,465128,60,000051E4EC00,ghana
1,70560,LA,New Iberia,100.83.145.4:5501,465143,60,000051E491B2,ghana
1,38012,TN,Brownsville,100.88.193.56:50163,465194,47,000047AF7496,egypt
112,110018,ND,New Delhi,10.20.74.192:9195,465286,39,542160105637,ghana
1,28358,NC,Lumberton,100.83.158.92:5501,465919,60,000051E4A05C,ghana
1,90063,CA,Los Angeles,100.83.203.75:5501,466069,60,000051E4BD77,israel
1,35147,AL,SHELBY CO-HOOVERPJ,100.83.212.98:5501,466085,60,000051E48041,ghana
1,38114,TN,Memphis,100.88.194.39:50507,466548,47,000047AF894C,egypt
1,32514,FL,Pensacola,104.185.100.134:9225,466592,32,542160104EE0,angola
1,30213,GA,Fairburn,100.83.142.64:5501,466773,60,000051CD86CB,ghana
1,39338,MS,LOUIN,100.83.152.142:5500,466940,60,00004D853F84,israel
0,M9M 0C6,ON,Toronto,70.48.106.242:10626,467040,43,542160106FDD,wales
1,76040,57,Euless,100.88.192.85:49452,467062,47,000051D87D0D,israel
1,30097,GA,JOHN CREEK,100.88.229.73:50451,467235,75,000051DCCDFF,israel
1,63049,MO,HIGH RIDGE,100.83.212.241:5501,467259,60,000051E46C42,ghana
1,76040,57,Euless,100.88.200.106:49519,467331,47,000047AF743A,egypt
1,90044,CA,Los angeles,100.83.201.201:5501,467447,60,000051E4B5C6,egypt
0,L6M2P7,ON,Oakville,170.52.100.121:9242,467595,43,542160106F73,angola
1,20721,MD,Bowie,100.83.168.215:5501,467539,60,000051D0F90D,ghana
1,30028,GA,Cumming,100.88.194.149:50553,467688,75,000047AF8556,egypt
1,21783,MD,Smithsburg,100.83.201.81:5501,467790,60,000051E4AF00,egypt
1,30021,GA,Clarkston,100.83.201.207:5501,468662,60,000051E484F8,egypt
1,29554,SC,Hemingway,100.83.186.105:5501,468668,60,000051D9A116,ghana
112,110034,,New Delhi,122.161.204.184:9201,451480,39,54216010166A,angola
1,30017,GA,GRAYSON,100.89.22.13:50586,468955,75,000051DE0F6E,egypt
1,90631,CA,La Habra,100.83.203.70:5500,469518,60,000051E4EC54,ghana
1,30179,GA,Temple,100.88.207.97:49317,469537,75,000047AF9185,israel
1,86426,AZ,Fort Mohave,100.83.186.231:5501,469899,60,000051D98786,israel
1,85614,AZ,Green Valley,100.83.157.221:5501,470035,60,000051CD9B44,israel
0,K0L 2H0,ON,Lakefield,142.183.201.88:9581,470090,43,5421601075F3,ghana
1,39663,MS,Silver Creek,100.83.162.228:5501,470175,60,000051D9A968,ghana
1,30044,57,Lawrenceville,100.88.230.9:50471,470297,47,000051DCD2AC,egypt
1,32025,FL,LAKE CITY,100.83.217.108:5501,470606,60,000051E5A779,israel
1,31030,1,Fort Valley,100.88.220.57:5501,470609,56,000051E4E292,israel
1,35211,AL,BIRMINGHAM,100.83.157.218:5501,470614,60,000051E5D196,egypt
0,P0M1B0,ON,Azilda,148.64.73.207:9302,470680,43,5421601077FE,wales
0,H4W1N1,QC,Cote-St-Luc,173.177.124.47:11805,470686,43,542160107801,ghana
1,30720,GA,Dalton,100.89.39.120:5501,470915,56,000051E4A67F,israel
1,35079,AL,HAYDEN,100.83.226.220:5501,471373,60,000051E4A60A,ghana
1,83687,ID,Nampa,100.88.196.112:50411,471396,47,000047AF749C,israel
1,35010,AL,ALEXANDER CITY,100.83.208.84:5501,471456,60,000051E493E6,egypt
1,75692,TX,Waskom,100.83.208.40:5501,471599,60,000051E4B26B,egypt
1,92405,CA,San Bernardino,100.83.187.236:5501,471642,60,000051D347C1,ghana
1,33909,FL,Cape Coral ,100.83.227.232:5501,471960,60,000051E4DCED,israel
1,93727,CA,Fresno,100.83.162.209:5501,472032,60,000051D9A5E2,ghana
1,27983,NC,Windsor,100.83.209.229:5501,472142,60,000051E4B535,ghana
0,J7V0T5,QC,Vaudreuil-Dorion,184.148.205.159:11646,472587,43,542160107B13,ghana
1,85374,AZ,Surprise,100.83.203.41:5501,472755,60,000051E5AF79,israel
1,29841,SC,N. Augusta,100.83.212.166:5501,472969,60,000051E4A81F,ghana
1,36401,AL,EVERGREEN,100.83.225.62:5500,473015,60,000051E4BCE3,israel
1,94565,CA,Pittsburg,100.89.6.91:50907,473094,60,000051DC700E,egypt
0,L5W 1K6,ON,Mississauga,99.246.105.94:9563,473134,43,542160107851,ghana
1,94565,CA,Pittsburg,100.83.156.246:5501,473167,60,000051D9F527,egypt
0,L7M 4K7,ON,Burlington,24.141.227.51:9174,473493,43,542160107AAB,ghana
1,92543,CA,Hemet,100.83.199.179:5501,473618,60,00004D9D3C2F,ghana
1,32448,FL,MARIANNA,100.83.160.152:5501,473793,60,000051E5C759,israel
0,L1T4A3,ON,Ajax,99.231.249.13:9302,473957,43,542160107FCD,angola
1,30461,GA,Statesboro,100.83.159.15:5501,474146,60,000051E5B749,ghana
1,30263,GA,NEWNAN,100.88.229.69:49171,474560,75,000051DCD0A1,egypt
1,95691,CA,West Sacramento,100.83.160.178:5501,474608,60,000051E5A559,ghana
1,95816,CA,N Sacramento,100.83.223.186:5501,474708,60,000051D382FE,ghana
1,30213,GA,FAIRBURN,100.88.229.76:50360,474772,75,000051DCCE04,israel
1,75241,57,Dallas,100.88.196.87:50102,474884,47,000047AFB3FD,egypt
1,72601,AR,Harrison,100.83.204.116:5500,474905,60,000051E47E29,israel
1,90403,CA,Santa Monica,100.83.217.168:5500,475609,60,00004D9D3FBC,israel
0,K1G 1P7,ON,Ottawa,70.31.50.182:9209,475944,43,542160107FA4,cuba
1,90746,CA,Carson,100.83.206.44:5501,476199,60,000051E5AD86,egypt
1,90745,CA,Carson,100.83.205.23:5500,476291,60,000051E5ADA0,israel
0,L6V 3C9,ON,Brampton,99.234.244.138:9763,476085,43,542160107F74,ghana
1,96019,CA,Shasta Lake,100.83.206.204:5500,476505,60,000051E58F00,ghana
1,01532,MA,NORTHBOROUGH,100.88.37.1:5501,477021,56,000049A1E2F1,israel
1,32034,FL,AMELIA ISLAND,10.20.16.209:5500,477081,56,524042284837,egypt
1,32081,FL,PONTE VEDRA,10.20.16.49:5500,477092,56,524042222100,peru
1,33543,FL,WESLEY CHAPEL,10.20.23.55:5501,477153,56,524042977935,peru
1,33547,FL,LITHIA,10.20.20.146:5500,477179,56,524042268533,ghana
1,33548,FL,LUTZ,10.20.30.228:5500,477188,56,524043356550,israel
1,34211,FL,BRADENTON,10.20.24.27:5500,477280,56,524042993536,ghana
1,33510,FL,BRANDON,10.20.29.113:5500,477340,56,524043352815,germany
1,33543,FL,WESLEY CHAPEL,10.20.24.59:5500,477360,56,524042984741,israel
1,33545,FL,WESLEY CHAPEL,10.20.44.132:5500,477379,56,524043487280,egypt
1,33578,FL,RIVERVIEW,100.88.43.185:5501,477417,56,00003E4C2BC2,egypt
1,34202,FL,LAKEWOOD RANCH,10.20.20.38:5500,477446,56,524042248766,egypt
1,08609,NJ,Trenton,100.88.220.230:9435,477557,54,542160105288,israel
1,30339,GA,ATLANTA ,100.89.36.123:50904,478049,75,000051DE1703,israel
1,20695,MD,WHITE PLAINS,100.89.10.188:49382,478245,75,000051DC9184,israel
0,L6Z 3S2,ON,Brampton,99.234.192.61:9379,478554,43,54216010838C,wales
1,32218,FL,Jacksonville,100.83.161.69:5501,478685,60,000051E5C3E3,egypt
1,06405,CT,Brandford ,100.83.161.45:5501,478708,60,000051E5BDE9,israel
1,84405,UT,Ogden,100.88.221.85:49697,478843,47,000047AF84ED,israel
1,30349,GA,College park,100.83.159.102:5501,479950,60,000051E5BF4A,egypt
0,L2E 3X8,ON,Niagara Falls,173.238.205.196:9153,480176,43,542160108694,cuba
0,T2W 5V9,AB,CALGARY,68.146.130.226:9049,480496,43,542160108631,peru
1,33598,FL,Wimauma ,100.83.226.56:5501,480533,60,000051E5A5A1,israel
1,39563,MS,Moss Point,100.88.138.119:49169,480826,47,000051D40E3E,egypt
1,39562,MS,Moss Point,67.35.54.53:1234,480851,3,000000619072,cuba
1,39501,MS,Gulfport,100.83.206.106:5501,481142,60,000051E591DB,ghana
1,84078,UT,Vernal,10.64.18.41:1234,481396,60,518005036120,israel
1,30507,GA,GAINESVILLE,10.64.2.240:5500,481406,60,580050972252,israel
0,M1L4H3,ON,Scarborough,174.91.112.77:9172,482022,43,542160108680,angola
1,81611,CO,ASPEN,100.88.103.240:10651,482071,56,54216010086A,egypt
1,95319,CA,Empire,10.64.115.36:5501,482158,60,580050963483,peru
1,95307,CA,Ceres,10.64.114.8:5501,482223,60,580050922695,germany
1,00767,PR,Yabucoa,10.64.115.58:5501,482827,60,580050896816,germany
112,110036,ND,New Delhi,103.226.89.177:18581,480745,39,542160102C24,wales
1,39466,MS,Picayune,100.88.4.138:5500,483306,47,00003E4C29BB,egypt
2,2590,NSW,Cootamundra,10.64.15.224:1234,483343,104,372080057355,egypt
0,L5L4P5,ON,Mississauga,72.141.153.251:10118,483563,43,54216010881B,wales
112,110018,ND,New Delhi,139.5.252.136:10503,483583,39,5421601057A8,angola
1,30263,GA,NEWNAN,100.88.207.70:49891,483983,75,000047AFA825,egypt
1,95348,CA,Merced,10.64.134.242:5501,484326,60,580051036693,israel
1,10977,NY,Chestnut Ridge,10.64.137.181:5501,484479,60,580050952916,israel
1,38701,MS,Greenville,10.8.90.63:5501,484519,60,998070168259,peru
1,30106,GA,AUSTELL,100.88.194.35:50321,484573,75,000047AF8958,egypt
1,77494,TX,KATY,10.64.113.35:5501,484634,60,580050933023,peru
1,92253,CA,La Quinta,10.8.89.209:5501,484108,60,998070128592,germany
1,23663,1,Hampton,100.88.4.61:5501,484882,56,00003E4BD880,egypt
1,92410,CA,San Bernardino,10.64.133.251:5501,484989,60,580051041222,peru
1,01772,MA,Southburogh,10.64.111.254:5500,485097,60,580050957998,egypt
1,23704,VA,Portsmouth,10.8.90.235:5501,485102,60,998070403763,germany
1,39111,MS,MAGEE,10.8.90.65:5501,485210,60,998070153418,ghana
1,32340,FL,Madison,10.8.90.104:5501,485531,60,998070204773,germany
1,39120,MS,Natchez,100.89.60.21:5501,485611,47,998070109352,ghana
292,13665,Stockholm,Arsta,83.145.48.130:1234,485632,90,000000559031,ghana
1,35151,AL,SYLACAUGA,100.83.225.170:5501,485779,60,000051E49F21,israel
0,L8M 1L7,ON,Hamilton,142.117.114.43:9207,485816,43,5421601087CF,cuba
1,39204,MS,Jackson,100.89.56.110:49156,486426,60,000051F20875,egypt
1,11234,NY,Brooklyn,10.64.5.13:5500,487324,60,580050963491,germany
0,L4G 4R6,ON,Aurora,74.14.154.5:10340,487355,43,542160108DE5,peru
1,92154,CA,San Diego,10.64.149.16:5501,487764,60,580052925035,egypt
1,39705,MS,Columbus,100.83.207.196:5501,487825,60,000051E4AC3D,ghana
1,30052,GA,LOGANVILLE,100.88.200.216:49928,488261,75,000047AFAE29,israel
0,L9N 0B2,ON,East Gwillimbury,24.246.42.208:9240,488443,43,542160108FA8,peru
1,92562,CA,MURRIETTA,100.89.111.11:5501,486486,89,998070406733,israel
1,98370,WA,POULSBO,100.88.30.233:10380,489127,18,5421601072C9,egypt
1,38606,MS,BATESVILLE,10.64.147.231:5501,489898,60,580052901267,ghana
0,M1E3L3,ON,Scarborough,70.29.41.118:11852,489899,43,542160109B32,angola
1,30016,GA,COVINGTON,100.89.47.246:50108,489954,75,000051D8D324,israel
1,30294,GA,ELLENWOOD,100.89.53.185:49487,490197,75,000051F2088E,israel
1,38401,TN,COLUMBIA,100.89.23.232:49784,487983,20,000051F2A8F6,israel
1,92399,CA,Yucaipa,10.64.137.174:5500,490693,60,580051041990,egypt
0,R3G 3E4,MB,WINNIPEG,50.71.52.182:5348,491180,43,54216070080A,peru
1,30180,GA,Villa Rica,100.89.54.41:49395,491725,60,000051F2D454,egypt
1,30093,GA,NORCROSS,100.89.48.0:51903,491983,75,000051F2A7E8,israel
1,30039,GA,SNELLVILLE,100.89.26.39:49431,492106,75,000051F2A6BC,israel
1,02892,RI,Richmond,10.64.134.237:5500,492401,60,580051034342,egypt
0,K0H 1T0,ON,Godfrey,45.78.121.0:10990,492600,43,542160109D8A,peru
1,34472,FL,OCALA,10.64.136.148:5501,492617,60,580050910963,egypt
1,75070,57,McKinney,100.88.198.68:49570,492660,47,000047AF9013,egypt
1,84401,57,Ogden,100.89.34.251:49362,492801,47,000051DE2337,israel
1,28530,NC,GRIFTON,10.64.210.198:5501,492995,60,580052928765,egypt
1,75070,57,McKinney,100.88.199.190:50636,493077,47,000047AF77B3,egypt
1,92241,CA,Desert Hot Springs,10.64.213.210:5501,493259,60,580052941842,ghana
1,45692,OH,Wellston ,10.64.134.92:5501,493328,60,580050964291,ghana
1,38611,MS,BYHALIA,10.8.94.37:5501,459629,60,998070458585,egypt
2,3042,VIC,NIDDRIE,10.64.125.36:1234,493453,104,372080054899,egypt
1,39355,MS,QUITMAN,10.64.4.147:5501,493610,60,580050971759,israel
1,84096,57,Herriman,100.89.35.39:49611,493866,47,000051DE0DD8,israel
1,63901,MO,Poplar Bluff,10.64.212.178:5501,494025,60,580052900368,peru
1,63935,MO,Doniphan,10.64.208.216:5501,494168,60,580052779705,egypt
1,29118,SC,Orangeburg,100.89.25.132:53093,494471,47,000051F2ACD2,egypt
1,91010,CA,Duarte,10.64.215.75:5501,494540,60,580051035240,germany
1,06051,CT,New Britain,100.89.131.109:5501,494826,31,998070535689,ghana
0,M5A 2H9,ON,Toronto,174.119.109.117:9779,495164,43,54216010A1F1,cuba
1,07106,NJ,Newark,100.89.129.86:9243,495486,31,542160109ED1,peru
1,71251,LA,Jonesboro,10.64.213.153:5501,495590,60,580050911938,israel
1,92284,CA,Yucca Valley,10.64.211.188:5501,495756,60,580053012304,ghana
1,01247,MA,Florida,10.64.212.197:5501,495811,60,580051046072,germany
1,39090,MS,Kosciusko,10.64.214.151:5501,496298,60,580053025215,peru
1,90232,CA,CULVER CITY,208.57.51.130:65092,496460,56,542160E00580,cuba
1,70631,LA,CAMERON,10.20.18.3:5500,496555,56,524042254517,israel
1,70669,LA,WESTLAKE,10.20.22.204:5500,496569,56,524042981093,germany
0,J0L 1B0,QC,Kahnawake,67.68.142.187:9013,496954,43,54216010A20B,cuba
1,84403,57,Ogden,100.89.38.235:50362,497325,47,000051D8AA09,egypt
1,28364,NC,Maxton,10.64.144.110:5501,496281,60,580052887730,ghana
1,29649,SC,Greenwood,100.89.33.158:49488,497774,47,000051D8D46E,israel
1,32034,FL,FERNANDINA BEACH,10.20.41.208:5500,498707,56,524043497255,egypt
1,32092,FL,SAINT AUGUSTINE,10.20.26.171:5500,499001,56,524042979451,peru
1,32221,FL,JACKSONVILLE,10.20.68.193:5501,499214,56,580050664651,ghana
1,55372,MN,PRIOR LAKE,100.88.43.132:5501,499908,56,00003E4C24AB,egypt
1,84701,57,Richfield,100.89.11.205:50029,500085,47,000051DCA456,israel
1,72562,AR,Newark,10.64.210.229:5500,500093,60,580053009227,peru
1,30058,GA,LITLHONIA,100.89.46.84:49299,500172,75,000051F2AAD1,egypt
1,21229,MD,BALTIMORE,100.89.55.238:49345,500479,75,000051F2A135,egypt
0,K2V 0E4,ON,Stittsville,64.229.0.48:9246,500524,43,54216010A3C4,cuba
0,L6P 2Z7,ON,Brampton,50.101.110.188:9190,500535,43,54216010A3BD,angola
1,00778,PR,GURABO,10.64.219.115:5501,500549,60,580053315129,israel
1,21054,MD,Gambrills,100.89.28.249:49341,500808,75,000051F2A66C,egypt
1,71203,LA,MONROE,100.89.104.58:5500,500869,60,998070159753,israel
1,92865,CA,Orange,10.64.222.158:5500,500950,60,580053275984,peru
1,45227,OH,Cincinnati ,10.64.212.37:5500,501191,60,580053242653,germany
1,38756,MS,LELAND,100.89.24.191:49155,500848,3,000051F2ACAA,egypt
1,76541,TX,Killeen,100.89.29.9:49560,501419,60,000051F2A1EE,israel
1,60641,IL,chicago,10.64.45.33:1234,501451,136,335051839998,ghana
0,L1Z 2C7,ON,Ajax,10.64.142.165:9154,501516,43,54216010A998,ghana
1,78520,TX,BROWNSVILLE,100.89.35.51:49285,501547,22,000051DE29F1,israel
1,90805,CA,Long Beach,10.64.210.186:5500,501646,60,580053231979,germany
0,H2J3Z3,QC,Montreal,67.70.115.105:9242,501800,43,54216010A8D5,peru
1,83301,ID,Twin Falls,100.89.50.66:49643,501880,60,000051D8D708,israel
0,M8V 1H7,ON,Etobicoke,99.255.227.112:9791,502181,43,54216010A949,angola
0,T1S 0B4,AB,Okotoks,199.126.153.46:9130,502235,43,54216010A97E,wales
1,29154,NC,Sumter,100.89.157.136:49543,502286,60,000051F15752,egypt
1,30248,GA,LOCUST GROVE,100.89.192.245:1234,502305,75,650078233165,israel
1,95237,CA,Lockeford,10.64.210.148:5501,502635,60,580053271561,ghana
1,38833,MS,Burnsville,10.8.98.200:5501,503008,60,998070731957,israel
1,33584,FL,Seffner,100.89.148.76:1234,503237,75,650073220720,israel
0,T7Y 0C4,AB,Parkland County,207.228.78.18:30551,503321,43,54216010A909,ghana
1,27542,NC,Kenly,10.64.211.70:5501,498044,60,580053243628,israel
1,30518,GA,SUGAR HILL,100.89.173.243:49433,503401,75,000051F1EDF5,israel
1,30045,GA,LAWRENCEVILLE,100.89.157.172:49453,503534,75,000051F157D9,egypt
1,30294,GA,DECATUR ,100.89.157.186:49281,503631,75,000051F157E1,egypt
1,38753,MS,Inverness,100.89.47.122:49377,503971,47,000051F2AAEA,egypt
1,39213,MS,Jackson,100.89.47.110:49993,504038,47,000051F2ADF8,egypt
0,k7k8n8,ON,Kingston,10.64.30.13:1234,504409,112,000000589409,ghana
1,38930,MS,Greenwood,100.89.49.138:49325,504480,47,000051F209BC,israel
1,30058,GA,LITHONIA ,100.89.158.120:49489,504521,75,000051F2F49D,egypt
1,30349,GA,ATLANTA ,100.89.170.140:49392,504525,75,000051F1C57E,egypt
1,78738,TX,Lakeway,100.89.151.2:1234,504850,47,650073144680,egypt
1,30214,GA,FAYETTEVILLE,100.89.29.107:49332,504935,75,000051F2A293,egypt
1,30213,GA,FAIRBURN,100.89.158.141:49300,505040,75,000051F15278,egypt
1,13619,NY,Teresa,10.64.223.168:5501,505460,60,580053343659,germany
1,38732,MS,Cleveland,10.64.5.212:5500,505483,60,580050919683,germany
1,92410,CA,San Bernadino,10.64.224.2:5500,505678,60,580053390072,ghana
1,92509,CA,Riverside,10.64.223.59:5500,505790,60,580053389595,egypt
1,30035,GA,DECATUR,100.89.15.241:49959,505934,75,000051DCD182,israel
1,30228,GA,HAMPTON,100.89.161.19:49955,506033,75,000051F2F6F9,israel
1,36532,AL,Fairhope,100.89.206.160:5501,506251,32,998070951290,israel
1,94954,CA,Petaluma,10.64.217.187:5500,506349,60,580053334294,egypt
0,L0L 1X0,ON,MIdhurst,10.64.219.208:5501,506420,89,580053344335,israel
1,20747,MD,District Heights,100.89.29.163:50161,506682,75,000051F2A40E,israel
1,30088,GA,STONE MOUNTAIN,100.89.52.169:49213,506738,75,000051F20A30,israel
1,84128,57,West Valley City,100.89.145.193:1234,506872,47,650073216470,egypt
1,30038,GA,Lithonia,100.88.21.144:56152,507146,50,000047A64D77,egypt
1,98664,WA,Vancouver,100.89.176.116:49166,507235,60,000051F1B418,egypt
1,30349,GA,ATLANTA,100.89.169.97:49836,507407,75,000051F1CEB9,egypt
1,20743,MD,CAPITOL HEIGHTS,100.89.56.217:49517,507486,75,000051F2081A,egypt
1,20110,VA,MANASSAS,100.89.169.58:49860,507811,75,000051F1CAC8,egypt
1,30214,GA,FAYETTEVILLE ,100.89.167.253:49389,508057,75,000051F1E947,egypt
1,20707,MD,Laurel,100.89.169.73:50011,508197,75,000051F1CAA3,israel
0,J4Y 3C4,QC,Brossard,45.58.98.102:9143,481124,43,542160108618,wales
1,30236,GA,JONESBORO,100.89.175.29:49337,508473,75,000051F1EF7C,israel
1,95356,CA,Modesto,10.64.218.12:5501,508509,60,580053322653,germany
1,32442,FL,GRAND RIDGE,10.8.99.139:5501,508627,60,998070651205,ghana
1,75051,TX,Grand Prairie,100.89.150.241:1234,508655,47,650073224037,israel
1,93063,CA,Simi Valley,10.64.218.221:5500,508773,60,580053341976,germany
1,11372,NY,Jackson Heights,100.89.168.55:52455,508913,60,000051F1E800,israel
1,93021,CA,Moorepark,10.64.218.22:5501,508922,60,580053373045,israel
1,93065,CA,Simi Valley,10.64.223.31:5500,508929,60,580053326852,ghana
1,48187,CA,Canton,10.64.217.182:5500,420858,60,580053355117,israel
1,48126,MI,Dearborn,100.89.165.59:49509,509161,60,000051F19D88,egypt
1,32312,FL,TALLAHASSEE,100.89.145.251:1234,509218,174,650073231560,israel
1,54082,WI,Houlton,10.64.209.209:5500,508454,12,580053240731,egypt
1,95035,CA,MILPITAS,10.64.221.208:5501,509419,60,580053353831,peru
1,18371,PA,Tamiment,100.89.169.4:49449,509451,60,000051F1CAC1,egypt
1,30349,GA,ATLANTA,100.89.159.127:49194,509486,75,000051F2EE7F,israel
1,21206,MD,baltimore,100.89.173.154:49719,509686,60,000051F1E5B4,egypt
1,20745,MD,Oxon Hill,100.89.171.201:49329,509760,75,000051F1EE68,israel
1,93662,CA,Selma,10.64.219.223:5500,509780,60,580053337131,peru
1,90706,CA,Bellflower ,10.64.220.167:5500,509846,60,580053343618,peru
1,30213,GA,FAIRBURN,100.89.158.172:49379,509859,75,000051F1301F,israel
1,30296,GA,Riverdale,100.89.162.231:49572,509895,75,000051F2FB08,israel
28,4040,Liege,Herstal,194.78.181.2:1234,510239,90,000001025045,ghana
0,L5M 7N6,ON,Mississauga,99.247.48.229:9082,510529,43,54216010BE3F,angola
0,T2N3H4,AB,Calgary,104.157.38.242:9195,510533,43,54216010BE7E,ghana
1,85037,AZ,phoenix,100.89.163.221:49626,510550,75,000051F155C9,israel
1,92708,1,Fountain Valley,10.64.214.48:5501,510560,97,580050913827,peru
112,110086,112,DELHI,10.20.66.81:9190,470895,39,5421601016BE,ghana
1,92154,CA,San Diego,10.64.218.36:5500,510715,60,580053307316,peru
1,32750,FL,Longwood,10.65.109.242:5501,510790,60,580053237828,peru
1,30223,GA,GRIFFIN,100.89.174.255:49457,510905,75,000051F1C33D,egypt
0,V5T 4K9,BC,Vancouver,24.86.131.85:9453,495514,89,54216010A15B,ghana
1,93023,CA,Ojai,10.65.106.16:5500,511037,60,580053233918,israel
1,90023,CA,Los Angeles,10.64.220.254:5500,511198,60,580053365223,israel
1,28451,NC,Leland,10.64.223.201:5501,511292,60,580053302218,israel
1,32962,FL,Vero beach ,10.64.216.159:5500,511488,60,580053364259,peru
1,28379,NC,Rockingham,10.64.222.13:5501,437917,60,580053350126,egypt
1,28083,NC,Kannapolis,10.64.218.157:5500,511526,60,580053303380,ghana
1,30045,GA,LAWRENCEVILLE,100.89.165.108:49697,511795,75,000051F19D03,egypt
1,95687,CA,Vacaville,10.64.208.220:5500,511831,60,580053396020,germany
1,30238,GA,JONESBORO,100.89.162.43:49874,511918,75,000051F164BF,israel
1,84040,57,Layton,100.89.145.80:1234,512023,47,650073231644,egypt
1,28658,NC,Newton,10.64.210.101:5500,512250,60,580053232639,ghana
1,32712,FL,Apopka,10.64.218.24:5500,512266,60,580053341950,ghana
1,30291,GA,UNION CITY,100.89.162.13:49166,512341,75,000051F16399,egypt
1,30038,GA,LITHONIA,100.89.165.114:49317,512383,75,000051F19D66,israel
1,84044,57,Magna,100.89.192.103:1234,512743,47,650073947678,egypt
1,00612,PR,Arecibo,10.64.17.113:1234,512780,60,518005028309,egypt
1,84081,57,West Jordan,100.89.146.115:1234,512860,47,650073188141,egypt
0,Guelph ,ON,Kitchener,64.228.153.232:10574,512944,43,54216010C517,angola
1,34761,FL,Ocoee,100.89.172.228:49655,513264,60,000051F1C7FD,israel
1,34744,FL,KISSIMMEE,100.89.151.197:1234,502451,174,650073231305,egypt
1,92881,CA,Corona,10.65.111.77:5500,513436,60,580053364333,egypt
1,30349,GA,Atlanta,100.89.172.216:49311,513497,75,000051F1F036,israel
1,29485,SC,Summerville,10.64.41.12:1234,513509,60,335051740113,egypt
1,91786,CA,Upland,10.64.223.107:5501,513518,60,580053343964,egypt
1,30236,GA,JONESBORO,100.89.164.54:49246,513560,75,000051F2FDBD,israel
1,32068,FL,MIDDLEBURG,100.89.150.66:1234,505632,174,650073238045,israel
1,28327,NC,Carthage,10.8.102.61:5501,513606,60,998070731916,egypt
1,20613,MD,Brandywine,10.64.221.32:5500,513714,60,580053301970,peru
1,39086,MS,Hermanville,10.64.42.98:1234,513734,60,335051701560,ghana
1,81050,CO,La Junta,100.89.23.44:49491,513877,47,000051F2A4A8,egypt
189,00956,Bayamon,bayamon,10.64.220.127:5501,514139,60,580053346637,israel
1,30127,GA,POWDER SPRINGS,100.89.174.88:49242,514243,75,000051F1F098,israel
1,92503,CA,Riverside,10.65.106.11:5500,514294,60,580053242828,germany
112,110062,112,Delhi,10.20.74.128:9144,448851,39,542160102C90,ghana
1,77488,TX,Wharton,100.89.159.250:49156,514773,60,000051F12C97,israel
1,92583,CA,San Jacinto,10.65.112.215:5500,514805,60,580053243057,egypt
1,70769,LA,Prairieville,100.89.145.150:1234,514895,75,650073290079,israel
1,20176,VA,LEESBURG,100.89.49.109:49738,515031,75,000051F2A9A5,israel
1,92345,CA,Hesperia,10.65.111.111:5500,515281,60,580053386278,israel
1,92395,CA,Victorville,10.65.111.148:5501,515313,60,580053332942,ghana
1,75098,57,Wylie,100.89.149.240:1234,515652,47,650073270279,israel
1,08043,NJ,Voorhees,100.89.163.133:49154,515749,75,000051F156CB,israel
1,92545,CA,Hemet,10.65.112.254:5500,515757,60,580053311763,peru
2,2107,NSW,Whale Beach,10.20.51.2:5500,515805,37,580050222682,germany
1,85621,AZ,Nogales,100.89.174.188:49281,516104,60,000051F1D0D4,egypt
1,84404,57,Ogden,100.89.187.125:1234,516158,47,650078222705,egypt
1,70520,LA,Carencro,100.89.157.247:49181,516257,75,000051F15272,israel
1,92363,CA,Needles,10.65.110.108:5501,516271,60,580053343550,israel
1,00680,PR,MAYAGUEZ,10.64.218.127:5500,516422,60,580053343493,egypt
1,32776,FL,Sorrento ,10.64.217.25:5500,516476,60,580053355687,germany
1,90280,CA,South Gate,10.65.110.189:5500,516622,60,580053337602,peru
0,N8H0E1,ON,Leamington,10.65.111.119:9880,516769,43,54216010C8FD,angola
1,85019,AZ,Phoenix,100.89.149.241:1234,516779,75,650073276052,egypt
0,T4B 4T9,AB,Airdrie,75.158.29.215:9310,517010,43,54216010C9BA,angola
1,78218,57,San Antonio,100.89.150.202:1234,517084,47,650073182094,egypt
1,78045,TX,Laredo,100.89.152.112:1234,517281,60,650073234135,israel
1,90631,CA,La Habra,10.64.221.80:5500,517289,60,580053342586,egypt
1,70126,LA,New Orleans,100.89.157.234:49806,517602,75,000051F12D15,egypt
1,92582,CA,SAN JACINTO,,10.65.115.137:5500,517630,60,580053279218,egypt
1,39826,GA,Bronwood,10.8.106.115:5501,517799,60,998071176921,peru
1,30318,GA,ATLANTA,100.89.176.7:49844,517802,75,000051F1BFCB,egypt
1,85128,AZ,Coolidge,100.89.194.62:1234,517927,47,650078232316,egypt
1,20748,MD,Temple Hills,10.64.221.174:5500,517932,60,580053349847,israel
1,85616,57,Huachuca City,100.89.194.31:1234,517969,47,650078259780,israel
1,85043,AZ,Phoenix,100.89.217.152:1234,517977,75,650078318826,israel
1,92258,CA,N Plam Springs,10.64.221.6:5500,518010,60,580053385643,ghana
0,K2J5Y7,ON,Ottawa,174.112.152.28:9235,518261,43,542160103583,cuba
1,81006,CO,Pueblo,100.89.161.201:49562,518394,47,000051F2F58B,egypt
1,90631,CA,La Habra,10.65.110.56:5500,518416,60,580053272635,peru
1,29506,SC,Florence,100.89.161.128:49203,518506,47,000051F15349,egypt
1,27529,NC,Garner,10.64.223.181:5501,518623,60,580053344947,germany
1,30096,GA,DULUTH,100.89.163.165:49520,518722,75,000051F17398,israel
1,95307,CA,CERES,100.83.158.40:5501,438804,60,000051CD4DD5,ghana
1,85326,AZ,Buckeye,100.89.149.251:1234,519232,75,650073220886,israel
1,30180,GA,VILLA RICA,10.8.101.191:5500,519517,60,998070717634,ghana
1,75056,57,The Colony,100.89.196.108:1234,519557,47,650073858198,israel
1,30236,GA,Jonesboro,100.89.159.252:49808,519645,60,000051F2F7B5,israel
0,K1V2J1,ON,Ottawa,72.141.244.98:9451,519668,43,54216010DBDD,cuba
1,38242,TN,Paris,10.8.105.167:5501,519756,60,998071170049,israel
1,34221,FL,Palmetto,10.64.224.20:5500,519820,60,580053344814,israel
1,00659,PR,Hatillo,10.65.115.94:5500,518547,60,580053359879,israel
1,13410,NY,Nelliston,10.8.101.52:5501,520094,60,998070733748,egypt
1,93304,CA,Bakersfield,10.65.110.12:5500,520134,60,580053390387,israel
1,08043,NJ,Voorhees,100.89.38.50:49822,520150,75,000051D8D4F5,egypt
1,41339,KY,Jackson,100.89.207.30:1234,520347,60,650073237807,israel
1,31906,GA,Columbus,100.89.189.180:1234,520562,75,650073956836,israel
1,30297,GA,FOREST PARK,100.89.176.210:49355,520772,75,000051F1BCAD,egypt
1,75757,TX,Bullard,10.8.108.147:5501,520992,60,998071518122,egypt
1,21901,MD,North East,100.88.4.131:5500,471461,31,00003E4C0ED7,None
1,20011,DC,Washingotn,10.64.216.242:5501,521213,60,580053371023,germany
1,31907,GA,Columbus,100.89.188.95:1234,521299,75,650073819034,egypt
1,70087,LA,Saint Rose,100.89.146.210:1234,521439,75,650073321783,egypt
1,39401,MS,Hattiesburg,10.64.220.51:5500,519583,60,580053322448,ghana
1,39176,MS,VAIDEN,10.8.100.69:5501,474780,60,998070954500,ghana
1,36536,AL,Foley,100.89.145.164:1234,521831,75,650073156676,israel
1,38866,MS,Saltillo,10.8.101.133:5501,521806,60,998070764792,egypt
1,31907,GA,Columbus,100.89.188.87:1234,522045,75,650073961992,israel
1,39305,MS,MERIDIAN ,10.8.104.68:5501,522052,60,998071085205,israel
1,81007,CO,Pueblo,100.89.191.100:1234,522274,47,650078145278,israel
1,36460,AL,Monroeville,10.64.216.255:5500,522323,60,580053312027,ghana
1,37841,TN,Oneida,10.8.107.240:5501,522327,60,998071525903,peru
1,70815,LA,Baton Rouge,100.89.151.64:1234,522492,75,650073217817,israel
1,30342,GA,ATLANTA,100.89.162.136:49766,522524,75,000051F2F4AF,israel
1,39756,MS,PRAIRIE,10.8.101.36:5501,458017,60,998070731858,egypt
0,L5L 1C5,ON,Mississauga,184.146.27.41:9170,522767,43,54216010DBAA,cuba
1,29620,,,100.89.156.87:55681,522921,47,000051F16A92,israel
1,71665,AR,Rison,10.8.108.208:5501,523326,60,998071491502,egypt
1,85282,AZ,Tempe,100.89.192.160:1234,523329,75,650073847993,egypt
1,77520,TX,Baytown,100.89.150.154:1234,523477,75,650073152964,israel
1,86442,AZ,Bullhead City,10.65.113.33:5501,523566,60,580053244899,israel
1,25704,WV,Huntington,100.89.150.151:1234,523634,60,650073141942,israel
1,19134,PA,Philadelphia,100.89.188.229:1234,523645,60,650078069528,egypt
1,30349,GA,Atlanta,100.89.188.84:1234,523662,75,650073947470,israel
1,32301,FL,TALLAHASSEE,100.89.147.191:1234,501304,174,650073229192,israel
1,70812,LA,Baton Rouge,100.89.210.97:1234,524303,75,650078245938,egypt
1,30228,GA,HAMPTON,100.89.47.12:49181,524354,75,000051F2AA08,israel
1,91740,CA,Glendora,172.115.12.15:9987,430472,43,5421601027D3,cuba
1,21215,MD,Baltimore,10.64.218.176:5500,524469,60,580053388274,ghana
1,29138,SC,Saluda,100.89.194.185:1234,524688,60,650073956810,egypt
1,21075,MD,Elkridge,100.89.151.115:1234,524727,75,650073214384,egypt
1,39772,MS,Weir,10.65.106.9:5501,525079,60,580053235624,germany
1,37216,TN,NASHVILLE,100.89.214.218:1234,525169,20,650078261588,egypt
1,75075,TX,Plano,100.89.208.81:1234,525304,75,650078336349,israel
1,75002,TX,Allen,100.89.246.147:1234,525470,75,650078383150,israel
1,32805,FL,Orlando,100.89.195.33:1234,525608,60,650078105561,israel
1,84041,57,Layton,100.89.244.170:1234,525656,47,650078592404,israel
1,75154,TX,Red Oak,100.89.246.119:1234,525721,75,650078658650,israel
1,35810,AL,Huntsville,10.8.103.105:5500,525824,60,998071086013,ghana
1,84302,57,Brigham City,100.89.244.199:1234,525856,47,650078497844,israel
1,86426,AZ,Fort Mohave,10.65.114.58:5500,525857,60,580053386260,germany
1,85351,AZ,Sun City,100.89.194.94:1234,526069,75,650073973187,egypt
1,32825,FL,ORLANDO,10.8.107.72:5501,426544,60,998071504478,israel
1,34654,FL,New Port Richy,10.64.221.162:5500,453385,60,580053266868,ghana
1,19141,PA,Philadelphia,100.89.210.217:1234,526384,75,650078035446,israel
1,76017,57,Arlington,100.89.218.17:1234,526488,47,650078191108,israel
1,46254,IN,Indianapolis,157.130.99.154:46633,526549,10,54216010DCAC,peru
1,70814,LA,Baton Rouge,100.89.208.235:1234,526680,75,650078311847,egypt
1,70807,LA,Baton Rouge,100.89.209.71:1234,526769,75,650073855152,israel
1,85009,AZ,Phoenix,100.89.210.124:1234,526957,75,650078364655,israel
1,27306,NC,Mt Gilead,100.89.244.159:1234,527063,60,650078601403,israel
1,06614,CT,Stratford,100.83.38.36:5500,526894,31,998070615598,israel
0,T9M 1S2,AB,Cold Lake,24.142.24.183:9287,527406,43,54216010D56C,cuba
1,92571,CA,Perris,10.8.106.198:5501,527672,60,998070672029,egypt
1,33405,FL,West Palm Beach,10.64.216.130:5500,527720,60,580053345399,egypt
1,00674,PR,MANATI,10.65.107.252:5501,527726,60,580053359887,peru
1,27573,NC,Roxboro,10.64.214.169:5500,527879,60,580053018970,israel
1,85546,57,Safford,100.89.226.7:1234,528049,47,650078245961,israel
1,30032,GA,DECATUR,100.89.33.74:49215,528167,75,000051DE2BF2,israel
1,35210-3407,AL,Irondale,100.89.116.68:5500,528272,66,998070463817,israel
1,30034,GA,Decatur,100.89.231.191:1234,528306,75,650078245631,egypt
1,39452,MS,Lucedale,10.64.1.150:5501,528476,3,580051010029,egypt
1,78640,TX,Kyle,100.89.218.42:1234,528509,75,650078152035,israel
1,36877,AL,SMITHS,10.64.220.79:5500,528502,60,580053271066,ghana
1,39629,MS,BOGUE CHITTO,10.8.107.99:5501,528574,60,998070606951,peru
1,92648,1,Huntington Beach,10.65.181.172:5501,528751,97,580053551491,israel
1,00612,PR,Arecibo,10.65.108.44:5500,528794,60,580053272114,peru
1,78644,TX,Lockhart,100.89.218.45:1234,528843,75,650078151656,israel
1,76502,57,Temple,100.89.216.232:1234,529264,47,650078261794,israel
2,4114,QLD,Logan Central,10.64.125.116:1234,529302,104,372080056712,egypt
1,78725,TX,Austin,100.89.218.71:1234,529545,75,650078256885,egypt
1,75253,57,Dallas,100.89.207.10:1234,529853,47,650073194396,israel
1,00745,PR,RIO GRAND,10.64.216.228:5500,529959,60,580053303463,israel
1,34982,FL,Fort Pierce,10.65.114.71:5500,529973,60,580053364226,israel
1,70094,LA,Westwego,100.89.208.196:1234,530162,75,650078144248,egypt
1,84041,57,Layton,100.89.210.197:1234,530216,47,650078356206,egypt
1,85139,AZ,Maricopa,100.89.218.74:1234,530296,75,650078256604,israel
1,83634,57,Kuna,100.89.188.250:1234,530521,47,650078222937,egypt
1,70127,LA,New Orleans,100.89.218.152:1234,530933,75,650078366411,israel
0,R2M 1A3,MB,Winnipeg,142.161.53.12:9116,531008,43,54216000143B,wales
1,20746,MD,Suitland,100.89.151.150:1234,531312,75,650073231438,israel
1,02907,RI,Providence,10.65.181.141:5501,531514,60,580053736704,israel
1,07052,NJ,West Orange,10.8.104.153:5501,531532,60,998071063541,peru
1,84044,57,Magna,100.89.214.188:1234,531637,47,650078294845,israel
1,85035,AZ,Phoenix,100.89.187.159:1234,532521,75,650073959194,israel
1,77073,TX,Houston,100.89.232.97:1234,532575,75,650078314650,israel
1,28364,NC,Maxton,10.64.26.127:1234,532782,60,335051290622,peru
1,28399,OK,White Oak,10.64.194.164:1234,532999,60,335052490494,israel
1,20904,MD,Silver Spring,100.89.193.43:1234,533345,75,650073934452,egypt
1,21212,MD,Baltimore,100.89.215.14:1234,533358,75,650078325193,israel
1,30032,GA,Decatur,100.89.228.70:1234,532183,75,650078362923,israel
1,36532,AL,Fairhope,100.83.67.131:5501,450053,32,998072194360,egypt
1,76020,TX,Azle,100.89.245.93:1234,534187,47,650078567042,egypt
1,30228,GA,Hampton,100.89.229.136:1234,535217,75,650073754322,egypt
1,30039,GA,Snellville,100.89.246.247:1234,535572,75,650078598914,israel
1,30047,GA,Lilburn,100.89.229.148:1234,535901,75,650078161978,israel
1,86440,AZ,Mohave Valley,10.64.220.212:5500,536049,60,580053355208,ghana
1,85033,AZ,Phoenix,100.83.8.54:1234,536110,75,650078611618,israel
1,77061,TX,Houston,100.89.232.143:1234,536538,75,650078258642,israel
0,B3N3J5,NS,Halifax,10.65.115.206:9048,521232,43,54216010DB30,angola
1,70460,LA,Slidell,100.83.13.43:1234,536602,75,650078742702,israel
0,V3H 0A3,BC,ANMORE,10.64.137.117:5500,536630,80,580051010375,israel
1,30349,GA,Atlanta,100.89.246.216:1234,536691,75,650078566960,egypt
1,30236,GA,Jonesboro,100.83.12.163:1234,536907,75,650078743890,egypt
1,85635,AZ,Sierra Vista,100.89.214.184:1234,536982,47,650078128142,israel
1,77591,TX,Texas City,100.83.13.35:1234,537027,47,650078620726,egypt
1,77587,TX,South Houston,100.89.229.67:1234,537319,75,650073800646,israel
1,91406,CA,Van Nuys,10.65.114.20:5501,537651,60,580053562845,egypt
1,30344,GA,East point,100.89.189.151:1234,537783,75,650073752078,israel
0,M6M1C5,ON,Toronto,108.175.234.30:1234,533841,43,000000637376,peru
1,70122,LA,New Orleans,100.89.230.164:1234,538712,75,650078056145,israel
1,30296,GA,Riverdale,100.89.209.48:1234,538827,75,650073892148,israel
1,30228,GA,Hampton,100.89.216.149:1234,538965,75,650078149064,israel
1,30238,GA,Jonesboro,100.89.216.52:1234,539185,75,650078366353,israel
1,42642,KY,RUSSELL SPRINGS,10.8.106.214:5501,420359,60,998071521837,germany
1,84115,UT,Salt Lake City,100.83.16.167:1234,539629,47,650078496994,egypt
1,30008,GA,Marietta,100.89.253.182:1234,540572,75,650078677379,israel
1,75853,TX,Montalba,10.64.199.104:1234,540781,60,335052486484,ghana
1,29732,SC,Rock Hill,10.64.204.16:1234,540837,60,335052471742,israel
1,75089,TX,Rowlett,10.8.105.200:5501,541195,60,998071176954,germany
1,87120,NM,ALBUQUERQUE,100.83.53.245:5501,541269,60,998071492146,ghana
1,78211,TX,San Antonio,100.83.130.213:1234,541577,75,636094200514,egypt
1,70767,LA,Port Allen,100.83.124.27:1234,541957,60,636094674445,egypt
1,70394,LA,Raceland,100.83.137.91:1234,542375,75,636094226600,israel
1,33548,FL,Lutz,10.8.106.64:5501,542626,60,998071158093,ghana
1,20707,MD,Laurel,100.83.126.150:1234,542903,75,636094618756,egypt
1,75216,TX,Dallas,100.83.15.57:1234,543588,75,650078564239,egypt
1,36768,AL,Pine Apple,10.64.44.181:1234,543252,60,335051742812,egypt
1,39095,MS,Lexington,10.64.197.40:1234,544051,60,335052413199,israel
1,39095,MS,LEXINGTON,10.8.115.210:5500,544088,60,998072301064,peru
1,30034,GA,DECATUR,100.89.198.89:1234,544197,75,650073766482,israel
1,78244,TX,San Antonio,100.83.125.113:1234,544204,75,636094203328,israel
1,81621,CO,BASALT,216.237.93.172:11807,482058,56,54216010050F,peru
1,30297,GA,Forest Park,100.83.116.161:1234,544360,75,636094219159,israel
1,20019,DC,Washington,100.89.146.180:1234,544625,75,650073204658,israel
1,76108,TX,Fort Worth,100.89.253.94:1234,544632,47,650078615775,egypt
1,20759,MD,Fulton,100.89.208.66:1234,544794,75,650073891413,israel
1,39365,MS,Union,100.83.119.164:1234,544881,143,636094724877,israel
1,70510,LA,Abbeville,100.83.126.170:1234,545103,60,636094237193,israel
1,39212,MS,JACKSON,10.8.117.34:5501,481679,60,998072211271,israel
1,30458,GA,Statesboro,10.64.203.143:1234,545640,60,335052484315,germany
1,30642,GA,Greensboro,10.64.198.17:1234,545685,60,335052463830,peru
1,06519,CT,New Haven,10.8.117.157:5500,545882,60,998071970109,egypt
1,19090,PA,Willow Grove,100.89.232.148:1234,546074,12,650078351942,israel
1,30294,GA,Ellenwood,100.83.118.189:1234,546109,75,636094634993,israel
1,28326,NC,Cameron,100.83.120.173:1234,546298,143,636094704234,israel
1,30087,GA,Stone Mountain,100.83.123.120:1234,546629,75,636094632724,israel
1,76002,TX,Arlington,100.83.120.182:1234,546805,75,636094153952,israel
1,98802,WA,East Wenatchee,100.89.232.201:1234,546864,12,650078261711,israel
1,30058,GA,Lithonia,100.83.118.155:1234,547051,75,636094211883,israel
1,66217,KS,Shawnee,100.89.232.168:1234,547133,12,650073882974,egypt
1,30039,GA,Snellville,100.83.118.185:1234,547192,75,636094634951,israel
1,76112,TX,Fort Worth,100.83.122.119:1234,547346,75,636094728613,egypt
1,31093,GA,Warner Robins,100.83.139.97:1234,547626,75,636094796115,egypt
1,84067,UT,Roy,100.83.115.249:1234,541544,47,636093762225,None
1,32807,FL,ORLANDO,10.8.115.48:5501,432628,60,998072179452,germany
1,34994,FL,stuart,100.89.232.189:1234,548906,12,650073892544,israel
1,49221,MI,Adrian,100.83.17.39:1234,549083,60,650078465437,israel
1,84119,UT,West Valley City,100.83.134.226:1234,549387,47,636094734520,israel
1,12303,NY,Schenectady,100.89.232.154:1234,549461,12,650078226623,israel
1,29583,SC,Pamplico,10.64.39.67:1234,549493,60,335051780101,germany
1,08324,NJ,na,100.89.232.176:1234,549584,12,650078335028,israel
1,11763,NY,Medford,100.89.220.4:1234,549630,12,650073872223,egypt
1,06460,CT,Milford,100.83.92.62:5500,548724,31,998072484191,egypt
1,84015,UT,Clearfield,100.83.134.214:1234,549825,47,636094619556,israel
1,08234,NJ,na,100.89.230.76:1234,549901,12,650078317281,egypt
1,36111,AL,Montgomery,100.83.107.116:5501,549701,66,998072729207,ghana
1,42301,KY,Owensboro,100.83.17.70:1234,550459,60,650074839528,egypt
1,11214,NJ,Brooklyn,100.89.220.17:1234,550581,12,650078155921,israel
1,33139,FL,Miami Beach,100.89.230.75:1234,550764,12,650078318792,israel
1,15061,PA,Monaca,100.89.220.0:1234,550932,12,650073901030,egypt
1,95831,CA,Sacramento,100.89.227.106:1234,550972,75,650078146524,egypt
1,32114,FL,Daytona Beach,100.89.230.61:1234,551856,12,650078306482,israel
1,06901,CT,Stamford,100.89.230.70:1234,551884,12,650078335473,egypt
1,85711,AZ,Tucson,100.89.230.67:1234,552161,12,650078335127,israel
1,95678,CA,Roseville,100.83.121.163:1234,552260,75,636094710520,israel
1,84084,UT,West Jordan,100.83.119.3:1234,552261,60,636093757613,egypt
1,08234,NJ,na,100.89.219.239:1234,552466,12,650078225062,egypt
1,72205,AR,Little Rock,100.83.125.89:1234,464645,60,636094681119,israel
1,38930,MS,Greenwood,10.64.68.202:1234,552659,60,335052299846,israel
1,84120,UT,Salt Lake City,100.83.236.232:1234,552688,75,636099072116,israel
1,07421,NJ,Hewitt,100.89.251.105:1234,552860,60,650078608911,israel
1,02364,MA,Kingston,100.89.230.73:1234,553117,12,650078335259,egypt
1,00641,PR,Utuado,10.65.198.177:5500,553424,60,580053544835,peru
1,60073,IL,ROUND LAKE,100.89.232.169:1234,553489,12,650078274722,egypt
1,31088,GA,Warner Robins,100.83.88.196:5500,554279,56,998072733019,ghana
0,N2B 3E9,ON,Kitchener,10.65.199.201:5501,554280,69,580053852030,peru
1,60501,IL,Summit,10.64.40.96:1234,554360,83,335051859335,germany
1,90650,CA,Norwalk,100.83.249.181:1234,554949,75,636099072124,egypt
1,36874,AL,Salem,100.83.247.92:1234,555049,60,152100416574,israel
1,24563,VA,Hurt,10.64.198.213:1234,555193,60,335052474852,israel
1,30180,UT,VILLA RICA,10.8.101.183:5501,555320,60,998070714557,ghana
1,89031,NV,North Las Vegas,10.64.201.233:1234,555528,75,307000160871,israel
0,H9X 1E2,QC,Sainte-Anne-de-Bellevue,142.122.39.207:9731,506346,43,54216010ABF0,peru
1,33616,FL,Tampa,10.66.13.64:4097,557038,1,4135849AB459,tahiti
1,45417,OH,dayton,100.83.254.82:1234,557260,60,636098141169,israel
1,85355,AZ,Waddell,100.83.240.133:1234,557315,75,636096119167,israel
1,10530,NY,Hartsdale,100.89.230.42:1234,557411,12,650078364325,egypt
1,06120,CT,Hartford,100.83.253.246:1234,557597,60,152100360004,egypt
1,84043,UT,Lehi,10.64.208.4:1234,558036,47,307000161176,egypt
1,89134,NV,Las Vegas,100.88.5.4:1234,558120,75,152100280939,egypt
1,31008,GA,Byron,10.8.118.111:5501,534729,60,998072676515,peru
1,08234,NJ,Na,100.89.221.59:1234,559243,12,650073963204,israel
1,08234,NJ, na,100.89.221.85:1234,559449,12,650073875226,israel
1,92543,CA,Hemet,100.83.243.212:1234,559532,60,152100280400,egypt
1,77389,TX,Spring,100.83.13.0:1234,560478,31,650078577686,israel
1,08234,NJ,na,100.88.39.151:1234,561262,12,636096640600,egypt
1,NA,VA,NA,100.83.252.85:1234,561279,12,152100264065,egypt
1,08234,NJ,na,100.88.35.175:1234,561287,12,636096657935,egypt
1,NA,VA,NA,100.88.39.226:1234,561288,12,636096679202,egypt
1,NA,VA,NA,100.88.34.0:1234,561376,12,636096587132,egypt
1,NA,VA,NA,100.88.34.194:1234,561475,12,636096631161,israel
1,70517,LA,Breaux Bridge,100.83.229.173:1234,561755,60,152100264438,israel
1,08234,NJ,na,100.88.30.52:1234,562840,12,636096652308,egypt
2,5253,SA,Murray Bridge,10.66.223.105:1234,563315,104,372080053149,israel
1,06095,CT,Windsor,10.8.112.255:5501,563345,60,998071725503,ghana
1,71371,LA,Trout,10.8.104.86:5501,464014,60,998071070637,germany
1,31730,GA,Camilla,100.83.239.63:1234,563736,60,152100340543,egypt
1,85283,AZ,Tempe,100.88.17.143:1234,563818,75,636096122161,israel
1,89156,NV,Las Vegas,100.83.249.251:1234,564010,75,636099078857,israel
1,60605,IL,Chicago,100.88.34.157:1234,564226,60,636096631120,egypt
1,08234,NJ,na,100.88.48.235:1234,564327,12,152101424320,israel
1,08234,NJ,na,100.88.44.121:1234,564482,12,152101473145,egypt
1,08234,NJ,na,100.88.44.193:1234,564494,12,152101472840,israel
1,08234,NJ,na,100.88.48.119:1234,564562,12,152102072995,israel
1,08234,NJ,na,100.88.55.204:1234,564784,12,636096878291,israel
1,08234,NJ,na,100.88.58.226:1234,564792,12,636096856644,israel
1,NA,VA,NA,100.88.55.148:1234,564855,12,636096879034,egypt
1,89149,NV,Las Vegas,100.83.66.115:11336,564866,10,542160000825,ghana
1,08234,NJ,na,100.88.46.195:1234,565054,12,152101493234,egypt
1,22079,VA,LORTON,100.88.175.6:1234,565079,75,152105204363,israel
1,02071,MA,Walpole,10.8.114.43:5501,565167,60,998072008842,germany
1,90305,CA,Inglewood,100.88.24.117:1234,554944,75,636099070839,egypt
1,84043,UT,Lehi,100.83.12.203:1234,566121,47,650078743213,israel
1,08234,NJ,na,100.88.59.163:1234,566198,12,636096878200,egypt
1,NA,VA,NA,100.88.59.183:1234,566218,12,636096847395,israel
1,07006,NJ,North Caldwell,100.83.95.82:5501,566896,31,998072473798,egypt
1,NA,NJ,NA,100.88.65.124:1234,567510,12,636096847387,egypt
1,NA,VA,NA,100.88.69.143:1234,567527,12,636096839293,egypt
1,08234,NJ,na,100.88.62.133:1234,567607,12,636096863749,egypt
1,08234,NJ,na,100.88.62.224:1234,567626,12,636096853963,israel
1,08234,NJ,na,100.88.69.125:1234,567643,12,636096847775,egypt
1,08234,NJ,na,100.88.69.119:1234,567650,12,636096847742,egypt
1,12110,NY,Latham,10.8.2.60:5501,567654,60,998072707211,ghana
1,08234,NJ,na,100.88.69.105:1234,567672,12,636096847692,israel
1,na,NJ,08234,100.88.69.187:1234,567683,12,636096847965,israel
1,08234,NJ,na ,100.88.69.135:1234,567701,12,636096847825,egypt
288,+27,Mpumalanga,Lydenburg,10.3.4.56:63297,567760,196,72523100016A,finland
1,NA,VA,NA,100.88.69.132:1234,567771,12,636096847783,israel
1,08234,NJ,na,100.88.69.97:1234,567776,12,636096847676,egypt
1,08234,NJ,na,100.88.69.114:1234,567789,12,636096847767,egypt
1,08234,NJ,na,100.88.69.101:1234,562842,12,636096847650,egypt
1,NA,VA,NA,100.88.59.128:1234,567809,12,636096878192,egypt
1,08234,NJ,na,100.88.60.23:1234,561453,12,636096847585,israel
1,NA,NJ,NA,100.88.60.75:1234,567845,12,636096847593,israel
1,08234,NJ,na,100.88.59.64:1234,567849,12,636096878283,egypt
1,NA,VA,NA,100.88.54.100:1234,567996,12,636096876410,israel
1,08234,NJ,na,100.88.17.173:1234,568005,12,636096845852,egypt
1,08234,NJ,na,100.88.54.27:1234,568018,12,636096876683,egypt
1,NA,VA,NA,100.88.62.173:1234,568026,12,636096839103,egypt
1,14172,NY,Wilson,10.64.208.31:1234,568430,166,307000158263,egypt
1,39562,MS,Moss Point,100.83.94.175:5500,568720,3,998072443296,ghana
1,84043,UT,Lehi,100.88.206.21:1234,569067,47,152105328139,egypt
1,19141,PA,West Philadelphia,100.88.95.176:1234,569580,60,636096939796,egypt
1,78412,TX,Corpus Christi,10.64.139.1:1234,570216,189,335052352983,israel
1,06351,CT,Griswold,10.8.3.195:5501,438368,60,998072426788,egypt
1,95210,CA,Stockton,100.83.149.56:5501,570655,60,998071561197,ghana
1,84120,UT,West Valley City,10.65.153.232:1234,570725,47,307000161168,egypt
1,72116,AR,North Little Rock,100.88.128.24:1234,570967,60,152101510151,egypt
1,36343,AL,Gordon,100.83.150.62:5501,571152,60,998071480760,egypt
1,,CO,Pueblo,100.88.35.206:1234,571316,47,636096662042,israel
1,35810,AL,Huntsville,100.88.131.108:1234,571758,60,636096983018,egypt
1,38967,MS,WINONA,10.8.92.46:5501,485275,60,998070421062,israel
1,95350,CA,Modesto,100.83.96.59:5500,572642,60,998071754115,israel
1,29649,SC,Greenwood,100.88.151.187:1234,572827,60,636096987597,egypt
1,90062,CA,Los Angeles,10.20.24.102:5500,573810,60,524042977448,ghana
1,89128,NV,Las Vegas,74.112.121.92:3070,573943,170,014992419377,barbados
1,63755,MO,JACKSON,100.83.94.221:5500,574050,3,998072457544,egypt
1,40514,KY,Lexington,173.187.129.32:9788,574680,56,542160004F46,peru
0,t0m 1l0,AB,Madden,10.64.112.91:5501,492017,135,580050970660,ghana
1,28269,NC,Charlotte ,100.88.57.83:5501,484628,60,998073258404,egypt
1,27320,NC,Reidsville,100.88.108.239:5501,453771,60,998073257729,ghana
1,31744,GA,Doerun,100.83.96.184:5501,575348,60,998071753521,ghana
1,06010,CT,Bristol,100.88.55.139:5501,436919,60,998073411144,israel
1,74733,OK,COLBERT,100.88.192.206:1234,557002,19,152105308040,egypt
1,33487,FL,Boca Raton ,100.83.146.217:5500,576660,60,998073454342,egypt
1,95409,CA,Santa Rosa,100.88.110.133:1234,577138,60,152101497672,israel
1,28314,NC,Fayetteville,100.88.57.239:1234,577895,47,152102117295,egypt
1,32746,FL,Lake Mary,10.64.27.194:1234,577220,1,335051282645,egypt
1,31525,GA,Brunswick,100.83.145.64:1234,578241,60,152105405374,egypt
1,46143,IN,Greenwood,100.83.143.179:1234,578409,60,152105981986,egypt
1,00757,PR,Santa Isabel,10.65.147.148:1234,578413,60,307000165516,israel
1,00647,PR,Ensenada,10.65.148.231:1234,578465,60,307000165524,israel
1,30349,GA,College Park,100.89.158.105:49164,514860,75,000051F162F3,egypt
0,G1P2A5,QC,Quebec,10.65.155.88:1234,578561,109,307000184988,israel
1,00956,PR,Bayamon,10.65.160.189:1234,578619,60,307000175408,israel
1,08234,NJ,na,100.88.60.45:1234,578621,12,636096847619,israel
288,1111,Gauteng,Johannesburg,10.3.139.144:63624,517772,196,7252310001CA,finland
1,00783,PR,Corozal,10.65.156.175:1234,578637,60,307000175341,egypt
1,31088,GA,WARNER ROBINS,100.88.2.138:1234,578641,56,152106232330,egypt
1,08234,NJ,na,100.89.230.78:1234,558661,12,650078311763,egypt
1,14226,NY,cheektowaga,10.65.160.100:1234,578652,166,307000184830,egypt
1,31030,GA,FORT VALLEY,100.88.132.211:1234,578655,56,636096965528,israel
0,J0R1R1,QC,ST-SAUVEUR,10.65.158.179:1234,578656,109,307000187403,egypt
242,12900,Montevideo,MONTEVIDEO,10.65.244.34:1234,578658,30,518005040577,israel
1,08324,NJ,na,100.89.232.179:1234,549616,12,650078161747,egypt
1,36581,AL,SUNFLOWER,100.83.201.12:5501,510432,60,998073430540,ghana
2,2093,NSW,Balgowlah Heights,10.65.129.191:1234,507880,121,000001041089,orange,12
2,2213,NSW,Panania,10.65.135.109:1234,507906,121,000001041090,dubbo,12
2,2170,NSW,Sydney,10.64.124.80:1234,507996,121,000000854058,dubbo,12
2,3020,VIC,Sunshine West,10.64.15.182:1234,542313,122,372080056514,orange,8
2,2765,NSW,Riverstone,10.66.223.158:1234,542360,122,372081127124,dubbo,8
292,215 35 ,Skane,Vintrie,10.65.141.209:1234,464539,11,000001240366,poland,12
292,38471,Kalmar,TIMMERNABBEN,81.229.127.107:1234,464676,13,000001151110,poland,12
