1,48141,MI,Inkster,10.20.35.61:5500,420234,60,524043326710,ghana
1,32080,FL,SAINT AUGUSTINE,10.20.33.100:5500,420798,60,524043310078,egypt
1,92821,CA,Brea,10.20.32.172:5500,421051,60,524043323733,ghana
1,01129,MA,SPRINGFIELD,10.20.23.219:5500,422310,60,524042996158,egypt
1,90272,CA,Pacific Palisades,10.20.42.51:5500,422518,60,524043499285,israel
0,L6M3Y9,ON,Oakville,104.158.11.151:9194,422876,43,542160100A61,ghana
1,34654,FL,NEW PORT RICHEY,10.20.43.124:5500,423469,60,524043341123,ghana
0,H9C1W2,QC,Montreal,96.23.195.108:9135,423476,43,542160101123,angola
1,35570,AL,Hamilton,10.20.47.38:5500,423686,32,524043477919,israel
1,91342,CA,SYLMAR,10.20.35.238:5500,424082,60,524043368571,peru
1,32776,FL,Sorrento,10.20.33.208:5500,424312,60,524043313403,germany
1,39042,MS,Brandon,10.20.48.95:5501,431458,60,580050083647,israel
1,84025,UT,Farmington,10.20.46.17:9886,425158,1,54216010148C,ghana
0,L7T3P6,ON,Burlington,65.95.156.91:9071,425378,43,542160101044,ghana
1,91977,CA,SPRING VALLEY,100.83.140.193:5500,426368,60,000042F6207C,ghana
0,N3T0E9,ON,Brantford,104.158.101.130:11645,427132,43,5421601024C5,cuba
0,L3R4T9,ON,MARKHAM,99.228.5.184:9878,427642,43,5421601024DB,cuba
0,T3M2B2,AB,Calgary,68.144.97.216:9061,433072,43,542160102B24,wales
0,L5E2M6,ON,Mississauga,99.246.88.62:9222,430540,43,5421601027CF,wales
1,08527,NJ,Jackson,10.20.47.157:5501,428028,60,524043487157,egypt
1,48420,MI,Clio,100.83.181.149:5500,428738,60,000042F3FE35,ghana
1,92545,CA,Hemet,100.83.198.91:5500,431546,10,00003E4C6C84,egypt
1,91791,CA,West Covina,100.83.181.27:5501,430768,60,000049997DDB,ghana
1,39339,1,LOUISIANA,100.83.148.35:5501,429858,60,000042F3FC91,egypt
1,36507,AL,Bay Minette,10.20.47.131:5501,429838,32,580050106687,germany
0,M6C1S7,ON,Toronto,10.20.57.54:5501,429960,43,580050107958,israel
1,90631,CA,LA HABRA,10.20.48.239:5501,430642,60,580050103916,ghana
1,29605,SC,GREENVILLE,100.83.220.190:5501,431152,60,00003E4C245D,israel
0,L0G1T0,ON,Schomberg,99.249.39.154:9185,431312,43,542160102535,peru
1,75043,TX,Garland,10.20.49.82:5500,432240,60,580050105879,germany
1,30157,1,Dallas,100.83.224.89:5501,432508,60,000049998769,egypt
0,M4E1W3,ON,Toronto,99.237.235.120:9366,433428,43,5421601027D6,angola
1,29307,SC,spartonburg,100.83.224.134:5501,433654,60,000049999EB6,egypt
0,M2J 4V6,ON,Toronto,10.20.46.245:9010,433694,43,542160102702,ghana
1,45506,OH,SPRINGFIELD,100.83.184.160:5501,433787,60,000049999D50,egypt
1,27707,NC,Durham,100.83.215.38:5501,434613,60,0000499992E3,ghana
0,L0G 1W0,ON,Tottenham,216.181.186.172:10662,435015,43,542160102B45,peru
1,60620,IL,Chicago,100.83.187.145:5500,435181,60,000049A1AE19,israel
0,T3H 3G4,AB,Calgary,68.146.199.39:9585,435511,43,5421601035B0,cuba
0,L6Z3K7,ON,Brampton,104.158.138.145:9132,436156,43,542160103284,cuba
1,92832,CA,Fullerton,100.88.30.69:5500,436384,6,00003E4BA3F9,israel
1,06084,CT,Tolland,100.83.222.61:5501,436739,60,0000499983E5,egypt
1,45244,OH,CINCINNATI,100.83.179.99:5501,436935,60,0000499990AF,ghana
1,35611,AL,Athens,100.83.183.87:5501,437003,60,000049997E97,ghana
1,60651,IL,Chicago ,100.83.173.122:5501,437026,60,00004999B27A,ghana
0,T6J 0X4,AB,Edmonton,10.20.60.44:9274,437320,43,5421601034CE,ghana
1,63084,MO,UNION,100.83.197.102:5501,437753,60,00003E4C5FA6,ghana
0,T4P 3K5,AB,Red Deer,24.66.20.211:9301,438026,43,5421601033FE,wales
1,06075,CT,Stafford springs,100.83.198.186:5500,438169,60,000049A1C12A,egypt
1,45417,OH,DAYTON,100.83.179.11:5501,438776,60,00003E4C0593,israel
1,34653,FL,New port richey,100.83.174.196:5501,439486,60,000049A19717,israel
0,M6E4W2,ON,Toronto,108.168.60.169:9571,439988,43,542160103BA8,angola
1,33971,FL,LEHIGH ACRES ,100.83.222.40:5501,440018,60,0000499981D9,egypt
1,33542,FL,Zephyrhills,100.83.148.91:5500,440471,60,00004999AD89,egypt
1,13069,NY,Fulton,100.83.175.161:5501,440648,60,00003E4C13A0,ghana
1,31906,GA,Columbus,100.88.36.227:5501,441204,79,00004999AFA3,egypt
1,12828,NY,Fort Edward,100.83.172.99:5500,441209,60,000049A1CD7D,ghana
1,34474,FL,Ocala,100.83.225.74:5501,441532,60,0000499979B3,ghana
1,34683,FL,Palm harbor,100.83.192.227:5500,441595,60,000049995DE1,ghana
0,L5G0B5,ON,Mississauga,50.101.172.251:9061,441746,43,542160103A17,peru
1,31906,GA,Columbus,100.88.36.25:5500,441771,79,000049A1C8A1,israel
1,39038,MS,BELZONI,10.20.47.160:5501,442184,60,524043483271,peru
1,33844,FL,Haines City,100.83.192.87:5500,442352,60,00003E4C872E,israel
1,27302,NC,Mebane,100.83.193.105:5501,442459,60,00004999AB4A,egypt
1,30032,GA,Decatur ,10.20.24.96:5500,442767,60,524042985599,egypt
0,V6S 2B9,BC,Vancouver,24.85.242.170:9485,443618,43,5421601040FE,peru
1,33860,FL,MULBERRY,100.83.213.45:11875,443864,60,5421601043E1,israel
1,34601,FL,Brooksville ,100.83.150.98:5501,443920,60,000049A1C02F,israel
1,91745,CA,Hacienda Heights,100.83.198.21:5501,443950,10,000049A190D1,israel
0,T3S0C1,AB,Calgary,10.20.64.62:5501,444600,141,580050241468,peru
112,122003,,Delhi,14.140.207.98:51616,444800,39,5421601013FD,ghana
1,77372,TX,Splendora,100.83.193.37:5501,444974,60,00003E4C6294,ghana
0,L4H3X4,ON,Kleinburg,64.228.139.57:9065,444978,43,54216010412D,peru
1,84004,UT,NA,10.20.25.132:5500,419418,1,524042979238,egypt
0,M4N1Z4,ON,TORONTO,99.240.194.91:9363,445592,89,542160104AEE,peru
1,27605,NC,Raleigh,100.88.37.125:5501,445693,6,000049998F25,ghana
0,T2T 1W4,AB,Calgary,75.159.46.53:9321,445911,43,5421601040AA,wales
0,V6A0G2,BC,Vancouver,66.183.247.235:9274,446062,43,5421601040E7,peru
112,110085,,New Delhi,45.120.126.26:26726,446124,39,542160104455,ghana
1,89178,NV,Las Vegas,100.83.177.11:5501,446349,10,00004999A3A1,ghana
1,91106,CA,Pasadena,100.83.149.216:5501,446401,10,00003E4C2A2D,egypt
1,30318,GA,Atlanta,100.88.36.15:5501,446735,10,000049A1B0E8,ghana
1,48150,MI,Livonia,100.83.226.238:5501,446936,60,000049A1BF94,egypt
1,94606,CA,OAKLAND,100.83.192.57:5501,447419,60,00004999925D,israel
0,L9N 1L7,ON,Holland Landing,24.212.177.19:9173,447475,43,542160104D34,cuba
1,48187,MI,Canton,100.83.213.40:5501,447674,60,000049A1D5DB,egypt
112,110005,112,New Delhi,10.20.52.67:9040,448231,39,54216010450E,ghana
1,90405,CA,Santa Monica,100.83.210.243:5501,448512,10,000049A1B18E,ghana
1,91607,CA,Valley Village,100.83.227.188:5501,448714,60,00003E4BF3EA,egypt
1,93455,SC,Anderson,100.83.153.236:5501,449059,60,00004D8B0F66,israel
1,33810,FL,Lakeland,100.83.226.8:5501,449132,60,000049A1C828,egypt
1,31092,GA,Vienna,100.83.167.222:5501,449945,60,000051D1330A,egypt
1,77541,TX,FREEPORT,100.83.152.182:5501,449992,60,00004D95F8FD,ghana
1,38334,TN,FINGER,100.83.169.49:5501,450257,60,000051D0F512,israel
1,33594,FL,Valrico,100.83.154.113:5501,450362,60,00004D956072,ghana
1,11220,NY,Brooklyn,100.83.167.151:5501,450650,60,000051D0DDB0,egypt
1,33594,FL,Valrico,100.83.153.218:5501,450821,60,00004D82EDFA,egypt
0,L4K5J7,ON,Vaughan,99.247.125.187:9144,451195,43,542160104C65,angola
1,33594,FL,Valrico,100.83.213.175:5501,451360,60,0000499974D6,ghana
0,L7C 1W4,ON,Caledon,67.69.69.166:11192,451370,43,542160104C85,angola
1,90621,CA,Buena Park,76.169.17.46:9192,451452,89,542160105281,peru
1,32628,FL,Cross City,100.83.169.239:5501,451855,60,00004D950025,ghana
0,L3Y 8P7,ON,Newmarket,72.140.137.154:9067,452460,43,542160105332,angola
1,10579,NY,Putnam Valley,100.83.141.213:5501,452753,60,000051CD79FA,ghana
1,23666,1,Hampton,100.88.95.97:5501,452783,56,000051CD7343,ghana
1,35218,AL,Birmingham ,100.83.171.134:5500,452841,60,000051CD9696,israel
1,90712,CA,Lakewood,100.83.216.192:5501,452844,10,000051D13773,israel
1,45744,OH,Lowell,100.83.140.102:5501,452961,60,00004D955B61,ghana
1,71119,LA,SHREVEPORT,75.65.87.64:9153,453164,47,542160105895,peru
1,93304,CA,Bakersfield,100.83.170.91:5501,453167,60,000051CD8282,egypt
0,R0A1E0,MB,Niverville,142.160.74.182:9180,453188,43,5421601053A2,ghana
0,T0M 1R0,AB,Red Deer,69.168.160.52:61544,453446,43,5421601053AE,angola
1,72764,AR,Springdale,100.88.95.85:5501,454343,22,000051CD7594,egypt
1,92543,CA,Hemet,100.83.184.113:5500,454427,60,000049999751,egypt
1,39422,MS,Bay Springs,100.83.153.144:5501,454584,60,00004D95516B,ghana
1,90255,CA,Huntington Park,100.83.199.93:5501,454592,60,00004D9D2A84,egypt
1,31210,GA,Macon,100.83.153.27:5501,454763,60,00004D95062A,egypt
0,T0C2L0,AB,Stettler,108.173.110.17:9017,454922,43,542160105911,ghana
1,39735,MS,ACKERMAN,100.83.153.108:5500,454931,60,00004D82F056,ghana
1,76123,57,Fort Worth,100.88.111.65:49412,455304,47,000051D4E94F,israel
0,R3J3A3,MB,Winnipeg,24.77.32.125:9123,455865,43,542160105E08,ghana
1,92551,CA,Moreno Valley,100.83.170.159:5500,456499,60,000051CD8159,israel
1,31906,GA,Columbus,100.88.30.37:5500,456587,79,00003E4C7270,egypt
1,36581,AL,SUNFLOWER,100.83.146.195:5501,456906,60,000051D0E6C1,ghana
1,02136,MA,Hyde park,100.83.177.111:5500,457100,60,00004D9B5AB8,israel
1,12863,NY,ROCK CITY FALLS,100.83.169.184:5501,457136,60,000051D0F784,egypt
1,89015,NV,Henderson,100.83.148.111:5501,457219,60,00004D853ECE,ghana
1,95355,CA,Modesto,100.83.167.47:5501,458212,60,000051D110E8,ghana
1,95341,CA,Merced,100.83.216.199:5500,458354,60,000051CFACB3,ghana
1,95356,CA,Modesto,100.83.146.186:5500,458478,60,00004D9B13FE,ghana
1,38635,MS,HOLLY SPRINGS,10.20.77.117:5501,458480,60,580050660808,israel
1,95307,CA,Ceres,100.83.227.120:5501,458706,60,00004D9D4082,ghana
1,33440,FL,Clewiston,100.83.147.132:5500,458918,60,000051CD6C66,ghana
1,06824,CT,Fairfield,100.83.189.94:5500,459298,60,00004D9D287B,egypt
1,99203,WA,Spokane,100.83.162.42:5501,459646,60,000051D9A406,ghana
1,60628,IL,Chicago,100.83.195.234:5501,459865,60,00004D9B6396,ghana
1,33873,FL,WAUCHULA,100.83.165.94:5501,460336,60,00004D955BCA,ghana
1,13450,NY,Saint Johnsville,100.83.200.160:5501,460519,60,00004D9D1F5D,israel
1,12414,NY,Catskill,100.83.155.152:5501,458588,60,00004D9567DD,ghana
1,71351,LA,Marksville,100.83.193.237:5501,460914,60,000051D120B1,israel
0,M1E3G4,ON,Scarborough,10.20.74.187:9174,460984,43,542160105DA5,peru
1,60617,IL,Chicago,100.88.190.143:51535,461567,60,000051D876C1,germany
1,23666,1,Hampton,100.88.126.23:5500,461612,56,000051CD77D0,ghana
1,38654,MS,OLIVE BRANCH,100.83.142.80:5501,461747,60,000051D9EB96,egypt
1,94601,CA,Oakland,100.83.187.164:5501,462232,60,000051D9F5C2,israel
0,T8H1N3,AB,Sherwood Park,75.158.38.60:9002,462254,43,542160106202,wales
1,31021,GA,Dublin,100.83.186.225:5501,462417,60,000051D34783,egypt
1,95832,CA,Sacramento,100.88.37.59:5501,462522,56,0000499999C8,ghana
1,97404,OR,EUGENE,100.88.126.38:5501,462735,18,000051CD8315,ghana
1,92683,CA,Westminster,100.83.164.65:5500,462747,60,000051D34577,israel
1,19713,DE,Newark,100.88.94.40:5500,462388,31,000051CD7277,israel
1,30213,GA,ATLANTA,100.88.206.140:51399,463562,75,000047AF8BAD,germany
1,33498,FL,Boca Raton ,100.83.170.226:5501,463662,60,000051D0F1C8,israel
1,29554,SC,Hemingway,100.83.215.123:5501,463702,60,000051E4AECA,israel
1,38951,MS,PITTSBORO,100.83.186.160:5501,463741,60,000051D380AC,ghana
1,32751,FL,Maitland,100.83.145.42:5501,463773,60,00004D9B10DC,ghana
1,70722,LA,CLINTON,100.83.140.230:5501,463780,60,000051D379B3,egypt
1,90631,CA,La Habra,100.83.163.95:5501,463916,60,000051D365F6,israel
1,31088,GA,Warner Radins,100.83.188.225:5500,463963,60,000051D34781,egypt
1,25311,WV,Charlston,10.20.31.8:5500,464398,56,524043360057,germany
1,70647,LA,Iowa,100.83.202.242:5501,464740,60,000051E4A5F0,israel
1,78617,TX,Del Valle,100.88.188.105:53281,464880,47,B8B7D7001713,israel
1,94931,CA,Cotati,100.83.201.236:5500,465278,60,000051E4A895,ghana
1,48223,MI,Detroit ,100.83.187.69:5501,465318,60,000051D36187,egypt
1,28358,NC,Lumberton,100.83.158.92:5501,465919,60,000051E4A05C,ghana
1,35147,AL,SHELBY CO-HOOVERPJ,100.83.212.98:5501,466085,60,000051E48041,ghana
1,01108,MA,springfield,100.83.153.134:5501,466121,60,00004D82F08A,israel
1,30349,GA,ATLANTA,100.83.162.57:5501,466300,60,000051D9942A,israel
1,49045,MI,Decatur,100.83.186.43:5501,466327,60,000051D357CE,ghana
1,33572,FL,Apollo Beach ,100.83.185.234:5500,466358,60,000051D357D6,ghana
1,30213,GA,Fairburn,100.83.142.64:5501,466773,60,000051CD86CB,ghana
1,39338,MS,LOUIN,100.83.152.142:5500,466940,60,00004D853F84,israel
0,T6R 1K5,AB,Edmonton,137.186.144.83:9061,466949,43,542160106F15,ghana
1,38635,MS,HOLLY SPRINGS,100.83.227.80:5501,467055,60,000051D9F9BF,israel
1,01104,MA,Springfield,10.20.44.191:5500,467159,60,524043348110,egypt
0,T3K5J5,AB,Calgary,75.155.34.202:11235,467227,43,542160106ECC,wales
1,63049,MO,HIGH RIDGE,100.83.212.241:5501,467259,60,000051E46C42,ghana
1,84088,UT,West Jordan,76.8.215.50:62446,518383,1,000000499012,germany
1,20721,MD,Bowie,100.83.168.215:5500,467539,60,000051D0F90D,ghana
1,73121,OK,FOREST PARK,100.88.37.85:5501,467692,92,00003E4B42CF,egypt
1,44883,OH,Tiffin,100.88.221.17:5501,467699,106,000051E49DED,egypt
1,02368,MA,Randolph,100.83.211.63:5500,468615,60,000051E4C273,egypt
1,29554,SC,Hemingway,100.83.186.105:5501,468668,60,000051D9A116,ghana
112,110034,,New Delhi,122.161.204.184:9201,451480,39,54216010166A,angola
1,92154,CA,San Diego,100.83.153.72:5501,469212,60,00004D9566D6,israel
1,91732,CA,El Monte,100.83.203.150:5501,469299,60,000051E4E296,ghana
1,86426,AZ,Fort Mohave,100.83.186.231:5501,469899,60,000051D98786,israel
1,34482,FL,Ocala,100.83.163.9:5501,452472,60,000051D3854E,ghana
1,39663,MS,Silver Creek,100.83.162.228:5501,470175,60,000051D9A968,ghana
1,32751,FL,Maitland ,100.83.171.105:5501,470198,60,000051CDA7F6,ghana
1,39666,MS,Summit,100.83.208.112:5500,470393,60,000051E4E7B4,egypt
1,32024,FL,Lake city ,100.83.199.105:5501,470394,60,00004D9D2A87,ghana
1,32025,FL,LAKE CITY,100.83.217.108:5501,470606,60,000051E5A779,israel
1,31030,1,Fort Valley,100.88.220.57:5501,470609,56,000051E4E292,israel
1,35474,AL,MOUNDVILLE,100.83.208.138:5501,470937,60,000051E4B8CB,israel
1,32219,FL,Jacksonville ,100.83.178.43:5500,471372,60,000051E59F56,egypt
1,35079,AL,HAYDEN,100.83.226.220:5501,471373,60,000051E4A60A,ghana
1,44146,OH,Oakwood Village,100.83.224.185:5501,471447,60,000051D900FF,israel
1,35010,AL,ALEXANDER CITY,100.83.208.84:5501,471456,60,000051E493E6,egypt
1,39648,MS,MC COMB,10.64.5.250:5501,471576,60,580050874102,peru
1,92405,CA,San Bernardino,100.83.187.236:5501,471642,60,000051D347C1,ghana
1,33909,FL,Cape Coral ,100.83.227.232:5501,471960,60,000051E4DCED,israel
1,93727,CA,Fresno,100.83.162.209:5501,472032,60,000051D9A5E2,ghana
1,27983,NC,Windsor,100.83.209.229:5501,472142,60,000051E4B535,ghana
0,J7V0T5,QC,Vaudreuil-Dorion,184.148.205.159:11646,472587,43,542160107B13,ghana
1,06067,CT,Rocky Hill,100.83.159.18:5501,472670,60,000051E5C790,ghana
1,85374,AZ,Surprise,100.83.203.41:5501,472755,60,000051E5AF79,israel
1,29841,SC,N. Augusta,100.83.212.166:5501,472969,60,000051E4A81F,ghana
1,36401,AL,EVERGREEN,100.83.225.62:5501,473015,60,000051E4BCE3,ghana
1,94565,CA,Pittsburg,100.89.6.91:50908,473094,60,000051DC700E,israel
1,90805,CA,Long Beach,100.83.157.20:5500,473843,60,000051E5B288,egypt
0,L4W 5M5,ON,Mississauga,70.52.230.141:9057,474039,43,542160107F35,angola
1,30461,GA,Statesboro,100.83.159.15:5501,474146,60,000051E5B749,ghana
1,30263,GA,NEWNAN,100.88.229.69:49172,474560,75,000051DCD0A1,israel
1,95691,CA,West Sacramento,100.83.160.178:5501,474608,60,000051E5A559,ghana
1,95816,CA,N Sacramento,100.83.223.186:5501,474708,60,000051D382FE,ghana
1,30213,GA,FAIRBURN,100.88.229.76:50360,474772,75,000051DCCE04,israel
1,72601,AR,Harrison,100.83.204.116:5500,474905,60,000051E47E29,israel
1,90403,CA,Santa Monica,100.83.217.168:5500,475609,60,00004D9D3FBC,israel
1,32767,FL,Paisley,100.83.146.117:5501,476013,60,000051E59F62,ghana
0,K1G 1P7,ON,Ottawa,70.31.50.182:9209,475944,43,542160107FA4,cuba
1,90746,CA,Carson,100.83.206.44:5501,476199,60,000051E5AD86,egypt
1,96002,CA,Redding,100.83.208.168:5501,476410,60,000051E589ED,israel
1,93551,CA,PALMDALE,100.83.226.144:5501,476631,60,000051E5B1A9,ghana
2,2769,NSW,The Ponds,124.169.57.40:9194,476198,67,542160103983,ghana
1,32219,FL,Jacksonville,100.83.216.153:5501,476907,60,000051E5B424,israel
1,01532,MA,NORTHBOROUGH,100.88.37.1:5501,477021,56,000049A1E2F1,egypt
1,01749,MA,HUDSON,10.20.40.40:5500,477051,56,580050016225,israel
1,32081,FL,PONTE VEDRA,10.20.16.49:5500,477092,56,524042222100,peru
1,33547,FL,LITHIA,10.20.20.146:5500,477179,56,524042268533,israel
1,34638,FL,LAND O LAKES,10.20.34.241:5500,477298,56,524043318113,israel
1,33510,FL,BRANDON,10.20.29.113:5500,477340,56,524043352815,germany
1,33543,FL,WESLEY CHAPEL,10.20.19.58:5500,477349,56,524042253246,germany
1,33543,FL,WESLEY CHAPEL,10.20.24.59:5500,477360,56,524042984741,ghana
1,33543,FL,WESLEY CHAPEL,10.20.23.236:5500,477363,56,524042995721,germany
1,34202,FL,LAKEWOOD RANCH,10.20.20.38:5501,477446,56,524042248766,germany
1,93277,CA,Visalia,100.83.216.255:5501,477798,60,000051E4BCEA,israel
1,93420,CA,Arroyo Grande,100.83.159.174:5501,478461,60,000051E5A7C9,israel
1,93445,CA,Oceano,10.64.81.80:5501,478477,60,580050833090,peru
1,32218,FL,Jacksonville,100.83.161.69:5501,478685,60,000051E5C3E3,egypt
1,00656,PR,GUAYANILLA,10.64.5.46:5501,478701,60,580050931431,germany
0,L1P1N6,ON,Whitby,99.232.46.199:9411,479074,43,5421601083BF,wales
1,38930,MS,Greenwood,100.83.207.192:5501,479182,60,000051E4AFD2,egypt
0,L7G 4S6,ON,Halton Hills,142.180.13.152:9187,479514,43,54216010838D,angola
0,M1P0A4,ON,Scarborough,99.227.12.138:9129,479677,43,542160108428,angola
1,95380,CA,Turlock,100.83.204.232:5501,479891,60,000051E5BD8C,ghana
1,30349,GA,College park,100.83.159.102:5501,479950,60,000051E5BF4A,egypt
0,T8N1Y6,AB,St.Albert,75.158.34.160:9186,480127,43,54216010872B,peru
0,L2E 3X8,ON,Niagara Falls,173.238.205.196:9153,480176,43,542160108694,cuba
0,T2W 5V9,AB,CALGARY,68.146.130.226:9049,480496,43,542160108631,peru
1,02302,MA,Brockton,10.8.89.115:5501,480907,60,998070124518,ghana
1,39501,MS,Gulfport,100.83.206.106:5501,481142,60,000051E591DB,ghana
1,84078,UT,Vernal,10.64.18.41:1234,481396,60,518005036120,israel
0,M1W 2E3,ON,Scarborough,192.235.247.178:9087,481596,43,542160108634,wales
0,M1L4H3,ON,Scarborough,174.91.112.77:9172,482022,43,542160108680,angola
1,81611,CO,ASPEN,100.88.103.240:10651,482071,56,54216010086A,egypt
1,78639,TX,Kingsland,100.83.210.130:5501,482256,60,000051E48A49,ghana
1,95357,CA,Modesto,10.64.114.21:5501,482285,60,580051044549,egypt
0,M4N1W2,ON,Toronto,69.159.11.190:9108,482358,43,54216010876C,peru
1,33413,FL,West Palm beach,100.83.187.79:5501,447827,60,000051D3470F,israel
1,00767,PR,Yabucoa,10.64.115.58:5501,482827,60,580050896816,germany
1,92021,CA,El Cajon,10.64.134.160:5501,483468,60,580050933288,peru
0,L5J 3M4,ON,MISSISSAUGA,108.168.82.239:9330,483475,89,5421601083E2,peru
1,35611,AL,ATHENS,10.8.89.39:5501,483830,60,998070102233,israel
1,94515,CA,Calistoga,10.64.134.87:5501,484260,60,580050971361,peru
1,10977,NY,Chestnut Ridge,10.64.137.181:5501,484479,60,580050952916,israel
1,77494,TX,KATY,10.64.113.35:5501,484634,60,580050933023,israel
1,92253,CA,La Quinta,10.8.89.209:5501,484108,60,998070128592,germany
1,23663,1,Hampton,100.88.4.61:5501,484882,56,00003E4BD880,egypt
1,01772,MA,Southburogh,10.64.111.254:5500,485097,60,580050957998,egypt
1,23704,VA,Portsmouth,10.8.90.235:5501,485102,60,998070403763,germany
1,39111,MS,MAGEE,10.8.90.65:5501,485210,60,998070153418,ghana
0,N1G 3G8,ON,Guelph,72.136.30.155:9098,485222,43,542160108811,angola
1,35443,AL,BOLIGEE,100.83.225.33:5500,485314,60,000051E5AC7E,israel
1,32340,FL,Madison,10.8.90.104:5501,485531,60,998070204773,germany
0,L1N1V8,ON,Whitby,50.100.201.230:9049,485589,43,542160108E21,cuba
1,39120,MS,Natchez,100.89.60.21:5501,485611,47,998070109352,ghana
292,13665,Stockholm,Arsta,83.145.48.130:1234,485632,90,000000559031,ghana
1,08610,NJ,08610,10.64.136.97:5501,485647,60,580051028146,germany
1,39204,MS,Jackson,100.89.56.110:49156,486426,60,000051F20875,egypt
1,97346,OR,GATES,100.83.169.253:5501,486633,60,00004D952281,egypt
0,K2M 0B4,ON,Kanata,72.137.122.39:9260,486933,43,542160108FEC,wales
1,32951,FL,Melbourne Beach,100.83.156.156:5501,487253,60,000051CDA819,israel
0,L4G 4R6,ON,Aurora,74.14.154.5:10340,487355,43,542160108DE5,peru
1,54135,WI,KESHENA,100.88.0.136:5501,487667,56,00003E4C296A,egypt
1,92154,CA,San Diego,10.64.149.16:5501,487764,60,580052925035,egypt
1,39705,MS,Columbus,100.83.207.196:5501,487825,60,000051E4AC3D,ghana
1,34606,FL,Spring Hill,10.64.82.20:5501,488283,60,580050881909,israel
0,L7L 7B6,ON,Burlington,74.12.40.49:9104,488308,43,542160108F66,wales
1,38966,MS,WEBB,10.8.90.27:5501,488417,60,998070155371,egypt
1,71040,LA,Homer,10.64.134.172:5500,488244,60,580050839683,peru
0,L6M 0V7,ON,Oakville,184.147.156.168:9189,488458,43,5421601098A3,wales
1,35613,AL,ATHENS,100.83.197.226:5501,489031,60,00004D9B46D8,egypt
1,94544,CA,Hayward,10.64.149.114:5500,489231,60,580052924798,ghana
0,L5J 3M4,ON,Mississauga,99.245.115.172:9201,489408,43,54216010987F,wales
1,77357,TX,NEW CANEY ,10.8.89.230:5501,489980,60,998070138435,ghana
1,39577,MS,Wiggins,10.64.148.58:5500,454708,60,580053019861,ghana
1,66111,KS,KANSAS CITY,100.83.188.5:5501,490342,60,000051D358C9,egypt
1,38401,TN,COLUMBIA,100.89.23.232:49784,487983,20,000051F2A8F6,israel
1,91103,CA,Pasadena,10.64.115.220:5501,490980,60,580050701487,germany
1,84104,UT,Salt Lake,100.89.26.104:49289,491216,60,000051F2AE52,israel
1,35242,AL,Birmingham,100.83.161.18:5501,491344,60,000051E5A82F,egypt
1,27890,NC,Weldon,10.8.93.65:5501,491517,60,998070459542,ghana
0,R3G 3E4,MB,WINNIPEG,50.71.52.182:5348,491180,43,54216070080A,peru
0,V0J3A3,BC,Cluculz Lake,10.64.113.157:5500,491717,88,580050963319,germany
1,30093,GA,NORCROSS,100.89.48.0:51903,491983,75,000051F2A7E8,israel
1,35619,AL,DANVILLE,100.83.227.191:5501,491984,60,00003E4BB39E,egypt
1,63966,MO,Wappapello,10.64.213.34:5501,492061,60,580051041438,germany
1,32773,FL,Sanford,10.8.90.121:5501,492429,60,998070170941,egypt
1,92240,CA,Hot Springs,10.64.209.58:5501,492492,60,580052910193,germany
0,K0H 1T0,ON,Godfrey,45.78.121.0:10990,492600,43,542160109D8A,peru
1,34472,FL,OCALA,10.64.136.148:5501,492617,60,580050910963,egypt
1,12061,NY,East Greenbush,10.8.92.129:5501,492738,60,998070402880,egypt
0,L1V7C5,ON,Pickering,99.232.94.218:1027,492362,43,542160106F0D,angola
1,28530,NC,GRIFTON,10.64.210.198:5501,492995,60,580052928765,egypt
1,92241,CA,Desert Hot Springs,10.64.212.132:5500,493184,60,580050918164,peru
1,92241,CA,Desert Hot Springs,10.64.213.210:5501,493259,60,580052941842,ghana
2,3042,VIC,NIDDRIE,10.64.125.36:1234,493453,104,372080054899,egypt
1,39355,MS,QUITMAN,10.64.4.147:5501,493610,60,580050971759,israel
1,30213,GA,Fairburn,100.89.10.2:49379,494134,56,000051DC9525,egypt
1,29118,SC,Orangeburg,100.89.25.132:53093,494471,47,000051F2ACD2,egypt
0,T2A4B9,AB,Calgary,68.145.65.39:9279,494604,43,542160109E69,cuba
1,32703,FL,Apopka ,10.64.146.143:5501,494657,60,580050918495,israel
1,06051,CT,New Britain,100.89.131.109:5501,494826,31,998070535689,ghana
0,L9C5L3,ON,Hamilton,70.50.136.221:9298,495162,43,54216010A1FC,ghana
0,M5A 2H9,ON,Toronto,174.119.109.117:9779,495164,43,54216010A1F1,cuba
0,R5G 0S7,MB,Steinbach,10.64.30.58:1234,495434,112,000000567218,egypt
1,27869,NC,Rich Square,10.8.95.167:5501,495436,60,998070524386,germany
1,71251,LA,Jonesboro,10.64.213.153:5501,495590,60,580050911938,israel
1,92284,CA,Yucca Valley,10.64.211.188:5501,495756,60,580053012304,germany
1,01247,MA,Florida,10.64.212.197:5501,495811,60,580051046072,germany
0,T5H3H7,AB,Edmonton,65.110.10.159:10500,476691,43,5421601084E4,angola
1,39090,MS,Kosciusko,10.64.214.151:5501,496298,60,580053025215,peru
1,90232,CA,CULVER CITY,208.57.51.130:65092,496460,56,542160E00580,cuba
1,27839,NC,Halifax,10.8.96.124:5501,496723,60,998070561891,israel
1,30253,GA,McDonough,10.64.212.81:5501,496951,60,580050956321,peru
1,35447,AL,CARROLLTON,10.8.95.179:5501,497157,60,998070524444,egypt
1,46001,IN,Alexandria,10.64.211.109:5500,497372,60,580051034136,ghana
2,3140,VIC,Lilydale,10.64.125.89:1234,497520,104,372080054170,israel
1,28364,NC,Maxton,10.64.144.110:5501,496281,60,580052887730,ghana
0,V2X 0X2,BC,	 Maple Ridge,154.20.242.231:9344,497896,43,542160109DA1,cuba
1,92705,CA,Santa Ana,10.64.214.235:5500,498256,60,580053256984,egypt
1,23701,VA,PORTSMOUTH,100.88.3.233:5500,498484,56,00003E4BD7B8,egypt
1,32034,FL,FERNANDINA BEACH,10.20.41.208:5500,498707,56,524043497255,ghana
1,32221,FL,JACKSONVILLE,10.20.68.193:5501,499214,56,580050664651,ghana
1,32256,FL,JACKSONVILLE,10.20.54.122:5501,499353,56,580050244546,germany
1,34744,FL,Kissimmee,100.89.51.166:52128,499466,60,000051F20ADB,egypt
1,84701,57,Richfield,100.89.11.205:50029,500085,47,000051DCA456,israel
1,72562,AR,Newark,10.64.210.229:5501,500093,60,580053009227,peru
1,35954,AL,ATTALLA,10.8.95.198:5500,492766,60,998070521325,ghana
1,00778,PR,GURABO,10.64.219.115:5501,500549,60,580053315129,israel
1,92865,CA,Orange,10.64.222.158:5500,500950,60,580053275984,peru
1,35401,AL,Tuscaloosa,100.89.28.154:49155,501171,60,000051F2A433,israel
1,38756,MS,LELAND,100.89.24.191:49155,500848,3,000051F2ACAA,egypt
1,76541,TX,Killeen,100.89.29.9:49560,501419,60,000051F2A1EE,israel
1,78520,TX,BROWNSVILLE,100.89.35.51:49285,501547,22,000051DE29F1,israel
1,90805,CA,Long Beach,10.64.210.186:5500,501646,60,580053231979,germany
0,T1S 0B4,AB,Okotoks,199.126.153.46:9130,502235,43,54216010A97E,wales
1,29154,NC,Sumter,100.89.157.136:49543,502286,60,000051F15752,egypt
1,30248,GA,LOCUST GROVE,100.89.192.245:1234,502305,75,650078233165,israel
1,95237,CA,Lockeford,10.64.210.148:5501,502635,60,580053271561,ghana
1,74547,OK,HARTSHORNE,10.20.35.111:5500,502668,56,524043313395,peru
1,00612,PR,ARECIBO,10.64.21.88:1234,502854,60,518005027129,egypt
1,95630,CA,Folsom,10.64.221.152:5501,502898,60,580053359937,germany
1,38833,MS,Burnsville,10.8.98.200:5501,503008,60,998070731957,israel
1,33584,FL,Seffner,100.89.148.76:1234,503237,75,650073220720,israel
0,T7Y 0C4,AB,Parkland County,207.228.78.18:30551,503321,43,54216010A909,ghana
1,27542,NC,Kenly,10.64.211.70:5501,498044,60,580053243628,israel
1,71730,AR,EL DORADO,100.83.200.112:5501,504287,60,00004D9D41DA,ghana
1,30058,GA,LITHONIA ,100.89.158.120:49489,504521,75,000051F2F49D,egypt
1,30349,GA,ATLANTA ,100.89.170.140:49392,504525,75,000051F1C57E,egypt
1,29474,SC,Round O,100.89.174.47:49323,504763,60,000051F1B601,israel
1,30214,GA,FAYETTEVILLE,100.89.29.107:49332,504935,75,000051F2A293,egypt
1,33434,FL,BOCA RATON,10.64.209.116:5500,505037,60,580052928856,egypt
1,92324,CA,Colton,10.64.221.171:5501,505155,60,580053389504,israel
1,06851,CT,NORWALK,67.85.8.104:9311,505210,56,5421601016EC,wales
1,13619,NY,Teresa,10.64.223.168:5501,505460,60,580053343659,germany
1,38732,MS,Cleveland,10.64.5.212:5500,505483,60,580050919683,germany
1,92410,CA,San Bernadino,10.64.224.2:5500,505678,60,580053390072,ghana
1,92509,CA,Riverside,10.64.223.59:5500,505790,60,580053389595,egypt
1,75241,TX,Dallas,100.89.105.162:5501,505836,22,998070394384,israel
1,47340,IN,Farmland,100.89.169.185:49560,506196,60,000051F1C787,egypt
1,92311,CA,Barstow,10.64.220.65:5501,506340,60,580053246431,peru
1,93612,CA,Clovis,10.64.221.79:5500,507034,60,580053389868,israel
1,98664,WA,Vancouver,100.89.176.116:49173,507235,60,000051F1B418,egypt
1,95370,CA,Sonora,10.64.209.92:5500,507694,60,580053236499,egypt
1,36303,AL,DOTHAN,10.64.221.217:5500,507718,60,580053315061,ghana
1,27866N,NC,PLEASANT HILL,10.8.96.122:5501,507746,60,998070550936,peru
1,63771,MO,Oran,10.8.100.101:5501,507936,60,998070954781,israel
1,30214,GA,FAYETTEVILLE ,100.89.167.253:49389,508057,75,000051F1E947,egypt
1,30238,GA,JONESBORO,100.89.29.96:49166,508215,75,000051F2A62E,egypt
1,00714,PR,Arroyo,10.64.218.74:5500,508359,60,580053387417,ghana
0,J4Y 3C4,QC,Brossard,45.58.98.102:9143,481124,43,542160108618,wales
1,30236,GA,JONESBORO,100.89.175.29:49337,508473,75,000051F1EF7C,israel
1,95356,CA,Modesto,10.64.218.12:5501,508509,60,580053322653,germany
1,32442,FL,GRAND RIDGE,10.8.99.139:5501,508627,60,998070651205,ghana
1,93063,CA,Simi Valley,10.64.218.221:5500,508773,60,580053341976,germany
1,93021,CA,Moorepark,10.64.218.22:5501,508922,60,580053373045,israel
0,L2N3N5,ON,St.Catharines,198.48.177.182:9064,509056,43,54216010B140,angola
1,48187,CA,Canton,10.64.217.182:5500,420858,60,580053355117,israel
1,48126,MI,Dearborn,100.89.165.59:49509,509161,60,000051F19D88,egypt
1,54082,WI,Houlton,10.64.209.209:5501,508454,12,580053240731,egypt
1,95035,CA,MILPITAS,10.64.221.208:5501,509419,60,580053353831,peru
1,94590,CA,Vallejo,10.64.217.241:5500,509422,60,580053304628,germany
1,18371,PA,Tamiment,100.89.169.4:49449,509451,60,000051F1CAC1,egypt
1,32571,FL,Pace,67.44.240.4:46024,509473,32,54216010A61F,cuba
1,30349,GA,ATLANTA,100.89.159.127:49194,509486,75,000051F2EE7F,israel
1,93662,CA,Selma,10.64.219.223:5500,509780,60,580053337131,peru
1,07010,NJ,Cliffside Park,100.83.3.158:9048,509799,31,54216010BF2F,peru
1,30213,GA,FAIRBURN,100.89.158.172:49379,509859,75,000051F1301F,israel
1,20721,MD,Bowie,10.64.217.143:5501,510217,60,580053282659,peru
28,4040,Liege,Herstal,194.78.181.2:1234,510239,90,000001025045,ghana
1,93534,CA,Lancaster ,10.64.221.33:5500,510546,60,580053350258,egypt
1,92708,1,Fountain Valley,10.64.214.48:5501,510560,97,580050913827,egypt
1,60915,IL,Bradley,100.88.231.116:49966,510634,60,000051DCCD4C,israel
1,32750,FL,Longwood,10.65.109.242:5501,510790,60,580053237828,peru
0,V5T 4K9,BC,Vancouver,24.86.131.85:9453,495514,89,54216010A15B,ghana
1,90023,CA,Los Angeles,10.64.220.254:5500,511198,60,580053365223,israel
1,28451,NC,Leland,10.64.223.201:5501,511292,60,580053302218,israel
1,92307,CA,Apple Valley,10.64.219.194:5500,511449,60,580053277121,germany
1,32962,FL,Vero beach ,10.64.216.159:5500,511488,60,580053364259,peru
1,28501,NC,Kinston,10.8.102.19:5501,511506,60,998070717691,egypt
1,28083,NC,Kannapolis,10.64.218.157:5500,511526,60,580053303380,ghana
1,29906,SC,Beaufort,10.64.33.48:1234,511556,60,335051738323,egypt
1,91345,CA,Mission Hills,10.65.111.151:5500,512197,60,580053353880,peru
1,32712,FL,Apopka,10.64.218.24:5500,512266,60,580053341950,ghana
1,30291,GA,UNION CITY,100.89.162.13:49166,512341,75,000051F16399,egypt
1,00612,PR,Arecibo,10.64.17.113:1234,512780,60,518005028309,egypt
0,Guelph ,ON,Kitchener,64.228.153.232:10574,512944,43,54216010C517,angola
1,92881,CA,Corona,10.65.111.77:5500,513436,60,580053364333,egypt
1,30349,GA,Atlanta,100.89.172.216:49311,513497,75,000051F1F036,israel
1,29485,SC,Summerville,10.64.41.12:1234,513509,60,335051740113,egypt
1,91786,CA,Upland,10.64.223.107:5501,513518,60,580053343964,germany
1,28327,NC,Carthage,10.8.102.61:5501,513606,60,998070731916,egypt
1,20613,MD,Brandywine,10.64.221.32:5500,513714,60,580053301970,peru
1,39086,MS,Hermanville,10.64.42.98:1234,513734,60,335051701560,ghana
189,00956,Bayamon,bayamon,10.64.220.127:5501,514139,60,580053346637,israel
1,30127,GA,POWDER SPRINGS,100.89.174.88:49242,514243,75,000051F1F098,israel
1,92503,CA,Riverside,10.65.106.11:5500,514294,60,580053242828,germany
112,110062,112,Delhi,10.20.74.128:9144,448851,39,542160102C90,ghana
1,92395,CA,Victorville,10.65.116.252:5500,514772,60,580053391518,germany
1,79415,TX,Lubbock,100.89.197.88:1234,514923,60,650073976917,egypt
1,20176,VA,LEESBURG,100.89.49.109:49738,515031,75,000051F2A9A5,israel
1,00683,PR,SAN GERMAN,10.65.115.95:5500,515240,60,580053231920,peru
1,92345,CA,Hesperia,10.65.111.111:5500,515281,60,580053386278,israel
1,11952,1,Mattituck,100.83.187.54:5501,506126,10,000051D371C6,ghana
1,08043,NJ,Voorhees,100.89.163.133:49154,515749,75,000051F156CB,israel
1,92545,CA,Hemet,10.65.112.254:5500,515757,60,580053311763,peru
2,2107,NSW,Whale Beach,10.20.51.2:5500,515805,37,580050222682,germany
1,25103,WV,Handsford,100.89.158.68:57257,515867,60,000051F12B51,egypt
1,30214,GA,FAYETTEVILLE,100.89.167.35:49789,516078,75,000051F1758A,israel
1,85621,AZ,Nogales,100.89.174.188:49281,516104,60,000051F1D0D4,egypt
1,92363,CA,Needles,10.65.110.108:5501,516271,60,580053343550,israel
1,00680,PR,MAYAGUEZ,10.64.218.127:5500,516422,60,580053343493,egypt
1,92311,CA,Barstow,10.65.109.60:5500,516522,60,580053383341,germany
1,90280,CA,South Gate,10.65.110.189:5500,516622,60,580053337602,peru
0,N8H0E1,ON,Leamington,10.65.111.119:9880,516769,43,54216010C8FD,angola
1,00745,PR,RIO GRANDE,10.64.216.222:5501,516914,60,580053325821,egypt
1,00678,PR,Quebradillas,10.64.20.205:1234,517785,60,518005028333,egypt
1,85128,AZ,Coolidge,100.89.194.62:1234,517927,47,650078232316,egypt
1,20748,MD,Temple Hills,10.64.221.174:5500,517932,60,580053349847,israel
1,92258,CA,N Plam Springs,10.64.221.6:5500,518010,60,580053385643,ghana
1,36029,AL,Fitzpatrick,100.83.32.137:5500,518018,66,998071347795,israel
1,92543,CA,Hemet,10.65.107.29:5500,518090,60,580053391658,peru
1,00612,PR,Arecibo,10.64.20.132:1234,518142,60,518005028358,egypt
1,32731,1,Maitland,10.65.183.227:9155,518320,6,54216010C35C,angola
1,29506,SC,Florence,100.89.161.128:49203,518506,47,000051F15349,egypt
1,27529,NC,Garner,10.64.223.181:5501,518623,60,580053344947,germany
1,93650,CA,Pinedale,10.65.107.27:5500,518798,60,580053232761,israel
1,95307,CA,CERES,100.83.158.40:5501,438804,60,000051CD4DD5,ghana
1,00739,PR,CIDRA,10.65.115.187:5501,519405,60,580053270985,egypt
1,90631,CA,La Habra,10.65.107.255:5500,519487,60,580053343931,germany
1,30236,GA,Jonesboro,100.89.159.252:49808,519645,60,000051F2F7B5,israel
1,38242,TN,Paris,10.8.105.167:5501,519756,60,998071170049,israel
1,00659,PR,Hatillo,10.65.115.94:5500,518547,60,580053359879,israel
1,93304,CA,Bakersfield,10.65.110.12:5500,520134,60,580053390387,israel
0,V2E 2G2,BC,Kamlpops,23.16.154.189:9192,520290,43,54216010DBC0,angola
1,41339,KY,Jackson,100.89.207.30:1234,520347,60,650073237807,israel
1,91789,CA,City Of Industry,100.88.23.140:5500,520406,10,000049A1F336,israel
1,95357,CA,Modesto,10.65.112.5:5501,520438,60,580053540155,egypt
1,34109,FL,Naple,100.89.60.132:1234,520530,179,000000540576,egypt
1,20677,MD,Port Tobacco,69.251.111.230:4728,520635,18,54216000EBE5,peru
1,30297,GA,FOREST PARK,100.89.176.210:49358,520772,75,000051F1BCAD,israel
1,01468,MA,Templeton,10.64.220.75:5500,521117,60,580053351306,germany
1,78628,TX,GEORGETOWN ,10.64.223.173:5500,521156,60,580053370884,israel
1,85031,AZ,Phoenix,100.89.146.116:1234,521511,75,650072675593,israel
1,39305,MS,MERIDIAN ,10.8.104.68:5501,522052,60,998071085205,egypt
1,81007,CO,Pueblo,100.89.191.100:1234,522274,47,650078145278,israel
1,36460,AL,Monroeville,10.64.216.255:5500,522323,60,580053312027,ghana
1,28147,NC,Salisbury,100.89.168.164:50312,522325,60,000051F1E818,israel
1,37841,TN,Oneida,10.8.107.240:5501,522327,60,998071525903,peru
1,39756,MS,PRAIRIE,10.8.101.36:5501,458017,60,998070731858,egypt
0,L5L 1C5,ON,Mississauga,184.146.27.41:9170,522767,43,54216010DBAA,cuba
1,63645,MO,Fredericktown,10.8.95.35:5501,522916,60,998070517158,ghana
1,29620,,,100.89.156.87:55681,522921,47,000051F16A92,israel
1,71665,AR,Rison,10.8.108.208:5501,523326,60,998071491502,egypt
1,86442,AZ,Bullhead City,10.65.113.33:5501,523566,60,580053244899,israel
1,19134,PA,Philadelphia,100.89.188.229:1234,523645,60,650078069528,egypt
1,30349,GA,Atlanta,100.89.188.84:1234,523662,75,650073947470,israel
1,93535,CA,Lancaster,10.65.111.95:5501,523682,60,580053390130,germany
1,70501,LA,Lafayette,100.89.246.18:1234,524097,75,650078742157,israel
1,29138,SC,Saluda,100.89.194.185:1234,524688,60,650073956810,egypt
1,39772,MS,Weir,10.65.106.9:5501,525079,60,580053235624,israel
1,32805,FL,Orlando,100.89.195.33:1234,525608,60,650078105561,israel
1,84302,57,Brigham City,100.89.244.199:1234,525856,47,650078497844,israel
1,34654,FL,New Port Richy,10.64.221.162:5500,453385,60,580053266868,ghana
1,46254,IN,Indianapolis,157.130.99.154:46633,526549,10,54216010DCAC,peru
1,77093,TX,Houston,100.89.208.222:1234,526553,75,650073801537,israel
1,85009,AZ,Phoenix,100.89.210.124:1234,526957,75,650078364655,israel
1,27306,NC,Mt Gilead,100.89.244.159:1234,527063,60,650078601403,israel
1,06614,CT,Stratford,100.83.38.36:5500,526894,31,998070615598,israel
0,T9M 1S2,AB,Cold Lake,24.142.24.183:9287,527406,43,54216010D56C,cuba
1,92571,CA,Perris,10.8.106.198:5501,527672,60,998070672029,egypt
1,33405,FL,West Palm Beach,10.64.216.130:5500,527720,60,580053345399,egypt
1,00674,PR,MANATI,10.65.107.252:5501,527726,60,580053359887,peru
1,85546,57,Safford,100.89.226.7:1234,528049,47,650078245961,israel
0,V4N6S8,BC,Surrey,173.180.250.31:9030,528211,43,54216010C91E,peru
1,21237,MD,Baltimore ,10.64.209.30:5500,482010,60,580053325409,peru
1,78612,TX,Cedar Creek,100.89.246.144:1234,528583,75,650078677593,egypt
1,36532,AL,FAIRHOPE POLICE JURISDICT,100.83.53.154:5501,528644,32,998071497178,ghana
1,92648,1,Huntington Beach,10.65.181.172:5501,528751,97,580053551491,peru
1,00745,PR,RIO GRAND,10.64.216.228:5500,529959,60,580053303463,israel
1,34982,FL,Fort Pierce,10.65.114.71:5500,529973,60,580053364226,israel
1,42104,KY,Bowling Green,100.89.228.29:1234,530123,60,650078268443,egypt
0,V1C1B7,BC,Cranbrook,24.66.64.37:9320,453107,43,542160108FDA,ghana
1,84041,57,Layton,100.89.210.197:1234,530216,47,650078356206,egypt
1,32533,FL,Cantonment,10.20.26.75:5500,422835,32,524042967431,egypt
0,L5A2M2,ON,Mississauga,99.245.21.124:9231,530606,43,5421600014CE,wales
0,R2M 1A3,MB,Winnipeg,142.161.53.12:9116,531008,43,54216000143B,wales
1,20110,VA,Manassas,100.89.228.191:1234,531541,75,650078316879,egypt
1,28364,NC,Maxton,10.64.26.127:1234,532782,60,335051290622,peru
0,H2B2Y9,QC,Montreal,24.201.105.199:9025,533294,43,542160000516,wales
1,28371,NC,Parkton,100.88.13.255:1234,533310,60,650078752180,israel
1,30126,GA,MABLETON,100.89.212.36:1234,533398,75,650078298143,israel
1,76020,TX,Azle,100.89.245.93:1234,534187,47,650078567042,egypt
1,77302,TX,CONROE,10.8.105.62:5501,534694,60,998071162285,egypt
1,84014,UT,Centerville,100.83.12.136:1234,534772,47,650078539454,israel
1,89156,NV,North Las Vegas,100.83.13.62:1234,535925,60,650078452500,israel
1,86440,AZ,Mohave Valley,10.64.220.212:5500,536049,60,580053355208,ghana
0,T7Z 1Y4,AB,Stony Plain,68.150.12.160:9283,536418,43,54216000044B,cuba
1,70460,LA,Slidell,100.83.13.43:1234,536602,75,650078742702,israel
1,77591,TX,Texas City,100.83.13.35:1234,537027,47,650078620726,egypt
0,N9A 3B8,ON,Windsor,10.64.143.102:10224,490395,43,542160109060,angola
1,91406,CA,Van Nuys,10.65.114.20:5501,537651,60,580053562845,egypt
0,M6M1C5,ON,Toronto,108.175.234.30:1234,533841,43,000000637376,peru
1,81067,CO,Rocky Ford,100.83.8.70:1234,538419,47,650078385015,israel
1,84302,,,10.65.221.191:4097,539142,47,413584986F14,peru
1,42642,KY,RUSSELL SPRINGS,10.8.106.214:5501,420359,60,998071521837,germany
1,39474,MS,PRENTISS,10.8.105.45:5501,540427,60,998071174587,israel
1,30008,GA,Marietta,100.89.253.182:1234,540572,75,650078677379,israel
1,75853,TX,Montalba,10.64.199.104:1234,540781,60,335052486484,ghana
1,29732,SC,Rock Hill,10.64.204.16:1234,540837,60,335052471742,israel
1,75089,TX,Rowlett,10.8.105.200:5501,541195,60,998071176954,germany
1,36830,AL,Auburn,100.89.195.179:1234,541571,60,650078120792,egypt
1,70767,LA,Port Allen,100.83.124.27:1234,541957,60,636094674445,egypt
1,71323,LA,Center Point,10.64.68.30:1234,542006,60,335052123756,israel
1,34614,FL,Weeki Wachee,100.89.221.112:1234,542237,60,650078155988,egypt
1,01020,MA,Chicopee,10.8.115.247:5501,542428,60,998072362561,ghana
1,75216,TX,Dallas,100.83.15.57:1234,543588,75,650078564239,egypt
1,39095,MS,LEXINGTON,10.8.115.210:5500,544088,60,998072301064,egypt
1,81621,CO,BASALT,216.237.93.172:11807,482058,56,54216010050F,peru
1,76108,TX,Fort Worth,100.89.253.94:1234,544632,47,650078615775,egypt
1,08691,NJ,HAMILTON,100.83.129.91:1234,544715,60,636094275581,israel
1,39365,MS,Union,100.83.119.164:1234,544881,143,636094724877,israel
1,20110,VA,MANASSAS,100.89.208.38:1234,545411,75,650078263808,israel
1,39212,MS,JACKSON,10.8.117.34:5501,481679,60,998072211271,israel
1,30642,GA,Greensboro,10.64.198.17:1234,545685,60,335052463830,peru
1,19090,PA,Willow Grove,100.89.232.148:1234,546074,12,650078351942,israel
1,28326,NC,Cameron,100.83.120.173:1234,546298,143,636094704234,israel
1,98802,WA,East Wenatchee,100.89.232.201:1234,546864,12,650078261711,israel
1,32174,FL,Ormon beach,10.8.115.141:5501,441010,60,998072387196,israel
1,66217,KS,Shawnee,100.89.232.168:1234,547133,12,650073882974,egypt
1,76112,TX,Fort Worth,100.83.122.119:1234,547346,75,636094728613,egypt
1,70811,LA,Baton Rouge,100.89.223.167:1234,548418,75,650078256687,egypt
1,00612,PR,Arecibo,10.64.63.236:1234,548732,60,518005205204,egypt
1,34994,FL,stuart,100.89.232.189:1234,548906,12,650073892544,israel
1,12303,NY,Schenectady,100.89.232.154:1234,549461,12,650078226623,israel
1,29583,SC,Pamplico,10.64.39.67:1234,549493,60,335051780101,peru
1,08324,NJ,na,100.89.232.176:1234,549584,12,650078335028,israel
1,11763,NY,Medford,100.89.220.4:1234,549630,12,650073872223,egypt
1,08234,NJ,na,100.89.230.76:1234,549901,12,650078317281,egypt
1,38925,MS,DUCK HILL,10.8.116.71:5500,549923,60,998072351218,peru
1,45332,UT,	   HOLLANSBURG,10.8.117.226:5500,550340,60,998071961728,germany
1,42301,KY,Owensboro,100.83.17.70:1234,550459,60,650074839528,egypt
1,11214,NJ,Brooklyn,100.89.220.17:1234,550581,12,650078155921,israel
1,33139,FL,Miami Beach,100.89.230.75:1234,550764,12,650078318792,israel
1,84044,UT,Magna,100.83.122.249:1234,550801,47,636094220934,egypt
1,15061,PA,Monaca,100.89.220.0:1234,550932,12,650073901030,egypt
0,R2X1M5,MB,Winnipeg,206.45.171.49:9217,551151,43,542160003CD5,angola
1,32114,FL,Daytona Beach,100.89.230.61:1234,551856,12,650078306482,israel
1,06901,CT,Stamford,100.89.230.70:1234,551884,12,650078335473,egypt
1,85711,AZ,Tucson,100.89.230.67:1234,552161,12,650078335127,israel
1,84084,UT,West Jordan,100.83.119.3:1234,552261,60,636093757613,egypt
1,08234,NJ,na,100.89.219.239:1234,552466,12,650078225062,egypt
1,72205,AR,Little Rock,100.83.125.89:1234,464645,60,636094681119,israel
0,R0G1V0,MB,Roseisle,170.199.67.86:11380,552618,43,542160003D25,cuba
1,38930,MS,Greenwood,10.64.68.202:1234,552659,60,335052299846,israel
1,07421,NJ,Hewitt,100.89.251.105:1234,552860,60,650078608911,israel
1,02364,MA,Kingston,100.89.230.73:1234,553117,12,650078335259,egypt
1,00641,PR,Utuado,10.65.198.177:5500,553424,60,580053544835,peru
1,60073,IL,ROUND LAKE,100.89.232.169:1234,553489,12,650078274722,egypt
1,00682,PR,Mayaguez,10.65.198.255:5501,553590,60,580053532970,ghana
1,17876,PA,Shamokin Dam,100.89.252.56:1234,553674,60,650078671448,egypt
0,N2B 3E9,ON,Kitchener,10.65.199.201:5501,554280,69,580053852030,peru
1,29803,SC,Aiken,10.8.120.46:5501,438514,60,998072709563,germany
1,36874,AL,Salem,100.83.247.92:1234,555049,60,152100416574,israel
1,30180,UT,VILLA RICA,10.8.101.183:5501,555320,60,998070714557,ghana
1,33616,FL,Tampa,10.66.13.64:4097,557038,1,4135849AB459,tahiti
1,65052,MO,Linn Creek,100.83.247.120:1234,557144,60,636096123557,israel
1,85355,AZ,Waddell,100.83.240.133:1234,557315,75,636096119167,israel
1,10530,NY,Hartsdale,100.89.230.42:1234,557411,12,650078364325,egypt
1,31008,GA,Byron,10.8.118.111:5501,534729,60,998072676515,peru
242,75500,Soriano,Palmitas,10.65.244.32:1234,556510,30,518004179202,egypt
1,08234,NJ,Na,100.89.221.59:1234,559243,12,650073963204,israel
1,19124,PA,Philadelphia,100.83.240.255:1234,559423,60,636096119001,israel
1,08234,NJ, na,100.89.221.85:1234,559449,12,650073875226,israel
1,48768,MI,Vassar,100.83.231.12:1234,560089,60,152100358859,egypt
1,77389,TX,Spring,100.83.13.0:1234,560478,31,650078577686,israel
1,08234,NJ,na,100.88.39.151:1234,561262,12,636096640600,egypt
1,NA,VA,NA,100.83.252.85:1234,561279,12,152100264065,egypt
1,08234,NJ,na,100.88.35.175:1234,561287,12,636096657935,egypt
1,NA,VA,NA,100.88.39.226:1234,561288,12,636096679202,egypt
1,NA,VA,NA,100.88.34.0:1234,561376,12,636096587132,egypt
1,00953,PR,Toa Alta,10.65.153.125:1234,561377,60,307000163677,egypt
1,39501,MS,Gulfport,10.65.152.205:1234,561470,60,307000156796,israel
1,NA,VA,NA,100.88.34.194:1234,561475,12,636096631161,israel
0,T3J0A2,AB,Calgary,68.145.78.252:9241,427454,43,542160101DEF,ghana
1,75042,TX,Garland,100.83.248.130:1234,562641,31,636098010018,egypt
1,08234,NJ,na,100.88.30.52:1234,562840,12,636096652308,egypt
1,79331,TX,Lamesa,100.83.242.164:1234,562996,60,636099059089,israel
1,75974,TX,Tenaha,10.64.188.173:1234,563194,14,335052469951,egypt
2,5253,SA,Murray Bridge,10.66.223.105:1234,563315,104,372080053149,israel
1,71371,LA,Trout,10.8.104.86:5501,464014,60,998071070637,germany
1,31730,GA,Camilla,100.83.239.63:1234,563736,60,152100340543,egypt
1,89156,NV,Las Vegas,100.83.249.251:1234,564010,75,636099078857,egypt
1,60605,IL,Chicago,100.88.34.157:1234,564226,60,636096631120,egypt
1,08234,NJ,na,100.88.48.235:1234,564327,12,152101424320,israel
1,08234,NJ,na,100.88.44.121:1234,564482,12,152101473145,egypt
1,08234,NJ,na,100.88.44.193:1234,564494,12,152101472840,israel
1,08234,NJ,na,100.88.48.119:1234,564562,12,152102072995,israel
1,08234,NJ,na,100.88.55.204:1234,564784,12,636096878291,israel
1,08234,NJ,na,100.88.58.226:1234,564792,12,636096856644,israel
1,NA,VA,NA,100.88.55.148:1234,564855,12,636096879034,egypt
1,08234,NJ,na,100.88.46.195:1234,565054,12,152101493234,egypt
1,02071,MA,Walpole,10.8.114.43:5501,565167,60,998072008842,germany
1,00745,PR,Rio Grande,10.65.160.25:1234,565576,60,307000172942,egypt
1,91710,CA,Chino,100.83.183.130:5501,566077,60,00003E4C7C0C,egypt
1,08234,NJ,na,100.88.59.163:1234,566198,12,636096878200,egypt
1,NA,VA,NA,100.88.59.183:1234,566218,12,636096847395,israel
1,20772,MD,UPPER MARLBORO,100.88.109.227:1234,566425,75,636096985104,egypt
1,60647,IL,CHICAGO,100.83.87.94:5501,566825,136,998072726542,ghana
1,NA,NJ,NA,100.88.65.124:1234,567510,12,636096847387,egypt
1,NA,VA,NA,100.88.69.143:1234,567527,12,636096839293,egypt
1,08234,NJ,na,100.88.62.133:1234,567607,12,636096863749,egypt
1,08234,NJ,na,100.88.62.224:1234,567626,12,636096853963,israel
1,08234,NJ,na,100.88.69.125:1234,567643,12,636096847775,egypt
1,08234,NJ,na,100.88.69.119:1234,567650,12,636096847742,egypt
1,08234,NJ,na,100.88.69.105:1234,567672,12,636096847692,israel
1,na,NJ,08234,100.88.69.187:1234,567683,12,636096847965,israel
1,08234,NJ,na ,100.88.69.135:1234,567701,12,636096847825,egypt
1,NA,VA,NA,100.88.69.132:1234,567771,12,636096847783,israel
1,08234,NJ,na,100.88.69.97:1234,567776,12,636096847676,egypt
1,08234,NJ,na,100.88.69.114:1234,567789,12,636096847767,egypt
1,08234,NJ,na,100.88.69.101:1234,562842,12,636096847650,egypt
1,NA,VA,NA,100.88.59.128:1234,567809,12,636096878192,egypt
1,08234,NJ,na,100.88.60.23:1234,561453,12,636096847585,israel
1,NA,NJ,NA,100.88.60.75:1234,567845,12,636096847593,israel
1,08234,NJ,na,100.88.59.64:1234,567849,12,636096878283,egypt
1,NA,VA,NA,100.88.54.100:1234,567996,12,636096876410,israel
1,08234,NJ,na,100.88.17.173:1234,568005,12,636096845852,egypt
1,08234,NJ,na,100.88.54.27:1234,568018,12,636096876683,egypt
1,NA,VA,NA,100.88.62.173:1234,568026,12,636096839103,egypt
1,14172,NY,Wilson,10.64.208.31:1234,568430,166,307000158263,egypt
1,78660,TX,Pflugerville,100.83.230.184:1234,568660,60,152100358636,egypt
1,39562,MS,Moss Point,100.83.94.175:5501,568720,3,998072443296,israel
1,06606,CT,Bridgeport,100.83.96.145:5501,569174,60,998071715264,israel
1,00669,PR,Lares,10.65.158.228:1234,569351,60,307000169492,israel
1,19141,PA,West Philadelphia,100.88.95.176:1234,569580,60,636096939796,egypt
1,38668,MS,Senatobia ,100.88.72.134:1234,570062,70,152102095707,egypt
1,78412,TX,Corpus Christi,10.64.139.1:1234,570216,189,335052352983,israel
1,95210,CA,Stockton,100.83.149.56:5501,570655,60,998071561197,ghana
1,72116,AR,North Little Rock,100.88.128.24:1234,570967,60,152101510151,egypt
1,36343,AL,Gordon,100.83.150.62:5501,571152,60,998071480760,israel
1,35810,AL,Huntsville,100.88.131.108:1234,571758,60,636096983018,egypt
1,39114,MS,MENDENHALL,10.8.3.135:5501,432604,60,998073142103,egypt
1,38967,MS,WINONA,10.8.92.46:5501,485275,60,998070421062,israel
1,29649,SC,Greenwood,100.88.151.187:1234,572827,60,636096987597,egypt
1,42406,NY,Arkville,100.83.151.175:5501,571724,60,998071494159,israel
1,90062,CA,Los Angeles,10.20.24.102:5500,573810,60,524042977448,ghana
1,29440,SC,Georgetown,10.64.207.248:1234,573968,14,335052465041,egypt
1,40514,KY,Lexington,173.187.129.32:9788,574680,56,542160004F46,peru
1,67460,KS,mcpherson,24.255.196.153:9094,575035,47,54216001BF3C,angola
1,28269,NC,Charlotte ,100.88.57.83:5501,484628,60,998073258404,egypt
1,92551,CA,Moreno valley,10.8.1.236:5501,575298,60,998072429402,israel
1,74733,OK,COLBERT,100.88.192.206:1234,557002,19,152105308040,egypt
1,33487,FL,Boca Raton ,100.83.146.217:5500,576660,60,998073454342,egypt
1,31903,AL,COLUMBUS,100.88.238.124:5500,436733,60,998073255756,israel
1,26301,WV,Clarksburg,100.88.133.31:1234,577238,47,636096964257,israel
242,11700,Montevideo,Montevideo,10.65.243.74:1234,577996,30,518005044355,israel
1,32746,FL,Lake Mary,10.64.27.194:1234,577220,1,335051282645,egypt
1,31525,GA,Brunswick,100.83.145.64:1234,578241,60,152105405374,egypt
1,46143,IN,Greenwood,100.83.143.179:1234,578409,60,152105981986,egypt
1,00757,PR,Santa Isabel,10.65.147.148:1234,578413,60,307000165516,israel
1,00647,PR,Ensenada,10.65.148.231:1234,578465,60,307000165524,israel
1,30349,GA,College Park,100.89.158.105:49164,514860,75,000051F162F3,egypt
0,G1P2A5,QC,Quebec,10.65.155.88:1234,578561,109,307000184988,israel
1,00956,PR,Bayamon,10.65.160.189:1234,578619,60,307000175408,israel
1,08234,NJ,na,100.88.60.45:1234,578621,12,636096847619,israel
242,11300,Montevideo,Montevideo ,10.65.244.247:1234,578624,30,518005040106,israel
242,70000,Salto,Salto ,10.65.244.112:1234,578628,30,518005044751,israel
288,1111,Gauteng,Johannesburg,10.3.139.144:63624,517772,196,7252310001CA,finland
1,00783,PR,Corozal,10.65.156.175:1234,578637,60,307000175341,egypt
1,31088,GA,WARNER ROBINS,100.88.2.138:1234,578641,56,152106232330,egypt
242,20000,Maldonado,Maldonado,10.65.244.188:1234,578643,30,518005044991,egypt
1,08234,NJ,na,100.89.230.78:1234,558661,12,650078311763,egypt
1,31088,GA,WARNER ROBINS,100.88.95.196:1234,578647,56,636096976467,israel
1,14226,NY,cheektowaga,10.65.160.100:1234,578652,166,307000184830,egypt
1,31030,GA,FORT VALLEY,100.88.132.211:1234,578655,56,636096965528,israel
0,J0R1R1,QC,ST-SAUVEUR,10.65.158.179:1234,578656,109,307000187403,egypt
242,12900,Montevideo,MONTEVIDEO,10.65.244.34:1234,578658,30,518005040577,israel
1,08324,NJ,na,100.89.232.179:1234,549616,12,650078161747,egypt
0,g1w1h4,QC,Quebec,10.65.159.221:1234,578559,109,307000180309,egypt
1,36581,AL,SUNFLOWER,100.83.201.12:5501,510432,60,998073430540,ghana
2,2093,NSW,Balgowlah Heights,10.65.129.191:1234,507880,121,000001041089,orange,12
2,2213,NSW,Panania,10.65.135.109:1234,507906,121,000001041090,dubbo,12
2,2170,NSW,Sydney,10.64.124.80:1234,507996,121,000000854058,dubbo,12
2,3130,VIC,Blackburn South,10.64.125.122:1234,508053,122,372081111888,orange,8
2,2000,NSW,Miranda,10.64.125.118:1234,542292,122,372080056449,dubbo,8
2,2000,NSW,Miranda,10.64.125.165:1234,542293,122,372080056282,dubbo,8
2,2000,NSW,Miranda,10.64.125.3:1234,542294,122,372080056290,orange,8
2,3020,VIC,Sunshine West,10.64.16.226:1234,542314,122,372081120509,orange,8
292,38471,Kalmar,TIMMERNABBEN,81.229.127.107:1234,464676,13,000001151110,poland,12
292,82194,Gavleborg,,10.65.131.217:1234,464829,17,000001086240,poland,12
