  PID  PPID %MEM %CPU CMD
    1     0  0.0  0.0 /lib/systemd/systemd --system --deserialize 29
    2     0  0.0  0.0 [kthreadd]
    3     2  0.0  0.0 [ksoftirqd/0]
    7     2  0.0  0.0 [rcu_sched]
    8     2  0.0  0.0 [rcu_bh]
    9     2  0.0  0.0 [migration/0]
   10     2  0.0  0.0 [watchdog/0]
   11     2  0.0  0.0 [watchdog/1]
   12     2  0.0  0.0 [migration/1]
   13     2  0.0  0.0 [ksoftirqd/1]
   16     2  0.0  0.0 [watchdog/2]
   17     2  0.0  0.0 [migration/2]
   18     2  0.0  0.0 [ksoftirqd/2]
   21     2  0.0  0.0 [watchdog/3]
   22     2  0.0  0.0 [migration/3]
   23     2  0.0  0.0 [ksoftirqd/3]
   26     2  0.0  0.0 [watchdog/4]
   27     2  0.0  0.0 [migration/4]
   28     2  0.0  0.0 [ksoftirqd/4]
   31     2  0.0  0.0 [watchdog/5]
   32     2  0.0  0.0 [migration/5]
   33     2  0.0  0.0 [ksoftirqd/5]
   36     2  0.0  0.0 [watchdog/6]
   37     2  0.0  0.0 [migration/6]
   38     2  0.0  0.0 [ksoftirqd/6]
   41     2  0.0  0.0 [watchdog/7]
   42     2  0.0  0.0 [migration/7]
   43     2  0.0  0.0 [ksoftirqd/7]
   46     2  0.0  0.0 [kdevtmpfs]
   47     2  0.0  0.0 [netns]
   48     2  0.0  0.0 [perf]
   49     2  0.0  0.0 [xenwatch]
   50     2  0.0  0.0 [xenbus]
   52     2  0.0  0.0 [khungtaskd]
   53     2  0.0  0.0 [writeback]
   54     2  0.0  0.0 [ksmd]
   55     2  0.0  0.0 [khugepaged]
   56     2  0.0  0.0 [crypto]
   57     2  0.0  0.0 [kintegrityd]
   58     2  0.0  0.0 [bioset]
   59     2  0.0  0.0 [kblockd]
   60     2  0.0  0.0 [ata_sff]
   61     2  0.0  0.0 [md]
   62     2  0.0  0.0 [devfreq_wq]
   72     2  0.0  0.0 [kswapd0]
   73     2  0.0  0.0 [vmstat]
   74     2  0.0  0.0 [fsnotify_mark]
   75     2  0.0  0.0 [ecryptfs-kthrea]
   91     2  0.0  0.0 [kthrotld]
   92     2  0.0  0.0 [bioset]
   93     2  0.0  0.0 [bioset]
   94     2  0.0  0.0 [bioset]
   95     2  0.0  0.0 [bioset]
   96     2  0.0  0.0 [bioset]
   97     2  0.0  0.0 [bioset]
   98     2  0.0  0.0 [bioset]
   99     2  0.0  0.0 [bioset]
  100     2  0.0  0.0 [bioset]
  101     2  0.0  0.0 [bioset]
  102     2  0.0  0.0 [bioset]
  103     2  0.0  0.0 [bioset]
  104     2  0.0  0.0 [bioset]
  105     2  0.0  0.0 [bioset]
  106     2  0.0  0.0 [bioset]
  107     2  0.0  0.0 [bioset]
  108     2  0.0  0.0 [bioset]
  109     2  0.0  0.0 [bioset]
  110     2  0.0  0.0 [bioset]
  111     2  0.0  0.0 [bioset]
  112     2  0.0  0.0 [bioset]
  113     2  0.0  0.0 [bioset]
  114     2  0.0  0.0 [bioset]
  115     2  0.0  0.0 [bioset]
  116     2  0.0  0.0 [scsi_eh_0]
  117     2  0.0  0.0 [scsi_tmf_0]
  118     2  0.0  0.0 [scsi_eh_1]
  119     2  0.0  0.0 [scsi_tmf_1]
  120     2  0.0  0.0 [bioset]
  125     2  0.0  0.0 [ipv6_addrconf]
  138     2  0.0  0.0 [deferwq]
  189     2  0.0  0.0 [ixgbevf]
  304     2  0.0  0.0 [raid5wq]
  331     2  0.0  0.0 [bioset]
  352     2  0.0  0.0 [jbd2/xvda1-8]
  353     2  0.0  0.0 [ext4-rsv-conver]
  430     2  0.0  0.0 [rpciod]
  436     2  0.0  0.0 [iscsi_eh]
  447     2  0.0  0.0 [ib_addr]
  449     2  0.0  0.0 [ib_mcast]
  450     2  0.0  0.0 [ib_nl_sa_wq]
  451     2  0.0  0.0 [ib_cm]
  452     1  0.0  0.0 /lib/systemd/systemd-journald
  453     2  0.0  0.0 [iw_cm_wq]
  454     2  0.0  0.0 [rdma_cm]
  462     2  0.0  0.0 [kauditd]
  476     1  0.0  0.0 /sbin/lvmetad -f
  956     1  0.0  0.0 /sbin/dhclient -1 -v -pf /run/dhclient.ens3.pid -lf /var/lib/dhcp/dhclient.ens3.leases -I -df /var/lib/dhcp/dhclient6.ens3.leases ens3
 1090     2  0.0  0.0 [kworker/6:2H]
 1134     2  0.0  0.0 [kworker/2:1H]
 1139     1  0.0  0.0 /usr/sbin/acpid
 1141     1  0.0  0.0 /usr/lib/accountsservice/accounts-daemon
 1145     1  0.0  0.0 /usr/sbin/cron -f
 1147     1  0.0  0.0 /usr/sbin/atd -f
 1149     1  0.0  0.0 /usr/bin/dbus-daemon --system --address=systemd: --nofork --nopidfile --systemd-activation
 1154     1  0.0  0.0 /usr/bin/lxcfs /var/lib/lxcfs/
 1169     1  0.0  0.0 /lib/systemd/systemd-logind
 1171     1  0.0  0.0 /usr/sbin/rsyslogd -n
 1191     1  0.0  0.0 /sbin/mdadm --monitor --pid-file /run/mdadm/monitor.pid --daemonise --scan --syslog
 1225     2  0.0  0.0 [nfsiod]
 1240     2  0.0  0.0 [nfsv4.1-svc]
 1294     1  0.0  0.0 /usr/sbin/irqbalance --pid=/var/run/irqbalance.pid
 1313     1  0.0  0.0 /sbin/agetty --noclear tty1 linux
 1315     1  0.0  0.0 /sbin/agetty --keep-baud 115200 38400 9600 ttyS0 vt220
 1591     2  0.0  0.0 [kworker/1:1H]
 1674     1  0.0  0.0 /home/securenet_prod/bin/wrapper /home/securenet_prod/etc/snip_wrapper.properties wrapper.syslog.ident=securenet_prod_snip wrapper.pidfile=/home/securenet_prod/bin/../run/securenet_prod_snip.pid wrapper.daemonize=TRUE wrapper.lockfile=/var/lock/subsys/securenet_prod_snip
 1676  1674  4.4 17.3 /usr/lib/jvm/java-8-oracle/jre/bin/java -Djava.net.preferIPv4Stack=true -Duser.timezone=US/Central -Djava.net.preferIPv4Stack=true -XX:+PrintGCDetails -XX:+PrintGCDateStamps -Xms1024m -Xmx24576m -Djava.library.path=../lib/ext -classpath ../lib/ext/wrapper.jar:../lib/sn-server-snip-latest.jar:../lib/ext/third-parties.jar -Dwrapper.key=7mYGtwooPG22W87C -Dwrapper.port=32000 -Dwrapper.jvm.port.min=31000 -Dwrapper.jvm.port.max=31999 -Dwrapper.disable_console_input=TRUE -Dwrapper.pid=1674 -Dwrapper.version=3.5.30 -Dwrapper.native_library=wrapper -Dwrapper.arch=x86 -Dwrapper.service=TRUE -Dwrapper.cpu.timeout=10 -Dwrapper.jvmid=1 org.tanukisoftware.wrapper.WrapperStartStopApp com.infinity.securenet.plugins.pa.PAServiceRunner 2 start properties=../etc/snip.properties com.infinity.securenet.plugins.pa.PAServiceRunner true 1 stop
 3391     1  0.0  0.0 /usr/lib/policykit-1/polkitd --no-debug
 5260     1  0.0  0.0 /lib/systemd/systemd-timesyncd
 5332     1  0.0  0.0 /usr/sbin/zabbix_agentd
 5335  5332  0.0  0.0 /usr/sbin/zabbix_agentd: collector [idle 1 sec]
 5336  5332  0.0  0.0 /usr/sbin/zabbix_agentd: listener #1 [waiting for connection]
 5337  5332  0.0  0.0 /usr/sbin/zabbix_agentd: listener #2 [waiting for connection]
 5338  5332  0.0  0.0 /usr/sbin/zabbix_agentd: listener #3 [waiting for connection]
 5339  5332  0.0  0.0 /usr/sbin/zabbix_agentd: active checks #1 [idle 1 sec]
 5955     2  0.0  0.0 [kworker/7:2H]
 6056     1  0.0  0.0 /lib/systemd/systemd-udevd
 6118     2  0.0  0.0 [kworker/3:3]
 6610     2  0.0  0.0 [kworker/4:0H]
 7721     2  0.0  0.0 [kworker/5:1]
 9351     2  0.0  0.0 [kworker/4:1]
 9917     1  0.0  0.0 /lib/systemd/systemd --user
 9920  9917  0.0  0.0 (sd-pam)
10083     1  0.0  0.0 /usr/sbin/openvpn --daemon ovpn-server-vivotek-tcp5 --status /run/openvpn/server-vivotek-tcp5.status 10 --cd /etc/openvpn --script-security 2 --config /etc/openvpn/server-vivotek-tcp5.conf --writepid /run/openvpn/server-vivotek-tcp5.pid
10363     1  0.0  0.0 /usr/sbin/openvpn --daemon ovpn-server-vivotek-tcp6 --status /run/openvpn/server-vivotek-tcp6.status 10 --cd /etc/openvpn --script-security 2 --config /etc/openvpn/server-vivotek-tcp6.conf --writepid /run/openvpn/server-vivotek-tcp6.pid
10487     2  0.0  0.0 [kworker/0:1H]
10819     2  0.0  0.0 [kworker/5:2H]
11211     2  0.0  0.0 [kworker/7:1H]
12017     2  0.0  0.0 [kworker/3:0H]
12119     1  0.0  0.0 /home/securenet_prod/bin/wrapper /home/securenet_prod/etc/prosegur_wrapper.properties wrapper.syslog.ident=securenet_prod_prosegur wrapper.pidfile=/home/securenet_prod/bin/../run/securenet_prod_prosegur.pid wrapper.daemonize=TRUE wrapper.lockfile=/var/lock/subsys/securenet_prod_prosegur
12141     1  0.0  0.0 /usr/sbin/openvpn --daemon ovpn-server-vivotek-tcp10 --status /run/openvpn/server-vivotek-tcp10.status 10 --cd /etc/openvpn --script-security 2 --config /etc/openvpn/server-vivotek-tcp10.conf --writepid /run/openvpn/server-vivotek-tcp10.pid
12151     2  0.0  0.0 [kworker/0:0]
12173 12119  0.5  0.1 /usr/lib/jvm/java-8-oracle/jre/bin/java -Djava.net.preferIPv4Stack=true -Xms16m -Xmx128m -Djava.library.path=../lib/ext -classpath ../lib/ext/wrapper.jar:../lib/securenet.prosegur-latest.jar:../lib/ext/log4j-1.2.13.jar:../lib/ext/mail.jar:../lib/ext/activation.jar:../lib/ext/mysql-connector-java-5.1.18-bin.jar:../lib/ext/java_memcached-release_2.6.6.jar:../lib/ext/slf4j-api-1.6.1.jar:../lib/ext/commons-pool2-2.4.2.jar:../lib/ext/bcprov-jdk15-146.jar:../lib/ext/json-simple-1.1.1.jar:../lib/ext/httpclient-4.3.4.jar:../lib/ext/httpcore-4.3.2.jar:../lib/ext/commons-logging.jar:../lib/ext/spring-jdbc-4.0.6.RELEASE.jar:../lib/ext/spring-tx-4.1.3.RELEASE.jar:../lib/ext/commons-dbcp2-2.1.1.jar:../lib/ext/spring-core-4.1.3.RELEASE.jar:../lib/ext/spring-beans-4.1.3.RELEASE.jar:../lib/ext/commons-pool-1.5.6.jar:../lib/ext/dom4j-1.6.1.jar:../lib/ext/jaxen-1.1-beta-6.jar:../lib/ext/javax.jms-3.1.2.2.jar:../lib/ext/activemq-all-5.14.4.jar:../lib/ext/org.eclipse.paho.client.mqttv3-1.0.2.jar:../lib/ext/xws-security-3.0.jar -Dwrapper.key=4a2u5ENOkGST6d9s -Dwrapper.port=32002 -Dwrapper.jvm.port.min=31000 -Dwrapper.jvm.port.max=31999 -Dwrapper.disable_console_input=TRUE -Dwrapper.pid=12119 -Dwrapper.version=3.5.30 -Dwrapper.native_library=wrapper -Dwrapper.arch=x86 -Dwrapper.service=TRUE -Dwrapper.cpu.timeout=10 -Dwrapper.jvmid=1 org.tanukisoftware.wrapper.WrapperStartStopApp com.infinity.securenet.partners.prosegur.MessageBrokerClient 2 start properties=../etc/prosegur.properties com.infinity.securenet.partners.prosegur.MessageBrokerClient true 1 stop
12401 13065  0.0  0.0 /usr/sbin/haproxy -f /etc/haproxy/haproxy.cfg -p /run/haproxy.pid -Ds -sf 22046
12402 12401  0.0  0.1 /usr/sbin/haproxy -f /etc/haproxy/haproxy.cfg -p /run/haproxy.pid -Ds -sf 22046
12757     2  0.0  0.0 [kworker/3:2H]
13051     1  0.0  0.0 /usr/sbin/openvpn --daemon ovpn-server-vivotek-tcp7 --status /run/openvpn/server-vivotek-tcp7.status 10 --cd /etc/openvpn --script-security 2 --config /etc/openvpn/server-vivotek-tcp7.conf --writepid /run/openvpn/server-vivotek-tcp7.pid
13065     1  0.0  0.0 /usr/sbin/haproxy-systemd-wrapper -f /etc/haproxy/haproxy.cfg -p /run/haproxy.pid
13323     1  0.0  0.0 /usr/sbin/openvpn --daemon ovpn-server-vivotek-tcp2 --status /run/openvpn/server-vivotek-tcp2.status 10 --cd /etc/openvpn --script-security 2 --config /etc/openvpn/server-vivotek-tcp2.conf --writepid /run/openvpn/server-vivotek-tcp2.pid
13368     2  0.0  0.0 [kworker/4:0]
13407     1  0.0  0.0 /usr/sbin/openvpn --daemon ovpn-server-vivotek-tcp8 --status /run/openvpn/server-vivotek-tcp8.status 10 --cd /etc/openvpn --script-security 2 --config /etc/openvpn/server-vivotek-tcp8.conf --writepid /run/openvpn/server-vivotek-tcp8.pid
13515     2  0.0  0.0 [kworker/0:2H]
13618     2  0.0  0.0 [kworker/5:0]
13619     2  0.0  0.0 [kworker/5:3]
13637     1  0.0  0.0 /usr/sbin/openvpn --daemon ovpn-server-vivotek-tcp3 --status /run/openvpn/server-vivotek-tcp3.status 10 --cd /etc/openvpn --script-security 2 --config /etc/openvpn/server-vivotek-tcp3.conf --writepid /run/openvpn/server-vivotek-tcp3.pid
13785     1  0.0  0.0 /usr/sbin/openvpn --daemon ovpn-server-vivotek-tcp9 --status /run/openvpn/server-vivotek-tcp9.status 10 --cd /etc/openvpn --script-security 2 --config /etc/openvpn/server-vivotek-tcp9.conf --writepid /run/openvpn/server-vivotek-tcp9.pid
14292     1  0.0  0.0 /usr/sbin/openvpn --daemon ovpn-server-vivotek-tcp1 --status /run/openvpn/server-vivotek-tcp1.status 10 --cd /etc/openvpn --script-security 2 --config /etc/openvpn/server-vivotek-tcp1.conf --writepid /run/openvpn/server-vivotek-tcp1.pid
14499     2  0.0  0.0 [xfsalloc]
14500     2  0.0  0.0 [xfs_mru_cache]
15170     2  0.0  0.0 [kworker/7:1]
17012     1  0.0  0.0 /home/securenet_prod/bin/wrapper /home/securenet_prod/etc/dvr_wrapper.properties wrapper.syslog.ident=securenet_prod_dvr wrapper.pidfile=/tmp/securenet_prod_dvr.pid wrapper.daemonize=TRUE wrapper.lockfile=/tmp/securenet_prod_dvr
17064 17012  0.6  0.0 /usr/lib/jvm/java-8-oracle/jre/bin/java -Xms16m -Xmx512m -Djava.library.path=../lib/ext -classpath ../lib/ext/wrapper.jar:../lib/sn-server-latest.jar:../lib/ext/third-parties.jar -Dwrapper.key=QBGjYTGgZqrnTBm7 -Dwrapper.port=32001 -Dwrapper.jvm.port.min=31000 -Dwrapper.jvm.port.max=31999 -Dwrapper.disable_console_input=TRUE -Dwrapper.pid=17012 -Dwrapper.version=3.5.30 -Dwrapper.native_library=wrapper -Dwrapper.arch=x86 -Dwrapper.service=TRUE -Dwrapper.cpu.timeout=10 -Dwrapper.jvmid=1 org.tanukisoftware.wrapper.WrapperStartStopApp com.infinity.securenet.plugins.video.DvrServiceRunner 2 start properties=../etc/dvr.properties com.infinity.securenet.plugins.video.DvrServiceRunner true 1 stop
17400     2  0.0  0.0 [kworker/3:2]
18265 30016  0.0  0.0 sshd: bev_lekx [priv]
18277     2  0.0  0.0 [kworker/4:2]
18329 18265  0.0  0.0 sshd: bev_lekx@notty
18333 18329  0.0  0.0 ps -eo pid,ppid,%mem,%cpu,cmd
18640     1  0.0  0.0 /usr/sbin/openvpn --daemon ovpn-server-vivotek-tcp4 --status /run/openvpn/server-vivotek-tcp4.status 10 --cd /etc/openvpn --script-security 2 --config /etc/openvpn/server-vivotek-tcp4.conf --writepid /run/openvpn/server-vivotek-tcp4.pid
18940     2  0.0  0.0 [kworker/6:0]
19592     2  0.0  0.0 [kworker/1:3]
19881     2  0.0  0.0 [kworker/2:3]
20119     2  0.0  0.0 [kworker/1:0]
21012     1  0.0  0.0 /lib/systemd/systemd --user
21020 21012  0.0  0.0 (sd-pam)
21050     2  0.0  0.0 [kworker/5:1H]
21397     1  3.7 10.2 /usr/bin/java -Xms64M -Xmx1G -Djava.util.logging.config.file=logging.properties -Djava.security.auth.login.config=/etc/activemq/conf/login.config -Dcom.sun.management.jmxremote -Djava.awt.headless=true -Djava.io.tmpdir=/etc/activemq/tmp -Dactivemq.classpath=/etc/activemq/conf:/etc/activemq/../lib/: -Dactivemq.home=/usr/local/activemq -Dactivemq.base=/etc/activemq -Dactivemq.conf=/etc/activemq/conf -Dactivemq.data=/etc/activemq/data -jar /usr/local/activemq/bin/activemq.jar start
21706     2  0.0  0.0 [kworker/2:1]
22045 13065  0.0  0.0 /usr/sbin/haproxy -f /etc/haproxy/haproxy.cfg -p /run/haproxy.pid -Ds -sf 13071
22046 22045  0.0  0.0 /usr/sbin/haproxy -f /etc/haproxy/haproxy.cfg -p /run/haproxy.pid -Ds -sf 13071
22984     2  0.0  0.0 [kworker/u30:2]
24646     2  0.0  0.0 [kworker/5:2]
25293     2  0.0  0.0 [kworker/0:2]
25868     2  0.0  0.0 [kworker/1:0H]
26056     2  0.0  0.0 [kworker/4:2H]
26160     1  0.0  0.0 /sbin/iscsid
26161     1  0.0  0.0 /sbin/iscsid
26568     2  0.0  0.0 [kworker/2:2H]
28256     1  0.0  0.0 /usr/sbin/snmpd -Lsd -Lf /dev/null -u snmp -g snmp -I -smux mteTrigger mteTriggerConf -p /run/snmpd.pid
29112     2  0.0  0.0 [kworker/6:3]
29374     2  0.0  0.0 [kworker/u30:0]
30016     1  0.0  0.0 /usr/sbin/sshd -D
30943     1  0.0  0.0 /usr/bin/memcached -m 1024 -p 11211 -u memcache -l 127.0.0.1
30998     2  0.0  0.0 [kworker/6:1H]
31431     2  0.0  0.0 [kworker/7:3]
