  PID  PPID %MEM %CPU CMD
    1     0  0.2  0.0 /lib/systemd/systemd --system --deserialize 28
    2     0  0.0  0.0 [kthreadd]
    3     2  0.0  0.0 [ksoftirqd/0]
    5     2  0.0  0.0 [kworker/0:0H]
    7     2  0.0  0.0 [rcu_sched]
    8     2  0.0  0.0 [rcu_bh]
    9     2  0.0  0.0 [migration/0]
   10     2  0.0  0.0 [watchdog/0]
   11     2  0.0  0.0 [kdevtmpfs]
   12     2  0.0  0.0 [netns]
   13     2  0.0  0.0 [perf]
   14     2  0.0  0.0 [xenwatch]
   15     2  0.0  0.0 [xenbus]
   17     2  0.0  0.0 [khungtaskd]
   18     2  0.0  0.0 [writeback]
   19     2  0.0  0.0 [ksmd]
   20     2  0.0  0.0 [khugepaged]
   21     2  0.0  0.0 [crypto]
   22     2  0.0  0.0 [kintegrityd]
   23     2  0.0  0.0 [bioset]
   24     2  0.0  0.0 [kblockd]
   25     2  0.0  0.0 [ata_sff]
   26     2  0.0  0.0 [md]
   27     2  0.0  0.0 [devfreq_wq]
   30     2  0.0  0.0 [kswapd0]
   31     2  0.0  0.0 [vmstat]
   32     2  0.0  0.0 [fsnotify_mark]
   33     2  0.0  0.0 [ecryptfs-kthrea]
   49     2  0.0  0.0 [kthrotld]
   50     2  0.0  0.0 [acpi_thermal_pm]
   51     2  0.0  0.0 [bioset]
   52     2  0.0  0.0 [bioset]
   53     2  0.0  0.0 [bioset]
   54     2  0.0  0.0 [bioset]
   55     2  0.0  0.0 [bioset]
   56     2  0.0  0.0 [bioset]
   57     2  0.0  0.0 [bioset]
   58     2  0.0  0.0 [bioset]
   59     2  0.0  0.0 [bioset]
   60     2  0.0  0.0 [bioset]
   61     2  0.0  0.0 [bioset]
   62     2  0.0  0.0 [bioset]
   63     2  0.0  0.0 [bioset]
   64     2  0.0  0.0 [bioset]
   65     2  0.0  0.0 [bioset]
   66     2  0.0  0.0 [bioset]
   67     2  0.0  0.0 [bioset]
   68     2  0.0  0.0 [bioset]
   69     2  0.0  0.0 [bioset]
   70     2  0.0  0.0 [bioset]
   71     2  0.0  0.0 [bioset]
   72     2  0.0  0.0 [bioset]
   73     2  0.0  0.0 [bioset]
   74     2  0.0  0.0 [bioset]
   75     2  0.0  0.0 [scsi_eh_0]
   76     2  0.0  0.0 [scsi_tmf_0]
   77     2  0.0  0.0 [scsi_eh_1]
   78     2  0.0  0.0 [scsi_tmf_1]
   80     2  0.0  0.0 [bioset]
   84     2  0.0  0.0 [ipv6_addrconf]
   97     2  0.0  0.0 [deferwq]
  137     2  0.0  0.0 [bioset]
  138     2  0.0  0.0 [bioset]
  139     2  0.0  0.0 [bioset]
  140     2  0.0  0.0 [bioset]
  141     2  0.0  0.0 [bioset]
  142     2  0.0  0.0 [bioset]
  143     2  0.0  0.0 [bioset]
  144     2  0.0  0.0 [bioset]
  260     2  0.0  0.0 [raid5wq]
  292     2  0.0  0.0 [bioset]
  316     2  0.0  0.0 [jbd2/xvda1-8]
  317     2  0.0  0.0 [ext4-rsv-conver]
  387     1  0.2  0.0 /lib/systemd/systemd-journald
  403     2  0.0  0.0 [iscsi_eh]
  417     2  0.0  0.0 [kauditd]
  438     1  0.0  0.0 /sbin/lvmetad -f
  452     2  0.0  0.0 [ib_addr]
  455     2  0.0  0.0 [ib_mcast]
  456     2  0.0  0.0 [ib_nl_sa_wq]
  457     2  0.0  0.0 [ib_cm]
  458     2  0.0  0.0 [iw_cm_wq]
  459     2  0.0  0.0 [rdma_cm]
  546     2  0.0  0.0 [kworker/0:1H]
  926     1  0.0  0.0 /sbin/dhclient -1 -v -pf /run/dhclient.eth0.pid -lf /var/lib/dhcp/dhclient.eth0.leases -I -df /var/lib/dhcp/dhclient6.eth0.leases eth0
 1084     1  0.0  0.0 /usr/sbin/atd -f
 1088     1  0.0  0.0 /usr/sbin/cron -f
 1094     1  0.0  0.0 /usr/sbin/rsyslogd -n
 1102     1  0.0  0.0 /usr/lib/accountsservice/accounts-daemon
 1107     1  0.3  0.0 /usr/bin/lxcfs /var/lib/lxcfs/
 1111     1  0.0  0.0 /usr/sbin/acpid
 1114     1  0.1  0.0 /lib/systemd/systemd-logind
 1127     1  0.1  0.0 /usr/bin/dbus-daemon --system --address=systemd: --nofork --nopidfile --systemd-activation
 1263     1  0.0  0.0 /sbin/agetty --keep-baud 115200 38400 9600 ttyS0 vt220
 1266     1  0.0  0.0 /sbin/agetty --noclear tty1 linux
 2117     2  0.0  0.0 [kworker/0:0]
 2457     2  0.0  0.0 [kworker/u30:0]
 2777     2  0.0  0.0 [kworker/0:2]
 3324     2  0.0  0.0 [kworker/0:1]
 3384 29245  0.3  0.0 sshd: bev_lekx [priv]
 3417  3384  0.1  0.0 sshd: bev_lekx@notty
 3418  3417  0.0  0.0 ps -eo pid,ppid,%mem,%cpu,cmd
 3666     1  0.1  0.0 /usr/lib/policykit-1/polkitd --no-debug
 4331     1  0.0  0.0 /usr/sbin/snmpd -Lsd -Lf /dev/null -u snmp -g snmp -I -smux mteTrigger mteTriggerConf -p /run/snmpd.pid
 5766     1  0.1  0.0 /lib/systemd/systemd-udevd
 5980     1  0.0  0.0 /usr/sbin/uuidd --socket-activation
11943     1  0.2  0.0 /usr/sbin/ntpd -p /var/run/ntpd.pid -g -u 119:123
13009     1  0.0  0.0 /sbin/iscsid
13010     1  0.1  0.0 /sbin/iscsid
14967     1  2.7  0.0 /usr/lib/jvm/default-java/bin/java -Djava.util.logging.config.file=/var/lib/tomcat8/conf/logging.properties -Djava.util.logging.manager=org.apache.juli.ClassLoaderLogManager -Djava.awt.headless=true -Xmx128m -XX:+UseConcMarkSweepGC -Djava.endorsed.dirs=/usr/share/tomcat8/endorsed -classpath /usr/share/tomcat8/bin/bootstrap.jar:/usr/share/tomcat8/bin/tomcat-juli.jar -Dcatalina.base=/var/lib/tomcat8 -Dcatalina.home=/usr/share/tomcat8 -Djava.io.tmpdir=/tmp/tomcat8-tomcat8-tmp org.apache.catalina.startup.Bootstrap start
16287     1  1.4  0.3 iptraf -i all -B
23069     1  0.0  0.0 /lib/systemd/systemd --user
23072 23069  0.0  0.0 (sd-pam)
24235     2  0.0  0.0 [xfsalloc]
24236     2  0.0  0.0 [xfs_mru_cache]
25067     1  0.0  0.0 /lib/systemd/systemd --user
25068 25067  0.0  0.0 (sd-pam)
27114     1  0.0  0.0 /sbin/mdadm --monitor --pid-file /run/mdadm/monitor.pid --daemonise --scan --syslog
27584     1  1.4  0.0 /usr/sbin/apache2 -k start
28346     1  1.3  0.0 /usr/sbin/named -f -u bind
29245     1  0.1  0.0 /usr/sbin/sshd -D
29494 27584  0.4  0.0 /usr/sbin/apache2 -k start
29495 27584  0.4  0.0 /usr/sbin/apache2 -k start
29496 27584  0.4  0.0 /usr/sbin/apache2 -k start
29497 27584  0.4  0.0 /usr/sbin/apache2 -k start
29498 27584  0.4  0.0 /usr/sbin/apache2 -k start
29581     1  0.1  0.0 /usr/sbin/zabbix_agentd
29582 29581  0.1  0.0 /usr/sbin/zabbix_agentd: collector [idle 1 sec]
29583 29581  0.1  0.0 /usr/sbin/zabbix_agentd: listener #1 [waiting for connection]
29584 29581  0.1  0.0 /usr/sbin/zabbix_agentd: listener #2 [waiting for connection]
29585 29581  0.1  0.0 /usr/sbin/zabbix_agentd: listener #3 [waiting for connection]
29586 29581  0.0  0.0 /usr/sbin/zabbix_agentd: active checks #1 [idle 1 sec]
29914     2  0.0  0.0 [kworker/u30:2]
31555     1  0.0  0.0 /usr/lib/ipsec/starter --daemon charon
31556 31555  0.2  0.0 /usr/lib/ipsec/charon --use-syslog
