bureau_id	company_name	address_line_1	address_line_2	suburb	city	state	post_code	country	contact_name_1	contact_name_2	email_address
0000	Default Dealer	Unit 1	Stoddart Road	Prospect		NSW	2148	Canada	admin		admin@securenetmonitoring.com.au
0001	Securenet EU	Suite 2155	1135 Townpark Avenue	Lake Mary	Lake Mary	FL	32746	Denmark	Barrie Webb	C#2	support@securenettech.com
0002	ADT UK	Summit House	Brooklands Cl	Sunbury on Thames	Sunbury on Thames	London	TW165DB	United Kingdom	ADT UK		no@email.com
0003	Garda	langdansvagen 44		Staffanstorp	Staffanstorp	FL	32746	United States	Roy Olsen		roy.olsen@gardaalarm.com
0004	Prodaja DSC Croatia	1135 Townpark Ave		Lake Mary	Lake Mary	FL	32746	United States	Davorin Vlahovic		davorin@dsc.hr
0005	Neadus Callus Fire & Security	Unit 17A Bridgecourt Office Park	Walkinstown avenue	Dublin 12	Dublin 12	Dublin	D12PD60	Ireland	Sean Kirwan		sean@ncalarms.com
0006	Guardeon Security Systems	Vandtarnsvej 100		Soborg	Soborg		24542	Denmark	Mikael Kongsted		info@guardeon.dk
0007	FSM OY	Kolmenkulmantie 1		Nokia	Nokia	Finnmark	37150	Finland	Markus Af HallStrom		markus.afhallstrom@fsm.fi
0008	Securitas Finland	1135 Townpark Ave		Lake Mary	Lake Mary	FL	32746	United States	Securitas Finland		no@email.com
0009	JCI Germany	Nellessenweg 38		Moenchengladback	Moenchengladback	Nordrhein-Westfalen	41238	Germany	Wolfgang Kuester		wolfgang.kuester@jci.com
0010	JCI Italy	Gabbiano 22	Zona Industriale S	Scolastica	Scolastica	AB	64013	Italy	Luca Bucci		luca.bucci@jci.com
0011	Roslagens Berg & Bygg AB	Isättraviksvägen 17		Akersberga	Akersberga	Stockholm	18463	Sweden	Johan Wessel		info@roslagensbergobygg.se
0012	Guardland Security	94 Clonshaugh Ave		Dublin	Dublin		D17	Ireland	Noel Garland		noelgarland@live.ie
0013	CAA Security Systems	2 Murrin Ballylar		Letterkenny	Letterkenny		00000	Ireland	Gary Dorian		caa.systems.1@gmail.com
0014	009900	Unit 510A Grants Avenue	Greenogue Business Park	Rathcoole	Rathcoole		D24CY24	Ireland	Paul Macdermott		paul@networksecurity.ie
0015	Atom Alarm Services	49 Fitzwilliam Square		Dublin 2	Dublin 2		00000	Ireland	Andrew Cunningham		unk@unk.com
0016	GME Security	1013 lake drive	Citywest	Dublin 24	Dublin 24		24	Ireland	Adrian Terry		unk@unk.com
0017	Tyco Security	Fernadale Road		Lake Mary	Dronfield	Derbyshire	S183BU	United Kingdom	Jason Upton		jason.mark.upton@jci.com
0018	Go Konnect	9, Oriel Hub	Finnabair Industrial Estate	Haggardstown	Haggardstown		S183BP	United Kingdom	Robert Kennedy		rkennedy@gokonnect.ie
0019	Sparks FC	Church Gardens	Watergrasshill	Cork	Cork		S183BP	United Kingdom	Frank Cummins		sparksfc@ymail.com
0020	SFE Systems	Main Street	Carrigtowhill	Cork	Cork		S183BP	United Kingdom	Adrian O'Driscoll		adrian@sfesystems.com
0021	Tyco Ireland	Albert Quay	Albert Road	Cork	Cork		T12X8N6	Ireland	Glen Oosthuizen		glen.oosthuizen@jci.com
0022	J.E.C Security	Waterside	Waterford	Waterford	Waterford	South	X91 KV08	Ireland	Gordon Bailey	Niall Farrell	info@jecsecurity.com
0023	Quantum Security	Mellesfontown	Rathcormac	Cork	Cork		P61R983	Ireland	Pat Fowly		pat@quantumsecurity.ie
0024	M.C. Security Solutions	Stonewall Enterprise Centre	Virginia Road	Bailieborough	Bailieborough		A82A3X4	Ireland	Shay Fitzsimons		shay@mcsecuritysolutions.ie
0025	CES Systems	169 Shannonvale	Old Cratloe Road	Limerick	Limerick	London	V94XP4A	Ireland	Gearoid Shinners		cessystems@eircom.net
0026	Crimewatch Security	Distillery Road	Whiteswell	Wexford	Wexford		Y35V1H1	Ireland	Frank Flannery		frank@crimewatch.ie
0027	Sensys Technology	Unit 5 The Teach Bai	Main Street	Enfield	Enfield		A83VF62	Ireland	Brian Cunningham		brian@sensys.ie
0028	FPS	Cavangarden	Ballyshannon	Co.Donegal	Co.Donegal		F94X0C1	Ireland	Seamus McNulty		seamusmcnulty0@gmail.com
0029	Feale Security	Knocknagoshel		Kerry	Kerry		V92NX97	Ireland	Brian O’Connor		info@fealesecurity.ie
0030	Tyco Security	Ferndale Road, Coal Aston		Sheffield		Derbyshire	S183BU	United Kingdom	Jason		jason.mark.upton@jci.com
0031	Phonelink Security	Ferry Bank	Arklow	Court Wicklow	Court Wicklow		Y14RP46	Ireland	Sean O`Conchuir		sean.oconchuir@phonelinksecurity.ie
0032	Keiron Cheesebrough Tech Services	Stower Street		West Bromwick	West Bromwick	West Midlands	B70 9AU	United Kingdom	Keiron Cheesebrough		info@keironcheesbrough.com
0033	Emex Fire & Security	Unit 7 Eastgate Business Park	Wentloog Avenue	Cardiff		Wales	CF32EX	United Kingdom	Gavin Jones		gavin@emexfs.co.uk
0034	Tyco-Sheffield	Ferndale Road		Sheffield	Sheffield	South Yorkshire	S18 3BU	United Kingdom	Jason Upton		jason.mark.upton@jci.com
0035	Sheff Alarm	Woodseats Road	Woodseats	Sheffield		South Yorkshire	S8 0RX	United Kingdom	Roger		j-upton@live.co.uk
0036	Neadus Callus Alarms	Unit 17A Bridgecourt Office Park	Walkinstown avenue	Dublin 12	Dublin 12	Dublin	33611	Ireland	Sean Kirwan		contact@ncalarms.com
0037	Solar Sverige AB	Gullbergs Strandgata 34		4Goteborg	4Goteborg	Gavleborg	33616	United States	Robert Karlsson		robert.karlsson@solar.se
0038	Nova Holdings	Olesnica		Poland	Poland		56-400	Poland	Dariusz Wozniak		dariusz.wozniak@novaholding.pl
0039	Matthew Darby Security	Byrchen Moor Gardens	Birds Meadow	Brierley		West Midlands	DY54SX	United Kingdom	Matt Darby		matt.home360@gmail.com
0040	JST Security Solutions	Quenby Drive		Dudley	Dudley	West Midlands	DY12GX	United Kingdom	James Rickers		james@jst-ss.com
0041	HMA Security	Lichfield Road		Walsall		West Midlands	WS42DL	United Kingdom	Mohammed Akram		admin@hmasecurity.com
0042	Connect Security & Electrical	Clivedon Way		Halesowen	Halesowen	West Midlands	B628TB	United Kingdom	Darren Fiddler		donfid76@outlook.com
0043	Connect 4 Security	Cobalt Square	Hagley Road	Birmingham	Birmingham	West Midlands	B168QG	United Kingdom	David Shutkever		davidshutkever@connect4security.com
0044	TBW Solutions	Greenway		Birmingham		West Midlands	B201EQ	United Kingdom	Tony Walker		twalker@tbwsolutions.co.uk
0045	Rapid Sakerhet	Rissneleden 138, 174 57, Sweden		Sundbyberg	Sundbyberg		17457	Sweden	Mats B Adman		adman@rapidsakerhet.se
0046	Feale Security	Knocknagoshel	Tralee	Kerry		Kerry	VN92 NX97	Ireland	Brian O Conner		brian@fealesecurity.ie
0047	Feale Security	Knocknagshel		Tralee	Tralee	Kerry	VN92NX97	Ireland	Brian O'Conner		brian@fealesecurity.ie
0048	Chris Darby	29 Meadowbrook		Halesowen		West Midlands	B631AG	United Kingdom	Chris Darby		chrisdarby@hotmail.co.uk
0049	Sector Alarm	Vitaminveien 1A		Oslo	Oslo	Oslo	0485	Norway	Leif Motro		notprovided@unk.com
0050	Jason Tyco GSM	Tyco House	Tyco Street	Sheffield	Sheffield	South Yorkshire	S183BU	United Kingdom	Jason Upton		jason.mark.upton@jci.com
0051	Tyco Saunders	Tyco Street		Preston	Preston	Lancashire	PR02AA	United Kingdom	Paul Saunders		paul.saunders@jci.com
0052	Network Security	Unit 510A Grants Avenue	Greenogue Business Park	Rathcoole		Dublin	D24CY24	Ireland	Paul McDermott		jason.mark.upton@jci.com
0053	MMC Security Force	95-99 Commercial Blvd,	Happy Acres, ECD	Georgetown	Georgetown	FL	44444	United States	Silas Brummell		sbrummell@mmcsecurityforce.com
0054	Paul Andrews	Dewhirst Road		Rochdale	Rochdale	Lancashire	OL120AT	United Kingdom	Paul Andrews		paul.andrews@jci.com
0055	Emmanuel Degruson	rue du chateau de hem	Wambrechies	France		284	59118	France	Emmanuel Degruson		emmanuel.degruson@jci.com
0056	Murat Firat Dealer Profile	Heathrow Boulevard 3	282 Bath Road	Heathrow		3	UB70DQ	United Kingdom	Murat Firat		murat.firat@jci.com
0057	Teletec	Ostmästargränd 8		stockhoolm	stockhoolm	Stockholm	12040	Sweden	Per Mattsson		per.mattsson@teletec.se
0058	AAT Holdings	Pulawska		Warsaw	Warsaw		49076	Poland	Bartlomiej Kwiatkowski		bartlomiej.kwiatkowski@aat.pl
0059	ADI	Bluebell Drive		Wyke		West Yorkshire	BD128AG	United Kingdom	Simon Brown		simon.brown@adi.dist.com
0060	BK Group UAB	Pramones PR	Kaunas	Lithuania	Lithuania	Nordrhein-Westfalen	51329	Denmark	Darius Aleliunia		darius@bkgroup.it
0061	Orange France	78 Rue Olivier de Serres		Paris	Paris	Ile-de-France	75015	France	Samuel Blarre		samuel.blarre@orange.com
0062	North West Alarm	Upper main street		Donegal	Donegal	Donegal	F94KV40	Ireland	Kevin Wallace		kevinwallace.nwa@gmail.com
0063	Alarmcare Security Solutions	Ballinakill Longhrea		Galway	Galway	Galway	H62DR68	Ireland	David Keane		dkeane@alarmcare.ie
0064	Etesaliah Trading Co,LTD.	Saudi Arabia		Khobar	Khobar	FL	3332746	United States	Mohammad Hanoon		m.hanoon@ets-sec.com
0065	Mike Hayes	160 Peel Green Road		Manchester		Lancashire	M30 7BA	United Kingdom	Mike Hayes		michael.2.hayes@jci.com
0066	Loyal security	Oldham Road		Rochdale	Rochdale	Lancashire	OL161UA	United Kingdom	Jamal Wasim		jamal@loyalsecurity.co.uk
0067	ISET Solutions	Westdale Road		Mansfield	Mansfield	Nottinghamshire	NG197BZ	United Kingdom	Ricky Dean		ricky@isetsolutions.co.uk
0068	Dubai Office / Technical Team	Block D, Floor 3, Office Park building #56,		Dubai Internet City,		FL	33611	United States	Ayham Chreiki		ayham.chreiki@jci.com
0069	CFS Fire & Security	Bunatubber	Corrandulla	Galway	Galway	Galway	H91X9C4	Ireland	Declan Casserly	Declan Casserly	declan@cfssecurity.ie
0070	Shield Security & Electrical	Tysoe Drive		Sutton Coldfield	Sutton Coldfield	West Midlands	B762UJ	United Kingdom	Robert Parkin		robert@shieldbirmingham.com
0071	Avenger Security	Great Barr Business Park		Birmingham	Birmingham		B421DY	United Kingdom	Cameron Randall		info@avengers.co.uk
0072	Pro Security	Unit 9 Glenrock Business Park.	Ballybane	Galway	Galway	Galway	H91AXN2	Ireland	Simon Duffy		simon@prosecurity.ie
0073	Matt Black Smarthome Protection	12/13 Conduit Road	Norton Canes	Cannock	Cannock	West Midlands	WS119TJ	United Kingdom	Matt Black		mblack@smarthomeprotection.co.uk
0074	Chris Cooper JCI	Ninelands Spur	Garforth	Leeds	Leeds	North Yorkshire	LS251NH	United Kingdom	Chris Cooper		christopher.cooper@jci.com
0075	Paul Andrews JCI	Bernard Street		Rochdale		Lancashire	OL120SJ	United Kingdom	Paul Andrews		paul.andrews@jci.com
0076	Den Jyske Kontrolcentral	NEED		Need	Need	Soeborg	32746	Denmark	Dennis Pedersen		dp@djk.dk
0077	ISET Solutions	Cedar Avenue		Mansfield	Mansfield	Nottinghamshire	NG198N	United Kingdom	Kyle O Neill		kyle@isetsolutions.co.uk
0078	HMA Security	Lichfield Road	Walsall	Birmingham		West Midlands	WS42DC	United Kingdom	Mohammed Akram		admin@hmasecurity.com
0079	Alan Riegler	Carmarthen Road		Cheltenham		Gloucestershire	GL513JZ	United Kingdom	Alan Riegler		alan.riegler@jci.com
0080	Steve Hopkins TYCO JCI	Tyco Park		Manchester	Manchester	Lancashire	M402WL	United Kingdom	Steve Hopkins		steve.hopkins@jci.com
0081	Patricia Jones TYCO JCI	Tyco Park		Manchester		Lancashire	M402WL	United Kingdom	Patricia Jones		patricia.jones@jci.com
0082	Darren Cox TYCO JCI	33 The Queens Drive	MIll End	Manchester	Rickmansworth	Hertfordshire	WD3 8LN	United Kingdom	Darren Cox		darren.cox@jci.com
0083	Adrian Willis TYCO JCI	Tyco Park		Manchester		Lancashire	M402WL	United Kingdom	Adrian Willis		adrian.willis@jci.com
0084	Chris Darby 360 Home	Meadowbrook Road		Halesowen		West Midlands	B631AG	United Kingdom	Chris Darby		chris.home360@gmail.com
0085	Matt Darby Security	Umberslade Road		Selly Oak		West Midlands	B297SD	United Kingdom	Matt Darby		matt.home360@gmail.com
0086	Peter O Conner  Securigard	Dodder Park Road		Dublin		Dublin	D14X434	Ireland	Peter O Conner		info@securigard.ie
0087	Michael Lawrence	Heydon Close		Leeds		North Yorkshire	LS64QR	United Kingdom	Michael Lawrence		michael.lawrence2@adiglobal.com
0088	Robert Brown BRS	Sunny Bank Road		Bury		Lancashire	BL9 8ES	United Kingdom	Robert Brown		robert@brs-ltd.co.uk
0089	Castlegate Alarms	Rose Cottage West Leigh		East Grinstead	East Grinstead	West Sussex	RH19 4DU	United Kingdom	Steve Kelly		info@castlegate-alarms.co.uk
0090	Safe & Secure 24/7 LTD	Meadow View Barn	Berriew	Welshpool	Welshpool	Powys	SY218AU	United Kingdom	Darrell Shephard		info@safeandsecure247.co.uk
0091	Brendan Sheridan	Bunnagee		Letterkenny		Ulster	W8V2WP	Ireland	Brendan Sheridan		sheridanbrendan96@gmail.com
0092	Will Topping	Jordanstown Drive		County Dublin		Dublin	D24TF43	Ireland	Will Topping		wiil.topping@sbdinc.com
0093	JCI EMEA	langdansvagen 44		Lake Mary		FL	32746	United States	ANTONIO DI BLASIO		antonio.di.blasio@jci.com
0094	Tyco Demo	Grimshaw Lane		Manchester		Lancashire	M402WL	United Kingdom	Jason		jason.mark.upton@jci.com
0095	Tyco Demo UK	Grimshaw Lane		Manchester		Lancashire	M402WL	United Kingdom	Jason		jason.mark.upton@jci.com
0096	Peter Frake Innovation Fire & Security	Unit 19 Crompton Way		Crawley	Crawley		RH109QR	United Kingdom	Peter Frake		pfrake@innovationfs.co.uk
0097	Rayn Technology Systems LTD	Corcanree Business Park	Dock Road	Limerick	Limerick	Limerick	V94E6C6	Ireland	Ray Nash		ray@rayn.ie
0098	Bernard Andrews	86 Dewhirst Road		Rochdale		Lancashire	OL120AT	United Kingdom	B Andrews		bernardandrews48@google.com
0099	Smart Home Alarms	Dock Street		Fleetwood	Fleetwood	Lanarkshire	FY76JB	United Kingdom	Bobby Forshaw		info@smarthomealarms.uk
0100	ADK Security	St Georges Road		Bolton	Bolton	Lancashire	BL12PH	United Kingdom	Ahmed Kathrada		ahmed@adk-security.com
