   PID   PPID %MEM %CPU CMD
     1      0  0.0  0.0 /lib/systemd/systemd --system --deserialize 26
     2      0  0.0  0.0 [kthreadd]
     4      2  0.0  0.0 [kworker/0:0H]
     6      2  0.0  0.0 [mm_percpu_wq]
     7      2  0.0  0.0 [ksoftirqd/0]
     8      2  0.0  0.0 [rcu_sched]
     9      2  0.0  0.0 [rcu_bh]
    10      2  0.0  0.0 [migration/0]
    11      2  0.0  0.0 [watchdog/0]
    12      2  0.0  0.0 [cpuhp/0]
    13      2  0.0  0.0 [cpuhp/1]
    14      2  0.0  0.0 [watchdog/1]
    15      2  0.0  0.0 [migration/1]
    16      2  0.0  0.0 [ksoftirqd/1]
    18      2  0.0  0.0 [kworker/1:0H]
    19      2  0.0  0.0 [kdevtmpfs]
    20      2  0.0  0.0 [netns]
    21      2  0.0  0.0 [rcu_tasks_kthre]
    22      2  0.0  0.0 [kauditd]
    25      2  0.0  0.0 [khungtaskd]
    26      2  0.0  0.0 [oom_reaper]
    27      2  0.0  0.0 [writeback]
    28      2  0.0  0.0 [kcompactd0]
    29      2  0.0  0.0 [ksmd]
    30      2  0.0  0.0 [khugepaged]
    31      2  0.0  0.0 [crypto]
    32      2  0.0  0.0 [kintegrityd]
    33      2  0.0  0.0 [kblockd]
    34      2  0.0  0.0 [ata_sff]
    35      2  0.0  0.0 [md]
    36      2  0.0  0.0 [edac-poller]
    37      2  0.0  0.0 [hv_vmbus_con]
    38      2  0.0  0.0 [hv_pri_chan]
    39      2  0.0  0.0 [hv_sub_chan]
    40      2  0.0  0.0 [devfreq_wq]
    41      2  0.0  0.0 [watchdogd]
    44      2  0.0  0.0 [kswapd0]
    45      2  0.0  0.0 [kworker/u257:0]
    46      2  0.0  0.0 [ecryptfs-kthrea]
    88      2  0.0  0.0 [kthrotld]
    89      2  0.0  0.0 [nfit]
    90      2  0.0  0.0 [scsi_eh_0]
    91      2  0.0  0.0 [scsi_tmf_0]
    92      2  0.0  0.0 [storvsc_error_w]
    93      2  0.0  0.0 [scsi_eh_1]
    94      2  0.0  0.0 [scsi_tmf_1]
    95      2  0.0  0.0 [storvsc_error_w]
    96      2  0.0  0.0 [scsi_eh_2]
    97      2  0.0  0.0 [scsi_tmf_2]
    98      2  0.0  0.0 [storvsc_error_w]
    99      2  0.0  0.0 [scsi_eh_3]
   100      2  0.0  0.0 [scsi_tmf_3]
   101      2  0.0  0.0 [storvsc_error_w]
   105      2  0.0  0.0 [nvme-wq]
   106      2  0.0  0.0 [scsi_eh_4]
   107      2  0.0  0.0 [scsi_tmf_4]
   108      2  0.0  0.0 [scsi_eh_5]
   109      2  0.0  0.0 [scsi_tmf_5]
   110      2  0.0  0.0 [kworker/0:1H]
   114      2  0.0  0.0 [kworker/1:1H]
   118      2  0.0  0.0 [ipv6_addrconf]
   127      2  0.0  0.0 [kstrp]
   312      2  0.0  0.0 [raid5wq]
   366      2  0.0  0.0 [jbd2/sda1-8]
   367      2  0.0  0.0 [ext4-rsv-conver]
   448      1  0.1  0.0 /lib/systemd/systemd-journald
   450      2  0.0  0.0 [iscsi_eh]
   456      2  0.0  0.0 [ib-comp-wq]
   459      2  0.0  0.0 [ib-comp-unb-wq]
   461      2  0.0  0.0 [ib_mcast]
   462      2  0.0  0.0 [ib_nl_sa_wq]
   471      2  0.0  0.0 [rdma_cm]
   473      1  0.0  0.0 /sbin/lvmetad -f
   515      2  0.0  0.0 [hv_balloon]
  1048      1  0.0  0.0 /sbin/dhclient -1 -v -pf /run/dhclient.eth0.pid -lf /var/lib/dhcp/dhclient.eth0.leases -I -df /var/lib/dhcp/dhclient6.eth0.leases eth0
  1192      1  0.1  0.0 /usr/bin/python3 -u /usr/sbin/waagent -daemon
  1320      2  0.0  0.0 [jbd2/sdb1-8]
  1321      2  0.0  0.0 [ext4-rsv-conver]
  1394      1  0.0  0.0 /lib/systemd/systemd-logind
  1399      1  0.0  0.0 /usr/sbin/nscd -d
  1400      1  0.0  0.0 /sbin/iscsid
  1401      1  0.0  0.0 /sbin/iscsid
  1402      1  0.0  0.0 /usr/bin/dbus-daemon --system --address=systemd: --nofork --nopidfile --systemd-activation
  1459      1  0.0  0.0 /usr/sbin/rsyslogd -n
  1461      1  0.0  0.0 /usr/sbin/cron -f
  1471      1  0.0  0.0 /usr/bin/lxcfs /var/lib/lxcfs/
  1481      1  0.0  0.0 /usr/sbin/acpid
  1485      1  0.0  0.0 /usr/sbin/atd -f
  1491      1  0.0  0.0 /usr/lib/accountsservice/accounts-daemon
  1518      1  0.1  0.0 /usr/bin/python3 /usr/share/unattended-upgrades/unattended-upgrade-shutdown --wait-for-signal
  1536      1  0.0  0.0 /sbin/mdadm --monitor --pid-file /run/mdadm/monitor.pid --daemonise --scan --syslog
  1600      1  0.0  0.0 /sbin/agetty --noclear tty1 linux
  1602      1  0.0  0.0 /sbin/agetty --keep-baud 115200 38400 9600 ttyS0 vt220
  1617      1  0.0  0.0 /usr/sbin/irqbalance --pid=/var/run/irqbalance.pid
  1628      1  0.0  0.0 /usr/lib/policykit-1/polkitd --no-debug
  1836   1192  0.2  0.3 python3 -u /usr/sbin/waagent -run-exthandlers
  3230      2  0.0  0.0 [cifsiod]
  3231      2  0.0  0.0 [cifsoplockd]
  3237      2  0.0  0.0 [cifsd]
 15569      1  0.0  0.0 /usr/lib/linux-tools/4.15.0-1063-azure/hv_vss_daemon -n
 43380      2  0.0  0.0 [kworker/1:1]
 43393      1  0.0  0.0 /usr/sbin/zabbix_agentd
 43395  43393  0.0  0.0 /usr/sbin/zabbix_agentd: collector [idle 1 sec]
 43396  43393  0.0  0.0 /usr/sbin/zabbix_agentd: listener #1 [waiting for connection]
 43397  43393  0.0  0.0 /usr/sbin/zabbix_agentd: listener #2 [waiting for connection]
 43398  43393  0.0  0.0 /usr/sbin/zabbix_agentd: listener #3 [waiting for connection]
 43399  43393  0.0  0.0 /usr/sbin/zabbix_agentd: active checks #1 [idle 1 sec]
 43403      2  0.0  0.0 [kworker/0:1]
 46697      1  0.0  0.0 /lib/systemd/systemd-udevd
 51962      1  0.0  0.0 /lib/systemd/systemd-timesyncd
 68781      2  0.0  0.1 [kworker/0:2]
 68782      2  0.0  0.0 [kworker/1:2]
 72030      2  0.0  0.0 [kworker/u256:3]
 76134      2  0.0  0.0 [kworker/u256:0]
 76725      2  0.0  0.0 [kworker/u256:2]
 78923      2  0.0  0.0 [kworker/0:0]
 78926      2  0.0  0.0 [kworker/1:0]
 78927      2  0.0  0.0 [kworker/1:3]
 78928  95909  0.0  0.0 sshd: bev_lekx [priv]
 78930      1  0.0  0.0 /lib/systemd/systemd --user
 78931  78930  0.0  0.0 (sd-pam)
 78972  78928  0.0  0.0 sshd: bev_lekx@notty
 78977  78972  0.0  0.0 ps -eo pid,ppid,%mem,%cpu,cmd
 80547      2  0.0  0.0 [xfsalloc]
 80549      2  0.0  0.0 [xfs_mru_cache]
 95909      1  0.0  0.0 /usr/sbin/sshd -D
