FORMAT01	Change Device State	CHANGE_STATE
IMSI	STATE
204043726695248	INACTIVE_STOPPED
204043726695257	INACTIVE_STOPPED
204043726695306	INACTIVE_STOPPED
204043726695315	INACTIVE_STOPPED
204043726695324	INACTIVE_STOPPED
204043726695328	INACTIVE_STOPPED
204043726695370	INACTIVE_STOPPED
204043726695373	INACTIVE_STOPPED
204043726695378	INACTIVE_STOPPED
204043726695386	INACTIVE_STOPPED
204043726695391	INACTIVE_STOPPED
204043726695441	INACTIVE_STOPPED
204043726695442	INACTIVE_STOPPED
204043726695450	INACTIVE_STOPPED
204043726695456	INACTIVE_STOPPED
204043726695468	INACTIVE_STOPPED
204043726695475	INACTIVE_STOPPED
204043726695557	INACTIVE_STOPPED
204043726695563	INACTIVE_STOPPED
204043726695637	INACTIVE_STOPPED
204043726695650	INACTIVE_STOPPED
204043726695664	INACTIVE_STOPPED
204043726695670	INACTIVE_STOPPED
204043726695746	INACTIVE_STOPPED
204043726695749	INACTIVE_STOPPED
204043726695805	INACTIVE_STOPPED
204043726695808	INACTIVE_STOPPED
204043726695824	INACTIVE_STOPPED
204043726695828	INACTIVE_STOPPED
204043726695838	INACTIVE_STOPPED
204043726695842	INACTIVE_STOPPED
204043726695888	INACTIVE_STOPPED
204043726695928	INACTIVE_STOPPED
204043726695940	INACTIVE_STOPPED
204043726695953	INACTIVE_STOPPED
204043726695967	INACTIVE_STOPPED
204043726695975	INACTIVE_STOPPED
204043726695993	INACTIVE_STOPPED
204043726695997	INACTIVE_STOPPED
204043726696045	INACTIVE_STOPPED
204043726696076	INACTIVE_STOPPED
204043726696094	INACTIVE_STOPPED
204043726696116	INACTIVE_STOPPED
204043726696213	INACTIVE_STOPPED
204043726696336	INACTIVE_STOPPED
204043726696344	INACTIVE_STOPPED
204043726696360	INACTIVE_STOPPED
204043726696403	INACTIVE_STOPPED
204043726696404	INACTIVE_STOPPED
204043726696455	INACTIVE_STOPPED
204043726696469	INACTIVE_STOPPED
204043726696476	INACTIVE_STOPPED
204043726696495	INACTIVE_STOPPED
204043726696500	INACTIVE_STOPPED
204043726696502	INACTIVE_STOPPED
204043726696509	INACTIVE_STOPPED
204043726696516	INACTIVE_STOPPED
204043726696550	INACTIVE_STOPPED
204043726696553	INACTIVE_STOPPED
204043726696556	INACTIVE_STOPPED
204043726696582	INACTIVE_STOPPED
204043726696613	INACTIVE_STOPPED
204043726696615	INACTIVE_STOPPED
204043726696664	INACTIVE_STOPPED
204043726696681	INACTIVE_STOPPED
204043726696688	INACTIVE_STOPPED
204043726696705	INACTIVE_STOPPED
204043726696724	INACTIVE_STOPPED
204043726696749	INACTIVE_STOPPED
204043726696781	INACTIVE_STOPPED
204043726696798	INACTIVE_STOPPED
204043726696811	INACTIVE_STOPPED
204043726696828	INACTIVE_STOPPED
204043726696833	INACTIVE_STOPPED
204043726696835	INACTIVE_STOPPED
204043726696847	INACTIVE_STOPPED
204043726696870	INACTIVE_STOPPED
204043726696883	INACTIVE_STOPPED
204043726696897	INACTIVE_STOPPED
204043726696917	INACTIVE_STOPPED
204043726696933	INACTIVE_STOPPED
204043726696954	INACTIVE_STOPPED
204043726696956	INACTIVE_STOPPED
204043726696990	INACTIVE_STOPPED
204043726696991	INACTIVE_STOPPED
204043726696996	INACTIVE_STOPPED
204043726697001	INACTIVE_STOPPED
204043726697004	INACTIVE_STOPPED
204043726697026	INACTIVE_STOPPED
204043726697071	INACTIVE_STOPPED
204043726697097	INACTIVE_STOPPED
204043726697101	INACTIVE_STOPPED
204043726697105	INACTIVE_STOPPED
204043726697162	INACTIVE_STOPPED
204043726697190	INACTIVE_STOPPED
204043726697238	INACTIVE_STOPPED
204043726697250	INACTIVE_STOPPED
204043726697257	INACTIVE_STOPPED
204043726697273	INACTIVE_STOPPED
204043726697294	INACTIVE_STOPPED
204043726697361	INACTIVE_STOPPED
204043726697386	INACTIVE_STOPPED
204043726697410	INACTIVE_STOPPED
204043726697443	INACTIVE_STOPPED
204043726697470	INACTIVE_STOPPED
204043728910016	INACTIVE_STOPPED
204043728910025	INACTIVE_STOPPED
204043728910085	INACTIVE_STOPPED
204043728910114	INACTIVE_STOPPED
204043728910130	INACTIVE_STOPPED
204043728910167	INACTIVE_STOPPED
204043728910218	INACTIVE_STOPPED
204043728910256	INACTIVE_STOPPED
204043728910261	INACTIVE_STOPPED
204043728910343	INACTIVE_STOPPED
204043728910356	INACTIVE_STOPPED
204043728910358	INACTIVE_STOPPED
204043728910402	INACTIVE_STOPPED
204043728910413	INACTIVE_STOPPED
204043728910501	INACTIVE_STOPPED
204043728910508	INACTIVE_STOPPED
204043728910538	INACTIVE_STOPPED
204043728910540	INACTIVE_STOPPED
204043728910573	INACTIVE_STOPPED
204043728910578	INACTIVE_STOPPED
204043728910605	INACTIVE_STOPPED
204043728910606	INACTIVE_STOPPED
204043728910627	INACTIVE_STOPPED
204043728910629	INACTIVE_STOPPED
204043728910651	INACTIVE_STOPPED
204043728910654	INACTIVE_STOPPED
204043728910681	INACTIVE_STOPPED
204043728910719	INACTIVE_STOPPED
204043728910751	INACTIVE_STOPPED
204043728910758	INACTIVE_STOPPED
204043728910788	INACTIVE_STOPPED
204043728910803	INACTIVE_STOPPED
204043728910828	INACTIVE_STOPPED
204043728910873	INACTIVE_STOPPED
204043728910919	INACTIVE_STOPPED
204043728910920	INACTIVE_STOPPED
204043728910960	INACTIVE_STOPPED
204043728910962	INACTIVE_STOPPED
204043728910974	INACTIVE_STOPPED
204043728910985	INACTIVE_STOPPED
204043728910991	INACTIVE_STOPPED
204043728910995	INACTIVE_STOPPED
204043728911020	INACTIVE_STOPPED
204043728911026	INACTIVE_STOPPED
204043728911039	INACTIVE_STOPPED
204043728911088	INACTIVE_STOPPED
204043728911126	INACTIVE_STOPPED
204043728911140	INACTIVE_STOPPED
204043728911145	INACTIVE_STOPPED
204043728911148	INACTIVE_STOPPED
204043728911197	INACTIVE_STOPPED
204043728911198	INACTIVE_STOPPED
204043728911215	INACTIVE_STOPPED
204043728911242	INACTIVE_STOPPED
204043728911256	INACTIVE_STOPPED
204043728911279	INACTIVE_STOPPED
204043728911306	INACTIVE_STOPPED
204043728911311	INACTIVE_STOPPED
204043728911333	INACTIVE_STOPPED
204043728911342	INACTIVE_STOPPED
204043728911363	INACTIVE_STOPPED
204043728911372	INACTIVE_STOPPED
204043728911389	INACTIVE_STOPPED
204043728911397	INACTIVE_STOPPED
204043728911398	INACTIVE_STOPPED
204043728911435	INACTIVE_STOPPED
204043728911440	INACTIVE_STOPPED
204043728911444	INACTIVE_STOPPED
204043728911450	INACTIVE_STOPPED
204043728911464	INACTIVE_STOPPED
204043728911487	INACTIVE_STOPPED
204043728911488	INACTIVE_STOPPED
204043728911495	INACTIVE_STOPPED
204043728911499	INACTIVE_STOPPED
204043728911545	INACTIVE_STOPPED
204043728911616	INACTIVE_STOPPED
204043728911655	INACTIVE_STOPPED
204043728911661	INACTIVE_STOPPED
204043728911666	INACTIVE_STOPPED
204043728911684	INACTIVE_STOPPED
204043728911694	INACTIVE_STOPPED
204043728911700	INACTIVE_STOPPED
204043728911704	INACTIVE_STOPPED
204043728911748	INACTIVE_STOPPED
204043728911792	INACTIVE_STOPPED
204043728911800	INACTIVE_STOPPED
204043728911821	INACTIVE_STOPPED
204043728911822	INACTIVE_STOPPED
204043728911871	INACTIVE_STOPPED
204043728911918	INACTIVE_STOPPED
204043728911922	INACTIVE_STOPPED
204043728911950	INACTIVE_STOPPED
204043728911973	INACTIVE_STOPPED
204043728912004	INACTIVE_STOPPED
204043728912047	INACTIVE_STOPPED
204043728912056	INACTIVE_STOPPED
204043728912063	INACTIVE_STOPPED
204043728912126	INACTIVE_STOPPED
204043728912249	INACTIVE_STOPPED
204043728912255	INACTIVE_STOPPED
204043728912269	INACTIVE_STOPPED
204043728912328	INACTIVE_STOPPED
204043728912331	INACTIVE_STOPPED
204043728912352	INACTIVE_STOPPED
204043728912366	INACTIVE_STOPPED
204043728912377	INACTIVE_STOPPED
204043728912385	INACTIVE_STOPPED
204043728912408	INACTIVE_STOPPED
204043728912412	INACTIVE_STOPPED
204043728912415	INACTIVE_STOPPED
204043728912419	INACTIVE_STOPPED
204043728912420	INACTIVE_STOPPED
204043728912426	INACTIVE_STOPPED
204043728912437	INACTIVE_STOPPED
204043728912448	INACTIVE_STOPPED
204043728912487	INACTIVE_STOPPED
204043728912526	INACTIVE_STOPPED
204043728912533	INACTIVE_STOPPED
204043728912543	INACTIVE_STOPPED
204043728912562	INACTIVE_STOPPED
204043728912565	INACTIVE_STOPPED
204043728912578	INACTIVE_STOPPED
204043728912610	INACTIVE_STOPPED
204043728912635	INACTIVE_STOPPED
204043728912641	INACTIVE_STOPPED
204043728912645	INACTIVE_STOPPED
204043728912649	INACTIVE_STOPPED
204043728912670	INACTIVE_STOPPED
204043728912672	INACTIVE_STOPPED
204043728912736	INACTIVE_STOPPED
204043728912747	INACTIVE_STOPPED
204043728912752	INACTIVE_STOPPED
204043728912754	INACTIVE_STOPPED
204043728912788	INACTIVE_STOPPED
204043728912805	INACTIVE_STOPPED
204043728912821	INACTIVE_STOPPED
204043728912826	INACTIVE_STOPPED
204043728912834	INACTIVE_STOPPED
204043728912844	INACTIVE_STOPPED
204043728912849	INACTIVE_STOPPED
204043728912850	INACTIVE_STOPPED
204043728912872	INACTIVE_STOPPED
204043728912890	INACTIVE_STOPPED
204043728912905	INACTIVE_STOPPED
204043728912912	INACTIVE_STOPPED
204043728912918	INACTIVE_STOPPED
204043728912928	INACTIVE_STOPPED
204043728912964	INACTIVE_STOPPED
204043728912977	INACTIVE_STOPPED
204043728912990	INACTIVE_STOPPED
204043728912999	INACTIVE_STOPPED
204043728913011	INACTIVE_STOPPED
204043728913082	INACTIVE_STOPPED
204043728913150	INACTIVE_STOPPED
204043728913164	INACTIVE_STOPPED
204043728913168	INACTIVE_STOPPED
204043728913172	INACTIVE_STOPPED
204043728913217	INACTIVE_STOPPED
204043728913239	INACTIVE_STOPPED
204043728913300	INACTIVE_STOPPED
204043728913305	INACTIVE_STOPPED
204043728913317	INACTIVE_STOPPED
204043728913345	INACTIVE_STOPPED
204043728913358	INACTIVE_STOPPED
204043728913362	INACTIVE_STOPPED
204043728913376	INACTIVE_STOPPED
204043728913419	INACTIVE_STOPPED
204043728913441	INACTIVE_STOPPED
204043728913454	INACTIVE_STOPPED
204043728913475	INACTIVE_STOPPED
204043728913491	INACTIVE_STOPPED
204043728913604	INACTIVE_STOPPED
204043728913605	INACTIVE_STOPPED
204043728913622	INACTIVE_STOPPED
204043728913631	INACTIVE_STOPPED
204043728913635	INACTIVE_STOPPED
204043728913636	INACTIVE_STOPPED
204043728913643	INACTIVE_STOPPED
204043728913657	INACTIVE_STOPPED
204043728913702	INACTIVE_STOPPED
204043728913703	INACTIVE_STOPPED
204043728913713	INACTIVE_STOPPED
204043728913732	INACTIVE_STOPPED
204043728913761	INACTIVE_STOPPED
204043728913764	INACTIVE_STOPPED
204043728913822	INACTIVE_STOPPED
204043728913826	INACTIVE_STOPPED
204043728913879	INACTIVE_STOPPED
204043728913902	INACTIVE_STOPPED
204043728913917	INACTIVE_STOPPED
204043728913971	INACTIVE_STOPPED
204043728913994	INACTIVE_STOPPED
204043728914002	INACTIVE_STOPPED
204043728914017	INACTIVE_STOPPED
204043728914026	INACTIVE_STOPPED
204043728914055	INACTIVE_STOPPED
204043728914074	INACTIVE_STOPPED
204043728914085	INACTIVE_STOPPED
204043728914093	INACTIVE_STOPPED
204043728914110	INACTIVE_STOPPED
204043728914134	INACTIVE_STOPPED
204043728914144	INACTIVE_STOPPED
204043728914146	INACTIVE_STOPPED
204043728914166	INACTIVE_STOPPED
204043728914169	INACTIVE_STOPPED
204043728914177	INACTIVE_STOPPED
204043728914185	INACTIVE_STOPPED
204043728914204	INACTIVE_STOPPED
204043728914231	INACTIVE_STOPPED
204043728914238	INACTIVE_STOPPED
204043728914253	INACTIVE_STOPPED
204043728914259	INACTIVE_STOPPED
204043728914274	INACTIVE_STOPPED
204043728914276	INACTIVE_STOPPED
204043728914337	INACTIVE_STOPPED
204043728914357	INACTIVE_STOPPED
204043728914361	INACTIVE_STOPPED
204043728914378	INACTIVE_STOPPED
204043728914428	INACTIVE_STOPPED
204043728914429	INACTIVE_STOPPED
204043728914455	INACTIVE_STOPPED
204043728914500	INACTIVE_STOPPED
204043728914517	INACTIVE_STOPPED
204043728914524	INACTIVE_STOPPED
204043728914565	INACTIVE_STOPPED
204043728914570	INACTIVE_STOPPED
204043728914576	INACTIVE_STOPPED
204043728914581	INACTIVE_STOPPED
204043728914597	INACTIVE_STOPPED
204043728914628	INACTIVE_STOPPED
204043728914630	INACTIVE_STOPPED
204043728914679	INACTIVE_STOPPED
204043728914685	INACTIVE_STOPPED
204043728914717	INACTIVE_STOPPED
204043728914750	INACTIVE_STOPPED
204043728914762	INACTIVE_STOPPED
204043728914771	INACTIVE_STOPPED
204043728914772	INACTIVE_STOPPED
204043728914775	INACTIVE_STOPPED
204043728914804	INACTIVE_STOPPED
204043728914834	INACTIVE_STOPPED
204043728914852	INACTIVE_STOPPED
204043728914951	INACTIVE_STOPPED
204043728914958	INACTIVE_STOPPED
204043728914997	INACTIVE_STOPPED
204043728915001	INACTIVE_STOPPED
204043728915047	INACTIVE_STOPPED
204043728915087	INACTIVE_STOPPED
204043728915095	INACTIVE_STOPPED
204043728915100	INACTIVE_STOPPED
204043728915107	INACTIVE_STOPPED
204043728915110	INACTIVE_STOPPED
204043728915176	INACTIVE_STOPPED
204043728915185	INACTIVE_STOPPED
204043728915194	INACTIVE_STOPPED
204043728915206	INACTIVE_STOPPED
204043728915207	INACTIVE_STOPPED
204043728915220	INACTIVE_STOPPED
204043728915258	INACTIVE_STOPPED
204043728915266	INACTIVE_STOPPED
204043728915293	INACTIVE_STOPPED
204043728915302	INACTIVE_STOPPED
204043728915330	INACTIVE_STOPPED
204043728915339	INACTIVE_STOPPED
204043728915359	INACTIVE_STOPPED
204043728915388	INACTIVE_STOPPED
204043728915392	INACTIVE_STOPPED
204043728915408	INACTIVE_STOPPED
204043728915460	INACTIVE_STOPPED
204043728915461	INACTIVE_STOPPED
204043728915480	INACTIVE_STOPPED
204043728915484	INACTIVE_STOPPED
204043728915485	INACTIVE_STOPPED
204043728915493	INACTIVE_STOPPED
204043728915496	INACTIVE_STOPPED
204043728915515	INACTIVE_STOPPED
204043728915519	INACTIVE_STOPPED
204043728915525	INACTIVE_STOPPED
204043728915555	INACTIVE_STOPPED
204043728915566	INACTIVE_STOPPED
204043728915606	INACTIVE_STOPPED
204043728915637	INACTIVE_STOPPED
204043728915650	INACTIVE_STOPPED
204043728915714	INACTIVE_STOPPED
204043728915868	INACTIVE_STOPPED
204043728915880	INACTIVE_STOPPED
204043728915911	INACTIVE_STOPPED
204043728915925	INACTIVE_STOPPED
204043728915950	INACTIVE_STOPPED
204043728916002	INACTIVE_STOPPED
204043728916021	INACTIVE_STOPPED
204043728916028	INACTIVE_STOPPED
204043728916051	INACTIVE_STOPPED
204043728916069	INACTIVE_STOPPED
204043728916083	INACTIVE_STOPPED
204043728916093	INACTIVE_STOPPED
204043728916106	INACTIVE_STOPPED
204043728916151	INACTIVE_STOPPED
204043728916153	INACTIVE_STOPPED
204043728916228	INACTIVE_STOPPED
204043728916251	INACTIVE_STOPPED
204043728916431	INACTIVE_STOPPED
204043728916486	INACTIVE_STOPPED
204043728916509	INACTIVE_STOPPED
204043728916523	INACTIVE_STOPPED
204043728916554	INACTIVE_STOPPED
204043728916572	INACTIVE_STOPPED
204043728916629	INACTIVE_STOPPED
204043728916657	INACTIVE_STOPPED
204043728916674	INACTIVE_STOPPED
204043728916676	INACTIVE_STOPPED
204043728916696	INACTIVE_STOPPED
204043728916698	INACTIVE_STOPPED
204043728916704	INACTIVE_STOPPED
204043728916705	INACTIVE_STOPPED
204043728916771	INACTIVE_STOPPED
204043728916804	INACTIVE_STOPPED
204043728916845	INACTIVE_STOPPED
204043728916867	INACTIVE_STOPPED
204043728916903	INACTIVE_STOPPED
204043728916907	INACTIVE_STOPPED
204043728916942	INACTIVE_STOPPED
204043728916952	INACTIVE_STOPPED
204043728916985	INACTIVE_STOPPED
204043728917018	INACTIVE_STOPPED
204043728917054	INACTIVE_STOPPED
204043728917063	INACTIVE_STOPPED
204043728917070	INACTIVE_STOPPED
204043728917105	INACTIVE_STOPPED
204043728917132	INACTIVE_STOPPED
204043728917166	INACTIVE_STOPPED
204043728917250	INACTIVE_STOPPED
204043728917255	INACTIVE_STOPPED
204043728917257	INACTIVE_STOPPED
204043728917270	INACTIVE_STOPPED
204043728917315	INACTIVE_STOPPED
204043728917342	INACTIVE_STOPPED
204043728917351	INACTIVE_STOPPED
204043728917357	INACTIVE_STOPPED
204043728917366	INACTIVE_STOPPED
204043728917367	INACTIVE_STOPPED
204043728917368	INACTIVE_STOPPED
204043728917377	INACTIVE_STOPPED
204043728917416	INACTIVE_STOPPED
204043728917419	INACTIVE_STOPPED
204043728917423	INACTIVE_STOPPED
204043728917441	INACTIVE_STOPPED
204043728917453	INACTIVE_STOPPED
204043728917454	INACTIVE_STOPPED
204043728917462	INACTIVE_STOPPED
204043728917474	INACTIVE_STOPPED
204043728917492	INACTIVE_STOPPED
204043728917493	INACTIVE_STOPPED
204043728917521	INACTIVE_STOPPED
204043728917525	INACTIVE_STOPPED
204043728917593	INACTIVE_STOPPED
204043728917598	INACTIVE_STOPPED
204043728917605	INACTIVE_STOPPED
204043728917635	INACTIVE_STOPPED
204043728917639	INACTIVE_STOPPED
204043728917677	INACTIVE_STOPPED
204043728917691	INACTIVE_STOPPED
204043728917709	INACTIVE_STOPPED
204043728917749	INACTIVE_STOPPED
204043728917779	INACTIVE_STOPPED
204043728917883	INACTIVE_STOPPED
204043728917886	INACTIVE_STOPPED
204043728917902	INACTIVE_STOPPED
204043728917957	INACTIVE_STOPPED
204043728918001	INACTIVE_STOPPED
204043728918006	INACTIVE_STOPPED
204043728918069	INACTIVE_STOPPED
204043728918086	INACTIVE_STOPPED
204043728918087	INACTIVE_STOPPED
204043728918112	INACTIVE_STOPPED
204043728918118	INACTIVE_STOPPED
204043728918135	INACTIVE_STOPPED
204043728918177	INACTIVE_STOPPED
204043728918207	INACTIVE_STOPPED
204043728918211	INACTIVE_STOPPED
204043728918226	INACTIVE_STOPPED
204043728918251	INACTIVE_STOPPED
204043728918252	INACTIVE_STOPPED
204043728918253	INACTIVE_STOPPED
204043728918258	INACTIVE_STOPPED
204043728918311	INACTIVE_STOPPED
204043728918337	INACTIVE_STOPPED
204043728918359	INACTIVE_STOPPED
204043728918380	INACTIVE_STOPPED
204043728918386	INACTIVE_STOPPED
204043728918405	INACTIVE_STOPPED
204043728918414	INACTIVE_STOPPED
204043728918448	INACTIVE_STOPPED
204043728918455	INACTIVE_STOPPED
204043728918464	INACTIVE_STOPPED
END	500
