FORMAT01	Change Device State	CHANGE_STATE
IMSI	STATE
204043254319861	INACTIVE_STOPPED
204043254319874	INACTIVE_STOPPED
204043254319875	INACTIVE_STOPPED
204043254319877	INACTIVE_STOPPED
204043254319894	INACTIVE_STOPPED
204043254319904	INACTIVE_STOPPED
204043254319910	INACTIVE_STOPPED
204043254319973	INACTIVE_STOPPED
204043254319978	INACTIVE_STOPPED
204043254319991	INACTIVE_STOPPED
204043254320007	INACTIVE_STOPPED
204043254320027	INACTIVE_STOPPED
204043254320067	INACTIVE_STOPPED
204043254320088	INACTIVE_STOPPED
204043254320095	INACTIVE_STOPPED
204043254320097	INACTIVE_STOPPED
204043254320102	INACTIVE_STOPPED
204043254320105	INACTIVE_STOPPED
204043254320120	INACTIVE_STOPPED
204043254320123	INACTIVE_STOPPED
204043254320136	INACTIVE_STOPPED
204043254320145	INACTIVE_STOPPED
204043254320147	INACTIVE_STOPPED
204043254320154	INACTIVE_STOPPED
204043254320155	INACTIVE_STOPPED
204043254320179	INACTIVE_STOPPED
204043254320200	INACTIVE_STOPPED
204043254320210	INACTIVE_STOPPED
204043254320214	INACTIVE_STOPPED
204043254320241	INACTIVE_STOPPED
204043254320245	INACTIVE_STOPPED
204043254320246	INACTIVE_STOPPED
204043254320247	INACTIVE_STOPPED
204043254320257	INACTIVE_STOPPED
204043254320282	INACTIVE_STOPPED
204043254320286	INACTIVE_STOPPED
204043254320296	INACTIVE_STOPPED
204043254320322	INACTIVE_STOPPED
204043254320329	INACTIVE_STOPPED
204043254320338	INACTIVE_STOPPED
204043254320372	INACTIVE_STOPPED
204043254320393	INACTIVE_STOPPED
204043254320418	INACTIVE_STOPPED
204043254320436	INACTIVE_STOPPED
204043254320443	INACTIVE_STOPPED
204043254320454	INACTIVE_STOPPED
204043254320469	INACTIVE_STOPPED
204043254320479	INACTIVE_STOPPED
204043254320484	INACTIVE_STOPPED
204043254320487	INACTIVE_STOPPED
204043254320490	INACTIVE_STOPPED
204043254320504	INACTIVE_STOPPED
204043254320510	INACTIVE_STOPPED
204043254320550	INACTIVE_STOPPED
204043254320552	INACTIVE_STOPPED
204043254320554	INACTIVE_STOPPED
204043254320563	INACTIVE_STOPPED
204043254320574	INACTIVE_STOPPED
204043254320602	INACTIVE_STOPPED
204043254320606	INACTIVE_STOPPED
204043254320617	INACTIVE_STOPPED
204043254320627	INACTIVE_STOPPED
204043254320631	INACTIVE_STOPPED
204043254320655	INACTIVE_STOPPED
204043254320673	INACTIVE_STOPPED
204043254320684	INACTIVE_STOPPED
204043254320690	INACTIVE_STOPPED
204043254320704	INACTIVE_STOPPED
204043254320710	INACTIVE_STOPPED
204043254320717	INACTIVE_STOPPED
204043254320723	INACTIVE_STOPPED
204043254320724	INACTIVE_STOPPED
204043254320726	INACTIVE_STOPPED
204043254320739	INACTIVE_STOPPED
204043254320740	INACTIVE_STOPPED
204043254320749	INACTIVE_STOPPED
204043254320753	INACTIVE_STOPPED
204043254320754	INACTIVE_STOPPED
204043254320776	INACTIVE_STOPPED
204043254320779	INACTIVE_STOPPED
204043254320789	INACTIVE_STOPPED
204043254320811	INACTIVE_STOPPED
204043254320820	INACTIVE_STOPPED
204043254320822	INACTIVE_STOPPED
204043254320826	INACTIVE_STOPPED
204043254320830	INACTIVE_STOPPED
204043254320847	INACTIVE_STOPPED
204043254320863	INACTIVE_STOPPED
204043254320868	INACTIVE_STOPPED
204043254320881	INACTIVE_STOPPED
204043254320884	INACTIVE_STOPPED
204043254320901	INACTIVE_STOPPED
204043254320918	INACTIVE_STOPPED
204043254320920	INACTIVE_STOPPED
204043254320922	INACTIVE_STOPPED
204043254320929	INACTIVE_STOPPED
204043254320963	INACTIVE_STOPPED
204043254320965	INACTIVE_STOPPED
204043254320967	INACTIVE_STOPPED
204043254320972	INACTIVE_STOPPED
204043254321003	INACTIVE_STOPPED
204043254321018	INACTIVE_STOPPED
204043254321037	INACTIVE_STOPPED
204043254321063	INACTIVE_STOPPED
204043254321073	INACTIVE_STOPPED
204043254321095	INACTIVE_STOPPED
204043254321108	INACTIVE_STOPPED
204043254321118	INACTIVE_STOPPED
204043254321120	INACTIVE_STOPPED
204043254321123	INACTIVE_STOPPED
204043254321127	INACTIVE_STOPPED
204043254321139	INACTIVE_STOPPED
204043254321190	INACTIVE_STOPPED
204043254321201	INACTIVE_STOPPED
204043254321205	INACTIVE_STOPPED
204043254321210	INACTIVE_STOPPED
204043254321211	INACTIVE_STOPPED
204043254321222	INACTIVE_STOPPED
204043254321240	INACTIVE_STOPPED
204043254321255	INACTIVE_STOPPED
204043254321258	INACTIVE_STOPPED
204043254321263	INACTIVE_STOPPED
204043254321264	INACTIVE_STOPPED
204043254321282	INACTIVE_STOPPED
204043254321290	INACTIVE_STOPPED
204043254321300	INACTIVE_STOPPED
204043254321302	INACTIVE_STOPPED
204043254321315	INACTIVE_STOPPED
204043254321321	INACTIVE_STOPPED
204043254321340	INACTIVE_STOPPED
204043254321341	INACTIVE_STOPPED
204043254321345	INACTIVE_STOPPED
204043254321373	INACTIVE_STOPPED
204043254321392	INACTIVE_STOPPED
204043254321397	INACTIVE_STOPPED
204043254321401	INACTIVE_STOPPED
204043254321416	INACTIVE_STOPPED
204043254321426	INACTIVE_STOPPED
204043254321448	INACTIVE_STOPPED
204043254321463	INACTIVE_STOPPED
204043254321466	INACTIVE_STOPPED
204043254321494	INACTIVE_STOPPED
204043254321503	INACTIVE_STOPPED
204043254321507	INACTIVE_STOPPED
204043254321512	INACTIVE_STOPPED
204043254321522	INACTIVE_STOPPED
204043254321523	INACTIVE_STOPPED
204043254321529	INACTIVE_STOPPED
204043254321551	INACTIVE_STOPPED
204043254321567	INACTIVE_STOPPED
204043254321570	INACTIVE_STOPPED
204043254321573	INACTIVE_STOPPED
204043254321584	INACTIVE_STOPPED
204043254321609	INACTIVE_STOPPED
204043254321617	INACTIVE_STOPPED
204043254321618	INACTIVE_STOPPED
204043254321626	INACTIVE_STOPPED
204043254321627	INACTIVE_STOPPED
204043254321655	INACTIVE_STOPPED
204043254321658	INACTIVE_STOPPED
204043254321660	INACTIVE_STOPPED
204043254321661	INACTIVE_STOPPED
204043254321666	INACTIVE_STOPPED
204043254321670	INACTIVE_STOPPED
204043254321684	INACTIVE_STOPPED
204043254321697	INACTIVE_STOPPED
204043254321703	INACTIVE_STOPPED
204043254321705	INACTIVE_STOPPED
204043254321708	INACTIVE_STOPPED
204043254321715	INACTIVE_STOPPED
204043254321718	INACTIVE_STOPPED
204043254321764	INACTIVE_STOPPED
204043254321775	INACTIVE_STOPPED
204043254321776	INACTIVE_STOPPED
204043254321798	INACTIVE_STOPPED
204043254321803	INACTIVE_STOPPED
204043254321819	INACTIVE_STOPPED
204043254321820	INACTIVE_STOPPED
204043254321842	INACTIVE_STOPPED
204043254321847	INACTIVE_STOPPED
204043254321858	INACTIVE_STOPPED
204043254321861	INACTIVE_STOPPED
204043254321880	INACTIVE_STOPPED
204043254321896	INACTIVE_STOPPED
204043254321900	INACTIVE_STOPPED
204043254321911	INACTIVE_STOPPED
204043254321919	INACTIVE_STOPPED
204043254321927	INACTIVE_STOPPED
204043254321955	INACTIVE_STOPPED
204043254321991	INACTIVE_STOPPED
204043726660298	INACTIVE_STOPPED
204043726660712	INACTIVE_STOPPED
204043726660926	INACTIVE_STOPPED
204043726660941	INACTIVE_STOPPED
204043726664052	INACTIVE_STOPPED
204043726664105	INACTIVE_STOPPED
204043726664129	INACTIVE_STOPPED
204043726664146	INACTIVE_STOPPED
204043726664194	INACTIVE_STOPPED
204043726664198	INACTIVE_STOPPED
204043726664239	INACTIVE_STOPPED
204043726664245	INACTIVE_STOPPED
204043726664266	INACTIVE_STOPPED
204043726664267	INACTIVE_STOPPED
204043726664269	INACTIVE_STOPPED
204043726664292	INACTIVE_STOPPED
204043726664301	INACTIVE_STOPPED
204043726664309	INACTIVE_STOPPED
204043726664378	INACTIVE_STOPPED
204043726664391	INACTIVE_STOPPED
204043726664419	INACTIVE_STOPPED
204043726664439	INACTIVE_STOPPED
204043726664450	INACTIVE_STOPPED
204043726664496	INACTIVE_STOPPED
204043726665781	INACTIVE_STOPPED
204043726666043	INACTIVE_STOPPED
204043726666103	INACTIVE_STOPPED
204043726666313	INACTIVE_STOPPED
204043726666330	INACTIVE_STOPPED
204043726666332	INACTIVE_STOPPED
204043726666353	INACTIVE_STOPPED
204043726666354	INACTIVE_STOPPED
204043726666381	INACTIVE_STOPPED
204043726666535	INACTIVE_STOPPED
204043726666541	INACTIVE_STOPPED
204043726666548	INACTIVE_STOPPED
204043726666552	INACTIVE_STOPPED
204043726666562	INACTIVE_STOPPED
204043726666575	INACTIVE_STOPPED
204043726666579	INACTIVE_STOPPED
204043726666595	INACTIVE_STOPPED
204043726666618	INACTIVE_STOPPED
204043726666624	INACTIVE_STOPPED
204043726666676	INACTIVE_STOPPED
204043726666742	INACTIVE_STOPPED
204043726666761	INACTIVE_STOPPED
204043726666769	INACTIVE_STOPPED
204043726666834	INACTIVE_STOPPED
204043726666836	INACTIVE_STOPPED
204043726666837	INACTIVE_STOPPED
204043726666856	INACTIVE_STOPPED
204043726666908	INACTIVE_STOPPED
204043726666933	INACTIVE_STOPPED
204043726666992	INACTIVE_STOPPED
204043726667007	INACTIVE_STOPPED
204043726667020	INACTIVE_STOPPED
204043726667067	INACTIVE_STOPPED
204043726667078	INACTIVE_STOPPED
204043726667102	INACTIVE_STOPPED
204043726667104	INACTIVE_STOPPED
204043726667164	INACTIVE_STOPPED
204043726667178	INACTIVE_STOPPED
204043726667181	INACTIVE_STOPPED
204043726667184	INACTIVE_STOPPED
204043726667213	INACTIVE_STOPPED
204043726667228	INACTIVE_STOPPED
204043726667248	INACTIVE_STOPPED
204043726667293	INACTIVE_STOPPED
204043726667308	INACTIVE_STOPPED
204043726667330	INACTIVE_STOPPED
204043726667336	INACTIVE_STOPPED
204043726667384	INACTIVE_STOPPED
204043726667399	INACTIVE_STOPPED
204043726667405	INACTIVE_STOPPED
204043726667408	INACTIVE_STOPPED
204043726667410	INACTIVE_STOPPED
204043726667411	INACTIVE_STOPPED
204043726667417	INACTIVE_STOPPED
204043726667440	INACTIVE_STOPPED
204043726667507	INACTIVE_STOPPED
204043726667534	INACTIVE_STOPPED
204043726667552	INACTIVE_STOPPED
204043726667561	INACTIVE_STOPPED
204043726667600	INACTIVE_STOPPED
204043726667611	INACTIVE_STOPPED
204043726667623	INACTIVE_STOPPED
204043726667665	INACTIVE_STOPPED
204043726667704	INACTIVE_STOPPED
204043726667716	INACTIVE_STOPPED
204043726667760	INACTIVE_STOPPED
204043726667793	INACTIVE_STOPPED
204043726667862	INACTIVE_STOPPED
204043726667869	INACTIVE_STOPPED
204043726667887	INACTIVE_STOPPED
204043726667951	INACTIVE_STOPPED
204043726667959	INACTIVE_STOPPED
204043726668099	INACTIVE_STOPPED
204043726668122	INACTIVE_STOPPED
204043726668136	INACTIVE_STOPPED
204043726668153	INACTIVE_STOPPED
204043726668211	INACTIVE_STOPPED
204043726668215	INACTIVE_STOPPED
204043726668236	INACTIVE_STOPPED
204043726668280	INACTIVE_STOPPED
204043726668281	INACTIVE_STOPPED
204043726668288	INACTIVE_STOPPED
204043726668346	INACTIVE_STOPPED
204043726668362	INACTIVE_STOPPED
204043726668380	INACTIVE_STOPPED
204043726668396	INACTIVE_STOPPED
204043726668398	INACTIVE_STOPPED
204043726668419	INACTIVE_STOPPED
204043726668440	INACTIVE_STOPPED
204043726668463	INACTIVE_STOPPED
204043726668478	INACTIVE_STOPPED
204043726668486	INACTIVE_STOPPED
204043726668511	INACTIVE_STOPPED
204043726668515	INACTIVE_STOPPED
204043726668527	INACTIVE_STOPPED
204043726668581	INACTIVE_STOPPED
204043726668584	INACTIVE_STOPPED
204043726668610	INACTIVE_STOPPED
204043726668645	INACTIVE_STOPPED
204043726668654	INACTIVE_STOPPED
204043726668730	INACTIVE_STOPPED
204043726668743	INACTIVE_STOPPED
204043726668762	INACTIVE_STOPPED
204043726668800	INACTIVE_STOPPED
204043726668808	INACTIVE_STOPPED
204043726668847	INACTIVE_STOPPED
204043726668855	INACTIVE_STOPPED
204043726668874	INACTIVE_STOPPED
204043726668901	INACTIVE_STOPPED
204043726668915	INACTIVE_STOPPED
204043726668937	INACTIVE_STOPPED
204043726668966	INACTIVE_STOPPED
204043726668975	INACTIVE_STOPPED
204043726669009	INACTIVE_STOPPED
204043726669045	INACTIVE_STOPPED
204043726669078	INACTIVE_STOPPED
204043726669110	INACTIVE_STOPPED
204043726669134	INACTIVE_STOPPED
204043726669145	INACTIVE_STOPPED
204043726669185	INACTIVE_STOPPED
204043726669186	INACTIVE_STOPPED
204043726669196	INACTIVE_STOPPED
204043726669211	INACTIVE_STOPPED
204043726669214	INACTIVE_STOPPED
204043726669224	INACTIVE_STOPPED
204043726669240	INACTIVE_STOPPED
204043726669291	INACTIVE_STOPPED
204043726669296	INACTIVE_STOPPED
204043726669319	INACTIVE_STOPPED
204043726669329	INACTIVE_STOPPED
204043726669343	INACTIVE_STOPPED
204043726669377	INACTIVE_STOPPED
204043726669391	INACTIVE_STOPPED
204043726669466	INACTIVE_STOPPED
204043726669477	INACTIVE_STOPPED
204043726669500	INACTIVE_STOPPED
204043726669540	INACTIVE_STOPPED
204043726669543	INACTIVE_STOPPED
204043726669546	INACTIVE_STOPPED
204043726669553	INACTIVE_STOPPED
204043726669582	INACTIVE_STOPPED
204043726669585	INACTIVE_STOPPED
204043726669612	INACTIVE_STOPPED
204043726669627	INACTIVE_STOPPED
204043726669681	INACTIVE_STOPPED
204043726669683	INACTIVE_STOPPED
204043726669688	INACTIVE_STOPPED
204043726669711	INACTIVE_STOPPED
204043726669741	INACTIVE_STOPPED
204043726669749	INACTIVE_STOPPED
204043726669772	INACTIVE_STOPPED
204043726669800	INACTIVE_STOPPED
204043726669836	INACTIVE_STOPPED
204043726669864	INACTIVE_STOPPED
204043726669871	INACTIVE_STOPPED
204043726669951	INACTIVE_STOPPED
204043726669954	INACTIVE_STOPPED
204043726669973	INACTIVE_STOPPED
204043726669980	INACTIVE_STOPPED
204043726669993	INACTIVE_STOPPED
204043726670013	INACTIVE_STOPPED
204043726670025	INACTIVE_STOPPED
204043726670034	INACTIVE_STOPPED
204043726670057	INACTIVE_STOPPED
204043726670165	INACTIVE_STOPPED
204043726670193	INACTIVE_STOPPED
204043726670222	INACTIVE_STOPPED
204043726670228	INACTIVE_STOPPED
204043726670254	INACTIVE_STOPPED
204043726670302	INACTIVE_STOPPED
204043726670307	INACTIVE_STOPPED
204043726670315	INACTIVE_STOPPED
204043726670330	INACTIVE_STOPPED
204043726670351	INACTIVE_STOPPED
204043726670404	INACTIVE_STOPPED
204043726670418	INACTIVE_STOPPED
204043726670452	INACTIVE_STOPPED
204043726670455	INACTIVE_STOPPED
204043726670486	INACTIVE_STOPPED
204043726670494	INACTIVE_STOPPED
204043726670530	INACTIVE_STOPPED
204043726670535	INACTIVE_STOPPED
204043726670539	INACTIVE_STOPPED
204043726670550	INACTIVE_STOPPED
204043726670561	INACTIVE_STOPPED
204043726670574	INACTIVE_STOPPED
204043726670643	INACTIVE_STOPPED
204043726670648	INACTIVE_STOPPED
204043726670657	INACTIVE_STOPPED
204043726670665	INACTIVE_STOPPED
204043726670667	INACTIVE_STOPPED
204043726670712	INACTIVE_STOPPED
204043726670748	INACTIVE_STOPPED
204043726670773	INACTIVE_STOPPED
204043726670785	INACTIVE_STOPPED
204043726670816	INACTIVE_STOPPED
204043726670832	INACTIVE_STOPPED
204043726670854	INACTIVE_STOPPED
204043726670855	INACTIVE_STOPPED
204043726670867	INACTIVE_STOPPED
204043726670886	INACTIVE_STOPPED
204043726670911	INACTIVE_STOPPED
204043726670940	INACTIVE_STOPPED
204043726670978	INACTIVE_STOPPED
204043726670982	INACTIVE_STOPPED
204043726670986	INACTIVE_STOPPED
204043726673011	INACTIVE_STOPPED
204043726673051	INACTIVE_STOPPED
204043726673136	INACTIVE_STOPPED
204043726673149	INACTIVE_STOPPED
204043726673151	INACTIVE_STOPPED
204043726673163	INACTIVE_STOPPED
204043726673185	INACTIVE_STOPPED
204043726673187	INACTIVE_STOPPED
204043726673197	INACTIVE_STOPPED
204043726673222	INACTIVE_STOPPED
204043726673274	INACTIVE_STOPPED
204043726673282	INACTIVE_STOPPED
204043726673295	INACTIVE_STOPPED
204043726673299	INACTIVE_STOPPED
204043726673304	INACTIVE_STOPPED
204043726673336	INACTIVE_STOPPED
204043726673362	INACTIVE_STOPPED
204043726673380	INACTIVE_STOPPED
204043726673382	INACTIVE_STOPPED
204043726673442	INACTIVE_STOPPED
204043726673458	INACTIVE_STOPPED
204043726673492	INACTIVE_STOPPED
204043726673544	INACTIVE_STOPPED
204043726673565	INACTIVE_STOPPED
204043726673570	INACTIVE_STOPPED
204043726673571	INACTIVE_STOPPED
204043726673579	INACTIVE_STOPPED
204043726673582	INACTIVE_STOPPED
204043726673587	INACTIVE_STOPPED
204043726673595	INACTIVE_STOPPED
204043726673632	INACTIVE_STOPPED
204043726673652	INACTIVE_STOPPED
204043726673689	INACTIVE_STOPPED
204043726673690	INACTIVE_STOPPED
204043726673734	INACTIVE_STOPPED
204043726673735	INACTIVE_STOPPED
204043726673773	INACTIVE_STOPPED
204043726673795	INACTIVE_STOPPED
204043726673809	INACTIVE_STOPPED
204043726673831	INACTIVE_STOPPED
204043726673846	INACTIVE_STOPPED
204043726673850	INACTIVE_STOPPED
204043726673904	INACTIVE_STOPPED
204043726673934	INACTIVE_STOPPED
204043726673963	INACTIVE_STOPPED
204043726673969	INACTIVE_STOPPED
204043726674002	INACTIVE_STOPPED
204043726674007	INACTIVE_STOPPED
204043726674032	INACTIVE_STOPPED
204043726674061	INACTIVE_STOPPED
204043726674063	INACTIVE_STOPPED
204043726674167	INACTIVE_STOPPED
204043726674189	INACTIVE_STOPPED
204043726674201	INACTIVE_STOPPED
204043726674220	INACTIVE_STOPPED
204043726674225	INACTIVE_STOPPED
204043726674238	INACTIVE_STOPPED
204043726674248	INACTIVE_STOPPED
204043726674250	INACTIVE_STOPPED
204043726674290	INACTIVE_STOPPED
204043726674296	INACTIVE_STOPPED
204043726674313	INACTIVE_STOPPED
204043726674323	INACTIVE_STOPPED
204043726674347	INACTIVE_STOPPED
204043726674353	INACTIVE_STOPPED
204043726674355	INACTIVE_STOPPED
204043726674385	INACTIVE_STOPPED
204043726674398	INACTIVE_STOPPED
204043726674411	INACTIVE_STOPPED
204043726674414	INACTIVE_STOPPED
204043726674452	INACTIVE_STOPPED
204043726674464	INACTIVE_STOPPED
204043726674466	INACTIVE_STOPPED
204043726674517	INACTIVE_STOPPED
204043726674533	INACTIVE_STOPPED
204043726674575	INACTIVE_STOPPED
204043726674601	INACTIVE_STOPPED
204043726674616	INACTIVE_STOPPED
204043726674644	INACTIVE_STOPPED
204043726674667	INACTIVE_STOPPED
END	500
