FORMAT01	Change Device State	CHANGE_STATE
IMSI	STATE
204043728917957	INACTIVE_STOPPED
204043728918001	INACTIVE_STOPPED
204043728918006	INACTIVE_STOPPED
204043728918069	INACTIVE_STOPPED
204043728918086	INACTIVE_STOPPED
204043728918087	INACTIVE_STOPPED
204043728918112	INACTIVE_STOPPED
204043728918118	INACTIVE_STOPPED
204043728918135	INACTIVE_STOPPED
204043728918177	INACTIVE_STOPPED
204043728918207	INACTIVE_STOPPED
204043728918211	INACTIVE_STOPPED
204043728918226	INACTIVE_STOPPED
204043728918251	INACTIVE_STOPPED
204043728918252	INACTIVE_STOPPED
204043728918253	INACTIVE_STOPPED
204043728918258	INACTIVE_STOPPED
204043728918311	INACTIVE_STOPPED
204043728918337	INACTIVE_STOPPED
204043728918359	INACTIVE_STOPPED
204043728918380	INACTIVE_STOPPED
204043728918386	INACTIVE_STOPPED
204043728918405	INACTIVE_STOPPED
204043728918414	INACTIVE_STOPPED
204043728918448	INACTIVE_STOPPED
204043728918455	INACTIVE_STOPPED
204043728918464	INACTIVE_STOPPED
204043728918477	INACTIVE_STOPPED
204043728918499	INACTIVE_STOPPED
204043728918510	INACTIVE_STOPPED
204043728918514	INACTIVE_STOPPED
204043728918518	INACTIVE_STOPPED
204043728918519	INACTIVE_STOPPED
204043728918531	INACTIVE_STOPPED
204043728918532	INACTIVE_STOPPED
204043728918566	INACTIVE_STOPPED
204043728918576	INACTIVE_STOPPED
204043728918604	INACTIVE_STOPPED
204043728918625	INACTIVE_STOPPED
204043728918644	INACTIVE_STOPPED
204043728918668	INACTIVE_STOPPED
204043728918734	INACTIVE_STOPPED
204043728918742	INACTIVE_STOPPED
204043728918796	INACTIVE_STOPPED
204043728918809	INACTIVE_STOPPED
204043728918826	INACTIVE_STOPPED
204043728918853	INACTIVE_STOPPED
204043728918860	INACTIVE_STOPPED
204043728918863	INACTIVE_STOPPED
204043728918869	INACTIVE_STOPPED
204043728918879	INACTIVE_STOPPED
204043728918921	INACTIVE_STOPPED
204043728918938	INACTIVE_STOPPED
204043728918959	INACTIVE_STOPPED
204043728918980	INACTIVE_STOPPED
204043728918982	INACTIVE_STOPPED
204043728919022	INACTIVE_STOPPED
204043728919030	INACTIVE_STOPPED
204043728919040	INACTIVE_STOPPED
204043728919074	INACTIVE_STOPPED
204043728919076	INACTIVE_STOPPED
204043728919081	INACTIVE_STOPPED
204043728919087	INACTIVE_STOPPED
204043728919096	INACTIVE_STOPPED
204043728919112	INACTIVE_STOPPED
204043728919113	INACTIVE_STOPPED
204043728919117	INACTIVE_STOPPED
204043728919138	INACTIVE_STOPPED
204043728919152	INACTIVE_STOPPED
204043728919168	INACTIVE_STOPPED
204043728919209	INACTIVE_STOPPED
204043728919248	INACTIVE_STOPPED
204043728919272	INACTIVE_STOPPED
204043728919294	INACTIVE_STOPPED
204043728919296	INACTIVE_STOPPED
204043728919302	INACTIVE_STOPPED
204043728919304	INACTIVE_STOPPED
204043728919315	INACTIVE_STOPPED
204043728919341	INACTIVE_STOPPED
204043728919345	INACTIVE_STOPPED
204043728919349	INACTIVE_STOPPED
204043728919369	INACTIVE_STOPPED
204043728919378	INACTIVE_STOPPED
204043728919379	INACTIVE_STOPPED
204043728919405	INACTIVE_STOPPED
204043728919431	INACTIVE_STOPPED
204043728919456	INACTIVE_STOPPED
204043728919477	INACTIVE_STOPPED
204043728919480	INACTIVE_STOPPED
204043728919513	INACTIVE_STOPPED
204043728919539	INACTIVE_STOPPED
204043728919622	INACTIVE_STOPPED
204043728919629	INACTIVE_STOPPED
204043728919647	INACTIVE_STOPPED
204043728919650	INACTIVE_STOPPED
204043728919665	INACTIVE_STOPPED
204043728919672	INACTIVE_STOPPED
204043728919709	INACTIVE_STOPPED
204043728919710	INACTIVE_STOPPED
204043728919724	INACTIVE_STOPPED
204043728919726	INACTIVE_STOPPED
204043728919741	INACTIVE_STOPPED
204043728919743	INACTIVE_STOPPED
204043728919744	INACTIVE_STOPPED
204043728919749	INACTIVE_STOPPED
204043728919774	INACTIVE_STOPPED
204043728919796	INACTIVE_STOPPED
204043728919820	INACTIVE_STOPPED
204043728919887	INACTIVE_STOPPED
204043728919919	INACTIVE_STOPPED
204043728919927	INACTIVE_STOPPED
204043728919939	INACTIVE_STOPPED
204043728919945	INACTIVE_STOPPED
204043728920055	INACTIVE_STOPPED
204043728920082	INACTIVE_STOPPED
204043728920145	INACTIVE_STOPPED
204043728920146	INACTIVE_STOPPED
204043728920155	INACTIVE_STOPPED
204043728920164	INACTIVE_STOPPED
204043728920222	INACTIVE_STOPPED
204043728920237	INACTIVE_STOPPED
204043728920258	INACTIVE_STOPPED
204043728920263	INACTIVE_STOPPED
204043728920307	INACTIVE_STOPPED
204043728920308	INACTIVE_STOPPED
204043728920326	INACTIVE_STOPPED
204043728920398	INACTIVE_STOPPED
204043728920404	INACTIVE_STOPPED
204043728920410	INACTIVE_STOPPED
204043728920419	INACTIVE_STOPPED
204043728920422	INACTIVE_STOPPED
204043728920434	INACTIVE_STOPPED
204043728920437	INACTIVE_STOPPED
204043728920443	INACTIVE_STOPPED
204043728920460	INACTIVE_STOPPED
204043728920486	INACTIVE_STOPPED
204043728920510	INACTIVE_STOPPED
204043728920517	INACTIVE_STOPPED
204043728920575	INACTIVE_STOPPED
204043728920579	INACTIVE_STOPPED
204043728920585	INACTIVE_STOPPED
204043728920598	INACTIVE_STOPPED
204043728920604	INACTIVE_STOPPED
204043728920609	INACTIVE_STOPPED
204043728920642	INACTIVE_STOPPED
204043728920667	INACTIVE_STOPPED
204043728920674	INACTIVE_STOPPED
204043728920676	INACTIVE_STOPPED
204043728920687	INACTIVE_STOPPED
204043728920688	INACTIVE_STOPPED
204043728920722	INACTIVE_STOPPED
204043728920726	INACTIVE_STOPPED
204043728920751	INACTIVE_STOPPED
204043728920752	INACTIVE_STOPPED
204043728920756	INACTIVE_STOPPED
204043728920760	INACTIVE_STOPPED
204043728920795	INACTIVE_STOPPED
204043728920799	INACTIVE_STOPPED
204043728920829	INACTIVE_STOPPED
204043728920843	INACTIVE_STOPPED
204043728920853	INACTIVE_STOPPED
204043728920889	INACTIVE_STOPPED
204043728920923	INACTIVE_STOPPED
204043728920952	INACTIVE_STOPPED
204043728920955	INACTIVE_STOPPED
204043728920973	INACTIVE_STOPPED
204043728920982	INACTIVE_STOPPED
204043728920985	INACTIVE_STOPPED
204043728920987	INACTIVE_STOPPED
204043729053865	INACTIVE_STOPPED
204043729053869	INACTIVE_STOPPED
204043729053876	INACTIVE_STOPPED
204043729053885	INACTIVE_STOPPED
204043729053903	INACTIVE_STOPPED
204043729053911	INACTIVE_STOPPED
204043729053924	INACTIVE_STOPPED
204043729053927	INACTIVE_STOPPED
204043729053943	INACTIVE_STOPPED
204043729053945	INACTIVE_STOPPED
204043729053987	INACTIVE_STOPPED
204043729054002	INACTIVE_STOPPED
204043729054009	INACTIVE_STOPPED
204043729054049	INACTIVE_STOPPED
204043729054068	INACTIVE_STOPPED
204043729054112	INACTIVE_STOPPED
204043729054165	INACTIVE_STOPPED
204043729054167	INACTIVE_STOPPED
204043729054240	INACTIVE_STOPPED
204043729054295	INACTIVE_STOPPED
204043729054300	INACTIVE_STOPPED
204043729054305	INACTIVE_STOPPED
204043729054326	INACTIVE_STOPPED
204043729054328	INACTIVE_STOPPED
204043729054342	INACTIVE_STOPPED
204043729054347	INACTIVE_STOPPED
204043729054375	INACTIVE_STOPPED
204043729054387	INACTIVE_STOPPED
204043729054398	INACTIVE_STOPPED
204043729054405	INACTIVE_STOPPED
204043729054410	INACTIVE_STOPPED
204043729054412	INACTIVE_STOPPED
204043729054415	INACTIVE_STOPPED
204043729054444	INACTIVE_STOPPED
204043729054469	INACTIVE_STOPPED
204043729054514	INACTIVE_STOPPED
204043729054557	INACTIVE_STOPPED
204043729054563	INACTIVE_STOPPED
204043729054566	INACTIVE_STOPPED
204043729054581	INACTIVE_STOPPED
204043729054617	INACTIVE_STOPPED
204043729054649	INACTIVE_STOPPED
204043729054707	INACTIVE_STOPPED
204043729054759	INACTIVE_STOPPED
204043729054763	INACTIVE_STOPPED
204043729054768	INACTIVE_STOPPED
204043729054790	INACTIVE_STOPPED
204043729054795	INACTIVE_STOPPED
204043729054801	INACTIVE_STOPPED
204043729054806	INACTIVE_STOPPED
204043729054846	INACTIVE_STOPPED
204043729054926	INACTIVE_STOPPED
204043729054950	INACTIVE_STOPPED
204043729054959	INACTIVE_STOPPED
204043729054963	INACTIVE_STOPPED
204043729054972	INACTIVE_STOPPED
204043729054987	INACTIVE_STOPPED
204043729054988	INACTIVE_STOPPED
204043729055002	INACTIVE_STOPPED
204043729055051	INACTIVE_STOPPED
204043729055057	INACTIVE_STOPPED
204043729055071	INACTIVE_STOPPED
204043729055076	INACTIVE_STOPPED
204043729055123	INACTIVE_STOPPED
204043729055130	INACTIVE_STOPPED
204043729055147	INACTIVE_STOPPED
204043729055167	INACTIVE_STOPPED
204043729055198	INACTIVE_STOPPED
204043729055200	INACTIVE_STOPPED
204043729055201	INACTIVE_STOPPED
204043729055208	INACTIVE_STOPPED
204043729055236	INACTIVE_STOPPED
204043729055241	INACTIVE_STOPPED
204043729055285	INACTIVE_STOPPED
204043729055354	INACTIVE_STOPPED
204043729055365	INACTIVE_STOPPED
204043729055379	INACTIVE_STOPPED
204043729055395	INACTIVE_STOPPED
204043729055396	INACTIVE_STOPPED
204043729055457	INACTIVE_STOPPED
204043729055462	INACTIVE_STOPPED
204043729056264	INACTIVE_STOPPED
204043729056276	INACTIVE_STOPPED
204043729056361	INACTIVE_STOPPED
204043729056363	INACTIVE_STOPPED
204043729056371	INACTIVE_STOPPED
204043729056380	INACTIVE_STOPPED
204043729056381	INACTIVE_STOPPED
204043729056408	INACTIVE_STOPPED
204043729056429	INACTIVE_STOPPED
204043729056477	INACTIVE_STOPPED
204043729056489	INACTIVE_STOPPED
204043729092262	INACTIVE_STOPPED
204043729092264	INACTIVE_STOPPED
204043729092278	INACTIVE_STOPPED
204043729092294	INACTIVE_STOPPED
204043729092297	INACTIVE_STOPPED
204043729092302	INACTIVE_STOPPED
204043729092308	INACTIVE_STOPPED
204043729092310	INACTIVE_STOPPED
204043729092314	INACTIVE_STOPPED
204043729092315	INACTIVE_STOPPED
204043729092330	INACTIVE_STOPPED
204043729092338	INACTIVE_STOPPED
204043729092342	INACTIVE_STOPPED
204043729092352	INACTIVE_STOPPED
204043729092358	INACTIVE_STOPPED
204043729092359	INACTIVE_STOPPED
204043729092361	INACTIVE_STOPPED
204043729092362	INACTIVE_STOPPED
204043729092366	INACTIVE_STOPPED
204043729092382	INACTIVE_STOPPED
204043729092385	INACTIVE_STOPPED
204043729092399	INACTIVE_STOPPED
204043729092411	INACTIVE_STOPPED
204043729092417	INACTIVE_STOPPED
204043729092424	INACTIVE_STOPPED
204043729092439	INACTIVE_STOPPED
204043729092443	INACTIVE_STOPPED
204043729092447	INACTIVE_STOPPED
204043729092455	INACTIVE_STOPPED
204043729092468	INACTIVE_STOPPED
204043729092471	INACTIVE_STOPPED
204043729092479	INACTIVE_STOPPED
204043729092487	INACTIVE_STOPPED
204043729092492	INACTIVE_STOPPED
204043729092506	INACTIVE_STOPPED
204043729092507	INACTIVE_STOPPED
204043729092526	INACTIVE_STOPPED
204043729092548	INACTIVE_STOPPED
204043729092552	INACTIVE_STOPPED
204043729092554	INACTIVE_STOPPED
204043729092571	INACTIVE_STOPPED
204043729092587	INACTIVE_STOPPED
204043729092615	INACTIVE_STOPPED
204043729092626	INACTIVE_STOPPED
204043729092641	INACTIVE_STOPPED
204043729092648	INACTIVE_STOPPED
204043729092654	INACTIVE_STOPPED
204043729092656	INACTIVE_STOPPED
204043729092660	INACTIVE_STOPPED
204043729092663	INACTIVE_STOPPED
204043729092668	INACTIVE_STOPPED
204043729092673	INACTIVE_STOPPED
204043729092676	INACTIVE_STOPPED
204043729092682	INACTIVE_STOPPED
204043729092703	INACTIVE_STOPPED
204043729092722	INACTIVE_STOPPED
204043729092727	INACTIVE_STOPPED
204043729092740	INACTIVE_STOPPED
204043729092742	INACTIVE_STOPPED
204043729092747	INACTIVE_STOPPED
204043729092766	INACTIVE_STOPPED
204043729092767	INACTIVE_STOPPED
204043729092775	INACTIVE_STOPPED
204043729092782	INACTIVE_STOPPED
204043729092792	INACTIVE_STOPPED
204043729092797	INACTIVE_STOPPED
204043729092805	INACTIVE_STOPPED
204043729092817	INACTIVE_STOPPED
204043729092823	INACTIVE_STOPPED
204043729092829	INACTIVE_STOPPED
204043729092864	INACTIVE_STOPPED
204043729092874	INACTIVE_STOPPED
204043729092875	INACTIVE_STOPPED
204043729092921	INACTIVE_STOPPED
204043729092929	INACTIVE_STOPPED
204043729092950	INACTIVE_STOPPED
204043729092959	INACTIVE_STOPPED
204043729092979	INACTIVE_STOPPED
204043729092985	INACTIVE_STOPPED
204043729092990	INACTIVE_STOPPED
204043729093005	INACTIVE_STOPPED
204043729093008	INACTIVE_STOPPED
204043729093013	INACTIVE_STOPPED
204043729093022	INACTIVE_STOPPED
204043729093047	INACTIVE_STOPPED
204043729093057	INACTIVE_STOPPED
204043729093059	INACTIVE_STOPPED
204043729093062	INACTIVE_STOPPED
204043729093071	INACTIVE_STOPPED
204043729093084	INACTIVE_STOPPED
204043729093117	INACTIVE_STOPPED
204043729093118	INACTIVE_STOPPED
204043729093128	INACTIVE_STOPPED
204043729093132	INACTIVE_STOPPED
204043729093159	INACTIVE_STOPPED
204043729093163	INACTIVE_STOPPED
204043729093169	INACTIVE_STOPPED
204043729093175	INACTIVE_STOPPED
204043729093187	INACTIVE_STOPPED
204043729093190	INACTIVE_STOPPED
204043729093192	INACTIVE_STOPPED
204043729093226	INACTIVE_STOPPED
204043729093236	INACTIVE_STOPPED
204043729093242	INACTIVE_STOPPED
204043729093286	INACTIVE_STOPPED
204043729093291	INACTIVE_STOPPED
204043729093305	INACTIVE_STOPPED
204043729093334	INACTIVE_STOPPED
204043729093344	INACTIVE_STOPPED
204043729093346	INACTIVE_STOPPED
204043729093364	INACTIVE_STOPPED
204043729093368	INACTIVE_STOPPED
204043729093371	INACTIVE_STOPPED
204043729093379	INACTIVE_STOPPED
204043729093383	INACTIVE_STOPPED
204043729093397	INACTIVE_STOPPED
204043729093398	INACTIVE_STOPPED
204043729093418	INACTIVE_STOPPED
204043729093441	INACTIVE_STOPPED
204043729093460	INACTIVE_STOPPED
204043729093467	INACTIVE_STOPPED
204043729093468	INACTIVE_STOPPED
204043729093471	INACTIVE_STOPPED
204043729093477	INACTIVE_STOPPED
204043729093478	INACTIVE_STOPPED
204043729093487	INACTIVE_STOPPED
204043729093497	INACTIVE_STOPPED
204043729093506	INACTIVE_STOPPED
204043729093508	INACTIVE_STOPPED
204043729093512	INACTIVE_STOPPED
204043729093513	INACTIVE_STOPPED
204043729093514	INACTIVE_STOPPED
204043729093520	INACTIVE_STOPPED
204043729093533	INACTIVE_STOPPED
204043729093560	INACTIVE_STOPPED
204043729093611	INACTIVE_STOPPED
204043729093615	INACTIVE_STOPPED
204043729093627	INACTIVE_STOPPED
204043729093628	INACTIVE_STOPPED
204043729093633	INACTIVE_STOPPED
204043729093641	INACTIVE_STOPPED
204043729093658	INACTIVE_STOPPED
204043729093679	INACTIVE_STOPPED
204043729093682	INACTIVE_STOPPED
204043729093685	INACTIVE_STOPPED
204043729093687	INACTIVE_STOPPED
204043729093688	INACTIVE_STOPPED
204043729093708	INACTIVE_STOPPED
204043729093714	INACTIVE_STOPPED
204043729093720	INACTIVE_STOPPED
204043729093759	INACTIVE_STOPPED
204043729093779	INACTIVE_STOPPED
204043729093782	INACTIVE_STOPPED
204043729093803	INACTIVE_STOPPED
204043729093814	INACTIVE_STOPPED
204043729093868	INACTIVE_STOPPED
204043729093885	INACTIVE_STOPPED
204043729093889	INACTIVE_STOPPED
204043729093891	INACTIVE_STOPPED
204043729093892	INACTIVE_STOPPED
204043729093897	INACTIVE_STOPPED
204043729093912	INACTIVE_STOPPED
204043729093918	INACTIVE_STOPPED
204043729093927	INACTIVE_STOPPED
204043729093928	INACTIVE_STOPPED
204043729093937	INACTIVE_STOPPED
204043729093943	INACTIVE_STOPPED
204043729093945	INACTIVE_STOPPED
204043729093952	INACTIVE_STOPPED
204043729093955	INACTIVE_STOPPED
204043729093982	INACTIVE_STOPPED
204043729093996	INACTIVE_STOPPED
204043729094001	INACTIVE_STOPPED
204043729094038	INACTIVE_STOPPED
204043729094041	INACTIVE_STOPPED
204043729094055	INACTIVE_STOPPED
204043729094056	INACTIVE_STOPPED
204043729094060	INACTIVE_STOPPED
204043729094061	INACTIVE_STOPPED
204043729094070	INACTIVE_STOPPED
204043729094081	INACTIVE_STOPPED
204043729094092	INACTIVE_STOPPED
204043729094101	INACTIVE_STOPPED
204043729094120	INACTIVE_STOPPED
204043729094125	INACTIVE_STOPPED
204043729094132	INACTIVE_STOPPED
204043729094134	INACTIVE_STOPPED
204043729094147	INACTIVE_STOPPED
204043729094152	INACTIVE_STOPPED
204043729094157	INACTIVE_STOPPED
204043729094197	INACTIVE_STOPPED
204043729094202	INACTIVE_STOPPED
204043729094210	INACTIVE_STOPPED
204043729094212	INACTIVE_STOPPED
204043729094231	INACTIVE_STOPPED
204043729094237	INACTIVE_STOPPED
204043729094241	INACTIVE_STOPPED
204046205170020	INACTIVE_STOPPED
204046205170022	INACTIVE_STOPPED
204046205170037	INACTIVE_STOPPED
204046205170142	INACTIVE_STOPPED
204046205170158	INACTIVE_STOPPED
204046205170163	INACTIVE_STOPPED
204046205170199	INACTIVE_STOPPED
204046205170201	INACTIVE_STOPPED
204046205170229	INACTIVE_STOPPED
204046205170246	INACTIVE_STOPPED
204046205170250	INACTIVE_STOPPED
204046205170276	INACTIVE_STOPPED
204046205170285	INACTIVE_STOPPED
204046205170306	INACTIVE_STOPPED
204046205170308	INACTIVE_STOPPED
204046205170337	INACTIVE_STOPPED
204046205170347	INACTIVE_STOPPED
204046205170360	INACTIVE_STOPPED
204046205170556	INACTIVE_STOPPED
204046205170638	INACTIVE_STOPPED
204046205170706	INACTIVE_STOPPED
204046205170711	INACTIVE_STOPPED
204046205176006	INACTIVE_STOPPED
204046205179554	INACTIVE_STOPPED
204046205179573	INACTIVE_STOPPED
204046205179575	INACTIVE_STOPPED
204046205179579	INACTIVE_STOPPED
204046205179666	INACTIVE_STOPPED
204046205179707	INACTIVE_STOPPED
204046205179715	INACTIVE_STOPPED
204046205521002	INACTIVE_STOPPED
204046205521834	INACTIVE_STOPPED
204046205521868	INACTIVE_STOPPED
204046205521885	INACTIVE_STOPPED
204046205521895	INACTIVE_STOPPED
204046205521913	INACTIVE_STOPPED
204046205521941	INACTIVE_STOPPED
204046205521983	INACTIVE_STOPPED
204046205521984	INACTIVE_STOPPED
204046205522001	INACTIVE_STOPPED
204046205522038	INACTIVE_STOPPED
204046205522066	INACTIVE_STOPPED
END	500
