FORMAT01	Change Device State	CHANGE_STATE
IMSI	STATE
204046205524341	INACTIVE_STOPPED
204046205524365	INACTIVE_STOPPED
204046205524379	INACTIVE_STOPPED
204046205524387	INACTIVE_STOPPED
204046205524388	INACTIVE_STOPPED
204046205524393	INACTIVE_STOPPED
204046205524395	INACTIVE_STOPPED
204046205524401	INACTIVE_STOPPED
204046205524406	INACTIVE_STOPPED
204046205524411	INACTIVE_STOPPED
204046205524422	INACTIVE_STOPPED
204046205524424	INACTIVE_STOPPED
204046205524426	INACTIVE_STOPPED
204046205524427	INACTIVE_STOPPED
204046205524450	INACTIVE_STOPPED
204046205524458	INACTIVE_STOPPED
204046205524466	INACTIVE_STOPPED
204046205524479	INACTIVE_STOPPED
204046205524499	INACTIVE_STOPPED
204046205524524	INACTIVE_STOPPED
204046205524528	INACTIVE_STOPPED
204046205524556	INACTIVE_STOPPED
204046205524558	INACTIVE_STOPPED
204046205524572	INACTIVE_STOPPED
204046205524580	INACTIVE_STOPPED
204046205524589	INACTIVE_STOPPED
204046205524627	INACTIVE_STOPPED
204046205524637	INACTIVE_STOPPED
204046205524645	INACTIVE_STOPPED
204046205524653	INACTIVE_STOPPED
204046205524664	INACTIVE_STOPPED
204046205524666	INACTIVE_STOPPED
204046205524672	INACTIVE_STOPPED
204046205524673	INACTIVE_STOPPED
204046205524690	INACTIVE_STOPPED
204046205524719	INACTIVE_STOPPED
204046205524721	INACTIVE_STOPPED
204046205524733	INACTIVE_STOPPED
204046205524773	INACTIVE_STOPPED
204046205524774	INACTIVE_STOPPED
204046205524824	INACTIVE_STOPPED
204046205524839	INACTIVE_STOPPED
204046205524857	INACTIVE_STOPPED
204046205524870	INACTIVE_STOPPED
204046205524890	INACTIVE_STOPPED
204046205524895	INACTIVE_STOPPED
204046205524907	INACTIVE_STOPPED
204046205524908	INACTIVE_STOPPED
204046205524913	INACTIVE_STOPPED
204046205524959	INACTIVE_STOPPED
204046205524964	INACTIVE_STOPPED
204046205524973	INACTIVE_STOPPED
204046205524985	INACTIVE_STOPPED
204046205525008	INACTIVE_STOPPED
204046205525015	INACTIVE_STOPPED
204046205525018	INACTIVE_STOPPED
204046205525052	INACTIVE_STOPPED
204046205525058	INACTIVE_STOPPED
204046205525063	INACTIVE_STOPPED
204046205525066	INACTIVE_STOPPED
204046205525099	INACTIVE_STOPPED
204046205525170	INACTIVE_STOPPED
204046205525179	INACTIVE_STOPPED
204046205525221	INACTIVE_STOPPED
204046205525267	INACTIVE_STOPPED
204046205525268	INACTIVE_STOPPED
204046205525270	INACTIVE_STOPPED
204046205525361	INACTIVE_STOPPED
204046205525369	INACTIVE_STOPPED
204046205525379	INACTIVE_STOPPED
204046205525405	INACTIVE_STOPPED
204046205525485	INACTIVE_STOPPED
204046205525494	INACTIVE_STOPPED
204046205525495	INACTIVE_STOPPED
204046205525497	INACTIVE_STOPPED
204046205525526	INACTIVE_STOPPED
204046205525581	INACTIVE_STOPPED
204046205525620	INACTIVE_STOPPED
204046205525633	INACTIVE_STOPPED
204046205525668	INACTIVE_STOPPED
204046205525674	INACTIVE_STOPPED
204046205525687	INACTIVE_STOPPED
204046205525703	INACTIVE_STOPPED
204046205525706	INACTIVE_STOPPED
204046205525725	INACTIVE_STOPPED
204046205525731	INACTIVE_STOPPED
204046205525786	INACTIVE_STOPPED
204046205525792	INACTIVE_STOPPED
204046205525813	INACTIVE_STOPPED
204046205525822	INACTIVE_STOPPED
204046205525824	INACTIVE_STOPPED
204046205525825	INACTIVE_STOPPED
204046205525832	INACTIVE_STOPPED
204046205525846	INACTIVE_STOPPED
204046205525851	INACTIVE_STOPPED
204046205525861	INACTIVE_STOPPED
204046205525862	INACTIVE_STOPPED
204046205525866	INACTIVE_STOPPED
204046205525868	INACTIVE_STOPPED
204046205525876	INACTIVE_STOPPED
204046205525884	INACTIVE_STOPPED
204046205525889	INACTIVE_STOPPED
204046205525894	INACTIVE_STOPPED
204046205525896	INACTIVE_STOPPED
204046205525918	INACTIVE_STOPPED
204046205525921	INACTIVE_STOPPED
204046205525926	INACTIVE_STOPPED
204046205525933	INACTIVE_STOPPED
204046205525935	INACTIVE_STOPPED
204046205525937	INACTIVE_STOPPED
204046205525947	INACTIVE_STOPPED
204046205525965	INACTIVE_STOPPED
204046205525968	INACTIVE_STOPPED
204046205525976	INACTIVE_STOPPED
204046205526009	INACTIVE_STOPPED
204046205526016	INACTIVE_STOPPED
204046205526024	INACTIVE_STOPPED
204046205526039	INACTIVE_STOPPED
204046205526075	INACTIVE_STOPPED
204046205526089	INACTIVE_STOPPED
204046205526147	INACTIVE_STOPPED
204046205526149	INACTIVE_STOPPED
204046205526161	INACTIVE_STOPPED
204046205526187	INACTIVE_STOPPED
204046205526205	INACTIVE_STOPPED
204046205526278	INACTIVE_STOPPED
204046205526300	INACTIVE_STOPPED
204046205526318	INACTIVE_STOPPED
204046205526327	INACTIVE_STOPPED
204046205526344	INACTIVE_STOPPED
204046205526352	INACTIVE_STOPPED
204046205526362	INACTIVE_STOPPED
204046205526375	INACTIVE_STOPPED
204046205526400	INACTIVE_STOPPED
204046205526407	INACTIVE_STOPPED
204046205526424	INACTIVE_STOPPED
204046205526435	INACTIVE_STOPPED
204046205526441	INACTIVE_STOPPED
204046205526446	INACTIVE_STOPPED
204046205526448	INACTIVE_STOPPED
204046205526490	INACTIVE_STOPPED
204046205526494	INACTIVE_STOPPED
204046205526524	INACTIVE_STOPPED
204046205526525	INACTIVE_STOPPED
204046205526527	INACTIVE_STOPPED
204046205526529	INACTIVE_STOPPED
204046205526567	INACTIVE_STOPPED
204046205526570	INACTIVE_STOPPED
204046205526576	INACTIVE_STOPPED
204046205526597	INACTIVE_STOPPED
204046205526603	INACTIVE_STOPPED
204046205526618	INACTIVE_STOPPED
204046205526643	INACTIVE_STOPPED
204046205526653	INACTIVE_STOPPED
204046205526675	INACTIVE_STOPPED
204046205526694	INACTIVE_STOPPED
204046205526702	INACTIVE_STOPPED
204046205526745	INACTIVE_STOPPED
204046205526747	INACTIVE_STOPPED
204046205526748	INACTIVE_STOPPED
204046205526749	INACTIVE_STOPPED
204046205526765	INACTIVE_STOPPED
204046205526824	INACTIVE_STOPPED
204046205526845	INACTIVE_STOPPED
204046205526858	INACTIVE_STOPPED
204046205526862	INACTIVE_STOPPED
204046205526870	INACTIVE_STOPPED
204046205526896	INACTIVE_STOPPED
204046205526926	INACTIVE_STOPPED
204046205526934	INACTIVE_STOPPED
204046205526948	INACTIVE_STOPPED
204046205526951	INACTIVE_STOPPED
204046205526953	INACTIVE_STOPPED
204046205526954	INACTIVE_STOPPED
204046205526957	INACTIVE_STOPPED
204046205526975	INACTIVE_STOPPED
204046205526987	INACTIVE_STOPPED
204046205526998	INACTIVE_STOPPED
204046205527003	INACTIVE_STOPPED
204046205527019	INACTIVE_STOPPED
204046205527024	INACTIVE_STOPPED
204046205527025	INACTIVE_STOPPED
204046205527068	INACTIVE_STOPPED
204046205527075	INACTIVE_STOPPED
204046205527091	INACTIVE_STOPPED
204046205527099	INACTIVE_STOPPED
204046205527104	INACTIVE_STOPPED
204046205527106	INACTIVE_STOPPED
204046205527111	INACTIVE_STOPPED
204046205527117	INACTIVE_STOPPED
204046205527141	INACTIVE_STOPPED
204046205527157	INACTIVE_STOPPED
204046205527161	INACTIVE_STOPPED
204046205527169	INACTIVE_STOPPED
204046205527176	INACTIVE_STOPPED
204046205527200	INACTIVE_STOPPED
204046205527205	INACTIVE_STOPPED
204046205528009	INACTIVE_STOPPED
204046205528068	INACTIVE_STOPPED
204046205528071	INACTIVE_STOPPED
204046205528183	INACTIVE_STOPPED
204046205528216	INACTIVE_STOPPED
204046205528234	INACTIVE_STOPPED
204046205528236	INACTIVE_STOPPED
204046205528246	INACTIVE_STOPPED
204046205528262	INACTIVE_STOPPED
204046205528281	INACTIVE_STOPPED
204046205528284	INACTIVE_STOPPED
204046205528288	INACTIVE_STOPPED
204046205528307	INACTIVE_STOPPED
204046205528309	INACTIVE_STOPPED
204046205528321	INACTIVE_STOPPED
204046205528324	INACTIVE_STOPPED
204046205528331	INACTIVE_STOPPED
204046205528355	INACTIVE_STOPPED
204046205528411	INACTIVE_STOPPED
204046205528476	INACTIVE_STOPPED
204046205528494	INACTIVE_STOPPED
204046205528513	INACTIVE_STOPPED
204046205528521	INACTIVE_STOPPED
204046205528529	INACTIVE_STOPPED
204046205528561	INACTIVE_STOPPED
204046205528634	INACTIVE_STOPPED
204046205528655	INACTIVE_STOPPED
204046205528664	INACTIVE_STOPPED
204046205528667	INACTIVE_STOPPED
204046205528708	INACTIVE_STOPPED
204046205528729	INACTIVE_STOPPED
204046205528747	INACTIVE_STOPPED
204046205528752	INACTIVE_STOPPED
204046205528756	INACTIVE_STOPPED
204046205528776	INACTIVE_STOPPED
204046205528796	INACTIVE_STOPPED
204046205528815	INACTIVE_STOPPED
204046205528823	INACTIVE_STOPPED
204046205528826	INACTIVE_STOPPED
204046205528842	INACTIVE_STOPPED
204046205528846	INACTIVE_STOPPED
204046205528847	INACTIVE_STOPPED
204046205528884	INACTIVE_STOPPED
204046205528887	INACTIVE_STOPPED
204046205528889	INACTIVE_STOPPED
204046205528894	INACTIVE_STOPPED
204046205528923	INACTIVE_STOPPED
204046205528951	INACTIVE_STOPPED
204046205528960	INACTIVE_STOPPED
204046205528979	INACTIVE_STOPPED
204046205529023	INACTIVE_STOPPED
204046205529035	INACTIVE_STOPPED
204046205529136	INACTIVE_STOPPED
204046205529182	INACTIVE_STOPPED
204046205529250	INACTIVE_STOPPED
204046205529280	INACTIVE_STOPPED
204046205529287	INACTIVE_STOPPED
204046205529291	INACTIVE_STOPPED
204046205529298	INACTIVE_STOPPED
204046205529374	INACTIVE_STOPPED
204046205529375	INACTIVE_STOPPED
204046205529388	INACTIVE_STOPPED
204046205529394	INACTIVE_STOPPED
204046205529397	INACTIVE_STOPPED
204046205529401	INACTIVE_STOPPED
204046205529412	INACTIVE_STOPPED
204046205529419	INACTIVE_STOPPED
204046205529445	INACTIVE_STOPPED
204046205529459	INACTIVE_STOPPED
204046205529464	INACTIVE_STOPPED
204046205529502	INACTIVE_STOPPED
204046205529539	INACTIVE_STOPPED
204046205529581	INACTIVE_STOPPED
204046205529603	INACTIVE_STOPPED
204046205529625	INACTIVE_STOPPED
204046205529671	INACTIVE_STOPPED
204046205529677	INACTIVE_STOPPED
204046205529718	INACTIVE_STOPPED
204046205529747	INACTIVE_STOPPED
204046205529761	INACTIVE_STOPPED
204046205529799	INACTIVE_STOPPED
204046205529904	INACTIVE_STOPPED
204046205530026	INACTIVE_STOPPED
204046205530038	INACTIVE_STOPPED
204046205530052	INACTIVE_STOPPED
204046205530056	INACTIVE_STOPPED
204046205530076	INACTIVE_STOPPED
204046205530135	INACTIVE_STOPPED
204046205530156	INACTIVE_STOPPED
204046205530158	INACTIVE_STOPPED
204046205530169	INACTIVE_STOPPED
204046205530186	INACTIVE_STOPPED
204046205530199	INACTIVE_STOPPED
204046205530209	INACTIVE_STOPPED
204046205530226	INACTIVE_STOPPED
204046205530236	INACTIVE_STOPPED
204046205530238	INACTIVE_STOPPED
204046205530274	INACTIVE_STOPPED
204046205530275	INACTIVE_STOPPED
204046205530287	INACTIVE_STOPPED
204046205530300	INACTIVE_STOPPED
204046205530303	INACTIVE_STOPPED
204046205530305	INACTIVE_STOPPED
204046205530308	INACTIVE_STOPPED
204046205530340	INACTIVE_STOPPED
204046205530376	INACTIVE_STOPPED
204046205530385	INACTIVE_STOPPED
204046205530419	INACTIVE_STOPPED
204046205530444	INACTIVE_STOPPED
204046205530462	INACTIVE_STOPPED
204046205530491	INACTIVE_STOPPED
204046205530512	INACTIVE_STOPPED
204046205530513	INACTIVE_STOPPED
204046205530516	INACTIVE_STOPPED
204046205530520	INACTIVE_STOPPED
204046205530536	INACTIVE_STOPPED
204046205530583	INACTIVE_STOPPED
204046205530603	INACTIVE_STOPPED
204046205530609	INACTIVE_STOPPED
204046205530623	INACTIVE_STOPPED
204046205530624	INACTIVE_STOPPED
204046205530635	INACTIVE_STOPPED
204046205530639	INACTIVE_STOPPED
204046205530690	INACTIVE_STOPPED
204046205530723	INACTIVE_STOPPED
204046205530732	INACTIVE_STOPPED
204046205530733	INACTIVE_STOPPED
204046205530752	INACTIVE_STOPPED
204046205530755	INACTIVE_STOPPED
204046205530799	INACTIVE_STOPPED
204046205530806	INACTIVE_STOPPED
204046205530838	INACTIVE_STOPPED
204046205530848	INACTIVE_STOPPED
204046205530876	INACTIVE_STOPPED
204046205530893	INACTIVE_STOPPED
204046205530952	INACTIVE_STOPPED
204046205537810	INACTIVE_STOPPED
204046205537814	INACTIVE_STOPPED
204046205537898	INACTIVE_STOPPED
204046205537946	INACTIVE_STOPPED
204046205537985	INACTIVE_STOPPED
204046205538068	INACTIVE_STOPPED
204046205538071	INACTIVE_STOPPED
204046205538095	INACTIVE_STOPPED
204046205538106	INACTIVE_STOPPED
204046205538144	INACTIVE_STOPPED
204046205538177	INACTIVE_STOPPED
204046205538190	INACTIVE_STOPPED
204046205538198	INACTIVE_STOPPED
204046205538200	INACTIVE_STOPPED
204046205538203	INACTIVE_STOPPED
204046205538246	INACTIVE_STOPPED
204046205538261	INACTIVE_STOPPED
204046205538278	INACTIVE_STOPPED
204046205538283	INACTIVE_STOPPED
204046205538291	INACTIVE_STOPPED
204046205538299	INACTIVE_STOPPED
204046205538366	INACTIVE_STOPPED
204046205538426	INACTIVE_STOPPED
204046205538433	INACTIVE_STOPPED
204046205538450	INACTIVE_STOPPED
204046205538479	INACTIVE_STOPPED
204046205538507	INACTIVE_STOPPED
204046205538509	INACTIVE_STOPPED
204046205538530	INACTIVE_STOPPED
204046205538624	INACTIVE_STOPPED
204046205538627	INACTIVE_STOPPED
204046205538654	INACTIVE_STOPPED
204046205538673	INACTIVE_STOPPED
204046205538708	INACTIVE_STOPPED
204046205538764	INACTIVE_STOPPED
204046205538809	INACTIVE_STOPPED
204046205538811	INACTIVE_STOPPED
204046205538815	INACTIVE_STOPPED
204046205538817	INACTIVE_STOPPED
204046205538833	INACTIVE_STOPPED
204046205538880	INACTIVE_STOPPED
204046205538960	INACTIVE_STOPPED
204046205538984	INACTIVE_STOPPED
204046205538996	INACTIVE_STOPPED
204046205539001	INACTIVE_STOPPED
204046205539002	INACTIVE_STOPPED
204046205539014	INACTIVE_STOPPED
204046205539152	INACTIVE_STOPPED
204046205539161	INACTIVE_STOPPED
204046205539165	INACTIVE_STOPPED
204046205539169	INACTIVE_STOPPED
204046205539186	INACTIVE_STOPPED
204046205539194	INACTIVE_STOPPED
204046205539207	INACTIVE_STOPPED
204046205539299	INACTIVE_STOPPED
204046205539300	INACTIVE_STOPPED
204046205539314	INACTIVE_STOPPED
204046205539367	INACTIVE_STOPPED
204046205539390	INACTIVE_STOPPED
204046205539432	INACTIVE_STOPPED
204046205539504	INACTIVE_STOPPED
204046205539530	INACTIVE_STOPPED
204046205539532	INACTIVE_STOPPED
204046205539613	INACTIVE_STOPPED
204046205539622	INACTIVE_STOPPED
204046205539684	INACTIVE_STOPPED
204046205539714	INACTIVE_STOPPED
204046205539731	INACTIVE_STOPPED
204046205539737	INACTIVE_STOPPED
204046205539742	INACTIVE_STOPPED
204046205539760	INACTIVE_STOPPED
204046205539771	INACTIVE_STOPPED
204046205539775	INACTIVE_STOPPED
204046205539797	INACTIVE_STOPPED
204046205539802	INACTIVE_STOPPED
204046205539812	INACTIVE_STOPPED
204046205539826	INACTIVE_STOPPED
204046205539833	INACTIVE_STOPPED
204046205539834	INACTIVE_STOPPED
204046205539842	INACTIVE_STOPPED
204046205539853	INACTIVE_STOPPED
204046205539854	INACTIVE_STOPPED
204046205539864	INACTIVE_STOPPED
204046205539865	INACTIVE_STOPPED
204046205539866	INACTIVE_STOPPED
204046205539885	INACTIVE_STOPPED
204046205539890	INACTIVE_STOPPED
204046205539913	INACTIVE_STOPPED
204046205539959	INACTIVE_STOPPED
204046205539996	INACTIVE_STOPPED
204046205594570	INACTIVE_STOPPED
204046205594621	INACTIVE_STOPPED
204046205594795	INACTIVE_STOPPED
204046205595029	INACTIVE_STOPPED
204046205595030	INACTIVE_STOPPED
204046205595127	INACTIVE_STOPPED
204046205595501	INACTIVE_STOPPED
204046205595806	INACTIVE_STOPPED
204046205595810	INACTIVE_STOPPED
204046205595814	INACTIVE_STOPPED
204046205595820	INACTIVE_STOPPED
204046205595826	INACTIVE_STOPPED
204046205595827	INACTIVE_STOPPED
204046205595836	INACTIVE_STOPPED
204046205595839	INACTIVE_STOPPED
204046205595840	INACTIVE_STOPPED
204046205595849	INACTIVE_STOPPED
204046205595858	INACTIVE_STOPPED
204046205595999	INACTIVE_STOPPED
204046205596213	INACTIVE_STOPPED
204046205596224	INACTIVE_STOPPED
204046205596227	INACTIVE_STOPPED
204046205596228	INACTIVE_STOPPED
204046205596270	INACTIVE_STOPPED
204046205596285	INACTIVE_STOPPED
204046205596305	INACTIVE_STOPPED
204046205596306	INACTIVE_STOPPED
204046205596312	INACTIVE_STOPPED
204046205596315	INACTIVE_STOPPED
204046205596384	INACTIVE_STOPPED
204046205596456	INACTIVE_STOPPED
204046205596520	INACTIVE_STOPPED
204046205596524	INACTIVE_STOPPED
204046205597689	INACTIVE_STOPPED
204046863673504	INACTIVE_STOPPED
204046863673505	INACTIVE_STOPPED
204046863673508	INACTIVE_STOPPED
204046863673512	INACTIVE_STOPPED
204046863673533	INACTIVE_STOPPED
204046863673623	INACTIVE_STOPPED
204046863677011	INACTIVE_STOPPED
204046863677025	INACTIVE_STOPPED
204046863677033	INACTIVE_STOPPED
204046863677056	INACTIVE_STOPPED
204046863677089	INACTIVE_STOPPED
204046863677110	INACTIVE_STOPPED
204046863677116	INACTIVE_STOPPED
204046863677167	INACTIVE_STOPPED
204046863677242	INACTIVE_STOPPED
204046863677252	INACTIVE_STOPPED
204046863677315	INACTIVE_STOPPED
204046863677389	INACTIVE_STOPPED
204046863680402	INACTIVE_STOPPED
204046863680403	INACTIVE_STOPPED
204046863680417	INACTIVE_STOPPED
END	478
