FORMAT01	Change Device State	CHANGE_STATE
IMSI	STATE
204043254312950	INACTIVE_STOPPED
204043254312952	INACTIVE_STOPPED
204043254312960	INACTIVE_STOPPED
204043254312967	INACTIVE_STOPPED
204043254312972	INACTIVE_STOPPED
204043254312977	INACTIVE_STOPPED
204043254313051	INACTIVE_STOPPED
204043254313057	INACTIVE_STOPPED
204043254313080	INACTIVE_STOPPED
204043254313083	INACTIVE_STOPPED
204043254313086	INACTIVE_STOPPED
204043254313097	INACTIVE_STOPPED
204043254313144	INACTIVE_STOPPED
204043254313160	INACTIVE_STOPPED
204043254313175	INACTIVE_STOPPED
204043254313246	INACTIVE_STOPPED
204043254313269	INACTIVE_STOPPED
204043254313277	INACTIVE_STOPPED
204043254313281	INACTIVE_STOPPED
204043254313282	INACTIVE_STOPPED
204043254313332	INACTIVE_STOPPED
204043254313368	INACTIVE_STOPPED
204043254313371	INACTIVE_STOPPED
204043254313386	INACTIVE_STOPPED
204043254313403	INACTIVE_STOPPED
204043254313406	INACTIVE_STOPPED
204043254313407	INACTIVE_STOPPED
204043254313419	INACTIVE_STOPPED
204043254313425	INACTIVE_STOPPED
204043254313452	INACTIVE_STOPPED
204043254313494	INACTIVE_STOPPED
204043254313511	INACTIVE_STOPPED
204043254313515	INACTIVE_STOPPED
204043254313525	INACTIVE_STOPPED
204043254313530	INACTIVE_STOPPED
204043254313554	INACTIVE_STOPPED
204043254313602	INACTIVE_STOPPED
204043254313606	INACTIVE_STOPPED
204043254313624	INACTIVE_STOPPED
204043254313645	INACTIVE_STOPPED
204043254313703	INACTIVE_STOPPED
204043254313717	INACTIVE_STOPPED
204043254313718	INACTIVE_STOPPED
204043254313730	INACTIVE_STOPPED
204043254313739	INACTIVE_STOPPED
204043254313747	INACTIVE_STOPPED
204043254313751	INACTIVE_STOPPED
204043254313762	INACTIVE_STOPPED
204043254313774	INACTIVE_STOPPED
204043254313780	INACTIVE_STOPPED
204043254313783	INACTIVE_STOPPED
204043254313821	INACTIVE_STOPPED
204043254313838	INACTIVE_STOPPED
204043254313857	INACTIVE_STOPPED
204043254313864	INACTIVE_STOPPED
204043254313869	INACTIVE_STOPPED
204043254313896	INACTIVE_STOPPED
204043254313916	INACTIVE_STOPPED
204043254313923	INACTIVE_STOPPED
204043254313979	INACTIVE_STOPPED
204043254313999	INACTIVE_STOPPED
204043254314051	INACTIVE_STOPPED
204043254314103	INACTIVE_STOPPED
204043254314111	INACTIVE_STOPPED
204043254314145	INACTIVE_STOPPED
204043254314176	INACTIVE_STOPPED
204043254314187	INACTIVE_STOPPED
204043254314190	INACTIVE_STOPPED
204043254314193	INACTIVE_STOPPED
204043254314206	INACTIVE_STOPPED
204043254314257	INACTIVE_STOPPED
204043254314263	INACTIVE_STOPPED
204043254314276	INACTIVE_STOPPED
204043254314327	INACTIVE_STOPPED
204043254314337	INACTIVE_STOPPED
204043254314367	INACTIVE_STOPPED
204043254314369	INACTIVE_STOPPED
204043254314376	INACTIVE_STOPPED
204043254314380	INACTIVE_STOPPED
204043254314404	INACTIVE_STOPPED
204043254314406	INACTIVE_STOPPED
204043254314411	INACTIVE_STOPPED
204043254314465	INACTIVE_STOPPED
204043254314475	INACTIVE_STOPPED
204043254314503	INACTIVE_STOPPED
204043254314535	INACTIVE_STOPPED
204043254314573	INACTIVE_STOPPED
204043254314613	INACTIVE_STOPPED
204043254314621	INACTIVE_STOPPED
204043254314631	INACTIVE_STOPPED
204043254314640	INACTIVE_STOPPED
204043254314653	INACTIVE_STOPPED
204043254314654	INACTIVE_STOPPED
204043254314670	INACTIVE_STOPPED
204043254314689	INACTIVE_STOPPED
204043254314699	INACTIVE_STOPPED
204043254314708	INACTIVE_STOPPED
204043254314709	INACTIVE_STOPPED
204043254314713	INACTIVE_STOPPED
204043254314724	INACTIVE_STOPPED
204043254314729	INACTIVE_STOPPED
204043254314735	INACTIVE_STOPPED
204043254314737	INACTIVE_STOPPED
204043254314739	INACTIVE_STOPPED
204043254314741	INACTIVE_STOPPED
204043254314763	INACTIVE_STOPPED
204043254314769	INACTIVE_STOPPED
204043254314798	INACTIVE_STOPPED
204043254314806	INACTIVE_STOPPED
204043254314813	INACTIVE_STOPPED
204043254314835	INACTIVE_STOPPED
204043254314837	INACTIVE_STOPPED
204043254314839	INACTIVE_STOPPED
204043254314846	INACTIVE_STOPPED
204043254314867	INACTIVE_STOPPED
204043254314907	INACTIVE_STOPPED
204043254314909	INACTIVE_STOPPED
204043254314924	INACTIVE_STOPPED
204043254314967	INACTIVE_STOPPED
204043254314982	INACTIVE_STOPPED
204043254315024	INACTIVE_STOPPED
204043254315081	INACTIVE_STOPPED
204043254315134	INACTIVE_STOPPED
204043254315154	INACTIVE_STOPPED
204043254315158	INACTIVE_STOPPED
204043254315176	INACTIVE_STOPPED
204043254315181	INACTIVE_STOPPED
204043254315223	INACTIVE_STOPPED
204043254315227	INACTIVE_STOPPED
204043254315230	INACTIVE_STOPPED
204043254315256	INACTIVE_STOPPED
204043254315282	INACTIVE_STOPPED
204043254315336	INACTIVE_STOPPED
204043254315358	INACTIVE_STOPPED
204043254315378	INACTIVE_STOPPED
204043254315406	INACTIVE_STOPPED
204043254315428	INACTIVE_STOPPED
204043254315466	INACTIVE_STOPPED
204043254315467	INACTIVE_STOPPED
204043254315505	INACTIVE_STOPPED
204043254315515	INACTIVE_STOPPED
204043254315527	INACTIVE_STOPPED
204043254315533	INACTIVE_STOPPED
204043254315552	INACTIVE_STOPPED
204043254315644	INACTIVE_STOPPED
204043254315655	INACTIVE_STOPPED
204043254315663	INACTIVE_STOPPED
204043254315678	INACTIVE_STOPPED
204043254315731	INACTIVE_STOPPED
204043254315736	INACTIVE_STOPPED
204043254315744	INACTIVE_STOPPED
204043254315748	INACTIVE_STOPPED
204043254315786	INACTIVE_STOPPED
204043254315791	INACTIVE_STOPPED
204043254315793	INACTIVE_STOPPED
204043254315801	INACTIVE_STOPPED
204043254315807	INACTIVE_STOPPED
204043254315814	INACTIVE_STOPPED
204043254315815	INACTIVE_STOPPED
204043254315819	INACTIVE_STOPPED
204043254315821	INACTIVE_STOPPED
204043254315827	INACTIVE_STOPPED
204043254315828	INACTIVE_STOPPED
204043254315831	INACTIVE_STOPPED
204043254315835	INACTIVE_STOPPED
204043254315843	INACTIVE_STOPPED
204043254315899	INACTIVE_STOPPED
204043254315902	INACTIVE_STOPPED
204043254315944	INACTIVE_STOPPED
204043254315958	INACTIVE_STOPPED
204043254315978	INACTIVE_STOPPED
204043254315984	INACTIVE_STOPPED
204043254315987	INACTIVE_STOPPED
204043254316001	INACTIVE_STOPPED
204043254316010	INACTIVE_STOPPED
204043254316026	INACTIVE_STOPPED
204043254316036	INACTIVE_STOPPED
204043254316038	INACTIVE_STOPPED
204043254316054	INACTIVE_STOPPED
204043254316055	INACTIVE_STOPPED
204043254316068	INACTIVE_STOPPED
204043254316084	INACTIVE_STOPPED
204043254316096	INACTIVE_STOPPED
204043254316104	INACTIVE_STOPPED
204043254316109	INACTIVE_STOPPED
204043254316142	INACTIVE_STOPPED
204043254316160	INACTIVE_STOPPED
204043254316163	INACTIVE_STOPPED
204043254316164	INACTIVE_STOPPED
204043254316179	INACTIVE_STOPPED
204043254316186	INACTIVE_STOPPED
204043254316196	INACTIVE_STOPPED
204043254316207	INACTIVE_STOPPED
204043254316208	INACTIVE_STOPPED
204043254316231	INACTIVE_STOPPED
204043254316240	INACTIVE_STOPPED
204043254316260	INACTIVE_STOPPED
204043254316286	INACTIVE_STOPPED
204043254316289	INACTIVE_STOPPED
204043254316291	INACTIVE_STOPPED
204043254316300	INACTIVE_STOPPED
204043254316321	INACTIVE_STOPPED
204043254316330	INACTIVE_STOPPED
204043254316354	INACTIVE_STOPPED
204043254316356	INACTIVE_STOPPED
204043254316369	INACTIVE_STOPPED
204043254316371	INACTIVE_STOPPED
204043254316416	INACTIVE_STOPPED
204043254316420	INACTIVE_STOPPED
204043254316429	INACTIVE_STOPPED
204043254316435	INACTIVE_STOPPED
204043254316442	INACTIVE_STOPPED
204043254316452	INACTIVE_STOPPED
204043254316462	INACTIVE_STOPPED
204043254316472	INACTIVE_STOPPED
204043254316489	INACTIVE_STOPPED
204043254316490	INACTIVE_STOPPED
204043254316504	INACTIVE_STOPPED
204043254316505	INACTIVE_STOPPED
204043254316528	INACTIVE_STOPPED
204043254316537	INACTIVE_STOPPED
204043254316544	INACTIVE_STOPPED
204043254316547	INACTIVE_STOPPED
204043254316555	INACTIVE_STOPPED
204043254316556	INACTIVE_STOPPED
204043254316573	INACTIVE_STOPPED
204043254316579	INACTIVE_STOPPED
204043254316600	INACTIVE_STOPPED
204043254316601	INACTIVE_STOPPED
204043254316604	INACTIVE_STOPPED
204043254316618	INACTIVE_STOPPED
204043254316629	INACTIVE_STOPPED
204043254316641	INACTIVE_STOPPED
204043254316658	INACTIVE_STOPPED
204043254316663	INACTIVE_STOPPED
204043254316677	INACTIVE_STOPPED
204043254316689	INACTIVE_STOPPED
204043254316692	INACTIVE_STOPPED
204043254316697	INACTIVE_STOPPED
204043254316711	INACTIVE_STOPPED
204043254316720	INACTIVE_STOPPED
204043254316732	INACTIVE_STOPPED
204043254316735	INACTIVE_STOPPED
204043254316751	INACTIVE_STOPPED
204043254316752	INACTIVE_STOPPED
204043254316766	INACTIVE_STOPPED
204043254316779	INACTIVE_STOPPED
204043254316781	INACTIVE_STOPPED
204043254316798	INACTIVE_STOPPED
204043254316814	INACTIVE_STOPPED
204043254316823	INACTIVE_STOPPED
204043254316885	INACTIVE_STOPPED
204043254316886	INACTIVE_STOPPED
204043254316917	INACTIVE_STOPPED
204043254316921	INACTIVE_STOPPED
204043254316925	INACTIVE_STOPPED
204043254316934	INACTIVE_STOPPED
204043254316953	INACTIVE_STOPPED
204043254316955	INACTIVE_STOPPED
204043254316956	INACTIVE_STOPPED
204043254316976	INACTIVE_STOPPED
204043254316979	INACTIVE_STOPPED
204043254316991	INACTIVE_STOPPED
204043254317026	INACTIVE_STOPPED
204043254317040	INACTIVE_STOPPED
204043254317110	INACTIVE_STOPPED
204043254317116	INACTIVE_STOPPED
204043254317126	INACTIVE_STOPPED
204043254317129	INACTIVE_STOPPED
204043254317131	INACTIVE_STOPPED
204043254317133	INACTIVE_STOPPED
204043254317140	INACTIVE_STOPPED
204043254317162	INACTIVE_STOPPED
204043254317164	INACTIVE_STOPPED
204043254317181	INACTIVE_STOPPED
204043254317182	INACTIVE_STOPPED
204043254317228	INACTIVE_STOPPED
204043254317284	INACTIVE_STOPPED
204043254317305	INACTIVE_STOPPED
204043254317307	INACTIVE_STOPPED
204043254317315	INACTIVE_STOPPED
204043254317320	INACTIVE_STOPPED
204043254317335	INACTIVE_STOPPED
204043254317338	INACTIVE_STOPPED
204043254317396	INACTIVE_STOPPED
204043254317400	INACTIVE_STOPPED
204043254317423	INACTIVE_STOPPED
204043254317424	INACTIVE_STOPPED
204043254317427	INACTIVE_STOPPED
204043254317428	INACTIVE_STOPPED
204043254317433	INACTIVE_STOPPED
204043254317443	INACTIVE_STOPPED
204043254317446	INACTIVE_STOPPED
204043254317488	INACTIVE_STOPPED
204043254317495	INACTIVE_STOPPED
204043254317513	INACTIVE_STOPPED
204043254317515	INACTIVE_STOPPED
204043254317520	INACTIVE_STOPPED
204043254317521	INACTIVE_STOPPED
204043254317531	INACTIVE_STOPPED
204043254317533	INACTIVE_STOPPED
204043254317567	INACTIVE_STOPPED
204043254317591	INACTIVE_STOPPED
204043254317595	INACTIVE_STOPPED
204043254317620	INACTIVE_STOPPED
204043254317629	INACTIVE_STOPPED
204043254317641	INACTIVE_STOPPED
204043254317646	INACTIVE_STOPPED
204043254317683	INACTIVE_STOPPED
204043254317686	INACTIVE_STOPPED
204043254317688	INACTIVE_STOPPED
204043254317694	INACTIVE_STOPPED
204043254317703	INACTIVE_STOPPED
204043254317719	INACTIVE_STOPPED
204043254317724	INACTIVE_STOPPED
204043254317740	INACTIVE_STOPPED
204043254317771	INACTIVE_STOPPED
204043254317773	INACTIVE_STOPPED
204043254317778	INACTIVE_STOPPED
204043254317781	INACTIVE_STOPPED
204043254317794	INACTIVE_STOPPED
204043254317803	INACTIVE_STOPPED
204043254317813	INACTIVE_STOPPED
204043254317814	INACTIVE_STOPPED
204043254317817	INACTIVE_STOPPED
204043254317819	INACTIVE_STOPPED
204043254317832	INACTIVE_STOPPED
204043254317844	INACTIVE_STOPPED
204043254317849	INACTIVE_STOPPED
204043254317854	INACTIVE_STOPPED
204043254317855	INACTIVE_STOPPED
204043254317861	INACTIVE_STOPPED
204043254317864	INACTIVE_STOPPED
204043254317900	INACTIVE_STOPPED
204043254317905	INACTIVE_STOPPED
204043254317915	INACTIVE_STOPPED
204043254317921	INACTIVE_STOPPED
204043254317930	INACTIVE_STOPPED
204043254317931	INACTIVE_STOPPED
204043254317940	INACTIVE_STOPPED
204043254317987	INACTIVE_STOPPED
204043254317993	INACTIVE_STOPPED
204043254317997	INACTIVE_STOPPED
204043254318020	INACTIVE_STOPPED
204043254318033	INACTIVE_STOPPED
204043254318036	INACTIVE_STOPPED
204043254318050	INACTIVE_STOPPED
204043254318074	INACTIVE_STOPPED
204043254318075	INACTIVE_STOPPED
204043254318088	INACTIVE_STOPPED
204043254318093	INACTIVE_STOPPED
204043254318099	INACTIVE_STOPPED
204043254318144	INACTIVE_STOPPED
204043254318146	INACTIVE_STOPPED
204043254318160	INACTIVE_STOPPED
204043254318163	INACTIVE_STOPPED
204043254318189	INACTIVE_STOPPED
204043254318194	INACTIVE_STOPPED
204043254318197	INACTIVE_STOPPED
204043254318208	INACTIVE_STOPPED
204043254318215	INACTIVE_STOPPED
204043254318223	INACTIVE_STOPPED
204043254318257	INACTIVE_STOPPED
204043254318274	INACTIVE_STOPPED
204043254318278	INACTIVE_STOPPED
204043254318296	INACTIVE_STOPPED
204043254318301	INACTIVE_STOPPED
204043254318309	INACTIVE_STOPPED
204043254318312	INACTIVE_STOPPED
204043254318316	INACTIVE_STOPPED
204043254318322	INACTIVE_STOPPED
204043254318324	INACTIVE_STOPPED
204043254318326	INACTIVE_STOPPED
204043254318330	INACTIVE_STOPPED
204043254318334	INACTIVE_STOPPED
204043254318340	INACTIVE_STOPPED
204043254318344	INACTIVE_STOPPED
204043254318345	INACTIVE_STOPPED
204043254318347	INACTIVE_STOPPED
204043254318372	INACTIVE_STOPPED
204043254318386	INACTIVE_STOPPED
204043254318404	INACTIVE_STOPPED
204043254318424	INACTIVE_STOPPED
204043254318428	INACTIVE_STOPPED
204043254318452	INACTIVE_STOPPED
204043254318460	INACTIVE_STOPPED
204043254318496	INACTIVE_STOPPED
204043254318508	INACTIVE_STOPPED
204043254318511	INACTIVE_STOPPED
204043254318514	INACTIVE_STOPPED
204043254318547	INACTIVE_STOPPED
204043254318551	INACTIVE_STOPPED
204043254318557	INACTIVE_STOPPED
204043254318575	INACTIVE_STOPPED
204043254318590	INACTIVE_STOPPED
204043254318599	INACTIVE_STOPPED
204043254318617	INACTIVE_STOPPED
204043254318637	INACTIVE_STOPPED
204043254318639	INACTIVE_STOPPED
204043254318649	INACTIVE_STOPPED
204043254318652	INACTIVE_STOPPED
204043254318654	INACTIVE_STOPPED
204043254318665	INACTIVE_STOPPED
204043254318673	INACTIVE_STOPPED
204043254318674	INACTIVE_STOPPED
204043254318690	INACTIVE_STOPPED
204043254318692	INACTIVE_STOPPED
204043254318701	INACTIVE_STOPPED
204043254318723	INACTIVE_STOPPED
204043254318736	INACTIVE_STOPPED
204043254318743	INACTIVE_STOPPED
204043254318745	INACTIVE_STOPPED
204043254318747	INACTIVE_STOPPED
204043254318751	INACTIVE_STOPPED
204043254318753	INACTIVE_STOPPED
204043254318771	INACTIVE_STOPPED
204043254318774	INACTIVE_STOPPED
204043254318798	INACTIVE_STOPPED
204043254318801	INACTIVE_STOPPED
204043254318806	INACTIVE_STOPPED
204043254318813	INACTIVE_STOPPED
204043254318816	INACTIVE_STOPPED
204043254318827	INACTIVE_STOPPED
204043254318829	INACTIVE_STOPPED
204043254318873	INACTIVE_STOPPED
204043254318877	INACTIVE_STOPPED
204043254318898	INACTIVE_STOPPED
204043254318900	INACTIVE_STOPPED
204043254318906	INACTIVE_STOPPED
204043254318918	INACTIVE_STOPPED
204043254318920	INACTIVE_STOPPED
204043254318921	INACTIVE_STOPPED
204043254318927	INACTIVE_STOPPED
204043254318933	INACTIVE_STOPPED
204043254318943	INACTIVE_STOPPED
204043254318949	INACTIVE_STOPPED
204043254318958	INACTIVE_STOPPED
204043254318961	INACTIVE_STOPPED
204043254318982	INACTIVE_STOPPED
204043254319002	INACTIVE_STOPPED
204043254319015	INACTIVE_STOPPED
204043254319017	INACTIVE_STOPPED
204043254319021	INACTIVE_STOPPED
204043254319027	INACTIVE_STOPPED
204043254319028	INACTIVE_STOPPED
204043254319049	INACTIVE_STOPPED
204043254319080	INACTIVE_STOPPED
204043254319085	INACTIVE_STOPPED
204043254319092	INACTIVE_STOPPED
204043254319101	INACTIVE_STOPPED
204043254319116	INACTIVE_STOPPED
204043254319117	INACTIVE_STOPPED
204043254319120	INACTIVE_STOPPED
204043254319124	INACTIVE_STOPPED
204043254319128	INACTIVE_STOPPED
204043254319129	INACTIVE_STOPPED
204043254319160	INACTIVE_STOPPED
204043254319164	INACTIVE_STOPPED
204043254319171	INACTIVE_STOPPED
204043254319205	INACTIVE_STOPPED
204043254319219	INACTIVE_STOPPED
204043254319230	INACTIVE_STOPPED
204043254319236	INACTIVE_STOPPED
204043254319246	INACTIVE_STOPPED
204043254319247	INACTIVE_STOPPED
204043254319253	INACTIVE_STOPPED
204043254319259	INACTIVE_STOPPED
204043254319291	INACTIVE_STOPPED
204043254319302	INACTIVE_STOPPED
204043254319321	INACTIVE_STOPPED
204043254319334	INACTIVE_STOPPED
204043254319354	INACTIVE_STOPPED
204043254319362	INACTIVE_STOPPED
204043254319369	INACTIVE_STOPPED
204043254319377	INACTIVE_STOPPED
204043254319378	INACTIVE_STOPPED
204043254319383	INACTIVE_STOPPED
204043254319439	INACTIVE_STOPPED
204043254319445	INACTIVE_STOPPED
204043254319466	INACTIVE_STOPPED
204043254319478	INACTIVE_STOPPED
204043254319493	INACTIVE_STOPPED
204043254319494	INACTIVE_STOPPED
204043254319507	INACTIVE_STOPPED
204043254319522	INACTIVE_STOPPED
204043254319546	INACTIVE_STOPPED
204043254319566	INACTIVE_STOPPED
204043254319571	INACTIVE_STOPPED
204043254319576	INACTIVE_STOPPED
204043254319585	INACTIVE_STOPPED
204043254319614	INACTIVE_STOPPED
204043254319631	INACTIVE_STOPPED
204043254319644	INACTIVE_STOPPED
204043254319653	INACTIVE_STOPPED
204043254319660	INACTIVE_STOPPED
204043254319727	INACTIVE_STOPPED
204043254319741	INACTIVE_STOPPED
204043254319760	INACTIVE_STOPPED
204043254319781	INACTIVE_STOPPED
204043254319787	INACTIVE_STOPPED
END	500
