Traceback (most recent call last):
  File "/home/bev_lekx/cellCarriers/Vodafone/bin/devicesFromExport.py", line 193, in <module>
    cursor.execute(query)
  File "/usr/local/lib/python2.7/dist-packages/mysql/connector/cursor.py", line 559, in execute
    self._handle_result(self._connection.cmd_query(stmt))
  File "/usr/local/lib/python2.7/dist-packages/mysql/connector/connection.py", line 494, in cmd_query
    result = self._handle_result(self._send_cmd(ServerCmd.QUERY, query))
  File "/usr/local/lib/python2.7/dist-packages/mysql/connector/connection.py", line 396, in _handle_result
    raise errors.get_exception(packet)
mysql.connector.errors.InternalError: 1213 (40001): Deadlock found when trying to get lock; try restarting transaction
