FORMAT01	Change Device State	CHANGE_STATE
IMSI	STATE
204043726675094	INACTIVE_STOPPED
204043726675103	INACTIVE_STOPPED
204043726675110	INACTIVE_STOPPED
204043726675149	INACTIVE_STOPPED
204043726675151	INACTIVE_STOPPED
204043726675156	INACTIVE_STOPPED
204043726675158	INACTIVE_STOPPED
204043726675175	INACTIVE_STOPPED
204043726675189	INACTIVE_STOPPED
204043726675321	INACTIVE_STOPPED
204043726675338	INACTIVE_STOPPED
204043726675352	INACTIVE_STOPPED
204043726675370	INACTIVE_STOPPED
204043726675400	INACTIVE_STOPPED
204043726675403	INACTIVE_STOPPED
204043726675426	INACTIVE_STOPPED
204043726675438	INACTIVE_STOPPED
204043726675472	INACTIVE_STOPPED
204043726675492	INACTIVE_STOPPED
204043726675500	INACTIVE_STOPPED
204043726675518	INACTIVE_STOPPED
204043726675529	INACTIVE_STOPPED
204043726675533	INACTIVE_STOPPED
204043726675580	INACTIVE_STOPPED
204043726675603	INACTIVE_STOPPED
204043726675640	INACTIVE_STOPPED
204043726675664	INACTIVE_STOPPED
204043726675665	INACTIVE_STOPPED
204043726675751	INACTIVE_STOPPED
204043726675754	INACTIVE_STOPPED
204043726675871	INACTIVE_STOPPED
204043726675900	INACTIVE_STOPPED
204043726675966	INACTIVE_STOPPED
204043726675993	INACTIVE_STOPPED
204043726675998	INACTIVE_STOPPED
204043726676020	INACTIVE_STOPPED
204043726676093	INACTIVE_STOPPED
204043726676096	INACTIVE_STOPPED
204043726676114	INACTIVE_STOPPED
204043726676165	INACTIVE_STOPPED
204043726676244	INACTIVE_STOPPED
204043726676246	INACTIVE_STOPPED
204043726676298	INACTIVE_STOPPED
204043726676302	INACTIVE_STOPPED
204043726676308	INACTIVE_STOPPED
204043726676311	INACTIVE_STOPPED
204043726676344	INACTIVE_STOPPED
204043726676382	INACTIVE_STOPPED
204043726676392	INACTIVE_STOPPED
204043726676503	INACTIVE_STOPPED
204043726676530	INACTIVE_STOPPED
204043726676536	INACTIVE_STOPPED
204043726676622	INACTIVE_STOPPED
204043726676638	INACTIVE_STOPPED
204043726676657	INACTIVE_STOPPED
204043726676687	INACTIVE_STOPPED
204043726676770	INACTIVE_STOPPED
204043726676789	INACTIVE_STOPPED
204043726676794	INACTIVE_STOPPED
204043726676855	INACTIVE_STOPPED
204043726676873	INACTIVE_STOPPED
204043726676905	INACTIVE_STOPPED
204043726676956	INACTIVE_STOPPED
204043726676982	INACTIVE_STOPPED
204043726676994	INACTIVE_STOPPED
204043726677003	INACTIVE_STOPPED
204043726677055	INACTIVE_STOPPED
204043726677089	INACTIVE_STOPPED
204043726677090	INACTIVE_STOPPED
204043726677093	INACTIVE_STOPPED
204043726677161	INACTIVE_STOPPED
204043726677173	INACTIVE_STOPPED
204043726677202	INACTIVE_STOPPED
204043726677204	INACTIVE_STOPPED
204043726677232	INACTIVE_STOPPED
204043726677234	INACTIVE_STOPPED
204043726677240	INACTIVE_STOPPED
204043726677242	INACTIVE_STOPPED
204043726677243	INACTIVE_STOPPED
204043726677250	INACTIVE_STOPPED
204043726677264	INACTIVE_STOPPED
204043726677337	INACTIVE_STOPPED
204043726677358	INACTIVE_STOPPED
204043726677373	INACTIVE_STOPPED
204043726677399	INACTIVE_STOPPED
204043726677430	INACTIVE_STOPPED
204043726677450	INACTIVE_STOPPED
204043726677452	INACTIVE_STOPPED
204043726677480	INACTIVE_STOPPED
204043726677491	INACTIVE_STOPPED
204043726677514	INACTIVE_STOPPED
204043726677531	INACTIVE_STOPPED
204043726677532	INACTIVE_STOPPED
204043726677543	INACTIVE_STOPPED
204043726677547	INACTIVE_STOPPED
204043726677556	INACTIVE_STOPPED
204043726677562	INACTIVE_STOPPED
204043726677579	INACTIVE_STOPPED
204043726677597	INACTIVE_STOPPED
204043726677622	INACTIVE_STOPPED
204043726677641	INACTIVE_STOPPED
204043726677690	INACTIVE_STOPPED
204043726677699	INACTIVE_STOPPED
204043726677701	INACTIVE_STOPPED
204043726677790	INACTIVE_STOPPED
204043726677795	INACTIVE_STOPPED
204043726677802	INACTIVE_STOPPED
204043726677818	INACTIVE_STOPPED
204043726677878	INACTIVE_STOPPED
204043726677885	INACTIVE_STOPPED
204043726677888	INACTIVE_STOPPED
204043726677891	INACTIVE_STOPPED
204043726677926	INACTIVE_STOPPED
204043726677962	INACTIVE_STOPPED
204043726677964	INACTIVE_STOPPED
204043726677971	INACTIVE_STOPPED
204043726678104	INACTIVE_STOPPED
204043726678111	INACTIVE_STOPPED
204043726678112	INACTIVE_STOPPED
204043726678132	INACTIVE_STOPPED
204043726678152	INACTIVE_STOPPED
204043726678177	INACTIVE_STOPPED
204043726678192	INACTIVE_STOPPED
204043726678194	INACTIVE_STOPPED
204043726678228	INACTIVE_STOPPED
204043726678251	INACTIVE_STOPPED
204043726678376	INACTIVE_STOPPED
204043726678444	INACTIVE_STOPPED
204043726678463	INACTIVE_STOPPED
204043726678518	INACTIVE_STOPPED
204043726678537	INACTIVE_STOPPED
204043726678548	INACTIVE_STOPPED
204043726678549	INACTIVE_STOPPED
204043726678556	INACTIVE_STOPPED
204043726678558	INACTIVE_STOPPED
204043726678561	INACTIVE_STOPPED
204043726678562	INACTIVE_STOPPED
204043726678585	INACTIVE_STOPPED
204043726678648	INACTIVE_STOPPED
204043726678661	INACTIVE_STOPPED
204043726678674	INACTIVE_STOPPED
204043726678714	INACTIVE_STOPPED
204043726678726	INACTIVE_STOPPED
204043726678754	INACTIVE_STOPPED
204043726678766	INACTIVE_STOPPED
204043726678778	INACTIVE_STOPPED
204043726678806	INACTIVE_STOPPED
204043726678841	INACTIVE_STOPPED
204043726678895	INACTIVE_STOPPED
204043726678906	INACTIVE_STOPPED
204043726678916	INACTIVE_STOPPED
204043726678920	INACTIVE_STOPPED
204043726678922	INACTIVE_STOPPED
204043726678925	INACTIVE_STOPPED
204043726678928	INACTIVE_STOPPED
204043726678934	INACTIVE_STOPPED
204043726678935	INACTIVE_STOPPED
204043726678937	INACTIVE_STOPPED
204043726678945	INACTIVE_STOPPED
204043726679009	INACTIVE_STOPPED
204043726679018	INACTIVE_STOPPED
204043726679085	INACTIVE_STOPPED
204043726679119	INACTIVE_STOPPED
204043726679125	INACTIVE_STOPPED
204043726679146	INACTIVE_STOPPED
204043726679156	INACTIVE_STOPPED
204043726679170	INACTIVE_STOPPED
204043726679199	INACTIVE_STOPPED
204043726679283	INACTIVE_STOPPED
204043726679357	INACTIVE_STOPPED
204043726679420	INACTIVE_STOPPED
204043726679421	INACTIVE_STOPPED
204043726679434	INACTIVE_STOPPED
204043726679435	INACTIVE_STOPPED
204043726679440	INACTIVE_STOPPED
204043726679473	INACTIVE_STOPPED
204043726679477	INACTIVE_STOPPED
204043726679488	INACTIVE_STOPPED
204043726679583	INACTIVE_STOPPED
204043726679638	INACTIVE_STOPPED
204043726679646	INACTIVE_STOPPED
204043726679753	INACTIVE_STOPPED
204043726679759	INACTIVE_STOPPED
204043726679814	INACTIVE_STOPPED
204043726679820	INACTIVE_STOPPED
204043726679833	INACTIVE_STOPPED
204043726679834	INACTIVE_STOPPED
204043726679856	INACTIVE_STOPPED
204043726679863	INACTIVE_STOPPED
204043726679868	INACTIVE_STOPPED
204043726679871	INACTIVE_STOPPED
204043726679924	INACTIVE_STOPPED
204043726679956	INACTIVE_STOPPED
204043726679969	INACTIVE_STOPPED
204043726680006	INACTIVE_STOPPED
204043726680070	INACTIVE_STOPPED
204043726680084	INACTIVE_STOPPED
204043726680085	INACTIVE_STOPPED
204043726680089	INACTIVE_STOPPED
204043726680096	INACTIVE_STOPPED
204043726680116	INACTIVE_STOPPED
204043726680149	INACTIVE_STOPPED
204043726680166	INACTIVE_STOPPED
204043726680216	INACTIVE_STOPPED
204043726680220	INACTIVE_STOPPED
204043726680271	INACTIVE_STOPPED
204043726680309	INACTIVE_STOPPED
204043726680335	INACTIVE_STOPPED
204043726680343	INACTIVE_STOPPED
204043726680358	INACTIVE_STOPPED
204043726680367	INACTIVE_STOPPED
204043726680425	INACTIVE_STOPPED
204043726680426	INACTIVE_STOPPED
204043726680433	INACTIVE_STOPPED
204043726680456	INACTIVE_STOPPED
204043726680505	INACTIVE_STOPPED
204043726680529	INACTIVE_STOPPED
204043726680536	INACTIVE_STOPPED
204043726680549	INACTIVE_STOPPED
204043726680583	INACTIVE_STOPPED
204043726680590	INACTIVE_STOPPED
204043726680643	INACTIVE_STOPPED
204043726680679	INACTIVE_STOPPED
204043726680733	INACTIVE_STOPPED
204043726680747	INACTIVE_STOPPED
204043726680767	INACTIVE_STOPPED
204043726680821	INACTIVE_STOPPED
204043726680834	INACTIVE_STOPPED
204043726680866	INACTIVE_STOPPED
204043726680993	INACTIVE_STOPPED
204043726680998	INACTIVE_STOPPED
204043726681057	INACTIVE_STOPPED
204043726681089	INACTIVE_STOPPED
204043726681106	INACTIVE_STOPPED
204043726681115	INACTIVE_STOPPED
204043726681134	INACTIVE_STOPPED
204043726681178	INACTIVE_STOPPED
204043726681181	INACTIVE_STOPPED
204043726681183	INACTIVE_STOPPED
204043726681187	INACTIVE_STOPPED
204043726681241	INACTIVE_STOPPED
204043726681304	INACTIVE_STOPPED
204043726681329	INACTIVE_STOPPED
204043726681345	INACTIVE_STOPPED
204043726681357	INACTIVE_STOPPED
204043726681402	INACTIVE_STOPPED
204043726681430	INACTIVE_STOPPED
204043726681457	INACTIVE_STOPPED
204043726681469	INACTIVE_STOPPED
204043726681497	INACTIVE_STOPPED
204043726681557	INACTIVE_STOPPED
204043726681667	INACTIVE_STOPPED
204043726681668	INACTIVE_STOPPED
204043726681705	INACTIVE_STOPPED
204043726681716	INACTIVE_STOPPED
204043726681739	INACTIVE_STOPPED
204043726681751	INACTIVE_STOPPED
204043726681756	INACTIVE_STOPPED
204043726681784	INACTIVE_STOPPED
204043726681947	INACTIVE_STOPPED
204043726681981	INACTIVE_STOPPED
204043726681982	INACTIVE_STOPPED
204043726682076	INACTIVE_STOPPED
204043726682078	INACTIVE_STOPPED
204043726682079	INACTIVE_STOPPED
204043726682099	INACTIVE_STOPPED
204043726682184	INACTIVE_STOPPED
204043726682189	INACTIVE_STOPPED
204043726682205	INACTIVE_STOPPED
204043726682241	INACTIVE_STOPPED
204043726682261	INACTIVE_STOPPED
204043726682373	INACTIVE_STOPPED
204043726682375	INACTIVE_STOPPED
204043726682440	INACTIVE_STOPPED
204043726682441	INACTIVE_STOPPED
204043726682456	INACTIVE_STOPPED
204043726682466	INACTIVE_STOPPED
204043726682479	INACTIVE_STOPPED
204043726682481	INACTIVE_STOPPED
204043726682505	INACTIVE_STOPPED
204043726682510	INACTIVE_STOPPED
204043726682538	INACTIVE_STOPPED
204043726682547	INACTIVE_STOPPED
204043726682554	INACTIVE_STOPPED
204043726682584	INACTIVE_STOPPED
204043726682587	INACTIVE_STOPPED
204043726682593	INACTIVE_STOPPED
204043726682614	INACTIVE_STOPPED
204043726682624	INACTIVE_STOPPED
204043726682650	INACTIVE_STOPPED
204043726682726	INACTIVE_STOPPED
204043726682730	INACTIVE_STOPPED
204043726682731	INACTIVE_STOPPED
204043726682753	INACTIVE_STOPPED
204043726682756	INACTIVE_STOPPED
204043726682757	INACTIVE_STOPPED
204043726682767	INACTIVE_STOPPED
204043726682807	INACTIVE_STOPPED
204043726682815	INACTIVE_STOPPED
204043726682827	INACTIVE_STOPPED
204043726682831	INACTIVE_STOPPED
204043726682846	INACTIVE_STOPPED
204043726682880	INACTIVE_STOPPED
204043726682889	INACTIVE_STOPPED
204043726682910	INACTIVE_STOPPED
204043726682927	INACTIVE_STOPPED
204043726682956	INACTIVE_STOPPED
204043726682986	INACTIVE_STOPPED
204043726691501	INACTIVE_STOPPED
204043726691507	INACTIVE_STOPPED
204043726691534	INACTIVE_STOPPED
204043726691547	INACTIVE_STOPPED
204043726691602	INACTIVE_STOPPED
204043726691615	INACTIVE_STOPPED
204043726691621	INACTIVE_STOPPED
204043726691630	INACTIVE_STOPPED
204043726691631	INACTIVE_STOPPED
204043726691657	INACTIVE_STOPPED
204043726691663	INACTIVE_STOPPED
204043726691672	INACTIVE_STOPPED
204043726691699	INACTIVE_STOPPED
204043726691718	INACTIVE_STOPPED
204043726691722	INACTIVE_STOPPED
204043726691723	INACTIVE_STOPPED
204043726691765	INACTIVE_STOPPED
204043726691791	INACTIVE_STOPPED
204043726691834	INACTIVE_STOPPED
204043726691863	INACTIVE_STOPPED
204043726691876	INACTIVE_STOPPED
204043726691884	INACTIVE_STOPPED
204043726691918	INACTIVE_STOPPED
204043726691934	INACTIVE_STOPPED
204043726691957	INACTIVE_STOPPED
204043726691974	INACTIVE_STOPPED
204043726691985	INACTIVE_STOPPED
204043726691994	INACTIVE_STOPPED
204043726692087	INACTIVE_STOPPED
204043726692090	INACTIVE_STOPPED
204043726692152	INACTIVE_STOPPED
204043726692202	INACTIVE_STOPPED
204043726692205	INACTIVE_STOPPED
204043726692226	INACTIVE_STOPPED
204043726692240	INACTIVE_STOPPED
204043726692265	INACTIVE_STOPPED
204043726692280	INACTIVE_STOPPED
204043726692338	INACTIVE_STOPPED
204043726692345	INACTIVE_STOPPED
204043726692364	INACTIVE_STOPPED
204043726692378	INACTIVE_STOPPED
204043726692383	INACTIVE_STOPPED
204043726692402	INACTIVE_STOPPED
204043726692427	INACTIVE_STOPPED
204043726692430	INACTIVE_STOPPED
204043726692453	INACTIVE_STOPPED
204043726692488	INACTIVE_STOPPED
204043726692552	INACTIVE_STOPPED
204043726692564	INACTIVE_STOPPED
204043726692612	INACTIVE_STOPPED
204043726692637	INACTIVE_STOPPED
204043726692662	INACTIVE_STOPPED
204043726692720	INACTIVE_STOPPED
204043726692723	INACTIVE_STOPPED
204043726692736	INACTIVE_STOPPED
204043726692758	INACTIVE_STOPPED
204043726692767	INACTIVE_STOPPED
204043726692780	INACTIVE_STOPPED
204043726692784	INACTIVE_STOPPED
204043726692786	INACTIVE_STOPPED
204043726692811	INACTIVE_STOPPED
204043726692836	INACTIVE_STOPPED
204043726692865	INACTIVE_STOPPED
204043726692927	INACTIVE_STOPPED
204043726692930	INACTIVE_STOPPED
204043726692933	INACTIVE_STOPPED
204043726692936	INACTIVE_STOPPED
204043726692959	INACTIVE_STOPPED
204043726692970	INACTIVE_STOPPED
204043726693032	INACTIVE_STOPPED
204043726693138	INACTIVE_STOPPED
204043726693155	INACTIVE_STOPPED
204043726693177	INACTIVE_STOPPED
204043726693178	INACTIVE_STOPPED
204043726693179	INACTIVE_STOPPED
204043726693190	INACTIVE_STOPPED
204043726693213	INACTIVE_STOPPED
204043726693221	INACTIVE_STOPPED
204043726693238	INACTIVE_STOPPED
204043726693263	INACTIVE_STOPPED
204043726693267	INACTIVE_STOPPED
204043726693291	INACTIVE_STOPPED
204043726693310	INACTIVE_STOPPED
204043726693311	INACTIVE_STOPPED
204043726693329	INACTIVE_STOPPED
204043726693331	INACTIVE_STOPPED
204043726693349	INACTIVE_STOPPED
204043726693354	INACTIVE_STOPPED
204043726693384	INACTIVE_STOPPED
204043726693392	INACTIVE_STOPPED
204043726693428	INACTIVE_STOPPED
204043726693482	INACTIVE_STOPPED
204043726693498	INACTIVE_STOPPED
204043726693510	INACTIVE_STOPPED
204043726693512	INACTIVE_STOPPED
204043726693517	INACTIVE_STOPPED
204043726693539	INACTIVE_STOPPED
204043726693614	INACTIVE_STOPPED
204043726693640	INACTIVE_STOPPED
204043726693641	INACTIVE_STOPPED
204043726693654	INACTIVE_STOPPED
204043726693681	INACTIVE_STOPPED
204043726693696	INACTIVE_STOPPED
204043726693712	INACTIVE_STOPPED
204043726693716	INACTIVE_STOPPED
204043726693719	INACTIVE_STOPPED
204043726693737	INACTIVE_STOPPED
204043726693772	INACTIVE_STOPPED
204043726693774	INACTIVE_STOPPED
204043726693832	INACTIVE_STOPPED
204043726693843	INACTIVE_STOPPED
204043726693855	INACTIVE_STOPPED
204043726693892	INACTIVE_STOPPED
204043726693903	INACTIVE_STOPPED
204043726693938	INACTIVE_STOPPED
204043726693965	INACTIVE_STOPPED
204043726693981	INACTIVE_STOPPED
204043726694060	INACTIVE_STOPPED
204043726694108	INACTIVE_STOPPED
204043726694127	INACTIVE_STOPPED
204043726694131	INACTIVE_STOPPED
204043726694149	INACTIVE_STOPPED
204043726694172	INACTIVE_STOPPED
204043726694174	INACTIVE_STOPPED
204043726694187	INACTIVE_STOPPED
204043726694206	INACTIVE_STOPPED
204043726694247	INACTIVE_STOPPED
204043726694265	INACTIVE_STOPPED
204043726694269	INACTIVE_STOPPED
204043726694271	INACTIVE_STOPPED
204043726694276	INACTIVE_STOPPED
204043726694292	INACTIVE_STOPPED
204043726694310	INACTIVE_STOPPED
204043726694338	INACTIVE_STOPPED
204043726694349	INACTIVE_STOPPED
204043726694357	INACTIVE_STOPPED
204043726694395	INACTIVE_STOPPED
204043726694403	INACTIVE_STOPPED
204043726694418	INACTIVE_STOPPED
204043726694434	INACTIVE_STOPPED
204043726694455	INACTIVE_STOPPED
204043726694478	INACTIVE_STOPPED
204043726694486	INACTIVE_STOPPED
204043726694489	INACTIVE_STOPPED
204043726694532	INACTIVE_STOPPED
204043726694536	INACTIVE_STOPPED
204043726694578	INACTIVE_STOPPED
204043726694631	INACTIVE_STOPPED
204043726694634	INACTIVE_STOPPED
204043726694655	INACTIVE_STOPPED
204043726694659	INACTIVE_STOPPED
204043726694693	INACTIVE_STOPPED
204043726694710	INACTIVE_STOPPED
204043726694737	INACTIVE_STOPPED
204043726694763	INACTIVE_STOPPED
204043726694874	INACTIVE_STOPPED
204043726694878	INACTIVE_STOPPED
204043726694922	INACTIVE_STOPPED
204043726694928	INACTIVE_STOPPED
204043726694932	INACTIVE_STOPPED
204043726694948	INACTIVE_STOPPED
204043726694988	INACTIVE_STOPPED
204043726695008	INACTIVE_STOPPED
204043726695017	INACTIVE_STOPPED
204043726695020	INACTIVE_STOPPED
204043726695039	INACTIVE_STOPPED
204043726695100	INACTIVE_STOPPED
204043726695141	INACTIVE_STOPPED
204043726695196	INACTIVE_STOPPED
204043726695203	INACTIVE_STOPPED
204043726695216	INACTIVE_STOPPED
204043726695248	INACTIVE_STOPPED
204043726695257	INACTIVE_STOPPED
204043726695306	INACTIVE_STOPPED
204043726695315	INACTIVE_STOPPED
204043726695324	INACTIVE_STOPPED
204043726695370	INACTIVE_STOPPED
204043726695373	INACTIVE_STOPPED
204043726695378	INACTIVE_STOPPED
204043726695386	INACTIVE_STOPPED
204043726695391	INACTIVE_STOPPED
204043726695441	INACTIVE_STOPPED
204043726695442	INACTIVE_STOPPED
204043726695456	INACTIVE_STOPPED
204043726695468	INACTIVE_STOPPED
204043726695475	INACTIVE_STOPPED
204043726695557	INACTIVE_STOPPED
204043726695563	INACTIVE_STOPPED
204043726695637	INACTIVE_STOPPED
204043726695650	INACTIVE_STOPPED
204043726695664	INACTIVE_STOPPED
204043726695670	INACTIVE_STOPPED
END	500
