FORMAT01	Change Device State	CHANGE_STATE
IMSI	STATE
204043251375303	INACTIVE_STOPPED
204043251375304	INACTIVE_STOPPED
204043251375318	INACTIVE_STOPPED
204043251375395	INACTIVE_STOPPED
204043251375396	INACTIVE_STOPPED
204043251375400	INACTIVE_STOPPED
204043251375462	INACTIVE_STOPPED
204043251375473	INACTIVE_STOPPED
204043251375522	INACTIVE_STOPPED
204043251375550	INACTIVE_STOPPED
204043251375566	INACTIVE_STOPPED
204043251375573	INACTIVE_STOPPED
204043251375584	INACTIVE_STOPPED
204043251375590	INACTIVE_STOPPED
204043251375591	INACTIVE_STOPPED
204043251375626	INACTIVE_STOPPED
204043251375634	INACTIVE_STOPPED
204043251375648	INACTIVE_STOPPED
204043251375651	INACTIVE_STOPPED
204043251375655	INACTIVE_STOPPED
204043251375665	INACTIVE_STOPPED
204043251375682	INACTIVE_STOPPED
204043251375685	INACTIVE_STOPPED
204043251375687	INACTIVE_STOPPED
204043251375688	INACTIVE_STOPPED
204043251375739	INACTIVE_STOPPED
204043251375744	INACTIVE_STOPPED
204043251375833	INACTIVE_STOPPED
204043251375871	INACTIVE_STOPPED
204043251375921	INACTIVE_STOPPED
204043251375944	INACTIVE_STOPPED
204043251375953	INACTIVE_STOPPED
204043251375966	INACTIVE_STOPPED
204043251375990	INACTIVE_STOPPED
204043251376018	INACTIVE_STOPPED
204043251376037	INACTIVE_STOPPED
204043251376101	INACTIVE_STOPPED
204043251376104	INACTIVE_STOPPED
204043251376108	INACTIVE_STOPPED
204043251376135	INACTIVE_STOPPED
204043251376138	INACTIVE_STOPPED
204043251376149	INACTIVE_STOPPED
204043251376151	INACTIVE_STOPPED
204043251376166	INACTIVE_STOPPED
204043251376209	INACTIVE_STOPPED
204043251376221	INACTIVE_STOPPED
204043251376239	INACTIVE_STOPPED
204043251376241	INACTIVE_STOPPED
204043251376251	INACTIVE_STOPPED
204043251376302	INACTIVE_STOPPED
204043251376305	INACTIVE_STOPPED
204043251376327	INACTIVE_STOPPED
204043251376349	INACTIVE_STOPPED
204043251376373	INACTIVE_STOPPED
204043251376378	INACTIVE_STOPPED
204043251376393	INACTIVE_STOPPED
204043251376397	INACTIVE_STOPPED
204043251376448	INACTIVE_STOPPED
204043251376452	INACTIVE_STOPPED
204043251376455	INACTIVE_STOPPED
204043251376459	INACTIVE_STOPPED
204043251376504	INACTIVE_STOPPED
204043251376531	INACTIVE_STOPPED
204043251376543	INACTIVE_STOPPED
204043251376564	INACTIVE_STOPPED
204043251376594	INACTIVE_STOPPED
204043251376675	INACTIVE_STOPPED
204043251376701	INACTIVE_STOPPED
204043251376733	INACTIVE_STOPPED
204043251376735	INACTIVE_STOPPED
204043251376773	INACTIVE_STOPPED
204043251376805	INACTIVE_STOPPED
204043251376843	INACTIVE_STOPPED
204043251376863	INACTIVE_STOPPED
204043251376865	INACTIVE_STOPPED
204043251376869	INACTIVE_STOPPED
204043251376921	INACTIVE_STOPPED
204043251376986	INACTIVE_STOPPED
204043251376994	INACTIVE_STOPPED
204043251377007	INACTIVE_STOPPED
204043251377008	INACTIVE_STOPPED
204043251377055	INACTIVE_STOPPED
204043251377082	INACTIVE_STOPPED
204043251377086	INACTIVE_STOPPED
204043251377089	INACTIVE_STOPPED
204043251377131	INACTIVE_STOPPED
204043251377173	INACTIVE_STOPPED
204043251377183	INACTIVE_STOPPED
204043251377205	INACTIVE_STOPPED
204043251377279	INACTIVE_STOPPED
204043251377333	INACTIVE_STOPPED
204043251377337	INACTIVE_STOPPED
204043251377540	INACTIVE_STOPPED
204043251377556	INACTIVE_STOPPED
204043251377595	INACTIVE_STOPPED
204043251377628	INACTIVE_STOPPED
204043251377671	INACTIVE_STOPPED
204043251377672	INACTIVE_STOPPED
204043251377676	INACTIVE_STOPPED
204043251377684	INACTIVE_STOPPED
204043251377716	INACTIVE_STOPPED
204043251377756	INACTIVE_STOPPED
204043251377777	INACTIVE_STOPPED
204043251377890	INACTIVE_STOPPED
204043251377891	INACTIVE_STOPPED
204043251377904	INACTIVE_STOPPED
204043251377967	INACTIVE_STOPPED
204043251377974	INACTIVE_STOPPED
204043251377985	INACTIVE_STOPPED
204043251377995	INACTIVE_STOPPED
204043251378012	INACTIVE_STOPPED
204043251378066	INACTIVE_STOPPED
204043251378067	INACTIVE_STOPPED
204043251378094	INACTIVE_STOPPED
204043251378108	INACTIVE_STOPPED
204043251378129	INACTIVE_STOPPED
204043251378149	INACTIVE_STOPPED
204043251378208	INACTIVE_STOPPED
204043251378241	INACTIVE_STOPPED
204043251378248	INACTIVE_STOPPED
204043251378270	INACTIVE_STOPPED
204043251378291	INACTIVE_STOPPED
204043251378297	INACTIVE_STOPPED
204043251378299	INACTIVE_STOPPED
204043251378325	INACTIVE_STOPPED
204043251378364	INACTIVE_STOPPED
204043251378372	INACTIVE_STOPPED
204043251378419	INACTIVE_STOPPED
204043251378442	INACTIVE_STOPPED
204043251378468	INACTIVE_STOPPED
204043251378469	INACTIVE_STOPPED
204043251378470	INACTIVE_STOPPED
204043251378496	INACTIVE_STOPPED
204043251378518	INACTIVE_STOPPED
204043251378541	INACTIVE_STOPPED
204043251378563	INACTIVE_STOPPED
204043251378599	INACTIVE_STOPPED
204043251378602	INACTIVE_STOPPED
204043251378610	INACTIVE_STOPPED
204043251378638	INACTIVE_STOPPED
204043251378661	INACTIVE_STOPPED
204043251378678	INACTIVE_STOPPED
204043251378683	INACTIVE_STOPPED
204043251378704	INACTIVE_STOPPED
204043251378708	INACTIVE_STOPPED
204043251378712	INACTIVE_STOPPED
204043251378746	INACTIVE_STOPPED
204043251378760	INACTIVE_STOPPED
204043251378765	INACTIVE_STOPPED
204043251378767	INACTIVE_STOPPED
204043251378769	INACTIVE_STOPPED
204043251378825	INACTIVE_STOPPED
204043251378869	INACTIVE_STOPPED
204043251378879	INACTIVE_STOPPED
204043251378896	INACTIVE_STOPPED
204043251378901	INACTIVE_STOPPED
204043251378905	INACTIVE_STOPPED
204043251378922	INACTIVE_STOPPED
204043251378927	INACTIVE_STOPPED
204043251378935	INACTIVE_STOPPED
204043251378944	INACTIVE_STOPPED
204043251378947	INACTIVE_STOPPED
204043251378949	INACTIVE_STOPPED
204043251378950	INACTIVE_STOPPED
204043251378981	INACTIVE_STOPPED
204043251378987	INACTIVE_STOPPED
204043251379012	INACTIVE_STOPPED
204043251379024	INACTIVE_STOPPED
204043251379033	INACTIVE_STOPPED
204043251379085	INACTIVE_STOPPED
204043251379092	INACTIVE_STOPPED
204043251379095	INACTIVE_STOPPED
204043251379178	INACTIVE_STOPPED
204043251379182	INACTIVE_STOPPED
204043251379190	INACTIVE_STOPPED
204043251379256	INACTIVE_STOPPED
204043251379262	INACTIVE_STOPPED
204043251379263	INACTIVE_STOPPED
204043251379314	INACTIVE_STOPPED
204043251379325	INACTIVE_STOPPED
204043251379420	INACTIVE_STOPPED
204043251379442	INACTIVE_STOPPED
204043251379452	INACTIVE_STOPPED
204043251379541	INACTIVE_STOPPED
204043251379542	INACTIVE_STOPPED
204043251379550	INACTIVE_STOPPED
204043251379552	INACTIVE_STOPPED
204043251379555	INACTIVE_STOPPED
204043251379581	INACTIVE_STOPPED
204043251379617	INACTIVE_STOPPED
204043251379629	INACTIVE_STOPPED
204043251379649	INACTIVE_STOPPED
204043251379688	INACTIVE_STOPPED
204043251379722	INACTIVE_STOPPED
204043251379745	INACTIVE_STOPPED
204043251379796	INACTIVE_STOPPED
204043251379822	INACTIVE_STOPPED
204043251379833	INACTIVE_STOPPED
204043251379869	INACTIVE_STOPPED
204043251379890	INACTIVE_STOPPED
204043251379959	INACTIVE_STOPPED
204043251379994	INACTIVE_STOPPED
204043251380005	INACTIVE_STOPPED
204043251380020	INACTIVE_STOPPED
204043251380078	INACTIVE_STOPPED
204043251380106	INACTIVE_STOPPED
204043251380123	INACTIVE_STOPPED
204043251380174	INACTIVE_STOPPED
204043251380218	INACTIVE_STOPPED
204043251380246	INACTIVE_STOPPED
204043251380285	INACTIVE_STOPPED
204043251380291	INACTIVE_STOPPED
204043251380293	INACTIVE_STOPPED
204043251380294	INACTIVE_STOPPED
204043251380307	INACTIVE_STOPPED
204043251380314	INACTIVE_STOPPED
204043251380322	INACTIVE_STOPPED
204043251380342	INACTIVE_STOPPED
204043251380414	INACTIVE_STOPPED
204043251380419	INACTIVE_STOPPED
204043251380440	INACTIVE_STOPPED
204043251380443	INACTIVE_STOPPED
204043251380452	INACTIVE_STOPPED
204043251380459	INACTIVE_STOPPED
204043251380472	INACTIVE_STOPPED
204043251380498	INACTIVE_STOPPED
204043251380524	INACTIVE_STOPPED
204043251380537	INACTIVE_STOPPED
204043251380564	INACTIVE_STOPPED
204043251380596	INACTIVE_STOPPED
204043251380644	INACTIVE_STOPPED
204043251380651	INACTIVE_STOPPED
204043251380662	INACTIVE_STOPPED
204043251380674	INACTIVE_STOPPED
204043251380725	INACTIVE_STOPPED
204043251380734	INACTIVE_STOPPED
204043251380737	INACTIVE_STOPPED
204043251380755	INACTIVE_STOPPED
204043251380787	INACTIVE_STOPPED
204043251380792	INACTIVE_STOPPED
204043251380833	INACTIVE_STOPPED
204043251380856	INACTIVE_STOPPED
204043251380869	INACTIVE_STOPPED
204043251380911	INACTIVE_STOPPED
204043251380935	INACTIVE_STOPPED
204043251380960	INACTIVE_STOPPED
204043251380965	INACTIVE_STOPPED
204043251381003	INACTIVE_STOPPED
204043251381031	INACTIVE_STOPPED
204043251381035	INACTIVE_STOPPED
204043251381048	INACTIVE_STOPPED
204043251381050	INACTIVE_STOPPED
204043251381052	INACTIVE_STOPPED
204043251381065	INACTIVE_STOPPED
204043251381076	INACTIVE_STOPPED
204043251381077	INACTIVE_STOPPED
204043251381090	INACTIVE_STOPPED
204043251381145	INACTIVE_STOPPED
204043251381151	INACTIVE_STOPPED
204043251381212	INACTIVE_STOPPED
204043251381238	INACTIVE_STOPPED
204043251381313	INACTIVE_STOPPED
204043251381323	INACTIVE_STOPPED
204043251381348	INACTIVE_STOPPED
204043251381400	INACTIVE_STOPPED
204043251381409	INACTIVE_STOPPED
204043251381423	INACTIVE_STOPPED
204043251381424	INACTIVE_STOPPED
204043251381458	INACTIVE_STOPPED
204043251381499	INACTIVE_STOPPED
204043251381506	INACTIVE_STOPPED
204043251381516	INACTIVE_STOPPED
204043251381578	INACTIVE_STOPPED
204043251381582	INACTIVE_STOPPED
204043251381616	INACTIVE_STOPPED
204043251381690	INACTIVE_STOPPED
204043251381695	INACTIVE_STOPPED
204043251381783	INACTIVE_STOPPED
204043251381814	INACTIVE_STOPPED
204043251381815	INACTIVE_STOPPED
204043251381846	INACTIVE_STOPPED
204043251381849	INACTIVE_STOPPED
204043251381862	INACTIVE_STOPPED
204043251381863	INACTIVE_STOPPED
204043251381877	INACTIVE_STOPPED
204043251381883	INACTIVE_STOPPED
204043251381886	INACTIVE_STOPPED
204043251381926	INACTIVE_STOPPED
204043251381936	INACTIVE_STOPPED
204043251381968	INACTIVE_STOPPED
204043251381976	INACTIVE_STOPPED
204043251381984	INACTIVE_STOPPED
204043251382022	INACTIVE_STOPPED
204043251382060	INACTIVE_STOPPED
204043251382068	INACTIVE_STOPPED
204043251382075	INACTIVE_STOPPED
204043251382083	INACTIVE_STOPPED
204043251382092	INACTIVE_STOPPED
204043251382096	INACTIVE_STOPPED
204043251382104	INACTIVE_STOPPED
204043251382112	INACTIVE_STOPPED
204043251382127	INACTIVE_STOPPED
204043251382184	INACTIVE_STOPPED
204043251382227	INACTIVE_STOPPED
204043251382235	INACTIVE_STOPPED
204043251382252	INACTIVE_STOPPED
204043251382267	INACTIVE_STOPPED
204043251382275	INACTIVE_STOPPED
204043251458334	INACTIVE_STOPPED
204043251458379	INACTIVE_STOPPED
204043251458453	INACTIVE_STOPPED
204043251458467	INACTIVE_STOPPED
204043251458493	INACTIVE_STOPPED
204043251458503	INACTIVE_STOPPED
204043251458531	INACTIVE_STOPPED
204043251458550	INACTIVE_STOPPED
204043251458566	INACTIVE_STOPPED
204043251458578	INACTIVE_STOPPED
204043251458622	INACTIVE_STOPPED
204043251458625	INACTIVE_STOPPED
204043251458636	INACTIVE_STOPPED
204043251458703	INACTIVE_STOPPED
204043251458745	INACTIVE_STOPPED
204043251458777	INACTIVE_STOPPED
204043251458790	INACTIVE_STOPPED
204043251458799	INACTIVE_STOPPED
204043251458808	INACTIVE_STOPPED
204043251458852	INACTIVE_STOPPED
204043251458882	INACTIVE_STOPPED
204043251458902	INACTIVE_STOPPED
204043251458970	INACTIVE_STOPPED
204043251458987	INACTIVE_STOPPED
204043251459012	INACTIVE_STOPPED
204043251459022	INACTIVE_STOPPED
204043251459036	INACTIVE_STOPPED
204043251459038	INACTIVE_STOPPED
204043251459053	INACTIVE_STOPPED
204043251459072	INACTIVE_STOPPED
204043251459093	INACTIVE_STOPPED
204043251459107	INACTIVE_STOPPED
204043251459115	INACTIVE_STOPPED
204043251459119	INACTIVE_STOPPED
204043251459134	INACTIVE_STOPPED
204043251459145	INACTIVE_STOPPED
204043251459146	INACTIVE_STOPPED
204043251459151	INACTIVE_STOPPED
204043251459156	INACTIVE_STOPPED
204043251459164	INACTIVE_STOPPED
204043251459197	INACTIVE_STOPPED
204043251459228	INACTIVE_STOPPED
204043251459237	INACTIVE_STOPPED
204043251459240	INACTIVE_STOPPED
204043251459246	INACTIVE_STOPPED
204043251459278	INACTIVE_STOPPED
204043251459296	INACTIVE_STOPPED
204043251459301	INACTIVE_STOPPED
204043251459306	INACTIVE_STOPPED
204043251459323	INACTIVE_STOPPED
204043251459348	INACTIVE_STOPPED
204043251459377	INACTIVE_STOPPED
204043251459412	INACTIVE_STOPPED
204043251459424	INACTIVE_STOPPED
204043251459434	INACTIVE_STOPPED
204043251459435	INACTIVE_STOPPED
204043251459438	INACTIVE_STOPPED
204043251459459	INACTIVE_STOPPED
204043251459476	INACTIVE_STOPPED
204043251459492	INACTIVE_STOPPED
204043251459515	INACTIVE_STOPPED
204043251459519	INACTIVE_STOPPED
204043251459538	INACTIVE_STOPPED
204043251459542	INACTIVE_STOPPED
204043251459582	INACTIVE_STOPPED
204043251459587	INACTIVE_STOPPED
204043251459602	INACTIVE_STOPPED
204043251459607	INACTIVE_STOPPED
204043251459609	INACTIVE_STOPPED
204043251459622	INACTIVE_STOPPED
204043251459641	INACTIVE_STOPPED
204043251459644	INACTIVE_STOPPED
204043251459649	INACTIVE_STOPPED
204043251459672	INACTIVE_STOPPED
204043251459728	INACTIVE_STOPPED
204043251459732	INACTIVE_STOPPED
204043251459733	INACTIVE_STOPPED
204043251459754	INACTIVE_STOPPED
204043251459773	INACTIVE_STOPPED
204043251459775	INACTIVE_STOPPED
204043251459788	INACTIVE_STOPPED
204043251459789	INACTIVE_STOPPED
204043251459795	INACTIVE_STOPPED
204043251459797	INACTIVE_STOPPED
204043251459864	INACTIVE_STOPPED
204043251459893	INACTIVE_STOPPED
204043251459918	INACTIVE_STOPPED
204043251459948	INACTIVE_STOPPED
204043251459953	INACTIVE_STOPPED
204043251459956	INACTIVE_STOPPED
204043251459968	INACTIVE_STOPPED
204043251459971	INACTIVE_STOPPED
204043251459993	INACTIVE_STOPPED
204043251460005	INACTIVE_STOPPED
204043251460010	INACTIVE_STOPPED
204043251460051	INACTIVE_STOPPED
204043251460067	INACTIVE_STOPPED
204043251460083	INACTIVE_STOPPED
204043251460086	INACTIVE_STOPPED
204043251460091	INACTIVE_STOPPED
204043251460094	INACTIVE_STOPPED
204043251460100	INACTIVE_STOPPED
204043251460180	INACTIVE_STOPPED
204043251460209	INACTIVE_STOPPED
204043251460246	INACTIVE_STOPPED
204043251460269	INACTIVE_STOPPED
204043251460270	INACTIVE_STOPPED
204043251460274	INACTIVE_STOPPED
204043254312012	INACTIVE_STOPPED
204043254312016	INACTIVE_STOPPED
204043254312021	INACTIVE_STOPPED
204043254312032	INACTIVE_STOPPED
204043254312034	INACTIVE_STOPPED
204043254312048	INACTIVE_STOPPED
204043254312088	INACTIVE_STOPPED
204043254312099	INACTIVE_STOPPED
204043254312132	INACTIVE_STOPPED
204043254312154	INACTIVE_STOPPED
204043254312167	INACTIVE_STOPPED
204043254312179	INACTIVE_STOPPED
204043254312183	INACTIVE_STOPPED
204043254312191	INACTIVE_STOPPED
204043254312208	INACTIVE_STOPPED
204043254312216	INACTIVE_STOPPED
204043254312230	INACTIVE_STOPPED
204043254312239	INACTIVE_STOPPED
204043254312263	INACTIVE_STOPPED
204043254312264	INACTIVE_STOPPED
204043254312267	INACTIVE_STOPPED
204043254312268	INACTIVE_STOPPED
204043254312283	INACTIVE_STOPPED
204043254312284	INACTIVE_STOPPED
204043254312287	INACTIVE_STOPPED
204043254312308	INACTIVE_STOPPED
204043254312318	INACTIVE_STOPPED
204043254312322	INACTIVE_STOPPED
204043254312349	INACTIVE_STOPPED
204043254312352	INACTIVE_STOPPED
204043254312407	INACTIVE_STOPPED
204043254312413	INACTIVE_STOPPED
204043254312414	INACTIVE_STOPPED
204043254312440	INACTIVE_STOPPED
204043254312446	INACTIVE_STOPPED
204043254312447	INACTIVE_STOPPED
204043254312454	INACTIVE_STOPPED
204043254312464	INACTIVE_STOPPED
204043254312477	INACTIVE_STOPPED
204043254312483	INACTIVE_STOPPED
204043254312485	INACTIVE_STOPPED
204043254312497	INACTIVE_STOPPED
204043254312512	INACTIVE_STOPPED
204043254312516	INACTIVE_STOPPED
204043254312517	INACTIVE_STOPPED
204043254312521	INACTIVE_STOPPED
204043254312550	INACTIVE_STOPPED
204043254312576	INACTIVE_STOPPED
204043254312586	INACTIVE_STOPPED
204043254312589	INACTIVE_STOPPED
204043254312616	INACTIVE_STOPPED
204043254312645	INACTIVE_STOPPED
204043254312653	INACTIVE_STOPPED
204043254312662	INACTIVE_STOPPED
204043254312665	INACTIVE_STOPPED
204043254312678	INACTIVE_STOPPED
204043254312680	INACTIVE_STOPPED
204043254312692	INACTIVE_STOPPED
204043254312697	INACTIVE_STOPPED
204043254312700	INACTIVE_STOPPED
204043254312717	INACTIVE_STOPPED
204043254312729	INACTIVE_STOPPED
204043254312738	INACTIVE_STOPPED
204043254312754	INACTIVE_STOPPED
204043254312760	INACTIVE_STOPPED
204043254312774	INACTIVE_STOPPED
204043254312777	INACTIVE_STOPPED
204043254312781	INACTIVE_STOPPED
204043254312802	INACTIVE_STOPPED
204043254312811	INACTIVE_STOPPED
204043254312813	INACTIVE_STOPPED
204043254312814	INACTIVE_STOPPED
204043254312819	INACTIVE_STOPPED
204043254312824	INACTIVE_STOPPED
204043254312860	INACTIVE_STOPPED
204043254312861	INACTIVE_STOPPED
204043254312873	INACTIVE_STOPPED
204043254312899	INACTIVE_STOPPED
204043254312903	INACTIVE_STOPPED
204043254312909	INACTIVE_STOPPED
204043254312923	INACTIVE_STOPPED
204043254312925	INACTIVE_STOPPED
204043254312939	INACTIVE_STOPPED
204043254312946	INACTIVE_STOPPED
END	500
