  PID  PPID %MEM %CPU CMD
    1     0  0.1  0.0 /sbin/init
    2     0  0.0  0.0 [kthreadd]
    3     2  0.0  0.0 [ksoftirqd/0]
    4     2  0.0  0.0 [kworker/0:0]
    5     2  0.0  0.0 [kworker/0:0H]
    7     2  0.0  0.1 [rcu_sched]
    8     2  0.0  0.4 [rcuos/0]
    9     2  0.0  0.0 [rcuos/1]
   10     2  0.0  0.0 [rcuos/2]
   11     2  0.0  0.0 [rcuos/3]
   12     2  0.0  0.0 [rcuos/4]
   13     2  0.0  0.0 [rcuos/5]
   14     2  0.0  0.0 [rcuos/6]
   15     2  0.0  0.0 [rcuos/7]
   16     2  0.0  0.0 [rcuos/8]
   17     2  0.0  0.0 [rcuos/9]
   18     2  0.0  0.0 [rcuos/10]
   19     2  0.0  0.0 [rcuos/11]
   20     2  0.0  0.0 [rcuos/12]
   21     2  0.0  0.0 [rcuos/13]
   22     2  0.0  0.0 [rcuos/14]
   23     2  0.0  0.0 [rcu_bh]
   24     2  0.0  0.0 [rcuob/0]
   25     2  0.0  0.0 [rcuob/1]
   26     2  0.0  0.0 [rcuob/2]
   27     2  0.0  0.0 [rcuob/3]
   28     2  0.0  0.0 [rcuob/4]
   29     2  0.0  0.0 [rcuob/5]
   30     2  0.0  0.0 [rcuob/6]
   31     2  0.0  0.0 [rcuob/7]
   32     2  0.0  0.0 [rcuob/8]
   33     2  0.0  0.0 [rcuob/9]
   34     2  0.0  0.0 [rcuob/10]
   35     2  0.0  0.0 [rcuob/11]
   36     2  0.0  0.0 [rcuob/12]
   37     2  0.0  0.0 [rcuob/13]
   38     2  0.0  0.0 [rcuob/14]
   39     2  0.0  0.0 [migration/0]
   40     2  0.0  0.0 [watchdog/0]
   41     2  0.0  0.0 [khelper]
   42     2  0.0  0.0 [kdevtmpfs]
   43     2  0.0  0.0 [netns]
   44     2  0.0  0.0 [xenwatch]
   45     2  0.0  0.0 [xenbus]
   47     2  0.0  0.0 [writeback]
   48     2  0.0  0.0 [kintegrityd]
   49     2  0.0  0.0 [bioset]
   50     2  0.0  0.0 [kworker/u31:0]
   51     2  0.0  0.0 [kblockd]
   52     2  0.0  0.0 [ata_sff]
   53     2  0.0  0.0 [khubd]
   54     2  0.0  0.0 [md]
   55     2  0.0  0.0 [devfreq_wq]
   57     2  0.0  0.0 [khungtaskd]
   58     2  0.0  0.0 [kswapd0]
   59     2  0.0  0.0 [ksmd]
   60     2  0.0  0.0 [khugepaged]
   61     2  0.0  0.0 [fsnotify_mark]
   62     2  0.0  0.0 [ecryptfs-kthrea]
   63     2  0.0  0.0 [crypto]
   75     2  0.0  0.0 [kthrotld]
   77     2  0.0  0.0 [scsi_eh_0]
   78     2  0.0  0.0 [scsi_eh_1]
   98     2  0.0  0.0 [deferwq]
   99     2  0.0  0.0 [charger_manager]
  141     2  0.0  0.0 [kpsmoused]
  207     2  0.0  0.0 [jbd2/xvda1-8]
  208     2  0.0  0.0 [ext4-rsv-conver]
  473     1  0.0  0.0 upstart-udev-bridge --daemon
  478     1  0.0  0.0 /lib/systemd/systemd-udevd --daemon
  568     1  0.0  0.0 upstart-socket-bridge --daemon
  638     1  0.0  0.0 dhclient -1 -v -pf /run/dhclient.eth0.pid -lf /var/lib/dhcp/dhclient.eth0.leases eth0
  811     1  0.0  0.0 upstart-file-bridge --daemon
  907     1  0.0  0.0 dbus-daemon --system --fork
  934     1  0.0  0.0 /lib/systemd/systemd-logind
  967     1  0.0  0.0 /sbin/getty -8 38400 tty4
  970     1  0.0  0.0 /sbin/getty -8 38400 tty5
  974     1  0.0  0.0 /sbin/getty -8 38400 tty2
  975     1  0.0  0.0 /sbin/getty -8 38400 tty3
  978     1  0.0  0.0 /sbin/getty -8 38400 tty6
  998     1  0.0  0.0 tail -f monitor.log
 1006     1  0.0  0.0 acpid -c /etc/acpi/events -s /var/run/acpid.socket
 1012     1  1.3  0.0 java -jar SNIP_test.jar -p au.securenettech.com -s 1234 -i 9995 -eu monitoring@securenettech.com -ep m0n1t0r1ng123 -es do_not_reply@securenettech.com -en Monitoring Cloud Australia --web-host https://au.secure.direct --web-login-path1 /7.95/html/login.php --web-login-path2 /7.95/plugins/panel/html/account_lite_alarm_control.php? -gid 010203040506 -cid 0123456789AB -f au.securenettech.com -m /mobile/touch-0.5/login_json.php?app=SNIP_MONITOR&is_letter_passwd=&v=0.1 -ohph 59.100.120.70 -ohpp 9999 -ohsh 59.100.120.54 -ohsp 9999 -ohek r$yCfBMN)J9Jeqy_^j@#np3Y
 1059 22993  0.3  0.0 /usr/sbin/apache2 -k start
 1070     1  0.0  0.0 /usr/sbin/sshd -D
 1110     1  0.0  0.0 cron
 1111     1  0.0  0.0 atd
 1311     2  0.0  0.0 [rpciod]
 1312     2  0.0  0.0 [nfsiod]
 1352     1  0.0  0.0 sendmail: MTA: accepting connections          
 1482     1  0.0  0.0 /sbin/getty -8 38400 tty1
 1483     1  0.0  0.0 /sbin/getty -8 38400 ttyS0
 1909  1110  0.0  0.4 CRON
 1910  1110  0.0  0.2 CRON
 1911  1910  0.0  0.0 /bin/sh -c /home/securenet/bin/ping_receivers.sh >> /tmp/ping_receivers.log
 1912  1911  0.0  0.0 /bin/bash /home/securenet/bin/ping_receivers.sh
 1917  1909  0.0  0.0 /bin/sh -c /home/securenet/bin/ping_receivers_lanvac.sh >> /tmp/ping_receivers_lanvac.log
 1918  1917  0.0  0.4 /bin/bash /home/securenet/bin/ping_receivers_lanvac.sh
 1972 21945  0.0  0.0 sleep 5
 2000  1912  1.8 23.0 /usr/lib/jvm/java-1.7.0-openjdk-amd64/bin/java -cp SNIP_test3.jar com.infinity.securenet.core.receiver.oh.processor.OHClient ipm-m7211b.protectamerica.com 9999 9998 602 1 1
 2018  1918  1.7 21.0 /usr/lib/jvm/java-7-openjdk-amd64/bin/java -cp SNIP_test2.jar com.infinity.securenet.core.receiver.oh.processor.OHClient 208.71.11.194 9999 kC*5dX%!??hWEx-H*Ba%J4-J 9978 8800 0
 2066  1070  0.2  0.0 sshd: bev_lekx [priv]
 2136  2066  0.0  0.0 sshd: bev_lekx@notty
 2137  2136  0.0  0.0 ps -eo pid,ppid,%mem,%cpu,cmd
 2578     1  0.0  0.0 rpcbind -w
 2815     1  0.0  0.0 rpc.statd -L
 2895     1  0.0  0.0 rpc.idmapd
 3271     2  0.0  0.0 [nfsv4.0-svc]
 6057     2  0.0  0.0 [kworker/u30:1]
 6964     2  0.0  0.0 [kauditd]
 9024     1  0.0  0.0 tail -f monitor.log
10132     1  0.0  0.0 rsyslogd
11349     2  0.0  0.0 [xfsalloc]
11350     2  0.0  0.0 [xfs_mru_cache]
11351     2  0.0  0.0 [xfslogd]
11381     2  0.0  0.0 [bioset]
14398     1  1.2  0.1 /usr/sbin/haproxy -f /etc/haproxy/haproxy.cfg -D -p /var/run/haproxy.pid
15162 22993  0.3  0.0 /usr/sbin/apache2 -k start
15172 22993  0.3  0.0 /usr/sbin/apache2 -k start
18278     1  0.0  0.0 /usr/sbin/zabbix_agentd -c /etc/zabbix/zabbix_agentd.conf
18279 18278  0.0  0.0 /usr/sbin/zabbix_agentd: collector [idle 1 sec]          
18280 18278  0.0  0.0 /usr/sbin/zabbix_agentd: listener #1 [waiting for connection]
18281 18278  0.0  0.0 /usr/sbin/zabbix_agentd: listener #2 [waiting for connection]
18282 18278  0.0  0.0 /usr/sbin/zabbix_agentd: listener #3 [waiting for connection]
18283 18278  0.0  0.0 /usr/sbin/zabbix_agentd: active checks #1 [idle 1 sec]   
19053 22993  0.3  0.0 /usr/sbin/apache2 -k start
19054 22993  0.3  0.0 /usr/sbin/apache2 -k start
19055 22993  0.3  0.0 /usr/sbin/apache2 -k start
19056 22993  0.3  0.0 /usr/sbin/apache2 -k start
19057 22993  0.3  0.0 /usr/sbin/apache2 -k start
21945     1  0.0  0.0 /bin/bash ./start_Server.sh
21949 21945  4.2  5.1 /root/PPCHuiyan/SmartP2P_Server SEGood
22811     2  0.0  0.0 [kworker/u31:1]
22993     1  0.7  0.0 /usr/sbin/apache2 -k start
23711  1110  0.0  0.0 CRON
23715 23711  0.0  0.0 /bin/sh -c /home/securenet/bin/ping_receivers_lanvac.sh >> /tmp/ping_receivers_lanvac.log
23722 23715  0.0  0.0 /bin/bash /home/securenet/bin/ping_receivers_lanvac.sh
24119 23722  0.1  0.0 /usr/lib/jvm/java-7-openjdk-amd64/bin/java -cp SNIP_test2.jar com.infinity.securenet.core.receiver.oh.processor.OHClient 208.71.11.194 9999 kC*5dX%!??hWEx-H*Ba%J4-J 9978 8800 0
24237     2  0.0  0.0 [kworker/0:1]
24446     1  0.4  0.0 /usr/sbin/openvpn --writepid /run/openvpn/server-vivotek-tcp10.pid --daemon ovpn-server-vivotek-tcp10 --cd /etc/openvpn --config /etc/openvpn/server-vivotek-tcp10.conf --script-security 2
24472     1  0.5  0.0 /usr/sbin/openvpn --writepid /run/openvpn/server-vivotek-tcp1.pid --daemon ovpn-server-vivotek-tcp1 --cd /etc/openvpn --config /etc/openvpn/server-vivotek-tcp1.conf --script-security 2
24496     1  0.4  0.0 /usr/sbin/openvpn --writepid /run/openvpn/server-vivotek-tcp2.pid --daemon ovpn-server-vivotek-tcp2 --cd /etc/openvpn --config /etc/openvpn/server-vivotek-tcp2.conf --script-security 2
24520     1  0.4  0.0 /usr/sbin/openvpn --writepid /run/openvpn/server-vivotek-tcp3.pid --daemon ovpn-server-vivotek-tcp3 --cd /etc/openvpn --config /etc/openvpn/server-vivotek-tcp3.conf --script-security 2
24544     1  0.4  0.0 /usr/sbin/openvpn --writepid /run/openvpn/server-vivotek-tcp4.pid --daemon ovpn-server-vivotek-tcp4 --cd /etc/openvpn --config /etc/openvpn/server-vivotek-tcp4.conf --script-security 2
24568     1  0.5  0.0 /usr/sbin/openvpn --writepid /run/openvpn/server-vivotek-tcp5.pid --daemon ovpn-server-vivotek-tcp5 --cd /etc/openvpn --config /etc/openvpn/server-vivotek-tcp5.conf --script-security 2
24592     1  0.4  0.0 /usr/sbin/openvpn --writepid /run/openvpn/server-vivotek-tcp6.pid --daemon ovpn-server-vivotek-tcp6 --cd /etc/openvpn --config /etc/openvpn/server-vivotek-tcp6.conf --script-security 2
24616     1  0.4  0.0 /usr/sbin/openvpn --writepid /run/openvpn/server-vivotek-tcp7.pid --daemon ovpn-server-vivotek-tcp7 --cd /etc/openvpn --config /etc/openvpn/server-vivotek-tcp7.conf --script-security 2
24640     1  0.4  0.0 /usr/sbin/openvpn --writepid /run/openvpn/server-vivotek-tcp8.pid --daemon ovpn-server-vivotek-tcp8 --cd /etc/openvpn --config /etc/openvpn/server-vivotek-tcp8.conf --script-security 2
24664     1  0.4  0.0 /usr/sbin/openvpn --writepid /run/openvpn/server-vivotek-tcp9.pid --daemon ovpn-server-vivotek-tcp9 --cd /etc/openvpn --config /etc/openvpn/server-vivotek-tcp9.conf --script-security 2
24688     1  0.2  0.0 /usr/sbin/openvpn --writepid /run/openvpn/server-vivotek-udp.pid --daemon ovpn-server-vivotek-udp --cd /etc/openvpn --config /etc/openvpn/server-vivotek-udp.conf --script-security 2
24871  1110  0.0  0.0 CRON
24872 24871  0.0  0.0 /bin/sh -c /home/securenet/bin/ping_receivers_lanvac.sh >> /tmp/ping_receivers_lanvac.log
24874 24872  0.0  0.0 /bin/bash /home/securenet/bin/ping_receivers_lanvac.sh
24906 24874  0.1  0.0 /usr/lib/jvm/java-7-openjdk-amd64/bin/java -cp SNIP_test2.jar com.infinity.securenet.core.receiver.oh.processor.OHClient 173.246.80.22 9999 kC*5dX%!??hWEx-H*Ba%J4-J 9977 8800 0
25005     1  1.3  0.0 java -jar SNIP_test.jar -p au.securenettech.com -s 1234 -i 9995 -eu monitoring@securenettech.com -ep m0n1t0r1ng123 -es do_not_reply@securenettech.com -en Monitoring Cloud Australia --web-host https://au.secure.direct --web-login-path1 /7.95/html/login.php --web-login-path2 /7.95/plugins/panel/html/account_lite_alarm_control.php? -gid 010203040506 -cid 0123456789AB -f au.securenettech.com -m /mobile/touch-0.5/login_json.php?app=SNIP_MONITOR&is_letter_passwd=&v=0.1 -ohph 59.100.120.70 -ohpp 9999 -ohsh 59.100.120.54 -ohsp 9999 -ohek r$yCfBMN)J9Jeqy_^j@#np3Y
27132     1  0.0  0.0 /usr/sbin/snmpd -Lsd -Lf /dev/null -u snmp -g snmp -I -smux mteTrigger mteTriggerConf -p /var/run/snmpd.pid
31539     2  0.0  0.0 [kworker/u30:2]
