  PID  PPID %MEM %CPU CMD
    1     0  0.0  0.0 /lib/systemd/systemd --system --deserialize 27
    2     0  0.0  0.0 [kthreadd]
    3     2  0.0  0.0 [ksoftirqd/0]
    7     2  0.0  0.0 [rcu_sched]
    8     2  0.0  0.0 [rcu_bh]
    9     2  0.0  0.0 [migration/0]
   10     2  0.0  0.0 [watchdog/0]
   11     2  0.0  0.0 [watchdog/1]
   12     2  0.0  0.0 [migration/1]
   13     2  0.0  0.0 [ksoftirqd/1]
   16     2  0.0  0.0 [watchdog/2]
   17     2  0.0  0.0 [migration/2]
   18     2  0.0  0.0 [ksoftirqd/2]
   21     2  0.0  0.0 [watchdog/3]
   22     2  0.0  0.0 [migration/3]
   23     2  0.0  0.0 [ksoftirqd/3]
   26     2  0.0  0.0 [kdevtmpfs]
   27     2  0.0  0.0 [netns]
   28     2  0.0  0.0 [perf]
   29     2  0.0  0.0 [khungtaskd]
   30     2  0.0  0.0 [writeback]
   31     2  0.0  0.0 [ksmd]
   32     2  0.0  0.0 [khugepaged]
   33     2  0.0  0.0 [crypto]
   34     2  0.0  0.0 [kintegrityd]
   35     2  0.0  0.0 [bioset]
   36     2  0.0  0.0 [kblockd]
   37     2  0.0  0.0 [ata_sff]
   38     2  0.0  0.0 [md]
   39     2  0.0  0.0 [devfreq_wq]
   43     2  0.0  0.0 [kswapd0]
   44     2  0.0  0.0 [vmstat]
   45     2  0.0  0.0 [fsnotify_mark]
   46     2  0.0  0.0 [ecryptfs-kthrea]
   62     2  0.0  0.0 [kthrotld]
   63     2  0.0  0.0 [bioset]
   64     2  0.0  0.0 [bioset]
   65     2  0.0  0.0 [bioset]
   66     2  0.0  0.0 [bioset]
   67     2  0.0  0.0 [bioset]
   68     2  0.0  0.0 [bioset]
   69     2  0.0  0.0 [bioset]
   70     2  0.0  0.0 [bioset]
   71     2  0.0  0.0 [bioset]
   72     2  0.0  0.0 [bioset]
   73     2  0.0  0.0 [bioset]
   74     2  0.0  0.0 [bioset]
   75     2  0.0  0.0 [bioset]
   76     2  0.0  0.0 [bioset]
   77     2  0.0  0.0 [bioset]
   78     2  0.0  0.0 [bioset]
   79     2  0.0  0.0 [bioset]
   80     2  0.0  0.0 [bioset]
   81     2  0.0  0.0 [bioset]
   82     2  0.0  0.0 [bioset]
   83     2  0.0  0.0 [bioset]
   84     2  0.0  0.0 [bioset]
   85     2  0.0  0.0 [bioset]
   86     2  0.0  0.0 [bioset]
   93     2  0.0  0.0 [ipv6_addrconf]
  107     2  0.0  0.0 [deferwq]
  140     2  0.0  0.0 [nvme]
  142     2  0.0  0.0 [ena]
  201     2  0.0  0.0 [bioset]
  202     2  0.0  0.0 [bioset]
  272     2  0.0  0.0 [raid5wq]
  299     2  0.0  0.0 [bioset]
  320     2  0.0  0.0 [jbd2/nvme0n1p1-]
  321     2  0.0  0.0 [ext4-rsv-conver]
  414     1  0.0  0.0 /lib/systemd/systemd-journald
  416     2  0.0  0.0 [rpciod]
  434     2  0.0  0.0 [iscsi_eh]
  435     2  0.0  0.0 [kauditd]
  436     2  0.0  0.0 [ib_addr]
  448     2  0.0  0.0 [ib_mcast]
  449     2  0.0  0.0 [ib_nl_sa_wq]
  451     2  0.0  0.0 [ib_cm]
  454     2  0.0  0.0 [iw_cm_wq]
  456     2  0.0  0.0 [rdma_cm]
  473     1  0.0  0.0 /sbin/lvmetad -f
  966     1  0.0  0.0 /sbin/dhclient -1 -v -pf /run/dhclient.ens5.pid -lf /var/lib/dhcp/dhclient.ens5.leases -I -df /var/lib/dhcp/dhclient6.ens5.leases ens5
 1123     1  0.0  0.0 /lib/systemd/systemd-logind
 1125     1  0.0  0.0 /usr/bin/lxcfs /var/lib/lxcfs/
 1127     1  0.0  0.0 /usr/sbin/rsyslogd -n
 1129     1  0.0  0.0 /usr/sbin/atd -f
 1131     1  0.0  0.0 /usr/bin/dbus-daemon --system --address=systemd: --nofork --nopidfile --systemd-activation
 1176     1  0.0  0.0 /usr/sbin/acpid
 1224     1  0.0  0.0 /usr/lib/accountsservice/accounts-daemon
 1239     1  0.0  0.0 /usr/sbin/cron -f
 1412     1  0.0  0.0 /sbin/mdadm --monitor --pid-file /run/mdadm/monitor.pid --daemonise --scan --syslog
 1435     1  0.0  0.0 /usr/sbin/haproxy-systemd-wrapper -f /etc/haproxy/haproxy.cfg -p /run/haproxy.pid
 1456     2  0.0  0.0 [nfsiod]
 1482     2  0.0  0.0 [nfsv4.1-svc]
 1535     1  0.0  0.0 /usr/sbin/irqbalance --pid=/var/run/irqbalance.pid
 1551     1  0.0  0.0 /sbin/agetty --noclear tty1 linux
 1552     1  0.0  0.0 /sbin/agetty --keep-baud 115200 38400 9600 ttyS0 vt220
 2032     2  0.0  0.0 [kworker/3:0]
 2033     2  0.0  0.0 [kworker/3:3]
 3195     1  0.0  0.0 /lib/systemd/systemd --user
 3202  3195  0.0  0.0 (sd-pam)
 3686     1  0.0  0.0 /lib/systemd/systemd --user
 3688  3686  0.0  0.0 (sd-pam)
 4058     2  0.0  0.0 [kworker/3:2]
 4725     1  0.0  0.0 /usr/sbin/sshd -D
 6150     1  0.0  0.0 /usr/sbin/zabbix_agentd
 6151  6150  0.0  0.0 /usr/sbin/zabbix_agentd: collector [idle 1 sec]
 6152  6150  0.0  0.0 /usr/sbin/zabbix_agentd: listener #1 [waiting for connection]
 6153  6150  0.0  0.0 /usr/sbin/zabbix_agentd: listener #2 [waiting for connection]
 6154  6150  0.0  0.0 /usr/sbin/zabbix_agentd: listener #3 [waiting for connection]
 6156  6150  0.0  0.0 /usr/sbin/zabbix_agentd: active checks #1 [idle 1 sec]
 6528     1  0.0  0.0 /usr/sbin/snmpd -Lsd -Lf /dev/null -u snmp -g snmp -I -smux mteTrigger mteTriggerConf -p /run/snmpd.pid
 6728     2  0.0  0.0 [kworker/3:1]
 7742     2  0.0  0.0 [kworker/0:1H]
 8941     2  0.0  0.0 [kworker/2:1]
10089     1  0.0  0.0 /usr/lib/policykit-1/polkitd --no-debug
10513     1  0.0  0.0 /lib/systemd/systemd-timesyncd
11484     1  0.0  0.0 /lib/systemd/systemd-udevd
11499     1  0.0  0.0 /sbin/iscsid
11500     1  0.0  0.0 /sbin/iscsid
12114  1435  0.0  0.0 /usr/sbin/haproxy -f /etc/haproxy/haproxy.cfg -p /run/haproxy.pid -Ds -sf 11524
12115 12114  0.0  0.0 /usr/sbin/haproxy -f /etc/haproxy/haproxy.cfg -p /run/haproxy.pid -Ds -sf 11524
12884     1  0.0  0.0 /usr/sbin/openvpn --daemon ovpn-server-vivotek-tcp10 --status /run/openvpn/server-vivotek-tcp10.status 10 --cd /etc/openvpn --script-security 2 --config /etc/openvpn/server-vivotek-tcp10.conf --writepid /run/openvpn/server-vivotek-tcp10.pid
13264     2  0.0  0.0 [kworker/2:0]
13571     1  0.1  0.0 /usr/sbin/openvpn --daemon ovpn-server-vivotek-tcp5 --status /run/openvpn/server-vivotek-tcp5.status 10 --cd /etc/openvpn --script-security 2 --config /etc/openvpn/server-vivotek-tcp5.conf --writepid /run/openvpn/server-vivotek-tcp5.pid
15299     1  0.0  0.0 /usr/sbin/openvpn --daemon ovpn-server-vivotek-tcp6 --status /run/openvpn/server-vivotek-tcp6.status 10 --cd /etc/openvpn --script-security 2 --config /etc/openvpn/server-vivotek-tcp6.conf --writepid /run/openvpn/server-vivotek-tcp6.pid
15668     1  0.0  0.0 /home/securenet_prod/bin/wrapper /home/securenet_prod/etc/prosegur_wrapper.properties wrapper.syslog.ident=securenet_prod_prosegur wrapper.pidfile=/home/securenet_prod/bin/../run/securenet_prod_prosegur.pid wrapper.daemonize=TRUE wrapper.lockfile=/var/lock/subsys/securenet_prod_prosegur
15680 15668  0.2  0.0 /usr/lib/jvm/java-8-oracle/jre/bin/java -Djava.net.preferIPv4Stack=true -Xms16m -Xmx128m -Djava.library.path=../lib/ext -classpath ../lib/ext/wrapper.jar:../lib/securenet.prosegur-latest.jar:../lib/ext/log4j-1.2.13.jar:../lib/ext/mail.jar:../lib/ext/activation.jar:../lib/ext/mysql-connector-java-5.1.18-bin.jar:../lib/ext/java_memcached-release_2.6.6.jar:../lib/ext/slf4j-api-1.6.1.jar:../lib/ext/commons-pool2-2.4.2.jar:../lib/ext/bcprov-jdk15-146.jar:../lib/ext/json-simple-1.1.1.jar:../lib/ext/httpclient-4.3.4.jar:../lib/ext/httpcore-4.3.2.jar:../lib/ext/commons-logging.jar:../lib/ext/spring-jdbc-4.0.6.RELEASE.jar:../lib/ext/spring-tx-4.1.3.RELEASE.jar:../lib/ext/commons-dbcp2-2.1.1.jar:../lib/ext/spring-core-4.1.3.RELEASE.jar:../lib/ext/spring-beans-4.1.3.RELEASE.jar:../lib/ext/commons-pool-1.5.6.jar:../lib/ext/dom4j-1.6.1.jar:../lib/ext/jaxen-1.1-beta-6.jar:../lib/ext/javax.jms-3.1.2.2.jar:../lib/ext/activemq-all-5.14.4.jar:../lib/ext/org.eclipse.paho.client.mqttv3-1.0.2.jar:../lib/ext/xws-security-3.0.jar -Dwrapper.key=EW5QK21A98oomzqp -Dwrapper.port=32002 -Dwrapper.jvm.port.min=31000 -Dwrapper.jvm.port.max=31999 -Dwrapper.disable_console_input=TRUE -Dwrapper.pid=15668 -Dwrapper.version=3.5.30 -Dwrapper.native_library=wrapper -Dwrapper.arch=x86 -Dwrapper.service=TRUE -Dwrapper.cpu.timeout=10 -Dwrapper.jvmid=1 org.tanukisoftware.wrapper.WrapperStartStopApp com.infinity.securenet.partners.prosegur.MessageBrokerClient 2 start properties=../etc/prosegur.properties com.infinity.securenet.partners.prosegur.MessageBrokerClient true 1 stop
15988     1  0.0  0.0 /home/securenet_prod/bin/wrapper /home/securenet_prod/etc/dvr_wrapper.properties wrapper.syslog.ident=securenet_prod_dvr wrapper.pidfile=/tmp/securenet_prod_dvr.pid wrapper.daemonize=TRUE wrapper.lockfile=/tmp/securenet_prod_dvr
16025 15988  0.9  0.2 /usr/lib/jvm/java-8-oracle/jre/bin/java -Xms16m -Xmx512m -Djava.library.path=../lib/ext -classpath ../lib/ext/wrapper.jar:../lib/sn-server-latest.jar:../lib/ext/third-parties.jar -Dwrapper.key=nY2LE9JCJ2QEbUtt -Dwrapper.port=32001 -Dwrapper.jvm.port.min=31000 -Dwrapper.jvm.port.max=31999 -Dwrapper.disable_console_input=TRUE -Dwrapper.pid=15988 -Dwrapper.version=3.5.30 -Dwrapper.native_library=wrapper -Dwrapper.arch=x86 -Dwrapper.service=TRUE -Dwrapper.cpu.timeout=10 -Dwrapper.jvmid=1 org.tanukisoftware.wrapper.WrapperStartStopApp com.infinity.securenet.plugins.video.DvrServiceRunner 2 start properties=../etc/dvr.properties com.infinity.securenet.plugins.video.DvrServiceRunner true 1 stop
16902     2  0.0  0.0 [kworker/1:1H]
17086     1  0.0  0.0 /usr/sbin/openvpn --daemon ovpn-server-vivotek-tcp1 --status /run/openvpn/server-vivotek-tcp1.status 10 --cd /etc/openvpn --script-security 2 --config /etc/openvpn/server-vivotek-tcp1.conf --writepid /run/openvpn/server-vivotek-tcp1.pid
17280  1239  0.0  0.0 /usr/sbin/CRON -f
17291     1  0.0  0.0 tail -f /home/securenet_prod/log/snip.log
17295 17280  0.0  0.0 /bin/sh -c sleep 30 && /home/david_wilson/bin/get_dropped_packets.sh >> /tmp/dropped_packets.log
17297 17295  0.0  0.0 sleep 30
18102     1  0.0  0.0 /usr/sbin/openvpn --daemon ovpn-server-vivotek-tcp2 --status /run/openvpn/server-vivotek-tcp2.status 10 --cd /etc/openvpn --script-security 2 --config /etc/openvpn/server-vivotek-tcp2.conf --writepid /run/openvpn/server-vivotek-tcp2.pid
18139     2  0.0  0.0 [kworker/2:2H]
18149  4725  0.0  0.0 sshd: bev_lekx [priv]
18155     2  0.0  0.0 [kworker/0:2]
18156     2  0.0  0.0 [kworker/0:3]
18208 18149  0.0  0.0 sshd: bev_lekx@notty
18211 18208  0.0  0.0 ps -eo pid,ppid,%mem,%cpu,cmd
20175     2  0.0  0.0 [kworker/3:0H]
20211     2  0.0  0.0 [xfsalloc]
20212     2  0.0  0.0 [xfs_mru_cache]
20900     1  0.1  0.0 /usr/sbin/openvpn --daemon ovpn-server-vivotek-tcp7 --status /run/openvpn/server-vivotek-tcp7.status 10 --cd /etc/openvpn --script-security 2 --config /etc/openvpn/server-vivotek-tcp7.conf --writepid /run/openvpn/server-vivotek-tcp7.pid
21372     2  0.0  0.0 [kworker/0:2H]
21552     1  0.0  0.0 /usr/sbin/openvpn --daemon ovpn-server-vivotek-tcp4 --status /run/openvpn/server-vivotek-tcp4.status 10 --cd /etc/openvpn --script-security 2 --config /etc/openvpn/server-vivotek-tcp4.conf --writepid /run/openvpn/server-vivotek-tcp4.pid
21898     1  2.7  1.3 /usr/bin/java -Xms64M -Xmx1G -Djava.util.logging.config.file=logging.properties -Djava.security.auth.login.config=/etc/activemq/conf/login.config -Dcom.sun.management.jmxremote -Djava.awt.headless=true -Djava.io.tmpdir=/etc/activemq/tmp -Dactivemq.classpath=/etc/activemq/conf:/etc/activemq/../lib/: -Dactivemq.home=/usr/local/activemq -Dactivemq.base=/etc/activemq -Dactivemq.conf=/etc/activemq/conf -Dactivemq.data=/etc/activemq/data -jar /usr/local/activemq/bin/activemq.jar start
22829     2  0.0  0.0 [kworker/0:1]
23122     2  0.0  0.0 [kworker/3:1H]
23288     1  0.1  0.0 /usr/sbin/openvpn --daemon ovpn-server-vivotek-tcp8 --status /run/openvpn/server-vivotek-tcp8.status 10 --cd /etc/openvpn --script-security 2 --config /etc/openvpn/server-vivotek-tcp8.conf --writepid /run/openvpn/server-vivotek-tcp8.pid
23422     2  0.0  0.0 [kworker/u8:1]
23756     2  0.0  0.0 [kworker/u8:2]
25095     1  0.0  0.0 /lib/systemd/systemd --user
25102 25095  0.0  0.0 (sd-pam)
26578     1  0.0  0.0 /home/securenet_prod/bin/wrapper /home/securenet_prod/etc/snip_wrapper.properties wrapper.syslog.ident=securenet_prod_snip wrapper.pidfile=/home/securenet_prod/bin/../run/securenet_prod_snip.pid wrapper.daemonize=TRUE wrapper.lockfile=/var/lock/subsys/securenet_prod_snip
26580 26578  8.4  5.4 /usr/lib/jvm/java-8-oracle/jre/bin/java -Djava.net.preferIPv4Stack=true -Duser.timezone=US/Central -Djava.net.preferIPv4Stack=true -XX:+PrintGCDetails -XX:+PrintGCDateStamps -Xms1024m -Xmx12288m -Djava.library.path=../lib/ext -classpath ../lib/ext/wrapper.jar:../lib/sn-server-latest.jar:../lib/ext/third-parties.jar -Dwrapper.key=aCc4IvapQdXWxzQM -Dwrapper.port=32000 -Dwrapper.jvm.port.min=31000 -Dwrapper.jvm.port.max=31999 -Dwrapper.disable_console_input=TRUE -Dwrapper.pid=26578 -Dwrapper.version=3.5.30 -Dwrapper.native_library=wrapper -Dwrapper.arch=x86 -Dwrapper.service=TRUE -Dwrapper.cpu.timeout=10 -Dwrapper.jvmid=1 org.tanukisoftware.wrapper.WrapperStartStopApp com.infinity.securenet.plugins.pa.PAServiceRunner 2 start properties=../etc/snip.properties com.infinity.securenet.plugins.pa.PAServiceRunner true 1 stop
26682     2  0.0  0.0 [kworker/1:2]
28360     1  0.1  0.0 /usr/sbin/openvpn --daemon ovpn-server-vivotek-tcp9 --status /run/openvpn/server-vivotek-tcp9.status 10 --cd /etc/openvpn --script-security 2 --config /etc/openvpn/server-vivotek-tcp9.conf --writepid /run/openvpn/server-vivotek-tcp9.pid
30051     1  0.1  0.0 /usr/sbin/openvpn --daemon ovpn-server-vivotek-tcp3 --status /run/openvpn/server-vivotek-tcp3.status 10 --cd /etc/openvpn --script-security 2 --config /etc/openvpn/server-vivotek-tcp3.conf --writepid /run/openvpn/server-vivotek-tcp3.pid
30548     2  0.0  0.0 [kworker/1:2H]
30990     2  0.0  0.0 [kworker/1:0]
32287     2  0.0  0.0 [kworker/2:1H]
32703     2  0.0  0.0 [kworker/0:0]
