('310003086323707', '0', 'OK; Device already in SUSPEND state')
('310003086329053', '0', 'OK; Device already in SUSPEND state')
('310003086329093', '0', 'OK; Device already in SUSPEND state')
('310003086329118', '0', 'OK')
('310003086329160', '0', 'OK; Device already in SUSPEND state')
('310003086329167', '0', 'OK; Device already in SUSPEND state')
('310003086339868', '0', 'OK')
('310003086339879', '0', 'OK; Device already in SUSPEND state')
('310003086339883', '0', 'OK; Device already in SUSPEND state')
('310003086339894', '0', 'OK')
('310003086339901', '0', 'OK; Device already in SUSPEND state')
('310003086350029', '0', 'OK; Device already in SUSPEND state')
('310003086350159', '0', 'OK; Device already in SUSPEND state')
('310003086350185', '0', 'OK; Device already in SUSPEND state')
('310003086350254', '0', 'OK; Device already in SUSPEND state')
('310003086350318', '0', 'OK; Device already in SUSPEND state')
('310003086353655', '0', 'OK')
('310003086353692', '0', 'OK')
('310003086353751', '0', 'OK')
('310003086353798', '0', 'OK; Device already in SUSPEND state')
('310003086353883', '0', 'OK; Device already in SUSPEND state')
('310003086359423', '0', 'OK; Device already in SUSPEND state')
('310003086359462', '0', 'OK; Device already in SUSPEND state')
('310003086359494', '0', 'OK')
('310003086383080', '0', 'OK; Device already in SUSPEND state')
('310003086386311', '0', 'OK; Device already in SUSPEND state')
('310003086386342', '0', 'OK; Device already in SUSPEND state')
('310003086386392', '0', 'OK; Device already in SUSPEND state')
('310003086386924', '0', 'OK; Device already in SUSPEND state')
('310003086386997', '0', 'OK; Device already in SUSPEND state')
('310003086387034', '0', 'OK; Device already in SUSPEND state')
('310003086387038', '0', 'OK')
('310003086387041', '0', 'OK; Device already in SUSPEND state')
('310003086387245', '0', 'OK; Device already in SUSPEND state')
('310003086391970', '0', 'OK; Device already in SUSPEND state')
('310003086392024', '0', 'OK; Device already in SUSPEND state')
('310003086392060', '0', 'OK; Device already in SUSPEND state')
('310003086392084', '0', 'OK; Device already in SUSPEND state')
('310003086392243', '0', 'OK; Device already in SUSPEND state')
('310003086395177', '0', 'OK')
('310003086395216', '0', 'OK; Device already in SUSPEND state')
('310003086395255', '0', 'OK; Device already in SUSPEND state')
('310003086395281', '0', 'OK; Device already in SUSPEND state')
('310003086395711', '0', 'OK; Device already in SUSPEND state')
('310003086396409', '0', 'OK; Device already in SUSPEND state')
('310003086396417', '0', 'OK')
('310003086396449', '0', 'OK; Device already in SUSPEND state')
('310003086396477', '0', 'OK; Device already in SUSPEND state')
('310003086461998', '0', 'OK; Device already in SUSPEND state')
('310003086462007', '0', 'OK; Device already in SUSPEND state')
('310003086462015', '0', 'OK; Device already in SUSPEND state')
('310003086462055', '0', 'OK; Device already in SUSPEND state')
('310003086462998', '0', 'OK; Device already in SUSPEND state')
('310003086463295', '0', 'OK; Device already in SUSPEND state')
('310003086463336', '0', 'OK; Device already in SUSPEND state')
('310003086463385', '0', 'OK; Device already in SUSPEND state')
('310003086512851', '0', 'OK; Device already in SUSPEND state')
('310003086512855', '0', 'OK; Device already in SUSPEND state')
('310003086512864', '0', 'OK; Device already in SUSPEND state')
('310003086536691', '0', 'OK; Device already in SUSPEND state')
('310003086539789', '0', 'OK; Device already in SUSPEND state')
('310003086556288', '0', 'OK; Device already in SUSPEND state')
('310003463519936', '0', 'OK; Device already in SUSPEND state')
('310005749888542', '0', 'OK; Device already in SUSPEND state')
('310005749900185', '0', 'OK')
('310005749900206', '0', 'OK; Device already in SUSPEND state')
('310005749900407', '0', 'OK; Device already in SUSPEND state')
('310005749900513', '0', 'OK; Device already in SUSPEND state')
('310005749900526', '0', 'OK; Device already in SUSPEND state')
('310005749902964', '0', 'OK; Device already in SUSPEND state')
('310005749905078', '0', 'OK; Device already in SUSPEND state')
('310005749906003', '0', 'OK')
('310005749906057', '0', 'OK')
('310005749906086', '0', 'OK')
('310006183021091', '0', 'OK; Device already in SUSPEND state')
('310006183021129', '0', 'OK; Device already in SUSPEND state')
('310006183021140', '0', 'OK; Device already in SUSPEND state')
('310006183021178', '0', 'OK; Device already in SUSPEND state')
('310006183021785', '0', 'OK')
('310006183021820', '0', 'OK; Device already in SUSPEND state')
('310006183022285', '0', 'OK')
('310006183023951', '0', 'OK')
('310006183812770', '0', 'OK; Device already in SUSPEND state')
('310006183812808', '0', 'OK; Device already in SUSPEND state')
('310006183812835', '0', 'OK; Device already in SUSPEND state')
('310006183813020', '0', 'OK; Device already in SUSPEND state')
('310006183815096', '0', 'OK; Device already in SUSPEND state')
('310006183815254', '0', 'OK; Device already in SUSPEND state')
('310006183815751', '0', 'OK')
('310006183815772', '0', 'OK')
('310006183816429', '0', 'OK')
('310006183816447', '0', 'OK')
('310006183816458', '0', 'OK')
('310006183816469', '0', 'OK; Device already in SUSPEND state')
('310006183816492', '0', 'OK')
('310006184293814', '0', 'OK; Device already in SUSPEND state')
('310006184293821', '0', 'OK; Device already in SUSPEND state')
('310006184293826', '0', 'OK; Device already in SUSPEND state')
('310006184293867', '0', 'OK; Device already in SUSPEND state')
('310006184298439', '0', 'OK')
('310006184478592', '0', 'OK; Device already in SUSPEND state')
('310006184478630', '0', 'OK; Device already in SUSPEND state')
('310006184478657', '0', 'OK; Device already in SUSPEND state')
('310006184478814', '0', 'OK')
('310006184478821', '0', 'OK')
('310006184478843', '0', 'OK')
('310006184478845', '0', 'OK; Device already in SUSPEND state')
('310006184478962', '0', 'OK')
('310006184478982', '0', 'OK')
('310006302021877', '0', 'OK')
('310006302021894', '0', 'OK')
('310006302023468', '0', 'OK')
('310006302023481', '0', 'OK; Device already in SUSPEND state')
('310006302023564', '0', 'OK; Device already in SUSPEND state')
('310006302023576', '0', 'OK; Device already in SUSPEND state')
('310006302026010', '0', 'OK')
('310006302050067', '0', 'OK')
('310006302050091', '0', 'OK; Device already in SUSPEND state')
('310006302053370', '0', 'OK; Device already in SUSPEND state')
('310006302053825', '0', 'OK')
('310006302058945', '0', 'OK')
('310006302058967', '0', 'OK')
('310006302059003', '0', 'OK; Device already in SUSPEND state')
('310007087810562', '0', 'OK; Device already in SUSPEND state')
('310007087811784', '0', 'OK; Device already in SUSPEND state')
('310007087811934', '0', 'OK')
('310007087814243', '0', 'OK; Device already in SUSPEND state')
('310007087814366', '0', 'OK; Device already in SUSPEND state')
('310007087818311', '0', 'OK; Device already in SUSPEND state')
('310007087818378', '0', 'OK')
('310007087818406', '0', 'OK; Device already in SUSPEND state')
('310007087818435', '0', 'OK; Device already in SUSPEND state')
('310007087818509', '0', 'OK; Device already in SUSPEND state')
('310007087853383', '0', 'OK')
('310007088131303', '0', 'OK')
('310007088131320', '0', 'OK')
('310007088131515', '0', 'OK; Device already in SUSPEND state')
('310007088131534', '0', 'OK')
('310007088188521', '0', 'OK')
('310007088188537', '0', 'OK; Device already in SUSPEND state')
('310007088188594', '0', 'OK')
('310007088188650', '0', 'OK; Device already in SUSPEND state')
('310007088188666', '0', 'OK')
('310007088188671', '0', 'OK; Device already in SUSPEND state')
('310007088188720', '0', 'OK; Device already in SUSPEND state')
('310007088188805', '0', 'OK; Device already in SUSPEND state')
('310007088188869', '0', 'OK; Device already in SUSPEND state')
('310007088188913', '0', 'OK')
('310007088452257', '0', 'OK')
('310007088458077', '0', 'OK')
('310007089601155', '0', 'OK')
('310007089601359', '0', 'OK; Device already in SUSPEND state')
('310007089601713', '0', 'OK; Device already in SUSPEND state')
('310007089796246', '0', 'OK')
('310007089796401', '0', 'OK; Device already in SUSPEND state')
('310007089796417', '0', 'OK; Device already in SUSPEND state')
('310007089796424', '0', 'OK; Device already in SUSPEND state')
('310007089796718', '0', 'OK; Device already in SUSPEND state')
('310007089796723', '0', 'OK; Device already in SUSPEND state')
('310007089796751', '0', 'OK')
('310007089992301', '0', 'OK; Device already in SUSPEND state')
('310007089992732', '0', 'OK; Device already in SUSPEND state')
('310007089996768', '0', 'OK; Device already in SUSPEND state')
('310007089996851', '0', 'OK; Device already in SUSPEND state')
('310007089998851', '0', 'OK; Device already in SUSPEND state')
('310007089998888', '0', 'OK; Device already in SUSPEND state')
('310007089998903', '0', 'OK; Device already in SUSPEND state')
('310007089998992', '0', 'OK; Device already in SUSPEND state')
('310007089999389', '0', 'OK')
('310007732081241', '0', 'OK; Device already in SUSPEND state')
('310007732081750', '0', 'OK; Device already in SUSPEND state')
('310007732081785', '0', 'OK')
('310007732084539', '0', 'OK')
('310007732084696', '0', 'OK; Device already in SUSPEND state')
('310007732087223', '0', 'OK; Device already in SUSPEND state')
('310007732087248', '0', 'OK; Device already in SUSPEND state')
('310007732131483', '0', 'OK; Device already in SUSPEND state')
('310007732131564', '0', 'OK')
('310007732131617', '0', 'OK; Device already in SUSPEND state')
('310007732131653', '0', 'OK; Device already in SUSPEND state')
('310007732131674', '0', 'OK')
('310007732136410', '0', 'OK; Device already in SUSPEND state')
('310007732136505', '0', 'OK; Device already in SUSPEND state')
('310007732136517', '0', 'OK; Device already in SUSPEND state')
('310007732137550', '0', 'OK')
('310008082023243', '0', 'OK; Device already in SUSPEND state')
('310008082024839', '0', 'OK; Device already in SUSPEND state')
('310008082024858', '0', 'OK; Device already in SUSPEND state')
('310008082025374', '0', 'OK; Device already in SUSPEND state')
('310008082025410', '0', 'OK; Device already in SUSPEND state')
('310008082027153', '0', 'OK; Device already in SUSPEND state')
('310008082029681', '0', 'OK; Device already in SUSPEND state')
('310008082096539', '0', 'OK; Device already in SUSPEND state')
('310008082096569', '0', 'OK; Device already in SUSPEND state')
('310008082097937', '0', 'OK')
('310008082099940', '0', 'OK')
('310008082230096', '0', 'OK; Device already in SUSPEND state')
('310008082230118', '0', 'OK; Device already in SUSPEND state')
('310008082230355', '0', 'OK; Device already in SUSPEND state')
('310008082230463', '0', 'OK; Device already in SUSPEND state')
('310008082230618', '0', 'OK')
('310008082230696', '0', 'OK; Device already in SUSPEND state')
('310008082233358', '0', 'OK; Device already in SUSPEND state')
('310008082233392', '0', 'OK')
('310008082233869', '0', 'OK; Device already in SUSPEND state')
('310008082235116', '0', 'OK; Device already in SUSPEND state')
('310008082235162', '0', 'OK')
('310008082235718', '0', 'OK; Device already in SUSPEND state')
('310008082235896', '0', 'OK')
('310008082235911', '0', 'OK')
('310008082237266', '0', 'OK')
('310008082237276', '0', 'OK; Device already in SUSPEND state')
('310008082239426', '0', 'OK; Device already in SUSPEND state')
('310008082260818', '0', 'OK; Device already in SUSPEND state')
('310008082269013', '0', 'OK')
('310008082271247', '0', 'OK; Device already in SUSPEND state')
('310008082271267', '0', 'OK; Device already in SUSPEND state')
('310008082271287', '0', 'OK; Device already in SUSPEND state')
('310008082271490', '0', 'OK; Device already in SUSPEND state')
('310008082271504', '0', 'OK; Device already in SUSPEND state')
('310008082279967', '0', 'OK; Device already in SUSPEND state')
('310008082280025', '0', 'OK')
('310008082280098', '0', 'OK; Device already in SUSPEND state')
('310008082285509', '0', 'OK; Device already in SUSPEND state')
('310008082285554', '0', 'OK; Device already in SUSPEND state')
('310008082286282', '0', 'OK')
('310008082297928', '0', 'OK')
('310008082298025', '0', 'OK; Device already in SUSPEND state')
('310008082298468', '0', 'OK; Device already in SUSPEND state')
('310008082298547', '0', 'OK; Device already in SUSPEND state')
('310008082314076', '0', 'OK')
('310008082323353', '0', 'OK; Device already in SUSPEND state')
('310008082323354', '0', 'OK')
('310008082323390', '0', 'OK; Device already in SUSPEND state')
('310008082327552', '0', 'OK')
('310008082401254', '0', 'OK')
('310008082401318', '0', 'OK; Device already in SUSPEND state')
('310008082401436', '0', 'OK')
('310008082401557', '0', 'OK; Device already in SUSPEND state')
('310008082401569', '0', 'OK; Device already in SUSPEND state')
('310008082401725', '0', 'OK; Device already in SUSPEND state')
('310008082407258', '0', 'OK')
('310008082414947', '0', 'OK')
('310008082418928', '0', 'OK; Device already in SUSPEND state')
('310008082418962', '0', 'OK; Device already in SUSPEND state')
('310008082418985', '0', 'OK; Device already in SUSPEND state')
('310008082419123', '0', 'OK')
('310008082419153', '0', 'OK; Device already in SUSPEND state')
('310008082419474', '0', 'OK; Device already in SUSPEND state')
('310008082422512', '0', 'OK')
('310008082422529', '0', 'OK')
('310008082428345', '0', 'OK')
('310008082428428', '0', 'OK; Device already in SUSPEND state')
('310008082428454', '0', 'OK; Device already in SUSPEND state')
('310008082428583', '0', 'OK; Device already in SUSPEND state')
('310008082428722', '0', 'OK; Device already in SUSPEND state')
('310008082428779', '0', 'OK; Device already in SUSPEND state')
('310008082428797', '0', 'OK; Device already in SUSPEND state')
('310009132825524', '0', 'OK; Device already in SUSPEND state')
('310009132825531', '0', 'OK; Device already in SUSPEND state')
('310009132825565', '0', 'OK; Device already in SUSPEND state')
('310009132825576', '0', 'OK; Device already in SUSPEND state')
('310009132825591', '0', 'OK; Device already in SUSPEND state')
('310009132825675', '0', 'OK; Device already in SUSPEND state')
('310009132825737', '0', 'OK; Device already in SUSPEND state')
('310009132826066', '0', 'OK; Device already in SUSPEND state')
('310009132826082', '0', 'OK; Device already in SUSPEND state')
('310009132826161', '0', 'OK')
('310009132826163', '0', 'OK; Device already in SUSPEND state')
('310009132826536', '0', 'OK; Device already in SUSPEND state')
('310009132826557', '0', 'OK; Device already in SUSPEND state')
('310009132827213', '0', 'OK')
('310009132827229', '0', 'OK; Device already in SUSPEND state')
('310009132827340', '0', 'OK; Device already in SUSPEND state')
('310009132827426', '0', 'OK; Device already in SUSPEND state')
('310009132827515', '0', 'OK; Device already in SUSPEND state')
('310009132827559', '0', 'OK; Device already in SUSPEND state')
('310009132827580', '0', 'OK')
('310009132827622', '0', 'OK; Device already in SUSPEND state')
('310009132827628', '0', 'OK')
('310009132828026', '0', 'OK; Device already in SUSPEND state')
('310009132828032', '0', 'OK; Device already in SUSPEND state')
('310009132828047', '0', 'OK; Device already in SUSPEND state')
('310009132935011', '0', 'OK; Device already in SUSPEND state')
('310009132935158', '0', 'OK; Device already in SUSPEND state')
('310009132935161', '0', 'OK; Device already in SUSPEND state')
('310009132935168', '0', 'OK')
('310009132935229', '0', 'OK; Device already in SUSPEND state')
('310009132935232', '0', 'OK; Device already in SUSPEND state')
('310009132935381', '0', 'OK; Device already in SUSPEND state')
('310009132935401', '0', 'OK')
('310009132935436', '0', 'OK; Device already in SUSPEND state')
('310009132935520', '0', 'OK; Device already in SUSPEND state')
('310009132935535', '0', 'OK; Device already in SUSPEND state')
('310009132935605', '0', 'OK; Device already in SUSPEND state')
('310009132935665', '0', 'OK; Device already in SUSPEND state')
('310009132936148', '0', 'OK')
('310009133217169', '0', 'OK; Device already in SUSPEND state')
('310009133225720', '0', 'OK; Device already in SUSPEND state')
('310009133225832', '0', 'OK; Device already in SUSPEND state')
('310009133226190', '0', 'OK; Device already in SUSPEND state')
('310009133227076', '0', 'OK; Device already in SUSPEND state')
('310009133227223', '0', 'OK')
('310009133227557', '0', 'OK; Device already in SUSPEND state')
('310009133227582', '0', 'OK')
('310009133227932', '0', 'OK; Device already in SUSPEND state')
('310009133228004', '0', 'OK; Device already in SUSPEND state')
('310009133228069', '0', 'OK')
('310009133228128', '0', 'OK; Device already in SUSPEND state')
('310009136773257', '0', 'OK')
('310009136773490', '0', 'OK; Device already in SUSPEND state')
('310009136778329', '0', 'OK; Device already in SUSPEND state')
('310009136932776', '0', 'OK')
('310009136932788', '0', 'OK')
('310009136932795', '0', 'OK; Device already in SUSPEND state')
('310009136932802', '0', 'OK; Device already in SUSPEND state')
('310009136932808', '0', 'OK')
('310009136934341', '0', 'OK; Device already in SUSPEND state')
('310009136934469', '0', 'OK; Device already in SUSPEND state')
('310009136934562', '0', 'OK; Device already in SUSPEND state')
('310009136934610', '0', 'OK; Device already in SUSPEND state')
('310009136934706', '0', 'OK; Device already in SUSPEND state')
('310009136934714', '0', 'OK; Device already in SUSPEND state')
('310009136934729', '0', 'OK; Device already in SUSPEND state')
('310009136938682', '0', 'OK')
('310009136938691', '0', 'OK')
('310009136938706', '0', 'OK')
('310009136938715', '0', 'OK')
('310009136938729', '0', 'OK')
('310009136938741', '0', 'OK; Device already in SUSPEND state')
('310009136938751', '0', 'OK')
('310009136938760', '0', 'OK')
('310009136938806', '0', 'OK')
('310009136938846', '0', 'OK')
('310009136938851', '0', 'OK')
('310009136963177', '0', 'OK; Device already in SUSPEND state')
('310009136963200', '0', 'OK; Device already in SUSPEND state')
('310009136963213', '0', 'OK; Device already in SUSPEND state')
('310009136963233', '0', 'OK; Device already in SUSPEND state')
('310009136963251', '0', 'OK')
('310009136963295', '0', 'OK; Device already in SUSPEND state')
('310009136963351', '0', 'OK; Device already in SUSPEND state')
('310009136963405', '0', 'OK; Device already in SUSPEND state')
('310009136963513', '0', 'OK; Device already in SUSPEND state')
('310009136963577', '0', 'OK; Device already in SUSPEND state')
('310009136965688', '0', 'OK')
('310009136965836', '0', 'OK')
('310009136965843', '0', 'OK')
('310009136965858', '0', 'OK')
('310009137172087', '0', 'OK; Device already in SUSPEND state')
('310009137172138', '0', 'OK; Device already in SUSPEND state')
('310009137172159', '0', 'OK; Device already in SUSPEND state')
('310009137172376', '0', 'OK; Device already in SUSPEND state')
('310009137172395', '0', 'OK')
('310009137731469', '0', 'OK; Device already in SUSPEND state')
('310009137731482', '0', 'OK; Device already in SUSPEND state')
('310009137731572', '0', 'OK; Device already in SUSPEND state')
('310009137732368', '0', 'OK; Device already in SUSPEND state')
('310009137732678', '0', 'OK; Device already in SUSPEND state')
('310009137732834', '0', 'OK')
('310009137733138', '0', 'OK; Device already in SUSPEND state')
('310009137771242', '0', 'OK; Device already in SUSPEND state')
('310009137771289', '0', 'OK; Device already in SUSPEND state')
('310009137771328', '0', 'OK; Device already in SUSPEND state')
('310009137771424', '0', 'OK; Device already in SUSPEND state')
('310009137771479', '0', 'OK; Device already in SUSPEND state')
('310009137771729', '0', 'OK; Device already in SUSPEND state')
('310009137772134', '0', 'OK')
('310009137772170', '0', 'OK; Device already in SUSPEND state')
('310009137772207', '0', 'OK; Device already in SUSPEND state')
('310009137772233', '0', 'OK; Device already in SUSPEND state')
('310009137772308', '0', 'OK; Device already in SUSPEND state')
('310009137772373', '0', 'OK; Device already in SUSPEND state')
('310009137772829', '0', 'OK; Device already in SUSPEND state')
('310009137772875', '0', 'OK; Device already in SUSPEND state')
('310009137772876', '0', 'OK; Device already in SUSPEND state')
('310009137882091', '0', 'OK; Device already in SUSPEND state')
('310009137882181', '0', 'OK; Device already in SUSPEND state')
('310009137882248', '0', 'OK; Device already in SUSPEND state')
('310009137882364', '0', 'OK; Device already in SUSPEND state')
('310009137882434', '0', 'OK; Device already in SUSPEND state')
('310009137882465', '0', 'OK; Device already in SUSPEND state')
('310009137882533', '0', 'OK')
('310009137882610', '0', 'OK; Device already in SUSPEND state')
('310009137892488', '0', 'OK; Device already in SUSPEND state')
('310009137892601', '0', 'OK')
('310009137892624', '0', 'OK; Device already in SUSPEND state')
('310009137892761', '0', 'OK; Device already in SUSPEND state')
('310009137893485', '0', 'OK; Device already in SUSPEND state')
('310009137893503', '0', 'OK')
('310009137894025', '0', 'OK')
('310009137894048', '0', 'OK')
('310009137894068', '0', 'OK')
('310009137894085', '0', 'OK')
('310009137910395', '0', 'OK; Device already in SUSPEND state')
('310009137910430', '0', 'OK')
('310009137910620', '0', 'OK; Device already in SUSPEND state')
('310009137910705', '0', 'OK; Device already in SUSPEND state')
('310009137910907', '0', 'OK; Device already in SUSPEND state')
('310009137911096', '0', 'OK; Device already in SUSPEND state')
('310009137911108', '0', 'OK')
('310009137919942', '0', 'OK')
('310009137919949', '0', 'OK')
('310009137942291', '0', 'OK')
('310009137942312', '0', 'OK')
('310009137942319', '0', 'OK')
('310009137942322', '0', 'OK')
('310009137942341', '0', 'OK')
('310009137942365', '0', 'OK')
('310009137942389', '0', 'OK')
('310009137942421', '0', 'OK')
('310009137942448', '0', 'OK')
('310009137942450', '0', 'OK')
('310009137942468', '0', 'OK')
('310009137942475', '0', 'OK; Device already in SUSPEND state')
('310009137942494', '0', 'OK')
('310009137942528', '0', 'OK; Device already in SUSPEND state')
('310009137943626', '0', 'OK; Device already in SUSPEND state')
('310009137943679', '0', 'OK; Device already in SUSPEND state')
('310009137943688', '0', 'OK; Device already in SUSPEND state')
('310009137943763', '0', 'OK; Device already in SUSPEND state')
('310009137949834', '0', 'OK')
('310009137949840', '0', 'OK')
('310009137949850', '0', 'OK')
('310009137949882', '0', 'OK')
('310009137949889', '0', 'OK')
('310009137964752', '0', 'OK; Device already in SUSPEND state')
('310009137965946', '0', 'OK; Device already in SUSPEND state')
('310009137965952', '0', 'OK')
('310009137966079', '0', 'OK; Device already in SUSPEND state')
('310009137966152', '0', 'OK; Device already in SUSPEND state')
('310009137966197', '0', 'OK; Device already in SUSPEND state')
('310009137966199', '0', 'OK; Device already in SUSPEND state')
('310009137966253', '0', 'OK; Device already in SUSPEND state')
('310009137966380', '0', 'OK; Device already in SUSPEND state')
('310009138024596', '0', 'OK; Device already in SUSPEND state')
('310009138024631', '0', 'OK; Device already in SUSPEND state')
('310009138024699', '0', 'OK; Device already in SUSPEND state')
('310009138024747', '0', 'OK; Device already in SUSPEND state')
('310009138024760', '0', 'OK; Device already in SUSPEND state')
('310009138024829', '0', 'OK; Device already in SUSPEND state')
('310009138024861', '0', 'OK; Device already in SUSPEND state')
('310009138026514', '0', 'OK; Device already in SUSPEND state')
('310009138029682', '0', 'OK; Device already in SUSPEND state')
('310009138029751', '0', 'OK; Device already in SUSPEND state')
('310009138029794', '0', 'OK')
('310009138029807', '0', 'OK; Device already in SUSPEND state')
('310009138032027', '0', 'OK; Device already in SUSPEND state')
('310009138032394', '0', 'OK; Device already in SUSPEND state')
('310009138032429', '0', 'OK; Device already in SUSPEND state')
('310009138039974', '0', 'OK')
('310009138040247', '0', 'OK; Device already in SUSPEND state')
('310009138041547', '0', 'OK; Device already in SUSPEND state')
('310009138041806', '0', 'OK; Device already in SUSPEND state')
('310009138043305', '0', 'OK; Device already in SUSPEND state')
('310009138048081', '0', 'OK; Device already in SUSPEND state')
('310009138048162', '0', 'OK; Device already in SUSPEND state')
('310009138048171', '0', 'OK; Device already in SUSPEND state')
('310009138048226', '0', 'OK; Device already in SUSPEND state')
('310009138048320', '0', 'OK; Device already in SUSPEND state')
('310009138084201', '0', 'OK; Device already in SUSPEND state')
('310009138084241', '0', 'OK; Device already in SUSPEND state')
('310009138084294', '0', 'OK; Device already in SUSPEND state')
('310009138084299', '0', 'OK; Device already in SUSPEND state')
('310009138084304', '0', 'OK; Device already in SUSPEND state')
('310009138084433', '0', 'OK; Device already in SUSPEND state')
('310009138084455', '0', 'OK; Device already in SUSPEND state')
('310009138088286', '0', 'OK; Device already in SUSPEND state')
('310009138088315', '0', 'OK; Device already in SUSPEND state')
('310009138088339', '0', 'OK')
('310009138088414', '0', 'OK; Device already in SUSPEND state')
('310009138088447', '0', 'OK; Device already in SUSPEND state')
('310009138088492', '0', 'OK; Device already in SUSPEND state')
('310009138088560', '0', 'OK; Device already in SUSPEND state')
('310009138088619', '0', 'OK; Device already in SUSPEND state')
('310009138088635', '0', 'OK')
('310009138088821', '0', 'OK; Device already in SUSPEND state')
('310009138275987', '0', 'OK; Device already in SUSPEND state')
('310009138276010', '0', 'OK')
('310009138282769', '0', 'OK; Device already in SUSPEND state')
('310009138311369', '0', 'OK; Device already in SUSPEND state')
('310009138312880', '0', 'OK')
('310009138316809', '0', 'OK')
('310009138319714', '0', 'OK')
('310009138319728', '0', 'OK; Device already in SUSPEND state')
('310009138323292', '0', 'OK')
('310009138323634', '0', 'OK; Device already in SUSPEND state')
('310009138323843', '0', 'OK; Device already in SUSPEND state')
('310009138325236', '0', 'OK; Device already in SUSPEND state')
('310009138329782', '0', 'OK')
('310009138335828', '0', 'OK')
('310009138335837', '0', 'OK; Device already in SUSPEND state')
('310009138335847', '0', 'OK; Device already in SUSPEND state')
('310009138335881', '0', 'OK; Device already in SUSPEND state')
('310009138336039', '0', 'OK; Device already in SUSPEND state')
('310009138336055', '0', 'OK; Device already in SUSPEND state')
('310009138336140', '0', 'OK; Device already in SUSPEND state')
('310009138336253', '0', 'OK; Device already in SUSPEND state')
('310009138336269', '0', 'OK; Device already in SUSPEND state')
('310009138337783', '0', 'OK; Device already in SUSPEND state')
('310009138337808', '0', 'OK; Device already in SUSPEND state')
('310009138337942', '0', 'OK; Device already in SUSPEND state')
('310009138337997', '0', 'OK; Device already in SUSPEND state')
('310009138338495', '0', 'OK; Device already in SUSPEND state')
('310009139555035', '0', 'OK')
('310009139555049', '0', 'OK')
('310009139555098', '0', 'OK; Device already in SUSPEND state')
('310009139555140', '0', 'OK')
('310009139555977', '0', 'OK; Device already in SUSPEND state')
('310009139556025', '0', 'OK; Device already in SUSPEND state')
('310009139556770', '0', 'OK; Device already in SUSPEND state')
('310009139574843', '0', 'OK; Device already in SUSPEND state')
('310009139574846', '0', 'OK')
('310009139574954', '0', 'OK; Device already in SUSPEND state')
('310009139574969', '0', 'OK; Device already in SUSPEND state')
('310009139575151', '0', 'OK; Device already in SUSPEND state')
('310009139575184', '0', 'OK; Device already in SUSPEND state')
('310009139575518', '0', 'OK; Device already in SUSPEND state')
('310009139575627', '0', 'OK; Device already in SUSPEND state')
('310009139575697', '0', 'OK; Device already in SUSPEND state')
('310009139577283', '0', 'OK; Device already in SUSPEND state')
('310009139577582', '0', 'OK; Device already in SUSPEND state')
('310009139577836', '0', 'OK; Device already in SUSPEND state')
('310009139577862', '0', 'OK')
('310009139578076', '0', 'OK')
('310009139578547', '0', 'OK; Device already in SUSPEND state')
('310009139578575', '0', 'OK')
('310009139578629', '0', 'OK')
('310009139578723', '0', 'OK; Device already in SUSPEND state')
('310009139578751', '0', 'OK; Device already in SUSPEND state')
('310009139579055', '0', 'OK')
('310009139579137', '0', 'OK; Device already in SUSPEND state')
('310009139620614', '0', 'OK; Device already in SUSPEND state')
('310009139621137', '0', 'OK; Device already in SUSPEND state')
('310009139621722', '0', 'OK; Device already in SUSPEND state')
('310009139621815', '0', 'OK; Device already in SUSPEND state')
('310009139621958', '0', 'OK; Device already in SUSPEND state')
('310009139623752', '0', 'OK')
('310009139624028', '0', 'OK')
('310009139910873', '0', 'OK; Device already in SUSPEND state')
('310009139912073', '0', 'OK; Device already in SUSPEND state')
('310009139912786', '0', 'OK')
('310009139912849', '0', 'OK; Device already in SUSPEND state')
('310009139912875', '0', 'OK; Device already in SUSPEND state')
('310009139912909', '0', 'OK; Device already in SUSPEND state')
('310009139912931', '0', 'OK; Device already in SUSPEND state')
('310009139913471', '0', 'OK')
('310009139914546', '0', 'OK; Device already in SUSPEND state')
('310009139914559', '0', 'OK')
('310009139914681', '0', 'OK')
('310009139914729', '0', 'OK')
('310009139914739', '0', 'OK; Device already in SUSPEND state')
('310009139917806', '0', 'OK; Device already in SUSPEND state')
('310009139917878', '0', 'OK')
('310009139918328', '0', 'OK')
('310009139918446', '0', 'OK')
('310009139918623', '0', 'OK')
('310009139918638', '0', 'OK')
('310009139918666', '0', 'OK')
('310009139918722', '0', 'OK')
