  PID  PPID %MEM %CPU CMD
    1     0  0.0  0.0 /sbin/init
    2     0  0.0  0.0 [kthreadd]
    3     2  0.0  0.0 [ksoftirqd/0]
    5     2  0.0  0.0 [kworker/0:0H]
    7     2  0.0  0.0 [rcu_sched]
    8     2  0.0  0.0 [rcuos/0]
    9     2  0.0  0.0 [rcuos/1]
   10     2  0.0  0.0 [rcuos/2]
   11     2  0.0  0.0 [rcuos/3]
   12     2  0.0  0.0 [rcuos/4]
   13     2  0.0  0.0 [rcuos/5]
   14     2  0.0  0.0 [rcuos/6]
   15     2  0.0  0.0 [rcuos/7]
   16     2  0.0  0.0 [rcuos/8]
   17     2  0.0  0.0 [rcuos/9]
   18     2  0.0  0.0 [rcuos/10]
   19     2  0.0  0.0 [rcuos/11]
   20     2  0.0  0.0 [rcuos/12]
   21     2  0.0  0.0 [rcuos/13]
   22     2  0.0  0.0 [rcuos/14]
   23     2  0.0  0.0 [rcu_bh]
   24     2  0.0  0.0 [rcuob/0]
   25     2  0.0  0.0 [rcuob/1]
   26     2  0.0  0.0 [rcuob/2]
   27     2  0.0  0.0 [rcuob/3]
   28     2  0.0  0.0 [rcuob/4]
   29     2  0.0  0.0 [rcuob/5]
   30     2  0.0  0.0 [rcuob/6]
   31     2  0.0  0.0 [rcuob/7]
   32     2  0.0  0.0 [rcuob/8]
   33     2  0.0  0.0 [rcuob/9]
   34     2  0.0  0.0 [rcuob/10]
   35     2  0.0  0.0 [rcuob/11]
   36     2  0.0  0.0 [rcuob/12]
   37     2  0.0  0.0 [rcuob/13]
   38     2  0.0  0.0 [rcuob/14]
   39     2  0.0  0.0 [migration/0]
   40     2  0.0  0.0 [watchdog/0]
   41     2  0.0  0.0 [watchdog/1]
   42     2  0.0  0.0 [migration/1]
   43     2  0.0  0.0 [ksoftirqd/1]
   45     2  0.0  0.0 [kworker/1:0H]
   46     2  0.0  0.0 [khelper]
   47     2  0.0  0.0 [kdevtmpfs]
   48     2  0.0  0.0 [netns]
   49     2  0.0  0.0 [xenwatch]
   50     2  0.0  0.0 [xenbus]
   51     2  0.0  0.0 [kworker/0:1]
   52     2  0.0  0.0 [writeback]
   53     2  0.0  0.0 [kintegrityd]
   54     2  0.0  0.0 [bioset]
   55     2  0.0  0.0 [kworker/u31:0]
   56     2  0.0  0.0 [kblockd]
   57     2  0.0  0.0 [ata_sff]
   58     2  0.0  0.0 [khubd]
   59     2  0.0  0.0 [md]
   60     2  0.0  0.0 [devfreq_wq]
   63     2  0.0  0.0 [khungtaskd]
   64     2  0.0  0.0 [kswapd0]
   65     2  0.0  0.0 [ksmd]
   66     2  0.0  0.0 [khugepaged]
   67     2  0.0  0.0 [fsnotify_mark]
   68     2  0.0  0.0 [ecryptfs-kthrea]
   69     2  0.0  0.0 [crypto]
   81     2  0.0  0.0 [kthrotld]
   83     2  0.0  0.0 [scsi_eh_0]
   84     2  0.0  0.0 [scsi_eh_1]
  105     2  0.0  0.0 [deferwq]
  106     2  0.0  0.0 [charger_manager]
  149     2  0.0  0.0 [kpsmoused]
  217     2  0.0  0.0 [jbd2/xvda1-8]
  218     2  0.0  0.0 [ext4-rsv-conver]
  495     1  0.0  0.0 upstart-udev-bridge --daemon
  498     1  0.0  0.0 /lib/systemd/systemd-udevd --daemon
  647     1  0.0  0.0 rpcbind
  671     1  0.0  0.0 rpc.statd -L
  678     1  0.0  0.0 upstart-socket-bridge --daemon
  687     1  0.0  0.0 dhclient -1 -v -pf /run/dhclient.eth0.pid -lf /var/lib/dhcp/dhclient.eth0.leases eth0
  802     2  0.0  0.0 [rpciod]
  812     2  0.0  0.0 [nfsiod]
  833     1  0.0  0.0 dbus-daemon --system --fork
  843     1  0.0  0.0 rpc.idmapd
  867     1  0.0  0.0 /lib/systemd/systemd-logind
  875     2  0.0  0.0 [nfsv4.0-svc]
  876     1  0.0  0.0 /usr/sbin/zabbix_agentd -c /etc/zabbix/zabbix_agentd.conf
  879   876  0.0  0.0 /usr/sbin/zabbix_agentd: collector [idle 1 sec]          
  880   876  0.0  0.0 /usr/sbin/zabbix_agentd: listener #1 [waiting for connection]
  881   876  0.0  0.0 /usr/sbin/zabbix_agentd: listener #2 [waiting for connection]
  882   876  0.0  0.0 /usr/sbin/zabbix_agentd: listener #3 [waiting for connection]
  883   876  0.0  0.0 /usr/sbin/zabbix_agentd: active checks #1 [idle 1 sec]   
  884     1  0.0  0.0 rsyslogd
  910     1  0.0  0.0 upstart-file-bridge --daemon
 1021     1  0.0  0.0 /sbin/getty -8 38400 tty4
 1024     1  0.0  0.0 /sbin/getty -8 38400 tty5
 1029     1  0.0  0.0 /sbin/getty -8 38400 tty2
 1030     1  0.0  0.0 /sbin/getty -8 38400 tty3
 1033     1  0.0  0.0 /sbin/getty -8 38400 tty6
 1058     1  0.0  0.0 /usr/sbin/xinetd -dontfork -pidfile /var/run/xinetd.pid -stayalive -inetd_compat -inetd_ipv6
 1079     1  0.0  0.0 /usr/sbin/sshd -D
 1086     1  0.0  0.0 atd
 1087     1  0.0  0.0 cron
 1114     1  0.0  0.0 /usr/sbin/irqbalance
 1135     1  0.0  0.0 acpid -c /etc/acpi/events -s /var/run/acpid.socket
 1143  2342  0.2  0.0 /usr/sbin/apache2 -k start
 1210     1  1.6  0.6 /usr/sbin/mysqld
 1389     1  0.0  0.0 /bin/sh /usr/lib/ipsec/_plutorun --debug  --uniqueids yes --force_busy no --nocrsend no --strictcrlpolicy no --nat_traversal yes --keep_alive  --protostack netkey --force_keepalive no --disable_port_floating no --virtual_private  --listen  --crlcheckinterval 0 --ocspuri  --nhelpers  --secctx_attr_value  --dump /var/run/pluto/ --opts  --stderrlog  --wait no --plutostderrlogtime no --pre  --post  --log daemon.error --plutorestartoncrash true --pid /var/run/pluto/pluto.pid
 1390     1  0.0  0.0 logger -s -p daemon.error -t ipsec__plutorun
 1391  1389  0.0  0.0 /bin/sh /usr/lib/ipsec/_plutorun --debug  --uniqueids yes --force_busy no --nocrsend no --strictcrlpolicy no --nat_traversal yes --keep_alive  --protostack netkey --force_keepalive no --disable_port_floating no --virtual_private  --listen  --crlcheckinterval 0 --ocspuri  --nhelpers  --secctx_attr_value  --dump /var/run/pluto/ --opts  --stderrlog  --wait no --plutostderrlogtime no --pre  --post  --log daemon.error --plutorestartoncrash true --pid /var/run/pluto/pluto.pid
 1392  1389  0.0  0.0 /bin/sh /usr/lib/ipsec/_plutoload --wait no --post 
 1395  1391  0.0  0.0 /usr/lib/ipsec/pluto --nofork --secretsfile /etc/ipsec.secrets --ipsecdir /etc/ipsec.d --use-netkey --uniqueids --nat_traversal
 1433  1395  0.0  0.0 pluto helper  #  0                                                                                                             
 1612  1395  0.0  0.0 _pluto_adns
 1642     1  0.0  0.0 /usr/bin/freshclam -d --quiet
 1658     1  0.0  0.0 /usr/bin/memcached -m 256 -p 11211 -u memcache -l 127.0.0.1
 1674     1  0.0  0.0 /usr/sbin/pound -f /etc/pound/pound.cfg
 1675  1674  0.0  0.0 /usr/sbin/pound -f /etc/pound/pound.cfg
 1843     1  0.0  0.0 /usr/sbin/snmpd -Lsd -Lf /dev/null -u snmp -g snmp -I -smux mteTrigger mteTriggerConf -p /var/run/snmpd.pid
 1959     1  0.0  0.0 /usr/bin/python /usr/bin/supervisord -c /etc/supervisor/supervisord.conf
 2342     1  0.4  0.0 /usr/sbin/apache2 -k start
 2481  1959 12.6  0.0 java -Xmx1G -Dfile.encoding=UTF8 -jar /home/securenet/lib/registration.war --logging.file=/home/securenet/log/registration.log --server.port=7081 --server.servlet.context-path=/registration --server.tomcat.accesslog.enabled=true
 2519     1  0.0  0.0 /sbin/getty -8 38400 tty1
 2520     1  0.0  0.0 /sbin/getty -8 38400 ttyS0
 2581     2  0.0  0.0 [kauditd]
 2695  2342  0.2  0.0 /usr/sbin/apache2 -k start
 2760  2342  0.2  0.0 /usr/sbin/apache2 -k start
 2813     2  0.0  0.0 [kworker/u30:1]
 2869  1087  0.0  0.0 CRON
 2871  2869  0.0  0.0 /bin/sh -c sleep 30 && /home/david_wilson/bin/get_dropped_packets.sh >> /tmp/dropped_packets.log
 2873  2871  0.0  0.0 sleep 30
 2923     2  0.0  0.0 [kworker/1:1]
 2977  1079  0.1  0.0 sshd: bev_lekx [priv]
 3047  2977  0.0  0.0 sshd: bev_lekx@notty
 3048  3047  0.0  0.0 ps -eo pid,ppid,%mem,%cpu,cmd
 3804     1  3.7  0.6 /usr/bin/redis-server 127.0.0.1:6379       
 5718     2  0.0  0.0 [kworker/1:0]
 9169     2  0.0  0.0 [kworker/u30:0]
 9585     1  0.0  0.0 /home/securenet_test/bin/wrapper /home/securenet_test/etc/cache_wrapper.properties wrapper.syslog.ident=securenet_test_cache wrapper.pidfile=/home/securenet_test/bin/../run/securenet_test_cache.pid wrapper.daemonize=TRUE wrapper.lockfile=/var/lock/subsys/securenet_test_cache
 9587  9585  6.8  1.0 java -Djava.net.preferIPv4Stack=true -XX:+UseG1GC -XX:+DisableExplicitGC -Xms64m -Xmx128m -Djava.library.path=../lib/ext -classpath ../lib/ext/wrapper.jar:../lib/sn-server-cache-latest.jar:../lib/ext/third-parties.jar -Dwrapper.key=rQ5OqcDZa1ZMh8d1 -Dwrapper.port=32001 -Dwrapper.jvm.port.min=31000 -Dwrapper.jvm.port.max=31999 -Dwrapper.disable_console_input=TRUE -Dwrapper.pid=9585 -Dwrapper.version=3.5.9 -Dwrapper.native_library=wrapper -Dwrapper.service=TRUE -Dwrapper.cpu.timeout=10 -Dwrapper.jvmid=1 org.tanukisoftware.wrapper.WrapperStartStopApp com.infinity.securenet.plugins.cache.CacheServiceRunner 2 start properties=../etc/cache.properties com.infinity.securenet.plugins.cache.CacheServiceRunner true 1 stop
10319     1  0.0  0.0 /home/securenet_test/bin/wrapper /home/securenet_test/etc/snip_wrapper.properties wrapper.syslog.ident=securenet_test_snip wrapper.pidfile=/home/securenet_test/bin/../run/securenet_test_snip.pid wrapper.daemonize=TRUE wrapper.lockfile=/var/lock/subsys/securenet_test_snip
10321 10319  6.0  1.7 java -Djava.net.preferIPv4Stack=true -Duser.timezone=US/Central -Xms32m -Xmx64m -Djava.library.path=../lib/ext -classpath ../lib/ext/wrapper.jar:../lib/sn-server-snip-latest.jar:../lib/ext/third-parties.jar -Dwrapper.key=6i0aPgVEj6veKH9R -Dwrapper.port=32000 -Dwrapper.jvm.port.min=31000 -Dwrapper.jvm.port.max=31999 -Dwrapper.disable_console_input=TRUE -Dwrapper.pid=10319 -Dwrapper.version=3.5.9 -Dwrapper.native_library=wrapper -Dwrapper.service=TRUE -Dwrapper.cpu.timeout=10 -Dwrapper.jvmid=1 org.tanukisoftware.wrapper.WrapperStartStopApp com.infinity.securenet.plugins.snip.SnipServiceRunner 2 start properties=../etc/snip.properties com.infinity.securenet.plugins.snip.SnipServiceRunner true 1 stop
14369     2  0.0  0.0 [kworker/u31:1]
23638  2342  0.2  0.0 /usr/sbin/apache2 -k start
23847  2342  0.2  0.0 /usr/sbin/apache2 -k start
26035  2342  0.2  0.0 /usr/sbin/apache2 -k start
27212     2  0.0  0.0 [kworker/u30:2]
27577  2342  0.3  0.0 /usr/sbin/apache2 -k start
29611  2342  0.2  0.0 /usr/sbin/apache2 -k start
30060  2342  0.2  0.0 /usr/sbin/apache2 -k start
32023  2342  0.2  0.0 /usr/sbin/apache2 -k start
32250  2342  0.2  0.0 /usr/sbin/apache2 -k start
32251  2342  0.2  0.0 /usr/sbin/apache2 -k start
32492     2  0.0  0.0 [kworker/0:0]
32588     2  0.0  0.0 [kworker/1:2]
