  PID  PPID %MEM %CPU CMD
    1     0  0.0  0.0 /lib/systemd/systemd --system --deserialize 28
    2     0  0.0  0.0 [kthreadd]
    3     2  0.0  0.0 [ksoftirqd/0]
    7     2  0.0  0.1 [rcu_sched]
    8     2  0.0  0.0 [rcu_bh]
    9     2  0.0  0.0 [migration/0]
   10     2  0.0  0.0 [watchdog/0]
   11     2  0.0  0.0 [watchdog/1]
   12     2  0.0  0.0 [migration/1]
   13     2  0.0  0.0 [ksoftirqd/1]
   16     2  0.0  0.0 [watchdog/2]
   17     2  0.0  0.0 [migration/2]
   18     2  0.0  0.0 [ksoftirqd/2]
   21     2  0.0  0.0 [watchdog/3]
   22     2  0.0  0.0 [migration/3]
   23     2  0.0  0.0 [ksoftirqd/3]
   26     2  0.0  0.0 [watchdog/4]
   27     2  0.0  0.0 [migration/4]
   28     2  0.0  0.0 [ksoftirqd/4]
   31     2  0.0  0.0 [watchdog/5]
   32     2  0.0  0.0 [migration/5]
   33     2  0.0  0.0 [ksoftirqd/5]
   36     2  0.0  0.0 [watchdog/6]
   37     2  0.0  0.0 [migration/6]
   38     2  0.0  0.0 [ksoftirqd/6]
   41     2  0.0  0.0 [watchdog/7]
   42     2  0.0  0.0 [migration/7]
   43     2  0.0  0.0 [ksoftirqd/7]
   46     2  0.0  0.0 [kdevtmpfs]
   47     2  0.0  0.0 [netns]
   48     2  0.0  0.0 [perf]
   49     2  0.0  0.0 [xenwatch]
   50     2  0.0  0.0 [xenbus]
   52     2  0.0  0.0 [khungtaskd]
   53     2  0.0  0.0 [writeback]
   54     2  0.0  0.0 [ksmd]
   55     2  0.0  0.0 [khugepaged]
   56     2  0.0  0.0 [crypto]
   57     2  0.0  0.0 [kintegrityd]
   58     2  0.0  0.0 [bioset]
   59     2  0.0  0.0 [kblockd]
   60     2  0.0  0.0 [ata_sff]
   61     2  0.0  0.0 [md]
   62     2  0.0  0.0 [devfreq_wq]
   72     2  0.0  0.0 [kswapd0]
   73     2  0.0  0.0 [vmstat]
   74     2  0.0  0.0 [fsnotify_mark]
   75     2  0.0  0.0 [ecryptfs-kthrea]
   91     2  0.0  0.0 [kthrotld]
   92     2  0.0  0.0 [bioset]
   93     2  0.0  0.0 [bioset]
   94     2  0.0  0.0 [bioset]
   95     2  0.0  0.0 [bioset]
   96     2  0.0  0.0 [bioset]
   97     2  0.0  0.0 [bioset]
   98     2  0.0  0.0 [bioset]
   99     2  0.0  0.0 [bioset]
  100     2  0.0  0.0 [bioset]
  101     2  0.0  0.0 [bioset]
  102     2  0.0  0.0 [bioset]
  103     2  0.0  0.0 [bioset]
  104     2  0.0  0.0 [bioset]
  105     2  0.0  0.0 [bioset]
  106     2  0.0  0.0 [bioset]
  107     2  0.0  0.0 [bioset]
  108     2  0.0  0.0 [bioset]
  109     2  0.0  0.0 [bioset]
  110     2  0.0  0.0 [bioset]
  111     2  0.0  0.0 [bioset]
  112     2  0.0  0.0 [bioset]
  113     2  0.0  0.0 [bioset]
  114     2  0.0  0.0 [bioset]
  115     2  0.0  0.0 [bioset]
  116     2  0.0  0.0 [scsi_eh_0]
  117     2  0.0  0.0 [scsi_tmf_0]
  118     2  0.0  0.0 [scsi_eh_1]
  119     2  0.0  0.0 [scsi_tmf_1]
  120     2  0.0  0.0 [bioset]
  125     2  0.0  0.0 [ipv6_addrconf]
  139     2  0.0  0.0 [deferwq]
  190     2  0.0  0.0 [ixgbevf]
  305     2  0.0  0.0 [raid5wq]
  331     2  0.0  0.0 [bioset]
  354     2  0.0  0.0 [jbd2/xvda1-8]
  355     2  0.0  0.0 [ext4-rsv-conver]
  428     2  0.0  0.0 [rpciod]
  433     2  0.0  0.0 [iscsi_eh]
  435     2  0.0  0.0 [ib_addr]
  437     2  0.0  0.0 [ib_mcast]
  438     2  0.0  0.0 [ib_nl_sa_wq]
  439     2  0.0  0.0 [ib_cm]
  441     2  0.0  0.0 [iw_cm_wq]
  442     2  0.0  0.0 [rdma_cm]
  456     1  0.0  0.0 /lib/systemd/systemd-journald
  463     2  0.0  0.0 [kauditd]
  479     1  0.0  0.0 /sbin/lvmetad -f
  936     2  0.0  0.0 [xfsalloc]
  937     2  0.0  0.0 [xfs_mru_cache]
 1087     1  0.0  0.0 /sbin/dhclient -1 -v -pf /run/dhclient.ens3.pid -lf /var/lib/dhcp/dhclient.ens3.leases -I -df /var/lib/dhcp/dhclient6.ens3.leases ens3
 1208     1  0.0  0.0 /usr/lib/accountsservice/accounts-daemon
 1216     1  0.0  0.0 /usr/sbin/cron -f
 1224     1  0.0  0.0 /lib/systemd/systemd-logind
 1226     1  0.0  0.0 /usr/sbin/atd -f
 1234     1  0.0  0.0 /usr/sbin/acpid
 1240     1  0.0  0.0 /usr/sbin/rsyslogd -n
 1242     1  0.0  0.0 /usr/bin/dbus-daemon --system --address=systemd: --nofork --nopidfile --systemd-activation
 1251     1  0.0  0.0 /usr/bin/lxcfs /var/lib/lxcfs/
 1269     1  0.0  0.0 /sbin/mdadm --monitor --pid-file /run/mdadm/monitor.pid --daemonise --scan --syslog
 1303     2  0.0  0.0 [nfsiod]
 1318     2  0.0  0.0 [nfsv4.1-svc]
 1379     1  0.0  0.0 /usr/sbin/irqbalance --pid=/var/run/irqbalance.pid
 1388     1  0.0  0.0 /sbin/agetty --noclear tty1 linux
 1391     1  0.0  0.0 /sbin/agetty --keep-baud 115200 38400 9600 ttyS0 vt220
 1455 12160  0.0  0.0 /usr/sbin/haproxy -f /etc/haproxy/haproxy.cfg -p /run/haproxy.pid -Ds -sf 22114
 1456  1455  0.0  0.1 /usr/sbin/haproxy -f /etc/haproxy/haproxy.cfg -p /run/haproxy.pid -Ds -sf 22114
 1480     1  0.0  0.0 /lib/systemd/systemd --user
 1483  1480  0.0  0.0 (sd-pam)
 1505     2  0.0  0.0 [kworker/7:2]
 1914     2  0.0  0.0 [kworker/6:0]
 2261     1  0.0  0.0 /usr/sbin/openvpn --daemon ovpn-server-vivotek-tcp8 --status /run/openvpn/server-vivotek-tcp8.status 10 --cd /etc/openvpn --script-security 2 --config /etc/openvpn/server-vivotek-tcp8.conf --writepid /run/openvpn/server-vivotek-tcp8.pid
 2400     2  0.0  0.0 [kworker/3:2H]
 2536     1  0.0  0.0 /usr/sbin/openvpn --daemon ovpn-server-vivotek-tcp7 --status /run/openvpn/server-vivotek-tcp7.status 10 --cd /etc/openvpn --script-security 2 --config /etc/openvpn/server-vivotek-tcp7.conf --writepid /run/openvpn/server-vivotek-tcp7.pid
 2630     1  0.0  0.0 /usr/sbin/openvpn --daemon ovpn-server-vivotek-tcp9 --status /run/openvpn/server-vivotek-tcp9.status 10 --cd /etc/openvpn --script-security 2 --config /etc/openvpn/server-vivotek-tcp9.conf --writepid /run/openvpn/server-vivotek-tcp9.pid
 3115     1  0.0  0.0 /sbin/iscsid
 3116     1  0.0  0.0 /sbin/iscsid
 3357     2  0.0  0.0 [kworker/0:1]
 3398     1  0.0  0.0 /usr/lib/policykit-1/polkitd --no-debug
 3900     1  0.0  0.0 /usr/sbin/openvpn --daemon ovpn-server-vivotek-tcp1 --status /run/openvpn/server-vivotek-tcp1.status 10 --cd /etc/openvpn --script-security 2 --config /etc/openvpn/server-vivotek-tcp1.conf --writepid /run/openvpn/server-vivotek-tcp1.pid
 3973     1  0.0  0.0 /lib/systemd/systemd --user
 3975  3973  0.0  0.0 (sd-pam)
 4808     2  0.0  0.0 [kworker/5:0H]
 6196     1  0.0  0.0 /usr/sbin/sshd -D
 6383     2  0.0  0.0 [kworker/0:0H]
 7719     1  0.0  0.0 /home/securenet_prod/bin/wrapper /home/securenet_prod/etc/dvr_wrapper.properties wrapper.syslog.ident=securenet_prod_dvr wrapper.pidfile=/tmp/securenet_prod_dvr.pid wrapper.daemonize=TRUE wrapper.lockfile=/tmp/securenet_prod_dvr
 7776  7719  0.4  0.2 /usr/lib/jvm/java-8-oracle/jre/bin/java -Xms16m -Xmx512m -Djava.library.path=../lib/ext -classpath ../lib/ext/wrapper.jar:../lib/sn-server-latest.jar:../lib/ext/third-parties.jar -Dwrapper.key=nY2LE9JCJ2QEbUtt -Dwrapper.port=32001 -Dwrapper.jvm.port.min=31000 -Dwrapper.jvm.port.max=31999 -Dwrapper.disable_console_input=TRUE -Dwrapper.pid=7719 -Dwrapper.version=3.5.30 -Dwrapper.native_library=wrapper -Dwrapper.arch=x86 -Dwrapper.service=TRUE -Dwrapper.cpu.timeout=10 -Dwrapper.jvmid=1 org.tanukisoftware.wrapper.WrapperStartStopApp com.infinity.securenet.plugins.video.DvrServiceRunner 2 start properties=../etc/dvr.properties com.infinity.securenet.plugins.video.DvrServiceRunner true 1 stop
 8632     2  0.0  0.0 [kworker/4:0H]
 8708     2  0.0  0.0 [kworker/5:0]
 9463     1  0.0  0.0 /usr/sbin/snmpd -Lsd -Lf /dev/null -u snmp -g snmp -I -smux mteTrigger mteTriggerConf -p /run/snmpd.pid
 9816     2  0.0  0.0 [kworker/3:1H]
10196     2  0.0  0.0 [kworker/1:1]
12160     1  0.0  0.0 /usr/sbin/haproxy-systemd-wrapper -f /etc/haproxy/haproxy.cfg -p /run/haproxy.pid
12746     2  0.0  0.0 [kworker/4:2]
12960     2  0.0  0.0 [kworker/1:1H]
13323     1  0.0  0.0 /usr/sbin/zabbix_agentd
13324 13323  0.0  0.0 /usr/sbin/zabbix_agentd: collector [idle 1 sec]
13325 13323  0.0  0.0 /usr/sbin/zabbix_agentd: listener #1 [waiting for connection]
13326 13323  0.0  0.0 /usr/sbin/zabbix_agentd: listener #2 [waiting for connection]
13328 13323  0.0  0.0 /usr/sbin/zabbix_agentd: listener #3 [waiting for connection]
13329 13323  0.0  0.0 /usr/sbin/zabbix_agentd: active checks #1 [idle 1 sec]
13955     2  0.0  0.0 [kworker/2:1]
13980     2  0.0  0.0 [kworker/7:2H]
14130     2  0.0  0.0 [kworker/2:1H]
14511     2  0.0  0.0 [kworker/u30:2]
16395     2  0.0  0.0 [kworker/0:0]
17702     2  0.0  0.0 [kworker/0:1H]
17924     2  0.0  0.0 [kworker/4:1]
18099     1  0.0  0.0 /home/securenet_prod/bin/wrapper /home/securenet_prod/etc/snip_wrapper.properties wrapper.syslog.ident=securenet_prod_snip wrapper.pidfile=/home/securenet_prod/bin/../run/securenet_prod_snip.pid wrapper.daemonize=TRUE wrapper.lockfile=/var/lock/subsys/securenet_prod_snip
18104 18099  4.4 17.4 /usr/lib/jvm/java-8-oracle/jre/bin/java -Djava.net.preferIPv4Stack=true -Duser.timezone=US/Central -Djava.net.preferIPv4Stack=true -XX:+PrintGCDetails -XX:+PrintGCDateStamps -Xms1024m -Xmx24576m -Djava.library.path=../lib/ext -classpath ../lib/ext/wrapper.jar:../lib/sn-server-snip-latest.jar:../lib/ext/third-parties.jar -Dwrapper.key=nnpxsBbal7gMFlXb -Dwrapper.port=32000 -Dwrapper.jvm.port.min=31000 -Dwrapper.jvm.port.max=31999 -Dwrapper.disable_console_input=TRUE -Dwrapper.pid=18099 -Dwrapper.version=3.5.30 -Dwrapper.native_library=wrapper -Dwrapper.arch=x86 -Dwrapper.service=TRUE -Dwrapper.cpu.timeout=10 -Dwrapper.jvmid=1 org.tanukisoftware.wrapper.WrapperStartStopApp com.infinity.securenet.plugins.pa.PAServiceRunner 2 start properties=../etc/snip.properties com.infinity.securenet.plugins.pa.PAServiceRunner true 1 stop
18679     2  0.0  0.0 [kworker/3:2]
18723     2  0.0  0.0 [kworker/u30:1]
22722     2  0.0  0.0 [kworker/5:1H]
23355  6196  0.0  0.0 sshd: bev_lekx [priv]
23368     2  0.0  0.0 [kworker/2:0]
23369     2  0.0  0.0 [kworker/2:3]
23419 23355  0.0  0.0 sshd: bev_lekx@notty
23426 23419  0.0  0.0 ps -eo pid,ppid,%mem,%cpu,cmd
23466     2  0.0  0.0 [kworker/u30:0]
23602     2  0.0  0.0 [kworker/5:2]
23696     2  0.0  0.0 [kworker/6:2H]
23842     2  0.0  0.0 [kworker/3:0]
24265     2  0.0  0.0 [kworker/6:0H]
24904     1  0.0  0.0 /lib/systemd/systemd-timesyncd
25216     2  0.0  0.0 [kworker/1:0]
25350     2  0.0  0.0 [kworker/6:1]
25673     1  0.0  0.0 /usr/bin/memcached -m 1024 -p 11211 -u memcache -l 127.0.0.1
25705     1  0.0  0.0 /lib/systemd/systemd-udevd
25792     1  2.9 11.5 /usr/bin/java -Xms64M -Xmx1G -Djava.util.logging.config.file=logging.properties -Djava.security.auth.login.config=/etc/activemq/conf/login.config -Dcom.sun.management.jmxremote -Djava.awt.headless=true -Djava.io.tmpdir=/etc/activemq/tmp -Dactivemq.classpath=/etc/activemq/conf:/etc/activemq/../lib/: -Dactivemq.home=/usr/local/activemq -Dactivemq.base=/etc/activemq -Dactivemq.conf=/etc/activemq/conf -Dactivemq.data=/etc/activemq/data -jar /usr/local/activemq/bin/activemq.jar start
26222     2  0.0  0.0 [kworker/7:1]
27798     1  0.0  0.0 /usr/sbin/openvpn --daemon ovpn-server-vivotek-tcp10 --status /run/openvpn/server-vivotek-tcp10.status 10 --cd /etc/openvpn --script-security 2 --config /etc/openvpn/server-vivotek-tcp10.conf --writepid /run/openvpn/server-vivotek-tcp10.pid
28076     2  0.0  0.0 [kworker/7:0H]
28784     2  0.0  0.0 [kworker/1:0H]
28954     1  0.0  0.0 tail -f /home/securenet_prod/log/snip.log
28993     2  0.0  0.0 [kworker/2:2]
29431     1  0.0  0.0 /usr/sbin/openvpn --daemon ovpn-server-vivotek-tcp2 --status /run/openvpn/server-vivotek-tcp2.status 10 --cd /etc/openvpn --script-security 2 --config /etc/openvpn/server-vivotek-tcp2.conf --writepid /run/openvpn/server-vivotek-tcp2.pid
29567     2  0.0  0.0 [kworker/4:1H]
29679     1  0.0  0.0 /usr/sbin/openvpn --daemon ovpn-server-vivotek-tcp4 --status /run/openvpn/server-vivotek-tcp4.status 10 --cd /etc/openvpn --script-security 2 --config /etc/openvpn/server-vivotek-tcp4.conf --writepid /run/openvpn/server-vivotek-tcp4.pid
29971     1  0.0  0.0 /usr/sbin/openvpn --daemon ovpn-server-vivotek-tcp6 --status /run/openvpn/server-vivotek-tcp6.status 10 --cd /etc/openvpn --script-security 2 --config /etc/openvpn/server-vivotek-tcp6.conf --writepid /run/openvpn/server-vivotek-tcp6.pid
30157     1  0.0  0.0 /usr/sbin/openvpn --daemon ovpn-server-vivotek-tcp3 --status /run/openvpn/server-vivotek-tcp3.status 10 --cd /etc/openvpn --script-security 2 --config /etc/openvpn/server-vivotek-tcp3.conf --writepid /run/openvpn/server-vivotek-tcp3.pid
30810     2  0.0  0.0 [kworker/2:0H]
30917     1  0.0  0.0 /usr/sbin/uuidd --socket-activation
31575     2  0.0  0.0 [kworker/3:1]
32697     1  0.0  0.0 /usr/sbin/openvpn --daemon ovpn-server-vivotek-tcp5 --status /run/openvpn/server-vivotek-tcp5.status 10 --cd /etc/openvpn --script-security 2 --config /etc/openvpn/server-vivotek-tcp5.conf --writepid /run/openvpn/server-vivotek-tcp5.pid
