  PID  PPID %MEM %CPU CMD
    1     0  0.1  0.0 /sbin/init
    2     0  0.0  0.0 [kthreadd]
    3     2  0.0  0.0 [ksoftirqd/0]
    5     2  0.0  0.0 [kworker/0:0H]
    7     2  0.0  0.0 [rcu_sched]
    8     2  0.0  0.0 [rcu_bh]
    9     2  0.0  0.0 [migration/0]
   10     2  0.0  0.0 [watchdog/0]
   11     2  0.0  0.0 [watchdog/1]
   12     2  0.0  0.0 [migration/1]
   13     2  0.0  0.0 [ksoftirqd/1]
   15     2  0.0  0.0 [kworker/1:0H]
   16     2  0.0  0.0 [kdevtmpfs]
   17     2  0.0  0.0 [netns]
   18     2  0.0  0.0 [perf]
   19     2  0.0  0.0 [xenwatch]
   20     2  0.0  0.0 [xenbus]
   22     2  0.0  0.0 [khungtaskd]
   23     2  0.0  0.0 [writeback]
   24     2  0.0  0.0 [ksmd]
   25     2  0.0  0.0 [khugepaged]
   26     2  0.0  0.0 [crypto]
   27     2  0.0  0.0 [kintegrityd]
   28     2  0.0  0.0 [bioset]
   29     2  0.0  0.0 [kblockd]
   30     2  0.0  0.0 [ata_sff]
   31     2  0.0  0.0 [md]
   32     2  0.0  0.0 [devfreq_wq]
   36     2  0.0  0.0 [kswapd0]
   37     2  0.0  0.0 [vmstat]
   38     2  0.0  0.0 [fsnotify_mark]
   39     2  0.0  0.0 [ecryptfs-kthrea]
   55     2  0.0  0.0 [kthrotld]
   56     2  0.0  0.0 [bioset]
   57     2  0.0  0.0 [bioset]
   58     2  0.0  0.0 [bioset]
   59     2  0.0  0.0 [bioset]
   60     2  0.0  0.0 [bioset]
   61     2  0.0  0.0 [bioset]
   62     2  0.0  0.0 [bioset]
   63     2  0.0  0.0 [bioset]
   64     2  0.0  0.0 [bioset]
   65     2  0.0  0.0 [bioset]
   66     2  0.0  0.0 [bioset]
   67     2  0.0  0.0 [bioset]
   68     2  0.0  0.0 [bioset]
   69     2  0.0  0.0 [bioset]
   70     2  0.0  0.0 [bioset]
   71     2  0.0  0.0 [bioset]
   72     2  0.0  0.0 [bioset]
   73     2  0.0  0.0 [bioset]
   74     2  0.0  0.0 [bioset]
   75     2  0.0  0.0 [bioset]
   76     2  0.0  0.0 [bioset]
   77     2  0.0  0.0 [bioset]
   78     2  0.0  0.0 [bioset]
   79     2  0.0  0.0 [bioset]
   80     2  0.0  0.0 [nvme]
   81     2  0.0  0.0 [scsi_eh_0]
   82     2  0.0  0.0 [scsi_tmf_0]
   83     2  0.0  0.0 [scsi_eh_1]
   84     2  0.0  0.0 [scsi_tmf_1]
   86     2  0.0  0.0 [bioset]
   90     2  0.0  0.0 [ipv6_addrconf]
  104     2  0.0  0.0 [deferwq]
  256     2  0.0  0.0 [raid5wq]
  282     2  0.0  0.0 [bioset]
  312     2  0.0  0.0 [jbd2/xvda1-8]
  313     2  0.0  0.0 [ext4-rsv-conver]
  387     2  0.0  0.0 [kworker/1:1H]
  398     2  0.0  0.0 [iscsi_eh]
  405     2  0.0  0.0 [ib_addr]
  407     2  0.0  0.0 [ib_mcast]
  408     2  0.0  0.0 [ib_nl_sa_wq]
  409     2  0.0  0.0 [ib_cm]
  410     2  0.0  0.0 [iw_cm_wq]
  412     2  0.0  0.0 [rdma_cm]
  422     1  0.1  0.0 /lib/systemd/systemd-journald
  429     2  0.0  0.0 [rpciod]
  433     2  0.0  0.0 [kauditd]
  444     1  0.0  0.0 /sbin/lvmetad -f
  464     2  0.0  0.0 [kworker/0:1H]
  495     1  0.1  0.0 /lib/systemd/systemd-udevd
 1001     1  0.0  0.0 /sbin/dhclient -1 -v -pf /run/dhclient.eth0.pid -lf /var/lib/dhcp/dhclient.eth0.leases -I -df /var/lib/dhcp/dhclient6.eth0.leases eth0
 1179     1  0.0  0.0 /usr/bin/memcached -m 64 -p 11211 -u memcache
 1181     1  0.1  0.0 /usr/lib/accountsservice/accounts-daemon
 1193     1  0.0  0.0 /usr/sbin/acpid
 1194     1  0.0  0.0 /usr/bin/dbus-daemon --system --address=systemd: --nofork --nopidfile --systemd-activation
 1198     1  0.0  0.0 /usr/sbin/openvpn --daemon ovpn-server-vivotek-tcp6 --status /run/openvpn/server-vivotek-tcp6.status 10 --cd /etc/openvpn --script-security 2 --config /etc/openvpn/server-vivotek-tcp6.conf --writepid /run/openvpn/server-vivotek-tcp6.pid
 1199     1  0.0  0.0 /usr/sbin/openvpn --daemon ovpn-server-vivotek-tcp8 --status /run/openvpn/server-vivotek-tcp8.status 10 --cd /etc/openvpn --script-security 2 --config /etc/openvpn/server-vivotek-tcp8.conf --writepid /run/openvpn/server-vivotek-tcp8.pid
 1200     1  0.0  0.0 /usr/sbin/openvpn --daemon ovpn-server-vivotek-tcp10 --status /run/openvpn/server-vivotek-tcp10.status 10 --cd /etc/openvpn --script-security 2 --config /etc/openvpn/server-vivotek-tcp10.conf --writepid /run/openvpn/server-vivotek-tcp10.pid
 1284     1  0.1  0.0 /usr/sbin/openvpn --daemon ovpn-server-vivotek-tcp9 --status /run/openvpn/server-vivotek-tcp9.status 10 --cd /etc/openvpn --script-security 2 --config /etc/openvpn/server-vivotek-tcp9.conf --writepid /run/openvpn/server-vivotek-tcp9.pid
 1288     1  0.1  0.0 /usr/sbin/openvpn --daemon ovpn-server-vivotek-tcp7 --status /run/openvpn/server-vivotek-tcp7.status 10 --cd /etc/openvpn --script-security 2 --config /etc/openvpn/server-vivotek-tcp7.conf --writepid /run/openvpn/server-vivotek-tcp7.pid
 1297     1  0.0  0.0 /lib/systemd/systemd-logind
 1304     1  0.1  0.0 /usr/sbin/openvpn --daemon ovpn-server-vivotek-tcp4 --status /run/openvpn/server-vivotek-tcp4.status 10 --cd /etc/openvpn --script-security 2 --config /etc/openvpn/server-vivotek-tcp4.conf --writepid /run/openvpn/server-vivotek-tcp4.pid
 1309     1  0.0  0.0 /usr/sbin/atd -f
 1325     1  0.0  0.0 /usr/bin/lxcfs /var/lib/lxcfs/
 1363     1  0.1  0.0 /usr/sbin/openvpn --daemon ovpn-server-vivotek-tcp3 --status /run/openvpn/server-vivotek-tcp3.status 10 --cd /etc/openvpn --script-security 2 --config /etc/openvpn/server-vivotek-tcp3.conf --writepid /run/openvpn/server-vivotek-tcp3.pid
 1364     1  0.0  0.0 /usr/sbin/cron -f
 1385     1  0.0  0.0 /usr/sbin/rsyslogd -n
 1416     1  0.1  0.0 /usr/sbin/openvpn --daemon ovpn-server-vivotek-tcp2 --status /run/openvpn/server-vivotek-tcp2.status 10 --cd /etc/openvpn --script-security 2 --config /etc/openvpn/server-vivotek-tcp2.conf --writepid /run/openvpn/server-vivotek-tcp2.pid
 1433     1  0.1  0.0 /usr/sbin/openvpn --daemon ovpn-server-vivotek-udp --status /run/openvpn/server-vivotek-udp.status 10 --cd /etc/openvpn --script-security 2 --config /etc/openvpn/server-vivotek-udp.conf --writepid /run/openvpn/server-vivotek-udp.pid
 1434     1  0.1  0.0 /usr/sbin/openvpn --daemon ovpn-server-vivotek-tcp5 --status /run/openvpn/server-vivotek-tcp5.status 10 --cd /etc/openvpn --script-security 2 --config /etc/openvpn/server-vivotek-tcp5.conf --writepid /run/openvpn/server-vivotek-tcp5.pid
 1435     1  0.0  0.0 /bin/bash /root/PPCRelay/start_Relay.sh
 1478     1  0.1  0.2 /usr/bin/redis-server 127.0.0.1:6379
 1511     1  0.1  0.0 /usr/sbin/openvpn --daemon ovpn-server-vivotek-tcp1 --status /run/openvpn/server-vivotek-tcp1.status 10 --cd /etc/openvpn --script-security 2 --config /etc/openvpn/server-vivotek-tcp1.conf --writepid /run/openvpn/server-vivotek-tcp1.pid
 1514  1435  0.0  0.0 /root/PPCRelay/SmartP2P_Relay SNP-000004-ULDUF 60000 5000 50 52.202.105.54 p2p2.securenettech.com p2p3.securenettech.com
 1521     1  0.0  0.0 /sbin/iscsid
 1522     1  0.0  0.0 /sbin/iscsid
 1537     1  0.1  0.0 /usr/sbin/sshd -D
 1580     1  0.1  0.0 /usr/lib/policykit-1/polkitd --no-debug
 1583     1  0.0  0.0 /sbin/mdadm --monitor --pid-file /run/mdadm/monitor.pid --daemonise --scan --syslog
 1594     1  0.3  0.0 /usr/bin/python3 /usr/share/unattended-upgrades/unattended-upgrade-shutdown --wait-for-signal
 1598     1  0.0  0.0 /usr/sbin/haproxy-systemd-wrapper -f /etc/haproxy/haproxy.cfg -p /run/haproxy.pid
 1601  1598  0.0  0.0 /usr/sbin/haproxy -f /etc/haproxy/haproxy.cfg -p /run/haproxy.pid -Ds
 1602  1601  0.0  0.0 /usr/sbin/haproxy -f /etc/haproxy/haproxy.cfg -p /run/haproxy.pid -Ds
 1743     1  0.0  0.0 /usr/sbin/irqbalance --pid=/var/run/irqbalance.pid
 1816     1 11.2  0.0 /usr/lib/jvm/java-8-oracle/bin/java -Djava.util.logging.config.file=/var/lib/tomcat7/conf/logging.properties -Djava.util.logging.manager=org.apache.juli.ClassLoaderLogManager -Djava.awt.headless=true -Xmx128m -XX:+UseConcMarkSweepGC -server -Xms256m -Xmx1024m -XX:PermSize=256m -XX:MaxPermSize=256m -Djava.endorsed.dirs=/usr/share/tomcat7/endorsed -classpath /usr/share/tomcat7/bin/bootstrap.jar:/usr/share/tomcat7/bin/tomcat-juli.jar -Dcatalina.base=/var/lib/tomcat7 -Dcatalina.home=/usr/share/tomcat7 -Djava.io.tmpdir=/tmp/tomcat7-tomcat7-tmp org.apache.catalina.startup.Bootstrap start
 1821     1  0.0  0.0 /sbin/agetty --noclear tty1 linux
 1825     1  0.1  0.0 /usr/sbin/snmpd -Lsd -Lf /dev/null -u snmp -g snmp -I -smux mteTrigger mteTriggerConf -p /run/snmpd.pid
 1828     1  0.0  0.0 /sbin/agetty --keep-baud 115200 38400 9600 ttyS0 vt220
 1860     1  0.8  0.0 /usr/sbin/apache2 -k start
 1906     1  0.0  0.0 /usr/sbin/pound
 1907  1906  0.1  0.0 /usr/sbin/pound
 2482     1  0.0  0.0 /bin/sh /usr/bin/mysqld_safe
 2853  2482  5.8  0.0 /usr/sbin/mysqld --basedir=/usr --datadir=/var/lib/mysql --plugin-dir=/usr/lib/mysql/plugin --wsrep-provider=/usr/lib/galera3/libgalera_smm.so --log-error=/var/log/mysqld.log --pid-file=/var/run/mysqld/mysqld.pid --socket=/var/run/mysqld/mysqld.sock --wsrep_start_position=944e46e2-718b-11e7-b90c-2e501c584d33:6608327
 2962     1  0.0  0.0 /home/securenet_prod/bin/wrapper /home/securenet_prod/etc/snip_wrapper.properties wrapper.syslog.ident=securenet_prod_snip wrapper.pidfile=/home/securenet_prod/bin/../run/securenet_prod_snip.pid wrapper.daemonize=TRUE wrapper.lockfile=/var/lock/subsys/securenet_prod_snip
 2964  2962  5.7  0.3 /usr/lib/jvm/java-8-oracle/jre/bin/java -Djava.net.preferIPv4Stack=true -Duser.timezone=US/Central -Djava.net.preferIPv4Stack=true -XX:+PrintGCDetails -XX:+PrintGCDateStamps -Xms128m -Xmx1024m -Djava.library.path=../lib/ext -classpath ../lib/ext/wrapper.jar:../lib/sn-server-snip-latest.jar:../lib/ext/third-parties.jar -Dwrapper.key=Vjr5QRTjPIYDj7bT -Dwrapper.port=32000 -Dwrapper.jvm.port.min=31000 -Dwrapper.jvm.port.max=31999 -Dwrapper.disable_console_input=TRUE -Dwrapper.pid=2962 -Dwrapper.version=3.5.30 -Dwrapper.native_library=wrapper -Dwrapper.arch=x86 -Dwrapper.service=TRUE -Dwrapper.cpu.timeout=10 -Dwrapper.jvmid=1 org.tanukisoftware.wrapper.WrapperStartStopApp com.infinity.securenet.plugins.snip.SnipServiceRunner 2 start properties=../etc/snip.properties com.infinity.securenet.plugins.snip.SnipServiceRunner true 1 stop
 3122     1  0.0  0.0 /usr/lib/postfix/sbin/master
 3124  3122  0.1  0.0 qmgr -l -t unix -u
 3246     1  0.0  0.0 /usr/sbin/ntpd -p /var/run/ntpd.pid -g -u 123:127
17463     1  0.0  0.0 /usr/lib/ipsec/starter --daemon charon
17464 17463  0.1  0.0 /usr/lib/ipsec/charon --use-syslog
19014     1 36.7  0.8 java -Xloggc:/var/log/cassandra/gc.log -ea -XX:+UseThreadPriorities -XX:ThreadPriorityPolicy=42 -XX:+HeapDumpOnOutOfMemoryError -Xss256k -XX:StringTableSize=1000003 -XX:+AlwaysPreTouch -XX:-UseBiasedLocking -XX:+UseTLAB -XX:+ResizeTLAB -XX:+UseNUMA -XX:+PerfDisableSharedMem -Djava.net.preferIPv4Stack=true -XX:+UseParNewGC -XX:+UseConcMarkSweepGC -XX:+CMSParallelRemarkEnabled -XX:SurvivorRatio=8 -XX:MaxTenuringThreshold=1 -XX:CMSInitiatingOccupancyFraction=75 -XX:+UseCMSInitiatingOccupancyOnly -XX:CMSWaitDuration=10000 -XX:+CMSParallelInitialMarkEnabled -XX:+CMSEdenChunksRecordAlways -XX:+CMSClassUnloadingEnabled -XX:+PrintGCDetails -XX:+PrintGCDateStamps -XX:+PrintHeapAtGC -XX:+PrintTenuringDistribution -XX:+PrintGCApplicationStoppedTime -XX:+PrintPromotionFailure -XX:+UseGCLogFileRotation -XX:NumberOfGCLogFiles=10 -XX:GCLogFileSize=10M -Xms1024M -Xmx1024M -Xmn200M -XX:+UseCondCardMark -XX:CompileCommandFile=/etc/cassandra/hotspot_compiler -javaagent:/usr/share/cassandra/lib/jamm-0.3.0.jar -Dcassandra.jmx.local.port=7199 -Dcom.sun.management.jmxremote.authenticate=false -Dcom.sun.management.jmxremote.password.file=/etc/cassandra/jmxremote.password -Djava.library.path=/usr/share/cassandra/lib/sigar-bin -XX:OnOutOfMemoryError=kill -9 %p -Dlogback.configurationFile=logback.xml -Dcassandra.logdir=/var/log/cassandra -Dcassandra.storagedir=/var/lib/cassandra -Dcassandra-pidfile=/var/run/cassandra/cassandra.pid -cp /etc/cassandra:/usr/share/cassandra/lib/HdrHistogram-2.1.9.jar:/usr/share/cassandra/lib/ST4-4.0.8.jar:/usr/share/cassandra/lib/airline-0.6.jar:/usr/share/cassandra/lib/antlr-runtime-3.5.2.jar:/usr/share/cassandra/lib/asm-5.0.4.jar:/usr/share/cassandra/lib/caffeine-2.2.6.jar:/usr/share/cassandra/lib/cassandra-driver-core-3.0.1-shaded.jar:/usr/share/cassandra/lib/commons-cli-1.1.jar:/usr/share/cassandra/lib/commons-codec-1.9.jar:/usr/share/cassandra/lib/commons-lang3-3.1.jar:/usr/share/cassandra/lib/commons-math3-3.2.jar:/usr/share/cassandra/lib/compress-lzf-0.8.4.jar:/usr/share/cassandra/lib/concurrent-trees-2.4.0.jar:/usr/share/cassandra/lib/concurrentlinkedhashmap-lru-1.4.jar:/usr/share/cassandra/lib/disruptor-3.0.1.jar:/usr/share/cassandra/lib/ecj-4.4.2.jar:/usr/share/cassandra/lib/guava-18.0.jar:/usr/share/cassandra/lib/high-scale-lib-1.0.6.jar:/usr/share/cassandra/lib/hppc-0.5.4.jar:/usr/share/cassandra/lib/jackson-core-asl-1.9.13.jar:/usr/share/cassandra/lib/jackson-mapper-asl-1.9.13.jar:/usr/share/cassandra/lib/jamm-0.3.0.jar:/usr/share/cassandra/lib/javax.inject.jar:/usr/share/cassandra/lib/jbcrypt-0.3m.jar:/usr/share/cassandra/lib/jcl-over-slf4j-1.7.7.jar:/usr/share/cassandra/lib/jctools-core-1.2.1.jar:/usr/share/cassandra/lib/jflex-1.6.0.jar:/usr/share/cassandra/lib/jna-4.2.2.jar:/usr/share/cassandra/lib/joda-time-2.4.jar:/usr/share/cassandra/lib/json-simple-1.1.jar:/usr/share/cassandra/lib/jstackjunit-0.0.1.jar:/usr/share/cassandra/lib/libthrift-0.9.2.jar:/usr/share/cassandra/lib/log4j-over-slf4j-1.7.7.jar:/usr/share/cassandra/lib/logback-classic-1.1.3.jar:/usr/share/cassandra/lib/logback-core-1.1.3.jar:/usr/share/cassandra/lib/lz4-1.3.0.jar:/usr/share/cassandra/lib/metrics-core-3.1.5.jar:/usr/share/cassandra/lib/metrics-jvm-3.1.5.jar:/usr/share/cassandra/lib/metrics-logback-3.1.5.jar:/usr/share/cassandra/lib/netty-all-4.0.44.Final.jar:/usr/share/cassandra/lib/ohc-core-0.4.4.jar:/usr/share/cassandra/lib/ohc-core-j8-0.4.4.jar:/usr/share/cassandra/lib/reporter-config-base-3.0.3.jar:/usr/share/cassandra/lib/reporter-config3-3.0.3.jar:/usr/share/cassandra/lib/sigar-1.6.4.jar:/usr/share/cassandra/lib/slf4j-api-1.7.7.jar:/usr/share/cassandra/lib/snakeyaml-1.11.jar:/usr/share/cassandra/lib/snappy-java-1.1.1.7.jar:/usr/share/cassandra/lib/snowball-stemmer-1.3.0.581.1.jar:/usr/share/cassandra/lib/stream-2.5.2.jar:/usr/share/cassandra/lib/thrift-server-0.3.7.jar:/usr/share/cassandra/apache-cassandra-3.11.5.jar:/usr/share/cassandra/apache-cassandra-thrift-3.11.5.jar:/usr/share/cassandra/apache-cassandra.jar:/usr/share/cassandra/stress.jar: -XX:HeapDumpPath=/var/lib/cassandra/java_1583172062.hprof -XX:ErrorFile=/var/lib/cassandra/hs_err_1583172062.log org.apache.cassandra.service.CassandraDaemon
20137     1  0.1  0.0 /lib/systemd/systemd --user
20138 20137  0.0  0.0 (sd-pam)
22330     2  0.0  0.0 [kworker/1:2]
22333  1860  0.2  0.0 /usr/sbin/apache2 -k start
22336  1860  0.2  0.0 /usr/sbin/apache2 -k start
22337  1860  0.2  0.0 /usr/sbin/apache2 -k start
22338  1860  0.2  0.0 /usr/sbin/apache2 -k start
22339  1860  0.2  0.0 /usr/sbin/apache2 -k start
22374     1  0.0  0.0 /usr/sbin/zabbix_agentd
22375 22374  0.0  0.0 /usr/sbin/zabbix_agentd: collector [idle 1 sec]
22376 22374  0.0  0.0 /usr/sbin/zabbix_agentd: listener #1 [waiting for connection]
22377 22374  0.0  0.0 /usr/sbin/zabbix_agentd: listener #2 [waiting for connection]
22378 22374  0.0  0.0 /usr/sbin/zabbix_agentd: listener #3 [waiting for connection]
22379 22374  0.0  0.0 /usr/sbin/zabbix_agentd: active checks #1 [idle 1 sec]
22734     2  0.0  0.0 [kworker/0:0]
25709     2  0.0  0.0 [kworker/0:3]
27088  3122  0.1  0.0 pickup -l -t unix -u -c
28872     2  0.0  0.0 [kworker/u30:0]
29150     2  0.0  0.0 [xfsalloc]
29151     2  0.0  0.0 [xfs_mru_cache]
29315     2  0.0  0.0 [kworker/1:1]
31938     2  0.0  0.0 [kworker/u30:2]
32636  1435  0.0  0.0 sleep 5
32682     2  0.0  0.0 [kworker/1:0]
32683  1537  0.1  0.0 sshd: bev_lekx [priv]
32722 32683  0.0  0.0 sshd: bev_lekx@notty
32723 32722  0.0  0.0 ps -eo pid,ppid,%mem,%cpu,cmd
