activation_threshold .........: 2019-05-25
lastused_threshold ...........: 2019-05-25
deleted_threshold ............: 2020-02-24
activation_threshold_not_found: 2019-05-25
lastused_threshold_not_found .: 2020-02-24
0: "Deleted (2020-05-24)" numerex 8901640120335046010F 310640102504601     Active
  Activation date ....: 
  Last used date .....: 
  Acct deleted date ..: 2020-05-24
  Account ............: 494342 (pa)
  Usage ..............: 0.000
  Activation threshold: yes
  Last used threshold : no
  Deleted threshold ..: yes
  Deactivate this line: yes
Found imsi "640102504601" in vendor_id column in snet_changes.
  494342 pa 2020-05-24 640102504601 NULL 10.77.86.110   NULL
  SELECT id, account_id_new, partner, bureau_id, panel_type, vendor_id, vendor_id_2, proxy_id, imei, iccid, phone_number, deleted_date FROM snet_changes WHERE vendor_id="640102504601"

1: "Not found" numerex 8901640130140201932F 310640104020193     Active
  Activation date ....: 
  Last used date .....: 
  Acct deleted date ..: 
  Account ............: 0 ()
  Usage ..............: 0.000
  Activation threshold: yes
  Last used threshold : yes
  Deleted threshold ..: no
  Deactivate this line: yes

2: "Deleted (2020-05-22)" numerex 8901640120334837534F 310640102483753     Active
  Activation date ....: 
  Last used date .....: 
  Acct deleted date ..: 2020-05-22
  Account ............: 461100 (pa)
  Usage ..............: 0.000
  Activation threshold: yes
  Last used threshold : no
  Deleted threshold ..: yes
  Deactivate this line: yes
Found imsi "640102483753" in vendor_id column in snet_changes.
  461100 pa 2020-05-22 640102483753 NULL 10.77.122.46   NULL
  SELECT id, account_id_new, partner, bureau_id, panel_type, vendor_id, vendor_id_2, proxy_id, imei, iccid, phone_number, deleted_date FROM snet_changes WHERE vendor_id="640102483753"

3: "Not found" numerex 8901640111131711899F 310640102171189     Active
  Activation date ....: 
  Last used date .....: 
  Acct deleted date ..: 
  Account ............: 0 ()
  Usage ..............: 0.000
  Activation threshold: yes
  Last used threshold : yes
  Deleted threshold ..: no
  Deactivate this line: yes

