Fri Sep  7 15:32:22 2018 OpenVPN 2.3.10 x86_64-pc-linux-gnu [SSL (OpenSSL)] [LZO] [EPOLL] [PKCS11] [MH] [IPv6] built on Jun 22 2017
Fri Sep  7 15:32:22 2018 library versions: OpenSSL 1.0.2g  1 Mar 2016, LZO 2.08
Fri Sep  7 15:32:22 2018 WARNING: No server certificate verification method has been enabled.  See http://openvpn.net/howto.html#mitm for more info.
Fri Sep  7 15:32:22 2018 ******* WARNING *******: null cipher specified, no encryption will be used
Fri Sep  7 15:32:22 2018 WARNING: normally if you use --mssfix and/or --fragment, you should also set --tun-mtu 1500 (currently it is 1350)
Fri Sep  7 15:32:22 2018 Socket Buffers: R=[87380->87380] S=[16384->16384]
Fri Sep  7 15:32:22 2018 Attempting to establish TCP connection with [AF_INET]52.203.61.165:8888 [nonblock]
Fri Sep  7 15:32:23 2018 TCP connection established with [AF_INET]52.203.61.165:8888
Fri Sep  7 15:32:23 2018 TCPv4_CLIENT link local: [undef]
Fri Sep  7 15:32:23 2018 TCPv4_CLIENT link remote: [AF_INET]52.203.61.165:8888
Fri Sep  7 15:32:23 2018 TLS: Initial packet from [AF_INET]52.203.61.165:8888, sid=9e85e093 4cef20f6
Fri Sep  7 15:32:23 2018 WARNING: this configuration may cache passwords in memory -- use the auth-nocache option to prevent this
Fri Sep  7 15:32:23 2018 VERIFY OK: depth=1, C=AU, ST=NSW, O=SecureNet Monitoring, CN=securenetmonitoring.com, emailAddress=info@securenetmonitoring.com
Fri Sep  7 15:32:23 2018 VERIFY OK: depth=0, C=AU, ST=NSW, O=SecureNet Monitoring, CN=securenetmonitoring.com, emailAddress=info@securenetmonitoring.com
Fri Sep  7 15:32:23 2018 Data Channel Encrypt: Using 160 bit message hash 'SHA1' for HMAC authentication
Fri Sep  7 15:32:23 2018 Data Channel Decrypt: Using 160 bit message hash 'SHA1' for HMAC authentication
Fri Sep  7 15:32:23 2018 Control Channel: TLSv1.2, cipher TLSv1/SSLv3 DHE-RSA-AES256-GCM-SHA384, 2048 bit RSA
Fri Sep  7 15:32:23 2018 [securenetmonitoring.com] Peer Connection Initiated with [AF_INET]52.203.61.165:8888
Fri Sep  7 15:32:24 2018 event_wait : Interrupted system call (code=4)
Fri Sep  7 15:32:24 2018 SIGINT[hard,] received, process exiting
