activation_threshold .........: 2019-04-27
lastused_threshold ...........: 2019-04-27
deleted_threshold ............: 2019-10-29
activation_threshold_not_found: 2019-04-27
lastused_threshold_not_found .: 2019-04-27
0: "Not found" att 89314404000099310576 204043728917550  3545240433255543  10.20.34.107 Active
  Activation date ....: 
  Last used date .....: 
  Acct deleted date ..: 
  Account ............: 0 ()
  Usage ..............: 0.000
  Activation threshold: yes
  Last used threshold : yes
  Deleted threshold ..: no
  Deactivate this line: yes

1: "Deleted (2020-03-02)" att 89011703278126673287 310170812667328  357041066659593  10.64.99.236 Active
  Activation date ....: 2018-04-19
  Last used date .....: 2019-04-24
  Acct deleted date ..: 2020-03-02
  Account ............: 452117 (alder)
  Usage ..............: 0.000
  Activation threshold: yes
  Last used threshold : yes
  Deleted threshold ..: no
  Deactivate this line: yes
Found ipaddress "10.64.99.236" in proxy_id column in snet_changes.
  452117 alder 2020-03-02 44BA19F2CF09 NULL 10.64.99.236   NULL
  SELECT id, account_id_new, partner, bureau_id, panel_type, vendor_id, vendor_id_2, proxy_id, imei, iccid, phone_number, deleted_date FROM snet_changes WHERE proxy_id="10.64.99.236"

2: "Deleted (2018-03-13)" att 89011703278126663528 310170812666352  353173090184605  10.64.90.159 Active
  Activation date ....: 2018-02-15
  Last used date .....: 2020-01-31
  Acct deleted date ..: 2018-03-13
  Account ............: 448200 (alder)
  Usage ..............: 0.000
  Activation threshold: yes
  Last used threshold : no
  Deleted threshold ..: yes
  Deactivate this line: yes
Found ipaddress "10.64.90.159" in proxy_id column in snet_changes.
  448200 alder 2018-03-13 44BA19F24919 NULL 10.64.90.159   NULL
  SELECT id, account_id_new, partner, bureau_id, panel_type, vendor_id, vendor_id_2, proxy_id, imei, iccid, phone_number, deleted_date FROM snet_changes WHERE proxy_id="10.64.90.159"

3: "Deleted (2019-10-26)" att 89011703278126654964 310170812665496  357041065267620  10.64.83.245 Active
  Activation date ....: 2018-05-06
  Last used date .....: 2019-10-27
  Acct deleted date ..: 2019-10-26
  Account ............: 454223 (alder)
  Usage ..............: 0.000
  Activation threshold: yes
  Last used threshold : no
  Deleted threshold ..: yes
  Deactivate this line: yes
Found ipaddress "10.64.83.245" in proxy_id column in snet_changes.
  454223 alder 2019-10-26 44BA19DD91A4 NULL 10.64.83.245   NULL
  SELECT id, account_id_new, partner, bureau_id, panel_type, vendor_id, vendor_id_2, proxy_id, imei, iccid, phone_number, deleted_date FROM snet_changes WHERE proxy_id="10.64.83.245"

4: "Deleted (2020-02-24)" att 89011703278126649386 310170812664938  3570410667117210  10.64.88.123 Active
  Activation date ....: 2018-03-16
  Last used date .....: 2019-04-24
  Acct deleted date ..: 2020-02-24
  Account ............: 450073 (alder)
  Usage ..............: 0.000
  Activation threshold: yes
  Last used threshold : yes
  Deleted threshold ..: no
  Deactivate this line: yes
Found ipaddress "10.64.88.123" in proxy_id column in snet_changes.
  450073 alder 2020-02-24 44BA19F39AAD NULL 10.64.88.123   NULL
  SELECT id, account_id_new, partner, bureau_id, panel_type, vendor_id, vendor_id_2, proxy_id, imei, iccid, phone_number, deleted_date FROM snet_changes WHERE proxy_id="10.64.88.123"

5: "Not found" att 89011703278126641698 310170812664169  3570410653804210  10.64.91.30 Active
  Activation date ....: 2018-03-23
  Last used date .....: 2018-10-31
  Acct deleted date ..: 
  Account ............: 0 ()
  Usage ..............: 0.000
  Activation threshold: yes
  Last used threshold : yes
  Deleted threshold ..: no
  Deactivate this line: yes

6: "Deleted (2019-01-16)" att 89011703278126637860 310170812663786  3570410666934310  10.64.87.185 Active
  Activation date ....: 2018-03-14
  Last used date .....: 2020-02-08
  Acct deleted date ..: 2019-01-16
  Account ............: 449829 (alder)
  Usage ..............: 0.000
  Activation threshold: yes
  Last used threshold : no
  Deleted threshold ..: yes
  Deactivate this line: yes
Found ipaddress "10.64.87.185" in proxy_id column in snet_changes.
  449829 alder 2019-01-16 44BA19F3533C NULL 10.64.87.185   NULL
  SELECT id, account_id_new, partner, bureau_id, panel_type, vendor_id, vendor_id_2, proxy_id, imei, iccid, phone_number, deleted_date FROM snet_changes WHERE proxy_id="10.64.87.185"

7: "Deleted (2019-10-24)" att 89011703278126616864 310170812661686  3570410654571010  10.64.108.56 Active
  Activation date ....: 2018-01-19
  Last used date .....: 2019-10-09
  Acct deleted date ..: 2019-10-24
  Account ............: 447073 (alder)
  Usage ..............: 0.000
  Activation threshold: yes
  Last used threshold : no
  Deleted threshold ..: yes
  Deactivate this line: yes
Found ipaddress "10.64.108.56" in proxy_id column in snet_changes.
  447073 alder 2019-10-24 4135849972FD NULL 10.64.108.56   NULL
  SELECT id, account_id_new, partner, bureau_id, panel_type, vendor_id, vendor_id_2, proxy_id, imei, iccid, phone_number, deleted_date FROM snet_changes WHERE proxy_id="10.64.108.56"

8: "Not found" att 89011702272014256983 310170201425698  012615003179372  10.65.0.12 Active
  Activation date ....: 
  Last used date .....: 
  Acct deleted date ..: 
  Account ............: 0 ()
  Usage ..............: 0.000
  Activation threshold: yes
  Last used threshold : yes
  Deleted threshold ..: no
  Deactivate this line: yes

9: "Deleted (2019-10-25)" att 89011703278164927231 310170816492723  353173090059534  10.65.3.153 Active
  Activation date ....: 2019-04-22
  Last used date .....: 2019-11-12
  Acct deleted date ..: 2019-10-25
  Account ............: 488902 (alder)
  Usage ..............: 0.000
  Activation threshold: yes
  Last used threshold : no
  Deleted threshold ..: yes
  Deactivate this line: yes
Found ipaddress "10.65.3.153" in proxy_id column in snet_changes.
  488902 alder 2019-10-25 41358493C50E NULL 10.65.3.153   NULL
  SELECT id, account_id_new, partner, bureau_id, panel_type, vendor_id, vendor_id_2, proxy_id, imei, iccid, phone_number, deleted_date FROM snet_changes WHERE proxy_id="10.65.3.153"

10: "Deleted (2020-02-24)" att 89011703278164988373 310170816498837  357041069769696  10.65.21.170 Active
  Activation date ....: 2018-08-12
  Last used date .....: 2019-04-24
  Acct deleted date ..: 2020-02-24
  Account ............: 471572 (alder)
  Usage ..............: 0.000
  Activation threshold: yes
  Last used threshold : yes
  Deleted threshold ..: no
  Deactivate this line: yes
Found ipaddress "10.65.21.170" in proxy_id column in snet_changes.
  471572 alder 2020-02-24 44BA1A2243E0 NULL 10.65.21.170   NULL
  SELECT id, account_id_new, partner, bureau_id, panel_type, vendor_id, vendor_id_2, proxy_id, imei, iccid, phone_number, deleted_date FROM snet_changes WHERE proxy_id="10.65.21.170"

11: "Deleted (2019-10-22)" att 89011703278164990270 310170816499027  357041068699225  10.65.22.234 Active
  Activation date ....: 2018-07-18
  Last used date .....: 2019-11-02
  Acct deleted date ..: 2019-10-22
  Account ............: 476268 (alder)
  Usage ..............: 0.000
  Activation threshold: yes
  Last used threshold : no
  Deleted threshold ..: yes
  Deactivate this line: yes
Found ipaddress "10.65.22.234" in proxy_id column in snet_changes.
  476268 alder 2019-10-22 44BA1A11EE59 NULL 10.65.22.234   NULL
  SELECT id, account_id_new, partner, bureau_id, panel_type, vendor_id, vendor_id_2, proxy_id, imei, iccid, phone_number, deleted_date FROM snet_changes WHERE proxy_id="10.65.22.234"

12: "Deleted (2019-10-26)" att 89011703278164914114 310170816491411  353173090034339  10.65.31.222 Active
  Activation date ....: 2019-05-02
  Last used date .....: 2019-10-31
  Acct deleted date ..: 2019-10-26
  Account ............: 492023 (alder)
  Usage ..............: 0.000
  Activation threshold: no
  Last used threshold : no
  Deleted threshold ..: yes
  Deactivate this line: yes
Found ipaddress "10.65.31.222" in proxy_id column in snet_changes.
  492023 alder 2019-10-26 4135849362A3 NULL 10.65.31.222   NULL
  SELECT id, account_id_new, partner, bureau_id, panel_type, vendor_id, vendor_id_2, proxy_id, imei, iccid, phone_number, deleted_date FROM snet_changes WHERE proxy_id="10.65.31.222"

13: "Deleted (2019-10-23)" att 89011703278164910914 310170816491091  353173090029248  10.65.34.39 Active
  Activation date ....: 2019-04-04
  Last used date .....: 2020-03-17
  Acct deleted date ..: 2019-10-23
  Account ............: 488366 (alder)
  Usage ..............: 0.000
  Activation threshold: yes
  Last used threshold : no
  Deleted threshold ..: yes
  Deactivate this line: yes
Found ipaddress "10.65.34.39" in proxy_id column in snet_changes.
  488366 alder 2019-10-23 413584934EC0 NULL 10.65.34.39   NULL
  SELECT id, account_id_new, partner, bureau_id, panel_type, vendor_id, vendor_id_2, proxy_id, imei, iccid, phone_number, deleted_date FROM snet_changes WHERE proxy_id="10.65.34.39"

14: "Deleted (2020-03-03)" att 89011703278164961131 310170816496113  357041069508730  10.65.34.162 Active
  Activation date ....: 2018-08-20
  Last used date .....: 2019-04-23
  Acct deleted date ..: 2020-03-03
  Account ............: 472917 (alder)
  Usage ..............: 0.000
  Activation threshold: yes
  Last used threshold : yes
  Deleted threshold ..: no
  Deactivate this line: yes
Found ipaddress "10.65.34.162" in proxy_id column in snet_changes.
  472917 alder 2020-03-03 44BA1A1E487A NULL 10.65.34.162   NULL
  SELECT id, account_id_new, partner, bureau_id, panel_type, vendor_id, vendor_id_2, proxy_id, imei, iccid, phone_number, deleted_date FROM snet_changes WHERE proxy_id="10.65.34.162"

15: "Deleted (2020-03-09)" att 89011703278164922851 310170816492285  353173090097583  10.65.66.156 Active
  Activation date ....: 2019-04-16
  Last used date .....: 2019-04-24
  Acct deleted date ..: 2020-03-09
  Account ............: 488791 (alder)
  Usage ..............: 0.000
  Activation threshold: yes
  Last used threshold : yes
  Deleted threshold ..: no
  Deactivate this line: yes
Found ipaddress "10.65.66.156" in proxy_id column in snet_changes.
  488791 alder 2020-03-09 4135849459AF NULL 10.65.66.156   NULL
  SELECT id, account_id_new, partner, bureau_id, panel_type, vendor_id, vendor_id_2, proxy_id, imei, iccid, phone_number, deleted_date FROM snet_changes WHERE proxy_id="10.65.66.156"

16: "Deleted (2020-03-03)" att 89011703278164766357 310170816476635  358077091106993  10.65.80.99 Active
  Activation date ....: 2019-03-16
  Last used date .....: 2019-04-26
  Acct deleted date ..: 2020-03-03
  Account ............: 486984 (alder)
  Usage ..............: 0.000
  Activation threshold: yes
  Last used threshold : yes
  Deleted threshold ..: no
  Deactivate this line: yes
Found ipaddress "10.65.80.99" in proxy_id column in snet_changes.
  486984 alder 2020-03-03 45AB51D150B1 NULL 10.65.80.99   NULL
  SELECT id, account_id_new, partner, bureau_id, panel_type, vendor_id, vendor_id_2, proxy_id, imei, iccid, phone_number, deleted_date FROM snet_changes WHERE proxy_id="10.65.80.99"

17: "Deleted (2020-04-23)" att 89011703278164841010 310170816484101  357041069710336  10.65.88.179 Active
  Activation date ....: 2019-04-25
  Last used date .....: 2019-04-25
  Acct deleted date ..: 2020-04-23
  Account ............: 490867 (alder)
  Usage ..............: 0.000
  Activation threshold: yes
  Last used threshold : yes
  Deleted threshold ..: no
  Deactivate this line: yes
Found ipaddress "10.65.88.179" in proxy_id column in snet_changes.
  490867 alder 2020-04-23 44BA1A215C00 NULL 10.65.88.179   NULL
  SELECT id, account_id_new, partner, bureau_id, panel_type, vendor_id, vendor_id_2, proxy_id, imei, iccid, phone_number, deleted_date FROM snet_changes WHERE proxy_id="10.65.88.179"

18: "Deleted (2020-02-24)" att 89011703278164813019 310170816481301  358077090620580  10.65.79.117 Active
  Activation date ....: 2018-08-21
  Last used date .....: 2019-04-24
  Acct deleted date ..: 2020-02-24
  Account ............: 473133 (alder)
  Usage ..............: 0.000
  Activation threshold: yes
  Last used threshold : yes
  Deleted threshold ..: no
  Deactivate this line: yes
Found ipaddress "10.65.79.117" in proxy_id column in snet_changes.
  473133 alder 2020-02-24 45AB51C9E4A4 NULL 10.65.79.117   NULL
  SELECT id, account_id_new, partner, bureau_id, panel_type, vendor_id, vendor_id_2, proxy_id, imei, iccid, phone_number, deleted_date FROM snet_changes WHERE proxy_id="10.65.79.117"

19: "Deleted (2019-10-24)" att 89011703278160679927 310170816067992  3515800533835806  10.64.220.210 Active
  Activation date ....: 2018-09-07
  Last used date .....: 2019-09-21
  Acct deleted date ..: 2019-10-24
  Account ............: 507472 (cloud)
  Usage ..............: 0.000
  Activation threshold: yes
  Last used threshold : no
  Deleted threshold ..: yes
  Deactivate this line: yes
Found ipaddress "10.64.220.210" in proxy_id column in snet_changes.
  507472 cloud 2019-10-24 580053383580 NULL 10.64.220.210   NULL
  SELECT id, account_id_new, partner, bureau_id, panel_type, vendor_id, vendor_id_2, proxy_id, imei, iccid, phone_number, deleted_date FROM snet_changes WHERE proxy_id="10.64.220.210"

20: "Deleted (2019-10-25)" att 89011703278160682574 310170816068257  3515800533466406  10.64.220.154 Active
  Activation date ....: 2018-08-14
  Last used date .....: 2019-10-26
  Acct deleted date ..: 2019-10-25
  Account ............: 504971 (cloud)
  Usage ..............: 0.000
  Activation threshold: yes
  Last used threshold : no
  Deleted threshold ..: yes
  Deactivate this line: yes
Found ipaddress "10.64.220.154" in proxy_id column in snet_changes.
  504971 cloud 2019-10-25 580053346645 NULL 10.64.220.154   NULL
  SELECT id, account_id_new, partner, bureau_id, panel_type, vendor_id, vendor_id_2, proxy_id, imei, iccid, phone_number, deleted_date FROM snet_changes WHERE proxy_id="10.64.220.154"

21: "Deleted (2019-10-22)" att 89011703278160660760 310170816066076  351580052889827  10.64.214.195 Active
  Activation date ....: 2018-06-27
  Last used date .....: 2019-10-22
  Acct deleted date ..: 2019-10-22
  Account ............: 497725 (cloud)
  Usage ..............: 0.000
  Activation threshold: yes
  Last used threshold : no
  Deleted threshold ..: yes
  Deactivate this line: yes
Found ipaddress "10.64.214.195" in proxy_id column in snet_changes.
  497725 cloud 2019-10-22 580052889827 NULL 10.64.214.195   NULL
  SELECT id, account_id_new, partner, bureau_id, panel_type, vendor_id, vendor_id_2, proxy_id, imei, iccid, phone_number, deleted_date FROM snet_changes WHERE proxy_id="10.64.214.195"

22: "Deleted (2019-10-26)" att 89011703278153628428 310170815362842  357041067865645  10.64.166.1 Active
  Activation date ....: 2018-05-20
  Last used date .....: 2019-10-26
  Acct deleted date ..: 2019-10-26
  Account ............: 456465 (alder)
  Usage ..............: 0.000
  Activation threshold: yes
  Last used threshold : no
  Deleted threshold ..: yes
  Deactivate this line: yes
Found ipaddress "10.64.166.1" in proxy_id column in snet_changes.
  456465 alder 2019-10-26 44BA1A05362D NULL 10.64.166.1   NULL
  SELECT id, account_id_new, partner, bureau_id, panel_type, vendor_id, vendor_id_2, proxy_id, imei, iccid, phone_number, deleted_date FROM snet_changes WHERE proxy_id="10.64.166.1"

23: "Deleted (2019-10-25)" att 89011703278153618775 310170815361877  3570410679849210  10.64.155.3 Active
  Activation date ....: 2018-05-23
  Last used date .....: 2019-10-25
  Acct deleted date ..: 2019-10-25
  Account ............: 456849 (alder)
  Usage ..............: 0.000
  Activation threshold: yes
  Last used threshold : no
  Deleted threshold ..: yes
  Deactivate this line: yes
Found ipaddress "10.64.155.3" in proxy_id column in snet_changes.
  456849 alder 2019-10-25 44BA1A07081D NULL 10.64.155.3   NULL
  SELECT id, account_id_new, partner, bureau_id, panel_type, vendor_id, vendor_id_2, proxy_id, imei, iccid, phone_number, deleted_date FROM snet_changes WHERE proxy_id="10.64.155.3"

24: "Deleted (2019-10-23)" att 89011703278126670135 310170812667013  353173090064880  10.64.104.98 Active
  Activation date ....: 2019-04-20
  Last used date .....: 2019-10-23
  Acct deleted date ..: 2019-10-23
  Account ............: 490247 (alder)
  Usage ..............: 0.000
  Activation threshold: yes
  Last used threshold : no
  Deleted threshold ..: yes
  Deactivate this line: yes
Found ipaddress "10.64.104.98" in proxy_id column in snet_changes.
  490247 alder 2019-10-23 4135849A3907 NULL 10.64.104.98   NULL
  SELECT id, account_id_new, partner, bureau_id, panel_type, vendor_id, vendor_id_2, proxy_id, imei, iccid, phone_number, deleted_date FROM snet_changes WHERE proxy_id="10.64.104.98"

25: "Deleted (2019-10-28)" att 89011703278215314769 310170821531476  3515800537384406  10.65.181.166 Active
  Activation date ....: 2019-04-17
  Last used date .....: 2019-10-29
  Acct deleted date ..: 2019-10-28
  Account ............: 532790 (cloud)
  Usage ..............: 0.000
  Activation threshold: yes
  Last used threshold : no
  Deleted threshold ..: yes
  Deactivate this line: yes
Found ipaddress "10.65.181.166" in proxy_id column in snet_changes.
  532790 cloud 2019-10-28 580053738445 NULL 10.65.181.166   NULL
  SELECT id, account_id_new, partner, bureau_id, panel_type, vendor_id, vendor_id_2, proxy_id, imei, iccid, phone_number, deleted_date FROM snet_changes WHERE proxy_id="10.65.181.166"

26: "Deleted (2019-10-24)" att 89011703278308027716 310170830802771  353173090528009  10.65.246.85 Active
  Activation date ....: 2019-08-24
  Last used date .....: 2019-10-24
  Acct deleted date ..: 2019-10-24
  Account ............: 515227 (alder)
  Usage ..............: 0.000
  Activation threshold: no
  Last used threshold : no
  Deleted threshold ..: yes
  Deactivate this line: yes
Found ipaddress "10.65.246.85" in proxy_id column in snet_changes.
  515227 alder 2019-10-24 4135849AEB09 NULL 10.65.246.85   NULL
  SELECT id, account_id_new, partner, bureau_id, panel_type, vendor_id, vendor_id_2, proxy_id, imei, iccid, phone_number, deleted_date FROM snet_changes WHERE proxy_id="10.65.246.85"

27: "Deleted (2019-10-23)" att 89011703278307809296 310170830780929  353173090439173  10.66.130.109 Active
  Activation date ....: 2019-06-09
  Last used date .....: 2019-10-25
  Acct deleted date ..: 2019-10-23
  Account ............: 499669 (alder)
  Usage ..............: 0.000
  Activation threshold: no
  Last used threshold : no
  Deleted threshold ..: yes
  Deactivate this line: yes
Found ipaddress "10.66.130.109" in proxy_id column in snet_changes.
  499669 alder 2019-10-23 413584999005 NULL 10.66.130.109   NULL
  SELECT id, account_id_new, partner, bureau_id, panel_type, vendor_id, vendor_id_2, proxy_id, imei, iccid, phone_number, deleted_date FROM snet_changes WHERE proxy_id="10.66.130.109"

28: "Deleted (2019-10-26)" att 89011703278307824337 310170830782433  353173090525021  10.66.155.168 Active
  Activation date ....: 2019-08-16
  Last used date .....: 2019-10-27
  Acct deleted date ..: 2019-10-26
  Account ............: 512501 (alder)
  Usage ..............: 0.000
  Activation threshold: no
  Last used threshold : no
  Deleted threshold ..: yes
  Deactivate this line: yes
Found ipaddress "10.66.155.168" in proxy_id column in snet_changes.
  512501 alder 2019-10-26 41358497E636 NULL 10.66.155.168   NULL
  SELECT id, account_id_new, partner, bureau_id, panel_type, vendor_id, vendor_id_2, proxy_id, imei, iccid, phone_number, deleted_date FROM snet_changes WHERE proxy_id="10.66.155.168"

29: "Deleted (2019-10-25)" att 89011703278303891132 310170830389113  353173090382985  10.65.205.23 Active
  Activation date ....: 2019-08-15
  Last used date .....: 2019-11-14
  Acct deleted date ..: 2019-10-25
  Account ............: 512360 (alder)
  Usage ..............: 0.000
  Activation threshold: no
  Last used threshold : no
  Deleted threshold ..: yes
  Deactivate this line: yes
Found ipaddress "10.65.205.23" in proxy_id column in snet_changes.
  512360 alder 2019-10-25 41358498B489 NULL 10.65.205.23   NULL
  SELECT id, account_id_new, partner, bureau_id, panel_type, vendor_id, vendor_id_2, proxy_id, imei, iccid, phone_number, deleted_date FROM snet_changes WHERE proxy_id="10.65.205.23"

